%!PS-Adobe-2.0
%%Title: kk.ps (Portrait A 4)
%%Pages: (atend)
%%Creator: HIGZ Version 1.29/04
%%CreationDate: 2010/12/24   19.13
%%BoundingBox: 22 200 574 680
%%EndComments
%%BeginProlog
/s {stroke} def /l {lineto} def /m {moveto} def /t {translate} def
/sw {stringwidth} def /r {rotate} def /rl {roll}  def /R {repeat} def
/d {rlineto} def /rm {rmoveto} def /gr {grestore} def /f {eofill} def
/c {setrgbcolor} def /lw {setlinewidth} def /sd {setdash} def
/cl {closepath} def /sf {scalefont setfont} def /black {0 setgray} def
/box {m dup 0 exch d exch 0 d 0 exch neg d cl} def
/NC{systemdict begin initclip end}def/C{NC box clip newpath}def
/bl {box s} def /bf {box f} def /Y { 0 exch d} def /X { 0 d} def 
/mp {newpath /y exch def /x exch def} def
/side {[w .77 mul w .23 mul] .385 w mul sd w 0 l currentpoint t -144 r} def
/mr {mp x y w2 0 360 arc} def /m24 {mr s} def /m20 {mr f} def
/mb {mp x y w2 add m w2 neg 0 d 0 w neg d w 0 d 0 w d cl} def
/mt {mp x y w2 add m w2 neg w neg d w 0 d cl} def
/m21 {mb f} def /m25 {mb s} def /m22 {mt f} def /m26  {mt s} def
/m23 {mp x y w2 sub m w2 w d w neg 0 d cl f} def
/m27 {mp x y w2 add m w3 neg w2 neg d w3 w2 neg d w3  w2 d cl s} def
/m28 {mp x w2 sub y w2 sub w3 add m w3 0 d 0 w3 neg d w3 0 d 0 w3 d w3 0 d
 0 w3 d w3 neg 0 d 0 w3 d w3 neg 0 d
 0 w3 neg d w3 neg 0 d cl s } def
/m29 {mp gsave x w2 sub y w2 add w3 sub m currentpoint t
 4 {side} repeat cl fill gr} def
/m30 {mp gsave x w2 sub y w2 add w3 sub m currentpoint t
 5 {side} repeat s gr} def
/m31 {mp x y w2 sub m 0 w d x w2 sub y m w 0 d
 x w2 sub y w2 add m w w neg d x w2 sub y w2
 sub m w w d s} def
/m2 {mp x y w2 sub m 0 w d x w2 sub y m w 0 d s} def
/m5 {mp x w2 sub y w2 sub m w w d x w2 sub y w2 add m w w neg d s} def
/reencdict 24 dict def /ReEncode {reencdict begin /nco&na exch def
/nfnam exch def /basefontname exch def /basefontdict basefontname findfont def
/newfont basefontdict maxlength dict def basefontdict {exch dup /FID ne
{dup /Encoding eq {exch dup length array copy newfont 3 1 roll put} {exch
newfont 3 1 roll put} ifelse} {pop pop} ifelse } forall newfont
/FontName nfnam put nco&na aload pop nco&na length 2 idiv {newfont
/Encoding get 3 1 roll put} repeat nfnam newfont definefont pop end } def
/accvec [ 176 /agrave 181 /Agrave 190 /acircumflex 192 /Acircumflex
201 /adieresis 204 /Adieresis 209 /ccedilla 210 /Ccedilla 211 /eacute
212 /Eacute 213 /egrave 214 /Egrave 215 /ecircumflex 216 /Ecircumflex
217 /edieresis 218 /Edieresis 219 /icircumflex 220 /Icircumflex
221 /idieresis 222 /Idieresis 223 /ntilde 224 /Ntilde 226 /ocircumflex
228 /Ocircumflex 229 /odieresis 230 /Odieresis 231 /ucircumflex 236 /Ucircumflex
237 /udieresis 238 /Udieresis 239 /aring 242 /Aring 243 /ydieresis
244 /Ydieresis 246 /aacute 247 /Aacute 252 /ugrave 253 /Ugrave] def
/Times-Roman /Times-Roman accvec ReEncode
/Times-Italic /Times-Italic accvec ReEncode
/Times-Bold /Times-Bold accvec ReEncode
/Times-BoldItalic /Times-BoldItalic accvec ReEncode
/Helvetica /Helvetica accvec ReEncode
/Helvetica-Oblique /Helvetica-Oblique accvec ReEncode
/Helvetica-Bold /Helvetica-Bold accvec ReEncode
/Helvetica-BoldOblique /Helvetica-BoldOblique  accvec ReEncode
/Courier /Courier accvec ReEncode
/Courier-Oblique /Courier-Oblique accvec ReEncode
/Courier-Bold /Courier-Bold accvec ReEncode
/Courier-BoldOblique /Courier-BoldOblique accvec ReEncode
/oshow {gsave [] 0 sd true charpath stroke gr} def
/stwn { /fs exch def /fn exch def /text exch def fn findfont fs sf
 text sw pop xs add /xs exch def} def
/stwb { /fs exch def /fn exch def /nbas exch def /textf exch def
textf length /tlen exch def nbas tlen gt {/nbas tlen  def} if
fn findfont fs sf textf dup length nbas sub nbas getinterval sw
pop neg xs add /xs exch def} def
/accspe [ 65 /plusminus 66 /bar 67 /existential 68 /universal
69 /exclam 70 /numbersign 71 /greater 72 /question 73 /integral
74 /colon 75 /semicolon 76 /less 77 /bracketleft 78 /bracketright
79 /greaterequal 80 /braceleft 81 /braceright 82 /radical
83 /spade 84 /heart 85 /diamond 86 /club 87 /lessequal
88 /multiply 89 /percent 90 /infinity 48 /circlemultiply 49 /circleplus
50 /emptyset 51 /lozenge 52 /bullet 53 /arrowright 54 /arrowup
55 /arrowleft 56 /arrowdown 57 /arrowboth 48 /degree 44 /comma 43 /plus
 45 /angle 42 /angleleft 47 /divide 61 /notequal 40 /equivalence 41 /second
 97 /approxequal 98 /congruent 99 /perpendicular 100 /partialdiff 101 /florin
 102 /intersection 103 /union 104 /propersuperset 105 /reflexsuperset
 106 /notsubset 107 /propersubset 108 /reflexsubset 109 /element 110 /notelement
 111 /gradient 112 /logicaland 113 /logicalor 114 /arrowdblboth
 115 /arrowdblleft 116 /arrowdblup 117 /arrowdblright 118 /arrowdbldown
 119 /ampersand 120 /omega1 121 /similar 122 /aleph ] def
/Symbol /Special accspe ReEncode
/Zone {/iy exch def /ix exch def  ix 1 sub  2224 mul  1 iy sub  3144
 mul t} def
%%EndProlog
%%BeginSetup
newpath  gsave  20 28 t .25 .25 scale  gsave 
%%EndSetup
%%Page: number 1
 gsave 
 1 1 Zone
 gsave 0 0 t black [] 0 sd 1 lw 6 lw 1723 1612 389 794 bl 1723 1612 389 794 C NC
 1 lw 389 794 m 1612 Y s 6 lw 422 794 m -33 X s 406 875 m -17 X s 406 955 m -17
 X s 406 1036 m -17 X s 422 1116 m -33 X s 406 1197 m -17 X s 406 1277 m -17 X s
 406 1358 m -17 X s 422 1439 m -33 X s 406 1519 m -17 X s 406 1600 m -17 X s 406
 1680 m -17 X s 422 1761 m -33 X s 406 1842 m -17 X s 406 1922 m -17 X s 406
 2003 m -17 X s 422 2083 m -33 X s 406 2164 m -17 X s 406 2244 m -17 X s 406
 2325 m -17 X s 422 2406 m -33 X s
 /xs 0 def 
(0)
 /Helvetica-Bold     92 stwn 
 gsave  367 761
 t   0 r  xs neg 0 t 0 0 m
 /Helvetica-Bold findfont   92 sf 0    0 m 
(0)
 show 
 gr 
 /xs 0 def 
(0.2)
 /Helvetica-Bold     92 stwn 
 gsave  367 1083
 t   0 r  xs neg 0 t 0 0 m
 /Helvetica-Bold findfont   92 sf 0    0 m 
(0.2)
 show 
 gr 
 /xs 0 def 
(0.4)
 /Helvetica-Bold     92 stwn 
 gsave  367 1405
 t   0 r  xs neg 0 t 0 0 m
 /Helvetica-Bold findfont   92 sf 0    0 m 
(0.4)
 show 
 gr 
 /xs 0 def 
(0.6)
 /Helvetica-Bold     92 stwn 
 gsave  367 1728
 t   0 r  xs neg 0 t 0 0 m
 /Helvetica-Bold findfont   92 sf 0    0 m 
(0.6)
 show 
 gr 
 /xs 0 def 
(0.8)
 /Helvetica-Bold     92 stwn 
 gsave  367 2050
 t   0 r  xs neg 0 t 0 0 m
 /Helvetica-Bold findfont   92 sf 0    0 m 
(0.8)
 show 
 gr 
 /xs 0 def 
(1)
 /Helvetica-Bold     92 stwn 
 gsave  367 2372
 t   0 r  xs neg 0 t 0 0 m
 /Helvetica-Bold findfont   92 sf 0    0 m 
(1)
 show 
 gr  1 lw 389 794 m 1723 X s 6 lw 676 827 m -33 Y s 820 811 m -17 Y s 963 811 m
 -17 Y s 1107 811 m -17 Y s 1250 827 m -33 Y s 1394 811 m -17 Y s 1538 811 m -17
 Y s 1681 811 m -17 Y s 1825 827 m -33 Y s 676 827 m -33 Y s 533 811 m -17 Y s
 389 811 m -17 Y s 1825 827 m -33 Y s 1968 811 m -17 Y s 2112 811 m -17 Y s
 /xs 0 def 
(-2)
 /Helvetica-Bold     92 stwn 
 gsave  676 705
 t   0 r  xs 2 div neg 0 t 0 0 m
 /Helvetica-Bold findfont   92 sf 0    0 m 
(-2)
 show 
 gr 
 /xs 0 def 
(0)
 /Helvetica-Bold     92 stwn 
 gsave  1250 705
 t   0 r  xs 2 div neg 0 t 0 0 m
 /Helvetica-Bold findfont   92 sf 0    0 m 
(0)
 show 
 gr 
 /xs 0 def 
(2)
 /Helvetica-Bold     92 stwn 
 gsave  1825 705
 t   0 r  xs 2 div neg 0 t 0 0 m
 /Helvetica-Bold findfont   92 sf 0    0 m 
(2)
 show 
 gr  1723 1612 389 794 C NC 1 lw 2112 794 m 1612 Y s 6 lw 2079 794 m 33 X s 2095
 875 m 17 X s 2095 955 m 17 X s 2095 1036 m 17 X s 2079 1116 m 33 X s 2095 1197
 m 17 X s 2095 1277 m 17 X s 2095 1358 m 17 X s 2079 1439 m 33 X s 2095 1519 m
 17 X s 2095 1600 m 17 X s 2095 1680 m 17 X s 2079 1761 m 33 X s 2095 1842 m 17
 X s 2095 1922 m 17 X s 2095 2003 m 17 X s 2079 2083 m 33 X s 2095 2164 m 17 X s
 2095 2244 m 17 X s 2095 2325 m 17 X s 2079 2406 m 33 X s 1 lw 389 2406 m 1723 X
 s 6 lw 676 2372 m 34 Y s 820 2389 m 17 Y s 963 2389 m 17 Y s 1107 2389 m 17 Y s
 1250 2372 m 34 Y s 1394 2389 m 17 Y s 1538 2389 m 17 Y s 1681 2389 m 17 Y s
 1825 2372 m 34 Y s 676 2372 m 34 Y s 533 2389 m 17 Y s 389 2389 m 17 Y s 1825
 2372 m 34 Y s 1968 2389 m 17 Y s 2112 2389 m 17 Y s 1723 1612 389 794 C 1 lw
 655 1991 m 27 Y s 655 2052 m 26 Y s 638 1991 m 33 X s 638 2078 m 33 X s /w 34
 def /w2 {w 2 div} def /w3 {w 3 div} def 655 2035 m20 726 2182 m 14 Y s 726 2229
 m 14 Y s 710 2182 m 33 X s 710 2243 m 33 X s 726 2212 m20 798 2233 m 11 Y s 798
 2277 m 11 Y s 782 2233 m 33 X s 782 2288 m 33 X s 798 2261 m20 870 2232 m 28 Y
 s 870 2293 m 29 Y s 853 2232 m 34 X s 853 2322 m 34 X s 870 2277 m20 1164 1852
 m 40 Y s 1164 1925 m 40 Y s 1148 1852 m 33 X s 1148 1965 m 33 X s 1164 1909 m20
 1250 1898 m 31 Y s 1250 1962 m 30 Y s 1234 1898 m 33 X s 1234 1992 m 33 X s
 1250 1945 m20 1337 1958 m 43 Y s 1337 2034 m 43 Y s 1320 1958 m 33 X s 1320
 2077 m 33 X s 1337 2018 m20 1631 1903 m 19 Y s 1631 1955 m 19 Y s 1614 1903 m
 34 X s 1614 1974 m 34 X s 1631 1938 m20 1703 1835 m 6 Y s 1703 1874 m 6 Y s
 1686 1835 m 33 X s 1686 1880 m 33 X s 1703 1858 m20 1774 1832 m 9 Y s 1774 1874
 m 9 Y s 1758 1832 m 33 X s 1758 1883 m 33 X s 1774 1858 m20 1846 1877 m 12 Y s
 1846 1923 m 12 Y s 1830 1877 m 33 X s 1830 1935 m 33 X s 1846 1906 m20 1918
 1630 m 50 Y s 1918 1713 m 50 Y s 1901 1630 m 34 X s 1901 1763 m 34 X s 1918
 1696 m20 57 200 626 1935 bl 57 226 698 2099 bl 58 225 769 2148 bl 58 226 841
 2164 bl 57 306 1136 1756 bl 57 306 1222 1792 bl 57 307 1308 1864 bl 58 187 1602
 1845 bl 57 187 1674 1764 bl 57 187 1746 1764 bl 57 186 1818 1813 bl 58 157 1889
 1618 bl 0 0 -2147483648 -2147483648 bl 0 0 -2147483648 -2147483648 bl 0 0
 -2147483648 -2147483648 bl 0 0 -2147483648 -2147483648 bl 0 0 -2147483648
 -2147483648 bl 0 0 -2147483648 -2147483648 bl 0 0 -2147483648 -2147483648 bl 0
 0 -2147483648 -2147483648 bl 0 0 -2147483648 -2147483648 bl 0 0 -2147483648
 -2147483648 bl 0 0 -2147483648 -2147483648 bl 0 0 -2147483648 -2147483648 bl 0
 0 -2147483648 -2147483648 bl 0 0 -2147483648 -2147483648 bl 0 0 -2147483648
 -2147483648 bl 0 0 -2147483648 -2147483648 bl 0 0 -2147483648 -2147483648 bl 0
 0 -2147483648 -2147483648 bl [12 12] 0 sd 4 lw 0 0 1 c 389 2406 m 1723 X s
 [] 0 sd 8 lw 676 2113 m 29 -11 d 29 -11 d 28 -11 d 29 -12 d 29 -11 d 28 -12 d
 29 -11 d 29 -12 d 29 -12 d 28 -11 d 29 -12 d 29 -12 d 28 -12 d 29 -13 d 29 -12
 d 29 -12 d 28 -12 d 29 -13 d 29 -12 d 28 -12 d 29 -13 d 29 -13 d 29 -12 d 28
 -13 d 29 -13 d 29 -12 d 28 -13 d 29 -13 d 29 -13 d 29 -12 d 28 -13 d 29 -13 d
 29 -13 d 28 -13 d 29 -13 d 29 -13 d 29 -12 d 28 -13 d 29 -13 d 29 -13 d 28 -12
 d 29 -13 d 29 -13 d 29 -12 d 28 -13 d 29 -13 d 29 -12 d 28 -12 d 29 -13 d 29
 -12 d s 2223 2224 0 460 C 0.3 0.7 0 c 676 1736 m 29 -11 d s 705 1725 m 13 -5 d
 s 759 1704 m 3 -1 d s 762 1703 m 29 -12 d s 791 1691 m 9 -3 d s 842 1672 m 6 -3
 d s 848 1669 m 29 -11 d s 877 1658 m 6 -3 d s 925 1639 m 10 -4 d s 935 1635 m
 28 -11 d s 963 1624 m 3 -1 d s 1007 1606 m 14 -5 d s 1021 1601 m 28 -11 d s
 1090 1574 m 17 -7 d s 1107 1567 m 24 -10 d s 1173 1541 m 20 -8 d s 1193 1533 m
 21 -8 d s 1255 1508 m 24 -9 d s 1279 1499 m 18 -7 d s 1338 1476 m 27 -10 d s
 1365 1466 m 15 -6 d s 1421 1444 m 2 X s 1423 1444 m 28 -11 d s 1451 1433 m 12
 -4 d s 1505 1413 m 4 -1 d s 1509 1412 m 29 -11 d s 1538 1401 m 8 -3 d s 1588
 1382 m 7 -2 d s 1595 1380 m 29 -11 d s 1624 1369 m 6 -2 d s 1672 1352 m 9 -3 d
 s 1681 1349 m 29 -10 d s 1710 1339 m 4 -2 d s 1756 1323 m 11 -4 d s 1767 1319 m
 29 -10 d s 1796 1309 m 2 -1 d s 1840 1294 m 13 -4 d s 1853 1290 m 29 -10 d s
 1924 1267 m 16 -5 d s 1940 1262 m 27 -9 d s 2009 1240 m 17 -5 d s 2026 1235 m
 26 -8 d s 2094 1214 m 18 -5 d s 1723 1612 389 794 C 676 1713 m 29 -13 d 29 -13
 d 28 -12 d 29 -13 d 29 -13 d 28 -13 d 29 -13 d 29 -13 d 29 -13 d 28 -12 d 29
 -13 d 29 -13 d 28 -12 d 29 -13 d 29 -13 d 29 -12 d 28 -12 d 29 -13 d 29 -12 d
 28 -12 d 29 -12 d 29 -12 d 29 -12 d 28 -11 d 29 -12 d 29 -12 d 28 -11 d 29 -11
 d 29 -12 d 29 -11 d 28 -11 d 29 -10 d 29 -11 d 28 -11 d 29 -10 d 29 -10 d 29
 -11 d 28 -10 d 29 -10 d 29 -9 d 28 -10 d 29 -9 d 29 -10 d 29 -9 d 28 -9 d 29 -9
 d 29 -9 d 28 -8 d 29 -9 d 29 -8 d s 2223 2224 0 460 C 1723 1612 389 794 C 2223
 2224 0 460 C black
 /xs 0 def 
(y)
 /Helvetica    122 stwn 
 gsave  1250 572
 t   0 r  xs 2 div neg 0 t 0 0 m
 /Helvetica findfont  122 sf 0    0 m 
(y)
 show 
 gr  1723 1612 389 794 C 2223 2224 0 460 C 1723 1612 389 794 C 2223 2224 0 460 C
 /xs 0 def 
(R)
 /Helvetica    122 stwn 
(dAu)
 /Helvetica     85 stwn 
 gsave  175 1600
 t  90 r  xs 2 div neg 0 t 0 0 m
 /Helvetica findfont  122 sf 0    0 m 
(R)
 show 
 currentpoint pop 0 t 
 /Helvetica findfont   85 sf 0  -41 m 
(dAu)
 show 
 gr  1723 1612 389 794 C 2223 2224 0 460 C 1723 1612 389 794 C 2223 2224 0 460 C
 /xs 0 def 
(R)
 /Special    101 stwn 
(s)
 /Times-BoldItalic    101 stwn 
(=200 GeV)
 /Times-BoldItalic    101 stwn 
 gsave  1767 2211
 t   0 r  xs 2 div neg 0 t 0 0 m
 /Special findfont  101 sf 0    0 m 
(R)
 show 
 currentpoint pop 0 t 
 /Times-BoldItalic findfont  101 sf 0    0 m 
(s)
 show 
 currentpoint pop 0 t 
/Times-BoldItalic findfont  101 sf 
(s)
 dup length 1 sub 1 getinterval 
 stringwidth pop 2 div neg    0 rm 
 /Symbol findfont   71 sf 0   71 rm 
(-)
 stringwidth pop 2 div neg 0 rm 
(-)
 show
 /Times-BoldItalic findfont  101 sf 0    0 m 
(=200 GeV)
 show 
 gsave  gr  gr  1723 1612 389 794 C 2223 2224 0 460 C 1723 1612 389 794 C 2223
 2224 0 460 C
 /xs 0 def 
(R)
 /Special    101 stwn 
(s)
 /Times-BoldItalic    101 stwn 
(=5.5 TeV)
 /Times-BoldItalic    101 stwn 
 gsave  1250 1260
 t   0 r  xs 2 div neg 0 t 0 0 m
 /Special findfont  101 sf 0    0 m 
(R)
 show 
 currentpoint pop 0 t 
 /Times-BoldItalic findfont  101 sf 0    0 m 
(s)
 show 
 currentpoint pop 0 t 
/Times-BoldItalic findfont  101 sf 
(s)
 dup length 1 sub 1 getinterval 
 stringwidth pop 2 div neg    0 rm 
 /Symbol findfont   71 sf 0   71 rm 
(-)
 stringwidth pop 2 div neg 0 rm 
(-)
 show
 /Times-BoldItalic findfont  101 sf 0    0 m 
(=5.5 TeV)
 show 
 gsave  gr  gr  1723 1612 389 794 C gr 
showpage
 gr 
%%Trailer
%%Pages: 1
 gr  gr 
%%EOF
