%!PS-Adobe-2.0 EPSF-2.0
%%BoundingBox:  0 0 567 263
%%Title: : RAB vs pt, plot all
%%Creator: ROOT Version 5.34/21
%%CreationDate: Mon Oct  6 00:42:26 2014
%%EndComments
%%BeginProlog
80 dict begin
/s {stroke} def /l {lineto} def /m {moveto} def /t {translate} def
/r {rotate} def /rl {roll}  def /R {repeat} def
/d {rlineto} def /rm {rmoveto} def /gr {grestore} def /f {eofill} def
/c {setrgbcolor} def /black {0 setgray} def /sd {setdash} def
/cl {closepath} def /sf {scalefont setfont} def /lw {setlinewidth} def
/box {m dup 0 exch d exch 0 d 0 exch neg d cl} def
/NC{systemdict begin initclip end}def/C{NC box clip newpath}def
/bl {box s} def /bf {box f} def /Y { 0 exch d} def /X { 0 d} def 
/K {{pop pop 0 moveto} exch kshow} bind def
/ita {/ang 15 def gsave [1 0 ang dup sin exch cos div 1 0 0] concat} def 
/mp {newpath /y exch def /x exch def} def
/side {[w .77 mul w .23 mul] .385 w mul sd w 0 l currentpoint t -144 r} def
/mr {mp x y w2 0 360 arc} def /m24 {mr s} def /m20 {mr f} def
/mb {mp x y w2 add m w2 neg 0 d 0 w neg d w 0 d 0 w d cl} def
/mt {mp x y w2 add m w2 neg w neg d w 0 d cl} def
/m21 {mb f} def /m25 {mb s} def /m22 {mt f} def /m26{mt s} def
/m23 {mp x y w2 sub m w2 w d w neg 0 d cl f} def
/m27 {mp x y w2 add m w3 neg w2 neg d w3 w2 neg d w3 w2 d cl s} def
/m28 {mp x w2 sub y w2 sub w3 add m w3 0 d  0 w3 neg d w3 0 d 0 w3 d w3 0 d  0 w3 d w3 neg 0 d 0 w3 d w3 neg 0 d 0 w3 neg d w3 neg 0 d cl s } def
/m29 {mp gsave x w2 sub y w2 add w3 sub m currentpoint t 4 {side} repeat cl fill gr} def
/m30 {mp gsave x w2 sub y w2 add w3 sub m currentpoint t 4 {side} repeat cl s gr} def
/m31 {mp x y w2 sub m 0 w d x w2 sub y m w 0 d x w2 sub y w2 add m w w neg d x w2 sub y w2 sub m w w d s} def
/m32 {mp x y w2 sub m w2 w d w neg 0 d cl s} def
/m33 {mp x y w2 add m w3 neg w2 neg d w3 w2 neg d w3 w2 d cl f} def
/m34 {mp x w2 sub y w2 sub w3 add m w3 0 d  0 w3 neg d w3 0 d 0 w3 d w3 0 d  0 w3 d w3 neg 0 d 0 w3 d w3 neg 0 d 0 w3 neg d w3 neg 0 d cl f } def
/m2 {mp x y w2 sub m 0 w d x w2 sub y m w 0 d s} def
/m5 {mp x w2 sub y w2 sub m w w d x w2 sub y w2 add m w w neg d s} def
/reEncode {exch findfont dup length dict begin {1 index /FID eq  {pop pop} {def} ifelse } forall /Encoding exch def currentdict end dup /FontName get exch definefont pop } def [/Times-Bold /Times-Italic /Times-BoldItalic /Helvetica /Helvetica-Oblique
 /Helvetica-Bold /Helvetica-BoldOblique /Courier /Courier-Oblique /Courier-Bold /Courier-BoldOblique /Times-Roman /AvantGarde-Book /AvantGarde-BookOblique /AvantGarde-Demi /AvantGarde-DemiOblique /Bookman-Demi /Bookman-DemiItalic /Bookman-Light
 /Bookman-LightItalic /Helvetica-Narrow /Helvetica-Narrow-Bold /Helvetica-Narrow-BoldOblique /Helvetica-Narrow-Oblique /NewCenturySchlbk-Roman /NewCenturySchlbk-Bold /NewCenturySchlbk-BoldItalic /NewCenturySchlbk-Italic /Palatino-Bold
 /Palatino-BoldItalic /Palatino-Italic /Palatino-Roman ] {ISOLatin1Encoding reEncode } forall
%%EndProlog
%%BeginSetup
%%EndSetup
newpath  gsave  .25 .25 scale  gsave  0 0 t black[  ] 0 sd 6 lw 0.999 0.999 0.999 c 2268 1052 0 0 bf black 1 1 1 c 1191 1052 0 0 bf black 3 lw 1 1 1 c 1027 895 161 105 bf black 1027 895 161 105 bl 1 1 1 c 1027 895 161 105 bf black 1027 895 161 105 bl
 6 lw 161 105 m 1027 X s
 gsave  1191 1052 0 0 C 1172.96 26.0657 t 0 r /Helvetica findfont 48.8732 sf 0 0 m (\)) show NC gr 
 gsave  1191 1052 0 0 C 1150.15 26.0657 t 0 r /Helvetica-Oblique findfont 48.8732 sf 0 0 m (c) show NC gr 
 gsave  1191 1052 0 0 C 1019.82 26.0657 t 0 r /Helvetica findfont 48.8732 sf 0 0 m ( \(GeV/) show NC gr 
 gsave  1191 1052 0 0 C 1003.53 -3.97257e-14 t 0 r /Helvetica findfont 32.5821 sf 0 0 m (T) show NC gr 
 gsave  1191 1052 0 0 C 980.722 26.0657 t 0 r /Helvetica-Oblique findfont 48.8732 sf 0 0 m (p) show NC gr  161 132 m -27 Y s 181 119 m -14 Y s 202 119 m -14 Y s 222 119 m -14 Y s 243 119 m -14 Y s 264 132 m -27 Y s 284 119 m -14 Y s 305 119 m -14 Y s
 325 119 m -14 Y s 346 119 m -14 Y s 366 132 m -27 Y s 387 119 m -14 Y s 408 119 m -14 Y s 428 119 m -14 Y s 449 119 m -14 Y s 469 132 m -27 Y s 490 119 m -14 Y s 510 119 m -14 Y s 531 119 m -14 Y s 552 119 m -14 Y s 572 132 m -27 Y s 593 119 m -14 Y
 s 613 119 m -14 Y s 634 119 m -14 Y s 654 119 m -14 Y s 675 132 m -27 Y s 696 119 m -14 Y s 716 119 m -14 Y s 737 119 m -14 Y s 757 119 m -14 Y s 778 132 m -27 Y s 798 119 m -14 Y s 819 119 m -14 Y s 840 119 m -14 Y s 860 119 m -14 Y s 881 132 m -27
 Y s 901 119 m -14 Y s 922 119 m -14 Y s 942 119 m -14 Y s 963 119 m -14 Y s 984 132 m -27 Y s 1004 119 m -14 Y s 1025 119 m -14 Y s 1045 119 m -14 Y s 1066 119 m -14 Y s 1086 132 m -27 Y s 1086 132 m -27 Y s 1107 119 m -14 Y s 1127 119 m -14 Y s
 1148 119 m -14 Y s 1169 119 m -14 Y s
 gsave  1191 1052 0 0 C 146.62 58.6478 t 0 r /Helvetica findfont 45.615 sf 0 0 m (0) show NC gr 
 gsave  1191 1052 0 0 C 247.624 58.6478 t 0 r /Helvetica findfont 45.615 sf 0 0 m (1) show NC gr 
 gsave  1191 1052 0 0 C 351.887 58.6478 t 0 r /Helvetica findfont 45.615 sf 0 0 m (2) show NC gr 
 gsave  1191 1052 0 0 C 456.15 58.6478 t 0 r /Helvetica findfont 45.615 sf 0 0 m (3) show NC gr 
 gsave  1191 1052 0 0 C 557.154 58.6478 t 0 r /Helvetica findfont 45.615 sf 0 0 m (4) show NC gr 
 gsave  1191 1052 0 0 C 661.417 58.6478 t 0 r /Helvetica findfont 45.615 sf 0 0 m (5) show NC gr 
 gsave  1191 1052 0 0 C 762.422 58.6478 t 0 r /Helvetica findfont 45.615 sf 0 0 m (6) show NC gr 
 gsave  1191 1052 0 0 C 866.685 58.6478 t 0 r /Helvetica findfont 45.615 sf 0 0 m (7) show NC gr 
 gsave  1191 1052 0 0 C 967.689 58.6478 t 0 r /Helvetica findfont 45.615 sf 0 0 m (8) show NC gr 
 gsave  1191 1052 0 0 C 1071.95 58.6478 t 0 r /Helvetica findfont 45.615 sf 0 0 m (9) show NC gr  161 1000 m 1027 X s 161 973 m 27 Y s 181 986 m 14 Y s 202 986 m 14 Y s 222 986 m 14 Y s 243 986 m 14 Y s 264 973 m 27 Y s 284 986 m 14 Y s 305 986 m 14
 Y s 325 986 m 14 Y s 346 986 m 14 Y s 366 973 m 27 Y s 387 986 m 14 Y s 408 986 m 14 Y s 428 986 m 14 Y s 449 986 m 14 Y s 469 973 m 27 Y s 490 986 m 14 Y s 510 986 m 14 Y s 531 986 m 14 Y s 552 986 m 14 Y s 572 973 m 27 Y s 593 986 m 14 Y s 613 986
 m 14 Y s 634 986 m 14 Y s 654 986 m 14 Y s 675 973 m 27 Y s 696 986 m 14 Y s 716 986 m 14 Y s 737 986 m 14 Y s 757 986 m 14 Y s 778 973 m 27 Y s 798 986 m 14 Y s 819 986 m 14 Y s 840 986 m 14 Y s 860 986 m 14 Y s 881 973 m 27 Y s 901 986 m 14 Y s
 922 986 m 14 Y s 942 986 m 14 Y s 963 986 m 14 Y s 984 973 m 27 Y s 1004 986 m 14 Y s 1025 986 m 14 Y s 1045 986 m 14 Y s 1066 986 m 14 Y s 1086 973 m 27 Y s 1086 973 m 27 Y s 1107 986 m 14 Y s 1127 986 m 14 Y s 1148 986 m 14 Y s 1169 986 m 14 Y s
 161 105 m 895 Y s
 gsave  1191 1052 0 0 C 74.9389 462.666 t 90 r /Helvetica findfont 48.8732 sf 0 0 m (Nuclear modification factor) show NC gr  191 105 m -30 X s 176 141 m -15 X s 176 177 m -15 X s 176 213 m -15 X s 176 248 m -15 X s 191 284 m -30 X s 176 320 m -15 X
 s 176 356 m -15 X s 176 391 m -15 X s 176 427 m -15 X s 191 463 m -30 X s 176 499 m -15 X s 176 535 m -15 X s 176 570 m -15 X s 176 606 m -15 X s 191 642 m -30 X s 176 678 m -15 X s 176 714 m -15 X s 176 749 m -15 X s 176 785 m -15 X s 191 821 m -30
 X s 176 857 m -15 X s 176 892 m -15 X s 176 928 m -15 X s 176 964 m -15 X s 191 1000 m -30 X s
 gsave  1191 1052 0 0 C 123.812 91.23 t 0 r /Helvetica findfont 45.615 sf 0 0 m (0) show NC gr 
 gsave  1191 1052 0 0 C 87.9718 270.432 t 0 r /Helvetica findfont 45.615 sf 0 0 m (0.5) show NC gr 
 gsave  1191 1052 0 0 C 123.812 446.375 t 0 r /Helvetica findfont 45.615 sf 0 0 m (1) show NC gr 
 gsave  1191 1052 0 0 C 87.9718 628.835 t 0 r /Helvetica findfont 45.615 sf 0 0 m (1.5) show NC gr 
 gsave  1191 1052 0 0 C 123.812 801.521 t 0 r /Helvetica findfont 45.615 sf 0 0 m (2) show NC gr 
 gsave  1191 1052 0 0 C 87.9718 983.98 t 0 r /Helvetica findfont 45.615 sf 0 0 m (2.5) show NC gr  1188 105 m 895 Y s 1158 105 m 30 X s 1173 141 m 15 X s 1173 177 m 15 X s 1173 213 m 15 X s 1173 248 m 15 X s 1158 284 m 30 X s 1173 320 m 15 X s 1173
 356 m 15 X s 1173 391 m 15 X s 1173 427 m 15 X s 1158 463 m 30 X s 1173 499 m 15 X s 1173 535 m 15 X s 1173 570 m 15 X s 1173 606 m 15 X s 1158 642 m 30 X s 1173 678 m 15 X s 1173 714 m 15 X s 1173 749 m 15 X s 1173 785 m 15 X s 1158 821 m 30 X s
 1173 857 m 15 X s 1173 892 m 15 X s 1173 928 m 15 X s 1173 964 m 15 X s 1158 1000 m 30 X s[ 12 12] 0 sd 161 463 m 1028 X s 0.6 0.6 0.6 c[  ] 0 sd 3 lw 1 lw << /PatternType 1 /PaintType 2 /TilingType 1 /BBox [ 0 0 100 100 ] /XStep 98 /YStep 4
 /PaintProc { begin gsave [1] 0 sd 2 4 m 99 4 l s 1 3 m 98 3 l s 2 2 m 99 2 l s 1 1 m 98 1 l s gr end } >> [ 4.0 0 0 4.0 0 0 ] makepattern /P01 exch def /cs {[/Pattern /DeviceRGB] setcolorspace} def /FA {f [/DeviceRGB] setcolorspace} def cs 0.6 0.6
 0.6 P01 setcolor 1091 424 m 42 X 78 Y -42 X FA 6 lw 0.6 0.6 0.6 c black 20 266 238 514 bl 21 192 248 465 bl 20 155 264 467 bl 21 176 284 532 bl 20 146 305 525 bl 21 136 325 535 bl 20 134 346 543 bl 21 130 366 545 bl 21 126 387 545 bl 20 129 408 551
 bl 21 165 428 532 bl 20 162 449 553 bl 21 161 469 478 bl 20 151 490 531 bl 21 153 510 546 bl 21 133 531 493 bl 20 146 552 530 bl 20 136 588 503 bl 21 134 639 501 bl 21 117 716 432 bl 21 98 819 390 bl 20 120 922 403 bl 20 83 1025 297 bl 248 660 m 88
 Y s 242 748 m 13 X s 248 634 m -89 Y s 242 545 m 13 X s 258 574 m 65 Y s 252 639 m 13 X s 258 548 m -66 Y s 252 482 m 13 X s 274 558 m 41 Y s 267 599 m 13 X s 274 532 m -42 Y s 267 490 m 13 X s 294 633 m 73 Y s 288 706 m 13 X s 294 607 m -73 Y s 288
 534 m 13 X s 315 611 m 81 Y s 308 692 m 14 X s 315 585 m -81 Y s 308 504 m 14 X s 480 572 m 1 Y s 473 573 m 13 X s 480 546 m -2 Y s 473 544 m 13 X s 500 620 m 3 Y s 494 623 m 13 X s 500 594 m -4 Y s 494 590 m 13 X s 521 636 m 7 Y s 514 643 m 13 X s
 521 610 m -7 Y s 514 603 m 13 X s 541 572 m 9 Y s 535 581 m 13 X s 541 546 m -9 Y s 535 537 m 13 X s 562 616 m 13 Y s 555 629 m 13 X s 562 590 m -14 Y s 555 576 m 13 X s 598 584 m 8 Y s 591 592 m 13 X s 598 558 m -8 Y s 591 550 m 13 X s 649 581 m 27
 Y s 643 608 m 13 X s 649 555 m -27 Y s 643 528 m 13 X s 726 504 m 32 Y s 720 536 m 13 X s 726 478 m -33 Y s 720 445 m 13 X s 829 452 m 62 Y s 823 514 m 13 X s 829 426 m -61 Y s 823 365 m 13 X s 932 476 m 106 Y s 926 582 m 13 X s 932 450 m -106 Y s
 926 344 m 13 X s 1035 352 m 150 Y s 1028 502 m 13 X s 1035 326 m -151 Y s 1028 175 m 13 X s 3 lw /w 26 def /w2 {w 2 div} def /w3 {w 3 div} def 248 647 258 561 274 545 294 620 315 598 336 603 356 610 377 610 397 608 418 615 438 614 459 634 480 559
 500 607 521 623 541 559 562 603 598 571 649 568 726 491 829 439 932 463 1035 339 23 { m20} R 6 lw 3 lw 248 647 258 561 274 545 294 620 315 598 336 603 356 610 377 610 397 608 418 615 438 614 459 634 480 559 500 607 521 623 541 559 562 603 598 571
 649 568 726 491 829 439 932 463 1035 339 23 { m24} R 6 lw 0.8 0 0 c black 0.8 0 0 c 21 200 266 544 bl black 0.8 0 0 c 20 244 292 636 bl black 0.8 0 0 c 20 242 318 626 bl black 0.8 0 0 c 21 275 343 656 bl black 0.8 0 0 c 21 265 369 634 bl black 0.8 0
 0 c 20 285 395 616 bl black 0.8 0 0 c 21 283 420 631 bl black 0.8 0 0 c 21 292 446 581 bl black 0.8 0 0 c 20 242 485 500 bl black 0.8 0 0 c 21 254 536 486 bl black 0.8 0 0 c 21 274 613 510 bl black 0.8 0 0 c 20 176 768 372 bl black 276 657 m 8 Y s
 270 665 m 13 X s 276 631 m -8 Y s 270 623 m 13 X s 302 771 m 13 Y s 296 784 m 13 X s 302 745 m -13 Y s 296 732 m 13 X s 328 760 m 16 Y s 321 776 m 13 X s 328 734 m -17 Y s 321 717 m 13 X s 354 806 m 16 Y s 347 822 m 13 X s 354 780 m -16 Y s 347 764
 m 13 X s 379 780 m 22 Y s 373 802 m 13 X s 379 753 m -22 Y s 373 731 m 13 X s 405 772 m 32 Y s 398 804 m 14 X s 405 746 m -33 Y s 398 713 m 14 X s 431 785 m 48 Y s 424 833 m 13 X s 431 759 m -48 Y s 424 711 m 13 X s 456 740 m 56 Y s 450 796 m 13 X s
 456 714 m -56 Y s 450 658 m 13 X s 495 634 m 42 Y s 488 676 m 13 X s 495 608 m -42 Y s 488 566 m 13 X s 546 626 m 80 Y s 540 706 m 13 X s 546 600 m -80 Y s 540 520 m 13 X s 624 660 m 105 Y s 617 765 m 13 X s 624 634 m -105 Y s 617 529 m 13 X s 778
 473 m 104 Y s 771 577 m 13 X s 778 447 m -104 Y s 771 343 m 13 X s 0.8 0 0 c 3 lw 276 644 302 758 328 747 354 793 379 766 405 759 431 772 456 727 495 621 546 613 624 647 778 460 12 { m21} R 6 lw black 3 lw 276 644 302 758 328 747 354 793 379 766 405
 759 431 772 456 727 495 621 546 613 624 647 778 460 12 { m25} R 6 lw 0 0 0.8 c black 0 0 0.8 c 21 73 266 262 bl black 0 0 0.8 c 20 91 292 300 bl black 0 0 0.8 c 20 94 318 306 bl black 0 0 0.8 c 21 121 343 344 bl black 0 0 0.8 c 21 124 369 350 bl
 black 0 0 0.8 c 20 133 395 339 bl black 0 0 0.8 c 21 141 420 364 bl black 0 0 0.8 c 21 135 446 317 bl black 0 0 0.8 c 20 131 485 318 bl black 0 0 0.8 c 21 163 536 352 bl black 0 0 0.8 c 21 166 613 349 bl black 0 0 0.8 c 20 93 768 239 bl black 328
 366 m s 321 366 m 13 X s 328 340 m s 321 340 m 13 X s 354 418 m s 347 418 m 13 X s 354 392 m -1 Y s 347 391 m 13 X s 379 425 m 5 Y s 373 430 m 13 X s 379 399 m -5 Y s 373 394 m 13 X s 405 419 m 9 Y s 398 428 m 14 X s 405 393 m -10 Y s 398 383 m 14 X
 s 431 448 m 18 Y s 424 466 m 13 X s 431 422 m -19 Y s 424 403 m 13 X s 456 398 m 20 Y s 450 418 m 13 X s 456 372 m -20 Y s 450 352 m 13 X s 495 396 m 18 Y s 488 414 m 13 X s 495 370 m -18 Y s 488 352 m 13 X s 546 446 m 47 Y s 540 493 m 13 X s 546
 420 m -47 Y s 540 373 m 13 X s 624 445 m 60 Y s 617 505 m 13 X s 624 419 m -60 Y s 617 359 m 13 X s 778 299 m 51 Y s 771 350 m 13 X s 778 273 m -52 Y s 771 221 m 13 X s 0 0 0.8 c 3 lw 276 298 302 345 328 353 354 405 379 412 405 406 431 435 456 385
 495 383 546 433 624 432 778 286 12 { m22} R 6 lw black 3 lw 276 298 302 345 328 353 354 405 379 412 405 406 431 435 456 385 495 383 546 433 624 432 778 286 12 { m26} R 6 lw
 gsave  1191 1052 0 0 C 896.009 912.3 t 0 r /Helvetica findfont 48.8732 sf 0 0 m ( = 200 GeV) show NC gr 
 gsave  1191 1052 0 0 C 856.91 896.009 t 0 r /Helvetica findfont 32.5821 sf 0 0 m (NN) show NC gr 
 gsave  1191 1052 0 0 C 834.103 912.3 t 0 r /Helvetica findfont 48.8732 sf 0 0 m (s) show NC gr  815 935 m 6 -39 d s 0 lw 821 896 m 7 55 d s 828 951 m 68 X s
 gsave  1191 1052 0 0 C 491.99 912.3 t 0 r /Helvetica findfont 48.8732 sf 0 0 m (PHENIX, d\255Au, ) show NC gr 
 gsave  1191 1052 0 0 C 491.99 843.877 t 0 r /Helvetica findfont 48.8732 sf 0 0 m (0\25520% centrality) show NC gr  6 lw 1 1 1 c 1077 1052 1191 0 bf black 3 lw 1 1 1 c 1050 895 1191 105 bf black 1050 895 1191 105 bl 1 1 1 c 1050 895 1191 105 bf black
 1050 895 1191 105 bl 6 lw 1191 105 m 1050 X s
 gsave  1077 1052 1191 0 C 2225.36 26.0657 t 0 r /Helvetica findfont 48.8732 sf 0 0 m (\)) show NC gr 
 gsave  1077 1052 1191 0 C 2202.55 26.0657 t 0 r /Helvetica-Oblique findfont 48.8732 sf 0 0 m (c) show NC gr 
 gsave  1077 1052 1191 0 C 2072.22 26.0657 t 0 r /Helvetica findfont 48.8732 sf 0 0 m ( \(GeV/) show NC gr 
 gsave  1077 1052 1191 0 C 2055.93 -3.97257e-14 t 0 r /Helvetica findfont 32.5821 sf 0 0 m (T) show NC gr 
 gsave  1077 1052 1191 0 C 2033.13 26.0657 t 0 r /Helvetica-Oblique findfont 48.8732 sf 0 0 m (p) show NC gr  1295 136 m -31 Y s 1316 121 m -16 Y s 1337 121 m -16 Y s 1358 121 m -16 Y s 1379 121 m -16 Y s 1400 136 m -31 Y s 1421 121 m -16 Y s 1442
 121 m -16 Y s 1463 121 m -16 Y s 1484 121 m -16 Y s 1505 136 m -31 Y s 1526 121 m -16 Y s 1547 121 m -16 Y s 1568 121 m -16 Y s 1589 121 m -16 Y s 1610 136 m -31 Y s 1631 121 m -16 Y s 1652 121 m -16 Y s 1673 121 m -16 Y s 1694 121 m -16 Y s 1715
 136 m -31 Y s 1736 121 m -16 Y s 1757 121 m -16 Y s 1778 121 m -16 Y s 1799 121 m -16 Y s 1820 136 m -31 Y s 1841 121 m -16 Y s 1862 121 m -16 Y s 1883 121 m -16 Y s 1904 121 m -16 Y s 1925 136 m -31 Y s 1946 121 m -16 Y s 1967 121 m -16 Y s 1988
 121 m -16 Y s 2010 121 m -16 Y s 2031 136 m -31 Y s 2052 121 m -16 Y s 2073 121 m -16 Y s 2094 121 m -16 Y s 2115 121 m -16 Y s 2136 136 m -31 Y s 2157 121 m -16 Y s 2178 121 m -16 Y s 2199 121 m -16 Y s 2220 121 m -16 Y s 2241 136 m -31 Y s 1295
 136 m -31 Y s 1274 121 m -16 Y s 1253 121 m -16 Y s 1232 121 m -16 Y s 1211 121 m -16 Y s
 gsave  1077 1052 1191 0 C 1280.48 58.6478 t 0 r /Helvetica findfont 45.615 sf 0 0 m (1) show NC gr 
 gsave  1077 1052 1191 0 C 1384.74 58.6478 t 0 r /Helvetica findfont 45.615 sf 0 0 m (2) show NC gr 
 gsave  1077 1052 1191 0 C 1489 58.6478 t 0 r /Helvetica findfont 45.615 sf 0 0 m (3) show NC gr 
 gsave  1077 1052 1191 0 C 1596.52 58.6478 t 0 r /Helvetica findfont 45.615 sf 0 0 m (4) show NC gr 
 gsave  1077 1052 1191 0 C 1700.79 58.6478 t 0 r /Helvetica findfont 45.615 sf 0 0 m (5) show NC gr 
 gsave  1077 1052 1191 0 C 1805.05 58.6478 t 0 r /Helvetica findfont 45.615 sf 0 0 m (6) show NC gr 
 gsave  1077 1052 1191 0 C 1909.31 58.6478 t 0 r /Helvetica findfont 45.615 sf 0 0 m (7) show NC gr 
 gsave  1077 1052 1191 0 C 2016.83 58.6478 t 0 r /Helvetica findfont 45.615 sf 0 0 m (8) show NC gr 
 gsave  1077 1052 1191 0 C 2121.1 58.6478 t 0 r /Helvetica findfont 45.615 sf 0 0 m (9) show NC gr 
 gsave  1077 1052 1191 0 C 2215.59 58.6478 t 0 r /Helvetica findfont 45.615 sf 0 0 m (10) show NC gr  1191 1000 m 1050 X s 1295 969 m 31 Y s 1316 984 m 16 Y s 1337 984 m 16 Y s 1358 984 m 16 Y s 1379 984 m 16 Y s 1400 969 m 31 Y s 1421 984 m 16 Y s
 1442 984 m 16 Y s 1463 984 m 16 Y s 1484 984 m 16 Y s 1505 969 m 31 Y s 1526 984 m 16 Y s 1547 984 m 16 Y s 1568 984 m 16 Y s 1589 984 m 16 Y s 1610 969 m 31 Y s 1631 984 m 16 Y s 1652 984 m 16 Y s 1673 984 m 16 Y s 1694 984 m 16 Y s 1715 969 m 31 Y
 s 1736 984 m 16 Y s 1757 984 m 16 Y s 1778 984 m 16 Y s 1799 984 m 16 Y s 1820 969 m 31 Y s 1841 984 m 16 Y s 1862 984 m 16 Y s 1883 984 m 16 Y s 1904 984 m 16 Y s 1925 969 m 31 Y s 1946 984 m 16 Y s 1967 984 m 16 Y s 1988 984 m 16 Y s 2010 984 m 16
 Y s 2031 969 m 31 Y s 2052 984 m 16 Y s 2073 984 m 16 Y s 2094 984 m 16 Y s 2115 984 m 16 Y s 2136 969 m 31 Y s 2157 984 m 16 Y s 2178 984 m 16 Y s 2199 984 m 16 Y s 2220 984 m 16 Y s 2241 969 m 31 Y s 1295 969 m 31 Y s 1274 984 m 16 Y s 1253 984 m
 16 Y s 1232 984 m 16 Y s 1211 984 m 16 Y s 1191 105 m 895 Y s
 gsave  1077 1052 1191 0 C 1114.31 462.666 t 90 r /Helvetica findfont 48.8732 sf 0 0 m (Nuclear modification factor) show NC gr  1218 105 m -27 X s 1204 141 m -13 X s 1204 177 m -13 X s 1204 213 m -13 X s 1204 248 m -13 X s 1218 284 m -27 X s 1204
 320 m -13 X s 1204 356 m -13 X s 1204 391 m -13 X s 1204 427 m -13 X s 1218 463 m -27 X s 1204 499 m -13 X s 1204 535 m -13 X s 1204 570 m -13 X s 1204 606 m -13 X s 1218 642 m -27 X s 1204 678 m -13 X s 1204 714 m -13 X s 1204 749 m -13 X s 1204
 785 m -13 X s 1218 821 m -27 X s 1204 857 m -13 X s 1204 892 m -13 X s 1204 928 m -13 X s 1204 964 m -13 X s 1218 1000 m -27 X s
 gsave  1077 1052 1191 0 C 1156.67 91.23 t 0 r /Helvetica findfont 45.615 sf 0 0 m (0) show NC gr 
 gsave  1077 1052 1191 0 C 1120.83 270.432 t 0 r /Helvetica findfont 45.615 sf 0 0 m (0.5) show NC gr 
 gsave  1077 1052 1191 0 C 1156.67 446.375 t 0 r /Helvetica findfont 45.615 sf 0 0 m (1) show NC gr 
 gsave  1077 1052 1191 0 C 1120.83 628.835 t 0 r /Helvetica findfont 45.615 sf 0 0 m (1.5) show NC gr 
 gsave  1077 1052 1191 0 C 1156.67 801.521 t 0 r /Helvetica findfont 45.615 sf 0 0 m (2) show NC gr 
 gsave  1077 1052 1191 0 C 1120.83 983.98 t 0 r /Helvetica findfont 45.615 sf 0 0 m (2.5) show NC gr  2241 105 m 895 Y s 2213 105 m 28 X s 2227 141 m 14 X s 2227 177 m 14 X s 2227 213 m 14 X s 2227 248 m 14 X s 2213 284 m 28 X s 2227 320 m 14 X s
 2227 356 m 14 X s 2227 391 m 14 X s 2227 427 m 14 X s 2213 463 m 28 X s 2227 499 m 14 X s 2227 535 m 14 X s 2227 570 m 14 X s 2227 606 m 14 X s 2213 642 m 28 X s 2227 678 m 14 X s 2227 714 m 14 X s 2227 749 m 14 X s 2227 785 m 14 X s 2213 821 m 28 X
 s 2227 857 m 14 X s 2227 892 m 14 X s 2227 928 m 14 X s 2227 964 m 14 X s 2213 1000 m 28 X s[ 12 12] 0 sd 1191 463 m 1050 X s 0.6 0.6 0.6 c[  ] 0 sd 3 lw cs 0.6 0.6 0.6 P01 setcolor 2141 419 m 42 X 88 Y -42 X FA 6 lw 0.6 0.6 0.6 c black 21 249 1268
 424 bl 21 149 1279 239 bl 21 134 1295 349 bl 21 139 1316 384 bl 21 115 1337 395 bl 21 111 1358 429 bl 21 106 1379 428 bl 21 108 1400 456 bl 21 99 1421 431 bl 21 103 1442 447 bl 21 141 1463 459 bl 21 130 1484 458 bl 21 142 1505 488 bl 21 122 1526 436
 bl 21 113 1547 418 bl 21 116 1568 433 bl 21 121 1589 446 bl 21 137 1626 506 bl 21 122 1678 459 bl 21 121 1757 438 bl 21 103 1862 398 bl 21 244 1967 728 bl 21 117 2073 381 bl 1279 562 m 82 Y s 1272 644 m 13 X s 1279 536 m -83 Y s 1272 453 m 13 X s
 1289 327 m 41 Y s 1283 368 m 13 X s 1289 300 m -41 Y s 1283 259 m 13 X s 1305 429 m 35 Y s 1299 464 m 13 X s 1305 403 m -36 Y s 1299 367 m 13 X s 1326 466 m 46 Y s 1320 512 m 13 X s 1326 440 m -45 Y s 1320 395 m 13 X s 1347 465 m 53 Y s 1341 518 m
 13 X s 1347 439 m -53 Y s 1341 386 m 13 X s 1452 512 m 3 Y s 1446 515 m 13 X s 1452 485 m -3 Y s 1446 482 m 13 X s 1473 543 m 6 Y s 1467 549 m 13 X s 1473 517 m -7 Y s 1467 510 m 13 X s 1494 536 m 10 Y s 1488 546 m 13 X s 1494 510 m -11 Y s 1488 499
 m 13 X s 1515 572 m 15 Y s 1509 587 m 13 X s 1515 546 m -15 Y s 1509 531 m 13 X s 1536 510 m 19 Y s 1530 529 m 13 X s 1536 484 m -18 Y s 1530 466 m 13 X s 1557 488 m 23 Y s 1551 511 m 13 X s 1557 462 m -23 Y s 1551 439 m 13 X s 1578 504 m 32 Y s
 1572 536 m 13 X s 1578 478 m -32 Y s 1572 446 m 13 X s 1600 520 m 38 Y s 1593 558 m 13 X s 1600 494 m -39 Y s 1593 455 m 13 X s 1636 588 m 30 Y s 1630 618 m 13 X s 1636 562 m -30 Y s 1630 532 m 13 X s 1689 533 m 69 Y s 1682 602 m 13 X s 1689 507 m
 -69 Y s 1682 438 m 13 X s 1768 512 m 83 Y s 1761 595 m 13 X s 1768 485 m -83 Y s 1761 402 m 13 X s 1873 462 m 132 Y s 1866 594 m 13 X s 1873 436 m -132 Y s 1866 304 m 13 X s 1978 863 m 137 Y s 1971 1000 m 13 X s 1978 837 m -332 Y s 1971 505 m 13 X s
 2083 452 m 414 Y s 2077 866 m 13 X s 2083 426 m -321 Y s 2077 105 m 13 X s 3 lw 1279 549 1289 313 1305 416 1326 453 1347 452 1368 484 1389 481 1410 510 1431 480 1452 498 1473 530 1494 523 1515 559 1536 497 1557 475 1578 491 1600 507 1636 575 1689
 520 1768 498 1873 449 1978 850 2083 439 23 { m20} R 6 lw 3 lw 1279 549 1289 313 1305 416 1326 453 1347 452 1368 484 1389 481 1410 510 1431 480 1452 498 1473 530 1494 523 1515 559 1536 497 1557 475 1578 491 1600 507 1636 575 1689 520 1768 498 1873
 449 1978 850 2083 439 23 { m24} R 6 lw 0.8 0 0 c black 0.8 0 0 c 21 165 1297 386 bl black 0.8 0 0 c 21 208 1324 453 bl black 0.8 0 0 c 21 183 1350 410 bl black 0.8 0 0 c 21 177 1376 374 bl black 0.8 0 0 c 21 166 1402 361 bl black 0.8 0 0 c 21 228
 1429 434 bl black 0.8 0 0 c 21 262 1455 503 bl black 0.8 0 0 c 21 234 1481 412 bl black 0.8 0 0 c 21 195 1521 360 bl black 0.8 0 0 c 21 285 1573 471 bl black 0.8 0 0 c 21 246 1652 410 bl black 0.8 0 0 c 21 174 1810 331 bl black 1308 482 m 3 Y s 1301
 485 m 13 X s 1308 456 m -3 Y s 1301 453 m 13 X s 1334 570 m 7 Y s 1328 577 m 13 X s 1334 544 m -7 Y s 1328 537 m 13 X s 1360 514 m 10 Y s 1354 524 m 13 X s 1360 488 m -9 Y s 1354 479 m 13 X s 1387 476 m 6 Y s 1380 482 m 13 X s 1387 450 m -7 Y s 1380
 443 m 13 X s 1413 457 m 12 Y s 1406 469 m 13 X s 1413 431 m -13 Y s 1406 418 m 13 X s 1439 561 m 25 Y s 1433 586 m 13 X s 1439 535 m -24 Y s 1433 511 m 13 X s 1465 647 m 43 Y s 1459 690 m 13 X s 1465 621 m -43 Y s 1459 578 m 13 X s 1492 542 m 44 Y s
 1485 586 m 13 X s 1492 516 m -45 Y s 1485 471 m 13 X s 1531 471 m 36 Y s 1525 507 m 13 X s 1531 445 m -36 Y s 1525 409 m 13 X s 1584 626 m 95 Y s 1577 721 m 13 X s 1584 600 m -94 Y s 1577 506 m 13 X s 1663 546 m 102 Y s 1656 648 m 13 X s 1663 520 m
 -103 Y s 1656 417 m 13 X s 1820 431 m 128 Y s 1814 559 m 13 X s 1820 405 m -128 Y s 1814 277 m 13 X s 0.8 0 0 c 3 lw 1308 469 1334 557 1360 501 1387 463 1413 444 1439 548 1465 634 1492 529 1531 458 1584 613 1663 533 1820 418 12 { m21} R 6 lw black 3
 lw 1308 469 1334 557 1360 501 1387 463 1413 444 1439 548 1465 634 1492 529 1531 458 1584 613 1663 533 1820 418 12 { m25} R 6 lw 0 0 0.8 c black 0 0 0.8 c 21 190 1297 447 bl black 0 0 0.8 c 21 203 1324 467 bl black 0 0 0.8 c 21 187 1350 436 bl black
 0 0 0.8 c 21 200 1376 432 bl black 0 0 0.8 c 21 215 1402 457 bl black 0 0 0.8 c 21 215 1429 414 bl black 0 0 0.8 c 21 199 1455 384 bl black 0 0 0.8 c 21 216 1481 385 bl black 0 0 0.8 c 21 209 1521 385 bl black 0 0 0.8 c 21 233 1573 396 bl black 0 0
 0.8 c 21 256 1652 424 bl black 0 0 0.8 c 21 118 1810 228 bl black 1308 555 m 5 Y s 1301 560 m 13 X s 1308 529 m -5 Y s 1301 524 m 13 X s 1334 581 m 8 Y s 1328 589 m 13 X s 1334 555 m -7 Y s 1328 548 m 13 X s 1360 542 m 9 Y s 1354 551 m 13 X s 1360
 516 m -9 Y s 1354 507 m 13 X s 1387 545 m 8 Y s 1380 553 m 13 X s 1387 519 m -7 Y s 1380 512 m 13 X s 1413 577 m 15 Y s 1406 592 m 13 X s 1413 551 m -14 Y s 1406 537 m 13 X s 1439 535 m 20 Y s 1433 555 m 13 X s 1439 509 m -20 Y s 1433 489 m 13 X s
 1465 497 m 27 Y s 1459 524 m 13 X s 1465 471 m -28 Y s 1459 443 m 13 X s 1492 506 m 36 Y s 1485 542 m 13 X s 1492 480 m -36 Y s 1485 444 m 13 X s 1531 503 m 33 Y s 1525 536 m 13 X s 1531 477 m -34 Y s 1525 443 m 13 X s 1584 526 m 71 Y s 1577 597 m
 13 X s 1584 500 m -71 Y s 1577 429 m 13 X s 1663 565 m 94 Y s 1656 659 m 13 X s 1663 539 m -95 Y s 1656 444 m 13 X s 1820 300 m 76 Y s 1814 376 m 13 X s 1820 274 m -76 Y s 1814 198 m 13 X s 0 0 0.8 c 3 lw 1308 542 1334 568 1360 529 1387 532 1413 564
 1439 522 1465 484 1492 493 1531 490 1584 513 1663 552 1820 287 12 { m22} R 6 lw black 3 lw 1308 542 1334 568 1360 529 1387 532 1413 564 1439 522 1465 484 1492 493 1531 490 1584 513 1663 552 1820 287 12 { m26} R 6 lw
 gsave  1077 1052 1191 0 C 1528.1 843.877 t 0 r /Helvetica findfont 48.8732 sf 0 0 m (60\25588% centrality) show NC gr  1 1 1 c 3 lw 348 173 1398 169 bf black
 gsave  1077 1052 1191 0 C 1515.07 303.014 t 0 r /Helvetica findfont 42.3568 sf 0 0 m (|<0.35) show NC gr 
 gsave  1077 1052 1191 0 C 1492.26 303.014 t 0 r /Symbol findfont 42.3568 sf 0 0 m (h) show NC gr 
 gsave  1077 1052 1191 0 C 1482.49 303.014 t 0 r /Helvetica findfont 42.3568 sf 0 0 m (|) show NC gr  6 lw 1411 313 m 61 X s 1441 296 m 35 Y s 3 lw 1441 313 m20 6 lw
 gsave  1077 1052 1191 0 C 1596.52 244.366 t 0 r /Helvetica findfont 42.3568 sf 0 0 m (<\2551.4) show NC gr 
 gsave  1077 1052 1191 0 C 1576.98 244.366 t 0 r /Helvetica-Oblique findfont 42.3568 sf 0 0 m (y) show NC gr 
 gsave  1077 1052 1191 0 C 1482.49 244.366 t 0 r /Helvetica findfont 42.3568 sf 0 0 m (\2552.0<) show NC gr  1411 256 m 61 X s 1441 239 m 34 Y s 0.8 0 0 c 3 lw 1441 256 m21 6 lw black
 gsave  1077 1052 1191 0 C 1583.49 185.718 t 0 r /Helvetica findfont 42.3568 sf 0 0 m (<2.0) show NC gr 
 gsave  1077 1052 1191 0 C 1563.94 185.718 t 0 r /Helvetica-Oblique findfont 42.3568 sf 0 0 m (y) show NC gr 
 gsave  1077 1052 1191 0 C 1482.49 185.718 t 0 r /Helvetica findfont 42.3568 sf 0 0 m (1.4<) show NC gr  1411 198 m 61 X s 1441 181 m 34 Y s 0 0 0.8 c 3 lw 1441 198 m22 6 lw
 gr  gr showpage
end
%%EOF
