%!PS-Adobe-2.0 EPSF-2.0
%%BoundingBox:  0 0 567 543
%%Title: : RAB vs pt, plot all
%%Creator: ROOT Version 5.34/25
%%CreationDate: Mon Feb 23 14:58:46 2015
%%EndComments
%%BeginProlog
80 dict begin
/s {stroke} def /l {lineto} def /m {moveto} def /t {translate} def
/r {rotate} def /rl {roll}  def /R {repeat} def
/d {rlineto} def /rm {rmoveto} def /gr {grestore} def /f {eofill} def
/c {setrgbcolor} def /black {0 setgray} def /sd {setdash} def
/cl {closepath} def /sf {scalefont setfont} def /lw {setlinewidth} def
/box {m dup 0 exch d exch 0 d 0 exch neg d cl} def
/NC{systemdict begin initclip end}def/C{NC box clip newpath}def
/bl {box s} def /bf {box f} def /Y { 0 exch d} def /X { 0 d} def 
/K {{pop pop 0 moveto} exch kshow} bind def
/ita {/ang 15 def gsave [1 0 ang dup sin exch cos div 1 0 0] concat} def 
/mp {newpath /y exch def /x exch def} def
/side {[w .77 mul w .23 mul] .385 w mul sd w 0 l currentpoint t -144 r} def
/mr {mp x y w2 0 360 arc} def /m24 {mr s} def /m20 {mr f} def
/mb {mp x y w2 add m w2 neg 0 d 0 w neg d w 0 d 0 w d cl} def
/mt {mp x y w2 add m w2 neg w neg d w 0 d cl} def
/m21 {mb f} def /m25 {mb s} def /m22 {mt f} def /m26{mt s} def
/m23 {mp x y w2 sub m w2 w d w neg 0 d cl f} def
/m27 {mp x y w2 add m w3 neg w2 neg d w3 w2 neg d w3 w2 d cl s} def
/m28 {mp x w2 sub y w2 sub w3 add m w3 0 d  0 w3 neg d w3 0 d 0 w3 d w3 0 d  0 w3 d w3 neg 0 d 0 w3 d w3 neg 0 d 0 w3 neg d w3 neg 0 d cl s } def
/m29 {mp gsave x w2 sub y w2 add w3 sub m currentpoint t 4 {side} repeat cl fill gr} def
/m30 {mp gsave x w2 sub y w2 add w3 sub m currentpoint t 4 {side} repeat cl s gr} def
/m31 {mp x y w2 sub m 0 w d x w2 sub y m w 0 d x w2 sub y w2 add m w w neg d x w2 sub y w2 sub m w w d s} def
/m32 {mp x y w2 sub m w2 w d w neg 0 d cl s} def
/m33 {mp x y w2 add m w3 neg w2 neg d w3 w2 neg d w3 w2 d cl f} def
/m34 {mp x w2 sub y w2 sub w3 add m w3 0 d  0 w3 neg d w3 0 d 0 w3 d w3 0 d  0 w3 d w3 neg 0 d 0 w3 d w3 neg 0 d 0 w3 neg d w3 neg 0 d cl f } def
/m2 {mp x y w2 sub m 0 w d x w2 sub y m w 0 d s} def
/m5 {mp x w2 sub y w2 sub m w w d x w2 sub y w2 add m w w neg d s} def
/reEncode {exch findfont dup length dict begin {1 index /FID eq  {pop pop} {def} ifelse } forall /Encoding exch def currentdict end dup /FontName get exch definefont pop } def [/Times-Bold /Times-Italic /Times-BoldItalic /Helvetica /Helvetica-Oblique
 /Helvetica-Bold /Helvetica-BoldOblique /Courier /Courier-Oblique /Courier-Bold /Courier-BoldOblique /Times-Roman /AvantGarde-Book /AvantGarde-BookOblique /AvantGarde-Demi /AvantGarde-DemiOblique /Bookman-Demi /Bookman-DemiItalic /Bookman-Light
 /Bookman-LightItalic /Helvetica-Narrow /Helvetica-Narrow-Bold /Helvetica-Narrow-BoldOblique /Helvetica-Narrow-Oblique /NewCenturySchlbk-Roman /NewCenturySchlbk-Bold /NewCenturySchlbk-BoldItalic /NewCenturySchlbk-Italic /Palatino-Bold
 /Palatino-BoldItalic /Palatino-Italic /Palatino-Roman ] {ISOLatin1Encoding reEncode } forall
%%EndProlog
%%BeginSetup
%%EndSetup
newpath  gsave  .25 .25 scale  gsave  0 0 t black[  ] 0 sd 6 lw 0.999 0.999 0.999 c 2268 2172 0 0 bf black 3 lw 0.999 0.999 0.999 c 1951 1880 259 217 bf black 1951 1880 259 217 bl 0.999 0.999 0.999 c 1951 1880 259 217 bf black 1951 1880 259 217 bl 6
 lw 259 217 m 1951 X s
 gsave  2268 2172 0 0 C 2159.73 45.6866 t 0 r /Helvetica findfont 99.6798 sf 0 0 m (y) show NC gr  259 273 m -56 Y s 298 245 m -28 Y s 337 245 m -28 Y s 376 245 m -28 Y s 415 245 m -28 Y s 454 273 m -56 Y s 493 245 m -28 Y s 532 245 m -28 Y s 571 245
 m -28 Y s 610 245 m -28 Y s 649 273 m -56 Y s 688 245 m -28 Y s 727 245 m -28 Y s 766 245 m -28 Y s 805 245 m -28 Y s 844 273 m -56 Y s 883 245 m -28 Y s 922 245 m -28 Y s 961 245 m -28 Y s 1000 245 m -28 Y s 1039 273 m -56 Y s 1078 245 m -28 Y s
 1117 245 m -28 Y s 1156 245 m -28 Y s 1195 245 m -28 Y s 1234 273 m -56 Y s 1273 245 m -28 Y s 1312 245 m -28 Y s 1351 245 m -28 Y s 1390 245 m -28 Y s 1429 273 m -56 Y s 1468 245 m -28 Y s 1507 245 m -28 Y s 1546 245 m -28 Y s 1585 245 m -28 Y s
 1624 273 m -56 Y s 1663 245 m -28 Y s 1702 245 m -28 Y s 1741 245 m -28 Y s 1780 245 m -28 Y s 1819 273 m -56 Y s 1858 245 m -28 Y s 1897 245 m -28 Y s 1936 245 m -28 Y s 1975 245 m -28 Y s 2014 273 m -56 Y s 2053 245 m -28 Y s 2093 245 m -28 Y s
 2132 245 m -28 Y s 2171 245 m -28 Y s 2210 273 m -56 Y s
 gsave  2268 2172 0 0 C 253.353 120.446 t 0 r /Helvetica findfont 91.3732 sf 0 0 m (5) show NC gr 
 gsave  2268 2172 0 0 C 207.666 120.446 t 0 r /Symbol findfont 91.3732 sf 0 0 m (-) show NC gr 
 gsave  2268 2172 0 0 C 448.559 120.446 t 0 r /Helvetica findfont 91.3732 sf 0 0 m (4) show NC gr 
 gsave  2268 2172 0 0 C 402.873 120.446 t 0 r /Symbol findfont 91.3732 sf 0 0 m (-) show NC gr 
 gsave  2268 2172 0 0 C 643.766 120.446 t 0 r /Helvetica findfont 91.3732 sf 0 0 m (3) show NC gr 
 gsave  2268 2172 0 0 C 598.079 120.446 t 0 r /Symbol findfont 91.3732 sf 0 0 m (-) show NC gr 
 gsave  2268 2172 0 0 C 838.972 120.446 t 0 r /Helvetica findfont 91.3732 sf 0 0 m (2) show NC gr 
 gsave  2268 2172 0 0 C 793.285 120.446 t 0 r /Symbol findfont 91.3732 sf 0 0 m (-) show NC gr 
 gsave  2268 2172 0 0 C 1042.49 120.446 t 0 r /Helvetica findfont 91.3732 sf 0 0 m (1) show NC gr 
 gsave  2268 2172 0 0 C 996.798 120.446 t 0 r /Symbol findfont 91.3732 sf 0 0 m (-) show NC gr 
 gsave  2268 2172 0 0 C 1208.62 120.446 t 0 r /Helvetica findfont 91.3732 sf 0 0 m (0) show NC gr 
 gsave  2268 2172 0 0 C 1412.13 120.446 t 0 r /Helvetica findfont 91.3732 sf 0 0 m (1) show NC gr 
 gsave  2268 2172 0 0 C 1599.03 120.446 t 0 r /Helvetica findfont 91.3732 sf 0 0 m (2) show NC gr 
 gsave  2268 2172 0 0 C 1794.24 120.446 t 0 r /Helvetica findfont 91.3732 sf 0 0 m (3) show NC gr 
 gsave  2268 2172 0 0 C 1989.44 120.446 t 0 r /Helvetica findfont 91.3732 sf 0 0 m (4) show NC gr 
 gsave  2268 2172 0 0 C 2184.65 120.446 t 0 r /Helvetica findfont 91.3732 sf 0 0 m (5) show NC gr  259 2097 m 1951 X s 259 2041 m 56 Y s 298 2069 m 28 Y s 337 2069 m 28 Y s 376 2069 m 28 Y s 415 2069 m 28 Y s 454 2041 m 56 Y s 493 2069 m 28 Y s 532
 2069 m 28 Y s 571 2069 m 28 Y s 610 2069 m 28 Y s 649 2041 m 56 Y s 688 2069 m 28 Y s 727 2069 m 28 Y s 766 2069 m 28 Y s 805 2069 m 28 Y s 844 2041 m 56 Y s 883 2069 m 28 Y s 922 2069 m 28 Y s 961 2069 m 28 Y s 1000 2069 m 28 Y s 1039 2041 m 56 Y s
 1078 2069 m 28 Y s 1117 2069 m 28 Y s 1156 2069 m 28 Y s 1195 2069 m 28 Y s 1234 2041 m 56 Y s 1273 2069 m 28 Y s 1312 2069 m 28 Y s 1351 2069 m 28 Y s 1390 2069 m 28 Y s 1429 2041 m 56 Y s 1468 2069 m 28 Y s 1507 2069 m 28 Y s 1546 2069 m 28 Y s
 1585 2069 m 28 Y s 1624 2041 m 56 Y s 1663 2069 m 28 Y s 1702 2069 m 28 Y s 1741 2069 m 28 Y s 1780 2069 m 28 Y s 1819 2041 m 56 Y s 1858 2069 m 28 Y s 1897 2069 m 28 Y s 1936 2069 m 28 Y s 1975 2069 m 28 Y s 2014 2041 m 56 Y s 2053 2069 m 28 Y s
 2093 2069 m 28 Y s 2132 2069 m 28 Y s 2171 2069 m 28 Y s 2210 2041 m 56 Y s 259 217 m 1880 Y s
 gsave  2268 2172 0 0 C 103.833 917.885 t 90 r /Helvetica findfont 99.6798 sf 0 0 m (Nuclear modification factor) show NC gr  317 217 m -58 X s 288 264 m -29 X s 288 311 m -29 X s 288 358 m -29 X s 317 405 m -58 X s 288 452 m -29 X s 288 499 m -29 X
 s 288 546 m -29 X s 317 593 m -58 X s 288 640 m -29 X s 288 687 m -29 X s 288 734 m -29 X s 317 781 m -58 X s 288 828 m -29 X s 288 875 m -29 X s 288 922 m -29 X s 317 969 m -58 X s 288 1016 m -29 X s 288 1063 m -29 X s 288 1110 m -29 X s 317 1157 m
 -58 X s 288 1204 m -29 X s 288 1251 m -29 X s 288 1298 m -29 X s 317 1345 m -58 X s 288 1392 m -29 X s 288 1439 m -29 X s 288 1486 m -29 X s 317 1533 m -58 X s 288 1580 m -29 X s 288 1627 m -29 X s 288 1674 m -29 X s 317 1721 m -58 X s 288 1768 m
 -29 X s 288 1815 m -29 X s 288 1862 m -29 X s 317 1909 m -58 X s 288 1956 m -29 X s 288 2003 m -29 X s 288 2050 m -29 X s 317 2097 m -58 X s
 gsave  2268 2172 0 0 C 182.746 186.9 t 0 r /Helvetica findfont 91.3732 sf 0 0 m (0) show NC gr 
 gsave  2268 2172 0 0 C 107.987 373.799 t 0 r /Helvetica findfont 91.3732 sf 0 0 m (0.2) show NC gr 
 gsave  2268 2172 0 0 C 107.987 560.699 t 0 r /Helvetica findfont 91.3732 sf 0 0 m (0.4) show NC gr 
 gsave  2268 2172 0 0 C 107.987 751.752 t 0 r /Helvetica findfont 91.3732 sf 0 0 m (0.6) show NC gr 
 gsave  2268 2172 0 0 C 107.987 938.652 t 0 r /Helvetica findfont 91.3732 sf 0 0 m (0.8) show NC gr 
 gsave  2268 2172 0 0 C 199.36 1121.4 t 0 r /Helvetica findfont 91.3732 sf 0 0 m (1) show NC gr 
 gsave  2268 2172 0 0 C 107.987 1308.3 t 0 r /Helvetica findfont 91.3732 sf 0 0 m (1.2) show NC gr 
 gsave  2268 2172 0 0 C 107.987 1499.35 t 0 r /Helvetica findfont 91.3732 sf 0 0 m (1.4) show NC gr 
 gsave  2268 2172 0 0 C 107.987 1690.4 t 0 r /Helvetica findfont 91.3732 sf 0 0 m (1.6) show NC gr 
 gsave  2268 2172 0 0 C 107.987 1877.3 t 0 r /Helvetica findfont 91.3732 sf 0 0 m (1.8) show NC gr 
 gsave  2268 2172 0 0 C 182.746 2060.05 t 0 r /Helvetica findfont 91.3732 sf 0 0 m (2) show NC gr  2210 217 m 1880 Y s 2151 217 m 59 X s 2180 264 m 30 X s 2180 311 m 30 X s 2180 358 m 30 X s 2151 405 m 59 X s 2180 452 m 30 X s 2180 499 m 30 X s 2180
 546 m 30 X s 2151 593 m 59 X s 2180 640 m 30 X s 2180 687 m 30 X s 2180 734 m 30 X s 2151 781 m 59 X s 2180 828 m 30 X s 2180 875 m 30 X s 2180 922 m 30 X s 2151 969 m 59 X s 2180 1016 m 30 X s 2180 1063 m 30 X s 2180 1110 m 30 X s 2151 1157 m 59 X
 s 2180 1204 m 30 X s 2180 1251 m 30 X s 2180 1298 m 30 X s 2151 1345 m 59 X s 2180 1392 m 30 X s 2180 1439 m 30 X s 2180 1486 m 30 X s 2151 1533 m 59 X s 2180 1580 m 30 X s 2180 1627 m 30 X s 2180 1674 m 30 X s 2151 1721 m 59 X s 2180 1768 m 30 X s
 2180 1815 m 30 X s 2180 1862 m 30 X s 2151 1909 m 59 X s 2180 1956 m 30 X s 2180 2003 m 30 X s 2180 2050 m 30 X s 2151 2097 m 59 X s[ 12 12] 0 sd 259 1157 m 1951 X s 1 1 1 c[  ] 0 sd 3 lw 452 320 449 328 bf black
 gsave  2268 2172 0 0 C 560.699 573.159 t 0 r /Helvetica findfont 78.9132 sf 0 0 m (pQCD + EPS09 LO central set) show NC gr  0 0.4 0 c[ 12 16 4 16] 0 sd 9 lw 466 595 m 79 X s black
 gsave  2268 2172 0 0 C 560.699 465.173 t 0 r /Helvetica findfont 78.9132 sf 0 0 m (pQCD + EPS09 LO band) show NC gr  0.6 0.8 0.6 c[  ] 0 sd 3 lw 1 lw << /PatternType 1 /PaintType 2 /TilingType 1 /BBox [ 0 0 98 4 ] /XStep 98 /YStep 4 /PaintProc { begin
 gsave [1] 0 sd 2 4 m 99 4 l s 1 3 m 98 3 l s 2 2 m 99 2 l s 1 1 m 98 1 l s gr end } >> [ 4.0 0 0 4.0 0 0 ] makepattern /P01 exch def /cs {[/Pattern /DeviceRGB] setcolorspace} def /FA {f [/DeviceRGB] setcolorspace} def cs 0.6 0.8 0.6 P01 setcolor 466
 451 m 79 X 74 Y -79 X FA[ 12 16 4 16] 0 sd 9 lw 0 0.4 0 c[  ] 0 sd 6 lw 466 525 m 79 X s 466 451 m 79 X s 545 451 m 74 Y s 466 451 m 74 Y s black
 gsave  2268 2172 0 0 C 560.699 361.339 t 0 r /Helvetica findfont 78.9132 sf 0 0 m (pQCD + nDSg LO set) show NC gr  0.8 0 0.8 c[ 20 12 4 12] 0 sd 9 lw 466 381 m 79 X s 0 0.4 0 c[  ] 0 sd 6 lw 0.6 0.8 0.6 c 3 lw cs 0.6 0.8 0.6 P01 setcolor 259 1102 m 48 X
 249 Y -48 X FA 6 lw 0 0.4 0 c 0.6 0.8 0.6 c 3 lw cs 0.6 0.8 0.6 P01 setcolor 307 1208 m 98 X 123 Y -98 X FA 6 lw 0 0.4 0 c 0.6 0.8 0.6 c 3 lw cs 0.6 0.8 0.6 P01 setcolor 405 1221 m 97 X 125 Y -97 X FA 6 lw 0 0.4 0 c 0.6 0.8 0.6 c 3 lw cs 0.6 0.8 0.6
 P01 setcolor 502 1214 m 98 X 101 Y -98 X FA 6 lw 0 0.4 0 c 0.6 0.8 0.6 c 3 lw cs 0.6 0.8 0.6 P01 setcolor 600 1204 m 98 X 63 Y -98 X FA 6 lw 0 0.4 0 c 0.6 0.8 0.6 c 3 lw cs 0.6 0.8 0.6 P01 setcolor 698 1180 m 97 X 45 Y -97 X FA 6 lw 0 0.4 0 c 0.6
 0.8 0.6 c 3 lw cs 0.6 0.8 0.6 P01 setcolor 795 1138 m 98 X 46 Y -98 X FA 6 lw 0 0.4 0 c 0.6 0.8 0.6 c 3 lw cs 0.6 0.8 0.6 P01 setcolor 893 1084 m 97 X 72 Y -97 X FA 6 lw 0 0.4 0 c 0.6 0.8 0.6 c 3 lw cs 0.6 0.8 0.6 P01 setcolor 990 1028 m 98 X 112 Y
 -98 X FA 6 lw 0 0.4 0 c 0.6 0.8 0.6 c 3 lw cs 0.6 0.8 0.6 P01 setcolor 1088 995 m 97 X 132 Y -97 X FA 6 lw 0 0.4 0 c 0.6 0.8 0.6 c 3 lw cs 0.6 0.8 0.6 P01 setcolor 1185 956 m 98 X 159 Y -98 X FA 6 lw 0 0.4 0 c 0.6 0.8 0.6 c 3 lw cs 0.6 0.8 0.6 P01
 setcolor 1283 929 m 97 X 177 Y -97 X FA 6 lw 0 0.4 0 c 0.6 0.8 0.6 c 3 lw cs 0.6 0.8 0.6 P01 setcolor 1380 898 m 98 X 193 Y -98 X FA 6 lw 0 0.4 0 c 0.6 0.8 0.6 c 3 lw cs 0.6 0.8 0.6 P01 setcolor 1478 881 m 97 X 209 Y -97 X FA 6 lw 0 0.4 0 c 0.6 0.8
 0.6 c 3 lw cs 0.6 0.8 0.6 P01 setcolor 1575 860 m 98 X 227 Y -98 X FA 6 lw 0 0.4 0 c 0.6 0.8 0.6 c 3 lw cs 0.6 0.8 0.6 P01 setcolor 1673 845 m 98 X 231 Y -98 X FA 6 lw 0 0.4 0 c 0.6 0.8 0.6 c 3 lw cs 0.6 0.8 0.6 P01 setcolor 1771 830 m 97 X 242 Y
 -97 X FA 6 lw 0 0.4 0 c 0.6 0.8 0.6 c 3 lw cs 0.6 0.8 0.6 P01 setcolor 1868 816 m 98 X 252 Y -98 X FA 6 lw 0 0.4 0 c 0.6 0.8 0.6 c 3 lw cs 0.6 0.8 0.6 P01 setcolor 1966 812 m 97 X 252 Y -97 X FA 6 lw 0 0.4 0 c 0.6 0.8 0.6 c 3 lw cs 0.6 0.8 0.6 P01
 setcolor 2063 803 m 98 X 264 Y -98 X FA 6 lw 0 0.4 0 c 0.6 0.8 0.6 c 3 lw cs 0.6 0.8 0.6 P01 setcolor 2161 220 m 49 X 2 Y -49 X FA 6 lw 0 0.4 0 c 0.6 0.8 0.6 c black 0 0.4 0 c[ 12 16 4 16] 0 sd 9 lw 259 1225 m cl s 259 1225 m 48 X s 307 1217 m 16 Y
 s 259 1225 m 4 Y s 259 1229 m 8 X s 259 1225 m -4 Y s 259 1221 m 8 X s 356 1263 m -49 X s 307 1255 m 16 Y s 356 1263 m 49 X s 405 1255 m 16 Y s 356 1263 m 4 Y s 348 1267 m 16 X s 356 1263 m -4 Y s 348 1259 m 16 X s 454 1280 m -49 X s 405 1272 m 16 Y
 s 454 1280 m 48 X s 502 1272 m 16 Y s 454 1280 m 4 Y s 445 1284 m 17 X s 454 1280 m -4 Y s 445 1276 m 17 X s 551 1259 m -49 X s 502 1250 m 17 Y s 551 1259 m 49 X s 600 1250 m 17 Y s 551 1259 m 4 Y s 543 1263 m 16 X s 551 1259 m -5 Y s 543 1254 m 16
 X s 649 1244 m -49 X s 600 1236 m 16 Y s 649 1244 m 49 X s 698 1236 m 16 Y s 649 1244 m 4 Y s 640 1248 m 17 X s 649 1244 m -4 Y s 640 1240 m 17 X s 746 1198 m -48 X s 698 1190 m 17 Y s 746 1198 m 49 X s 795 1190 m 17 Y s 746 1198 m 4 Y s 738 1202 m
 17 X s 746 1198 m -4 Y s 738 1194 m 17 X s 844 1157 m -49 X s 795 1149 m 17 Y s 844 1157 m 49 X s 893 1149 m 17 Y s 844 1157 m 4 Y s 836 1161 m 16 X s 844 1157 m -3 Y s 836 1154 m 16 X s 941 1125 m -48 X s 893 1117 m 16 Y s 941 1125 m 49 X s 990
 1117 m 16 Y s 941 1125 m 3 Y s 933 1128 m 17 X s 941 1125 m -3 Y s 933 1122 m 17 X s 1039 1093 m -49 X s 990 1085 m 17 Y s 1039 1093 m 49 X s 1088 1085 m 17 Y s 1039 1093 m 4 Y s 1031 1097 m 16 X s 1039 1093 m -3 Y s 1031 1090 m 16 X s 1136 1068 m
 -48 X s 1088 1059 m 17 Y s 1136 1068 m 49 X s 1185 1059 m 17 Y s 1136 1068 m 3 Y s 1128 1071 m 17 X s 1136 1068 m -3 Y s 1128 1065 m 17 X s 1234 1037 m -49 X s 1185 1029 m 16 Y s 1234 1037 m 49 X s 1283 1029 m 16 Y s 1234 1037 m 3 Y s 1226 1040 m 16
 X s 1234 1037 m -3 Y s 1226 1034 m 16 X s 1332 1023 m -49 X s 1283 1014 m 17 Y s 1332 1023 m 48 X s 1380 1014 m 17 Y s 1332 1023 m 2 Y s 1323 1025 m 17 X s 1332 1023 m -3 Y s 1323 1020 m 17 X s 1429 1001 m -49 X s 1380 993 m 16 Y s 1429 1001 m 49 X
 s 1478 993 m 16 Y s 1429 1001 m 2 Y s 1421 1003 m 16 X s 1429 1001 m -2 Y s 1421 999 m 16 X s 1527 991 m -49 X s 1478 983 m 16 Y s 1527 991 m 48 X s 1575 983 m 16 Y s 1527 991 m 2 Y s 1518 993 m 17 X s 1527 991 m -2 Y s 1518 989 m 17 X s 1624 978 m
 -49 X s 1575 970 m 17 Y s 1624 978 m 49 X s 1673 970 m 17 Y s 1624 978 m 2 Y s 1616 980 m 17 X s 1624 978 m -2 Y s 1616 976 m 17 X s 1722 963 m -49 X s 1673 955 m 16 Y s 1722 963 m 49 X s 1771 955 m 16 Y s 1722 963 m 2 Y s 1714 965 m 16 X s 1722 963
 m -2 Y s 1714 961 m 16 X s 1819 959 m -48 X s 1771 951 m 16 Y s 1819 959 m 49 X s 1868 951 m 16 Y s 1819 959 m 2 Y s 1811 961 m 17 X s 1819 959 m -2 Y s 1811 957 m 17 X s 1917 952 m -49 X s 1868 944 m 16 Y s 1917 952 m 49 X s 1966 944 m 16 Y s 1917
 952 m 2 Y s 1909 954 m 16 X s 1917 952 m -2 Y s 1909 950 m 16 X s 2014 941 m -48 X s 1966 933 m 17 Y s 2014 941 m 49 X s 2063 933 m 17 Y s 2014 941 m 2 Y s 2006 943 m 17 X s 2014 941 m -2 Y s 2006 939 m 17 X s 2112 938 m -49 X s 2063 930 m 17 Y s
 2112 938 m 49 X s 2161 930 m 17 Y s 2112 938 m 2 Y s 2104 940 m 16 X s 2112 938 m -1 Y s 2104 937 m 16 X s black 0 0.4 0 c 259 1225 m 97 38 d 98 17 d 97 -21 d 98 -15 d 97 -46 d 98 -41 d 97 -32 d 98 -32 d 97 -25 d 98 -31 d 98 -14 d 97 -22 d 98 -10 d
 97 -13 d 98 -15 d 97 -4 d 98 -7 d 97 -11 d 98 -3 d s 0.8 0 0.8 c[ 20 12 4 12] 0 sd 259 1187 m cl s 259 1187 m 48 X s 307 1179 m 16 Y s 259 1187 m 4 Y s 259 1191 m 8 X s 259 1187 m -4 Y s 259 1183 m 8 X s 356 1186 m -49 X s 307 1178 m 17 Y s 356 1186
 m 49 X s 405 1178 m 17 Y s 356 1186 m 4 Y s 348 1190 m 16 X s 356 1186 m -3 Y s 348 1183 m 16 X s 454 1178 m -49 X s 405 1170 m 16 Y s 454 1178 m 48 X s 502 1170 m 16 Y s 454 1178 m 4 Y s 445 1182 m 17 X s 454 1178 m -4 Y s 445 1174 m 17 X s 551
 1175 m -49 X s 502 1167 m 16 Y s 551 1175 m 49 X s 600 1167 m 16 Y s 551 1175 m 4 Y s 543 1179 m 16 X s 551 1175 m -4 Y s 543 1171 m 16 X s 649 1156 m -49 X s 600 1148 m 16 Y s 649 1156 m 49 X s 698 1148 m 16 Y s 649 1156 m 3 Y s 640 1159 m 17 X s
 649 1156 m -4 Y s 640 1152 m 17 X s 746 1128 m -48 X s 698 1120 m 16 Y s 746 1128 m 49 X s 795 1120 m 16 Y s 746 1128 m 3 Y s 738 1131 m 17 X s 746 1128 m -4 Y s 738 1124 m 17 X s 844 1100 m -49 X s 795 1091 m 17 Y s 844 1100 m 49 X s 893 1091 m 17
 Y s 844 1100 m 3 Y s 836 1103 m 16 X s 844 1100 m -3 Y s 836 1097 m 16 X s 941 1069 m -48 X s 893 1061 m 17 Y s 941 1069 m 49 X s 990 1061 m 17 Y s 941 1069 m 3 Y s 933 1072 m 17 X s 941 1069 m -3 Y s 933 1066 m 17 X s 1039 1041 m -49 X s 990 1033 m
 17 Y s 1039 1041 m 49 X s 1088 1033 m 17 Y s 1039 1041 m 3 Y s 1031 1044 m 16 X s 1039 1041 m -2 Y s 1031 1039 m 16 X s 1136 1025 m -48 X s 1088 1017 m 16 Y s 1136 1025 m 49 X s 1185 1017 m 16 Y s 1136 1025 m 3 Y s 1128 1028 m 17 X s 1136 1025 m -2
 Y s 1128 1023 m 17 X s 1234 1008 m -49 X s 1185 1000 m 17 Y s 1234 1008 m 49 X s 1283 1000 m 17 Y s 1234 1008 m 3 Y s 1226 1011 m 16 X s 1234 1008 m -2 Y s 1226 1006 m 16 X s 1332 988 m -49 X s 1283 979 m 17 Y s 1332 988 m 48 X s 1380 979 m 17 Y s
 1332 988 m 2 Y s 1323 990 m 17 X s 1332 988 m -3 Y s 1323 985 m 17 X s 1429 988 m -49 X s 1380 979 m 17 Y s 1429 988 m 49 X s 1478 979 m 17 Y s 1429 988 m 2 Y s 1421 990 m 16 X s 1429 988 m -3 Y s 1421 985 m 16 X s 1527 968 m -49 X s 1478 960 m 16 Y
 s 1527 968 m 48 X s 1575 960 m 16 Y s 1527 968 m 2 Y s 1518 970 m 17 X s 1527 968 m -2 Y s 1518 966 m 17 X s 1624 963 m -49 X s 1575 954 m 17 Y s 1624 963 m 49 X s 1673 954 m 17 Y s 1624 963 m 2 Y s 1616 965 m 17 X s 1624 963 m -2 Y s 1616 961 m 17
 X s 1722 953 m -49 X s 1673 945 m 17 Y s 1722 953 m 49 X s 1771 945 m 17 Y s 1722 953 m 2 Y s 1714 955 m 16 X s 1722 953 m -2 Y s 1714 951 m 16 X s 1819 941 m -48 X s 1771 932 m 17 Y s 1819 941 m 49 X s 1868 932 m 17 Y s 1819 941 m 2 Y s 1811 943 m
 17 X s 1819 941 m -2 Y s 1811 939 m 17 X s 1917 934 m -49 X s 1868 926 m 16 Y s 1917 934 m 49 X s 1966 926 m 16 Y s 1917 934 m 2 Y s 1909 936 m 16 X s 1917 934 m -2 Y s 1909 932 m 16 X s 2014 925 m -48 X s 1966 916 m 17 Y s 2014 925 m 49 X s 2063
 916 m 17 Y s 2014 925 m 1 Y s 2006 926 m 17 X s 2014 925 m -2 Y s 2006 923 m 17 X s 2112 924 m -49 X s 2063 916 m 16 Y s 2112 924 m 49 X s 2161 916 m 16 Y s 2112 924 m 1 Y s 2104 925 m 16 X s 2112 924 m -2 Y s 2104 922 m 16 X s black 0.8 0 0.8 c 259
 1187 m 97 -1 d 98 -8 d 97 -3 d 98 -19 d 97 -28 d 98 -28 d 97 -31 d 98 -28 d 97 -16 d 98 -17 d 98 -20 d 97 X 98 -20 d 97 -5 d 98 -10 d 97 -12 d 98 -7 d 97 -9 d 98 -1 d s 0.6 0.6 0.6 c[  ] 0 sd 6 lw 0.2 0.2 0.2 c 3 lw cs 0.2 0.2 0.2 P01 setcolor 2129
 1082 m 78 X 154 Y -78 X FA 6 lw 0.6 0.6 0.6 c 0.2 0.2 0.2 c black 58 131 571 1073 bl 58 75 1839 960 bl 583 1138 m -129 X s 454 1130 m 17 Y s 617 1138 m 129 X s 746 1130 m 17 Y s 600 1155 m 40 Y s 592 1195 m 16 X s 600 1122 m -40 Y s 592 1082 m 16 X
 s 1852 997 m -130 X s 1722 989 m 17 Y s 1885 997 m 129 X s 2014 989 m 17 Y s 1868 1014 m 2 Y s 1860 1016 m 16 X s 1868 981 m -2 Y s 1860 979 m 16 X s 3 lw /w 33 def /w2 {w 2 div} def /w3 {w 3 div} def 600 1138 1868 997 2 { m20} R 6 lw
 gsave  2268 2172 0 0 C 1208.62 1922.99 t 0 r /Helvetica findfont 99.6798 sf 0 0 m ( = 5.02 TeV) show NC gr 
 gsave  2268 2172 0 0 C 1117.24 1889.76 t 0 r /Helvetica findfont 66.4532 sf 0 0 m (NN) show NC gr 
 gsave  2268 2172 0 0 C 1067.41 1922.99 t 0 r /Helvetica findfont 99.6798 sf 0 0 m (s) show NC gr  1026 1977 m 12 -87 d s 0 lw 1038 1890 m 17 116 d s 1055 2006 m 154 X s
 gsave  2268 2172 0 0 C 440.253 1922.99 t 0 r /Helvetica findfont 99.6798 sf 0 0 m (LHCb, p\255Pb, ) show NC gr  1 1 1 c 3 lw 453 183 444 1703 bf black
 gsave  2268 2172 0 0 C 1432.9 1781.78 t 0 r /Helvetica-Oblique findfont 83.0665 sf 0 0 m (c) show NC gr 
 gsave  2268 2172 0 0 C 1075.71 1781.78 t 0 r /Helvetica findfont 83.0665 sf 0 0 m (<14 GeV/) show NC gr 
 gsave  2268 2172 0 0 C 1042.49 1736.09 t 0 r /Helvetica findfont 53.9932 sf 0 0 m (T) show NC gr 
 gsave  2268 2172 0 0 C 992.645 1781.78 t 0 r /Helvetica-Oblique findfont 83.0665 sf 0 0 m (p) show NC gr 
 gsave  2268 2172 0 0 C 685.299 1781.78 t 0 r /Helvetica findfont 83.0665 sf 0 0 m ( from b, ) show NC gr 
 gsave  2268 2172 0 0 C 622.999 1781.78 t 0 r /Symbol findfont 83.0665 sf 0 0 m (y) show NC gr 
 gsave  2268 2172 0 0 C 556.546 1781.78 t 0 r /Helvetica findfont 83.0665 sf 0 0 m (J/) show NC gr  6 lw 461 1794 m 80 X s 501 1739 m 110 Y s 3 lw 501 1794 m20 6 lw
 gr  gr showpage
end
%%EOF
