%!PS-Adobe-3.0 EPSF-3.0
%%BoundingBox: (atend)
%%LanguageLevel: 2
%%Creator: Grace-5.1.22
%%CreationDate: Thu Jun 12 10:07:29 2014
%%DocumentData: Clean8Bit
%%Orientation: Portrait
%%Title: fig23_rhic0200upsilon123cronin.agr
%%For: ivitev
%%DocumentNeededResources: (atend)
%%EndComments
%%BeginProlog
/m {moveto} def
/l {lineto} def
/s {stroke} def
/n {newpath} def
/c {closepath} def
/RL {rlineto} def
/SLW {setlinewidth} def
/GS {gsave} def
/GR {grestore} def
/SC {setcolor} def
/SGRY {setgray} def
/SRGB {setrgbcolor} def
/SD {setdash} def
/SLC {setlinecap} def
/SLJ {setlinejoin} def
/SCS {setcolorspace} def
/FFSF {findfont setfont} def
/CC {concat} def
/PXL {n m 0 0 RL s} def
/Color0 {1.0000 1.0000 1.0000} def
/Color1 {0.0000 0.0000 0.0000} def
/Color2 {1.0000 0.0000 0.0000} def
/Color3 {0.0000 1.0000 0.0000} def
/Color4 {0.0000 0.0000 1.0000} def
/Color5 {1.0000 1.0000 0.0000} def
/Color6 {0.7373 0.5608 0.5608} def
/Color7 {0.8627 0.8627 0.8627} def
/Color8 {0.5804 0.0000 0.8275} def
/Color9 {0.0000 1.0000 1.0000} def
/Color10 {1.0000 0.0000 1.0000} def
/Color11 {1.0000 0.6471 0.0000} def
/Color12 {0.4471 0.1294 0.7373} def
/Color13 {0.4039 0.0275 0.2824} def
/Color14 {0.2510 0.8784 0.8157} def
/Color15 {0.0000 0.5451 0.0000} def
/Color16 {0.7529 0.7529 0.7529} def
/Color17 {0.5059 0.5059 0.5059} def
/Color18 {0.2588 0.2588 0.2588} def
/PTRN {
 /pat_bits exch def 
 <<
  /PaintType 2
  /PatternType 1 /TilingType 1
  /BBox[0 0 16 16]
  /XStep 16 /YStep 16
  /PaintProc {
   pop
   16 16 true [-1 0 0 -1 16 16] pat_bits imagemask
  }
 >>
 [0.0016 0 0 0.0016 0 0]
 makepattern
} def
/Pattern0 {<0000000000000000000000000000000000000000000000000000000000000000> PTRN} bind def
/Pattern1 {<ffffffffffffffffffffffffffffffffffffffffffffffffffffffffffffffff> PTRN} bind def
/Pattern2 {<eeeeffffbbbbffffeeeeffffbbbbffffeeeeffffbbbbffffeeeeffffbbbbffff> PTRN} bind def
/Pattern3 {<eeeebbbbeeeebbbbeeeebbbbeeeebbbbeeeebbbbeeeebbbbeeeebbbbeeeebbbb> PTRN} bind def
/Pattern4 {<5555aaaa5555aaaa5555aaaa5555aaaa5555aaaa5555aaaa5555aaaa5555aaaa> PTRN} bind def
/Pattern5 {<1111444411114444111144441111444411114444111144441111444411114444> PTRN} bind def
/Pattern6 {<1111000044440000111100004444000011110000444400001111000044440000> PTRN} bind def
/Pattern7 {<1010000000000000010100000000000010100000000000000101000000000000> PTRN} bind def
/Pattern8 {<0000000000000000000000000000000000000000000000000000000000000000> PTRN} bind def
/Pattern9 {<1e1e0f0f8787c3c3e1e1f0f078783c3c1e1e0f0f8787c3c3e1e1f0f078783c3c> PTRN} bind def
/Pattern10 {<7878f0f0e1e1c3c387870f0f1e1e3c3c7878f0f0e1e1c3c387870f0f1e1e3c3c> PTRN} bind def
/Pattern11 {<3333333333333333333333333333333333333333333333333333333333333333> PTRN} bind def
/Pattern12 {<ffffffff00000000ffffffff00000000ffffffff00000000ffffffff00000000> PTRN} bind def
/Pattern13 {<8181424224241818181824244242818181814242242418181818242442428181> PTRN} bind def
/Pattern14 {<8080404020201010080804040202010180804040202010100808040402020101> PTRN} bind def
/Pattern15 {<0101020204040808101020204040808001010202040408081010202040408080> PTRN} bind def
/Pattern16 {<2222222222222222222222222222222222222222222222222222222222222222> PTRN} bind def
/Pattern17 {<0000ffff000000000000ffff000000000000ffff000000000000ffff00000000> PTRN} bind def
/Pattern18 {<2222ffff222222222222ffff222222222222ffff222222222222ffff22222222> PTRN} bind def
/Pattern19 {<ffffffff33333333ffffffff33333333ffffffff33333333ffffffff33333333> PTRN} bind def
/Pattern20 {<0f0f0f0f0f0f0f0ff0f0f0f0f0f0f0f00f0f0f0f0f0f0f0ff0f0f0f0f0f0f0f0> PTRN} bind def
/Pattern21 {<ff00ff00ff00ff00ff00ff00ff00ff0000ff00ff00ff00ff00ff00ff00ff00ff> PTRN} bind def
/Pattern22 {<8001800180018001800180018001ffffffff8001800180018001800180018001> PTRN} bind def
/Pattern23 {<c003c003c003c003c003c003ffffffffffffffffc003c003c003c003c003c003> PTRN} bind def
/Pattern24 {<040404040404ffff404040404040ffff040404040404ffff404040404040ffff> PTRN} bind def
/Pattern25 {<180018001800180018001800ffffffff001800180018001800180018ffffffff> PTRN} bind def
/Pattern26 {<1111b8b87c7c3a3a1111a3a3c7c78b8b1111b8b87c7c3a3a1111a3a3c7c78b8b> PTRN} bind def
/Pattern27 {<101010102828c7c70101010182827c7c101010102828c7c70101010182827c7c> PTRN} bind def
/Pattern28 {<1c1c121211112121c1c12121111112121c1c121211112121c1c1212111111212> PTRN} bind def
/Pattern29 {<3e3e414180808080e3e31414080808083e3e414180808080e3e3141408080808> PTRN} bind def
/Pattern30 {<4848888884848383848488884848383848488888848483838484888848483838> PTRN} bind def
/Pattern31 {<03030404080808080c0c12122121c0c003030404080808080c0c12122121c0c0> PTRN} bind def
/ellipsedict 8 dict def
ellipsedict /mtrx matrix put
/EARC {
 ellipsedict begin
  /endangle exch def
  /startangle exch def
  /yrad exch def
  /xrad exch def
  /y exch def
  /x exch def
  /savematrix mtrx currentmatrix def
  x y translate
  xrad yrad scale
  0 0 1 startangle endangle arc
  savematrix setmatrix
 end
} def
/TL {
  /kcomp exch def
  /linewidth exch def
  /offset exch def
  GS
  0 offset rmoveto
  linewidth SLW
  dup stringwidth exch kcomp add exch RL s
  GR
} def
/KINIT
{
 /kvector exch def
 /kid 0 def
} def
/KPROC
{
 pop pop
 kvector kid get
 0 rmoveto
 /kid 1 kid add def
} def
/DefEncoding [
 /.notdef
 /.notdef
 /.notdef
 /.notdef
 /.notdef
 /.notdef
 /.notdef
 /.notdef
 /.notdef
 /.notdef
 /.notdef
 /.notdef
 /.notdef
 /.notdef
 /.notdef
 /.notdef
 /.notdef
 /.notdef
 /.notdef
 /.notdef
 /.notdef
 /.notdef
 /.notdef
 /.notdef
 /.notdef
 /.notdef
 /.notdef
 /.notdef
 /.notdef
 /.notdef
 /.notdef
 /.notdef
 /space
 /exclam
 /quotedbl
 /numbersign
 /dollar
 /percent
 /ampersand
 /quoteright
 /parenleft
 /parenright
 /asterisk
 /plus
 /comma
 /hyphen
 /period
 /slash
 /zero
 /one
 /two
 /three
 /four
 /five
 /six
 /seven
 /eight
 /nine
 /colon
 /semicolon
 /less
 /equal
 /greater
 /question
 /at
 /A
 /B
 /C
 /D
 /E
 /F
 /G
 /H
 /I
 /J
 /K
 /L
 /M
 /N
 /O
 /P
 /Q
 /R
 /S
 /T
 /U
 /V
 /W
 /X
 /Y
 /Z
 /bracketleft
 /backslash
 /bracketright
 /asciicircum
 /underscore
 /grave
 /a
 /b
 /c
 /d
 /e
 /f
 /g
 /h
 /i
 /j
 /k
 /l
 /m
 /n
 /o
 /p
 /q
 /r
 /s
 /t
 /u
 /v
 /w
 /x
 /y
 /z
 /braceleft
 /bar
 /braceright
 /asciitilde
 /.notdef
 /.notdef
 /.notdef
 /.notdef
 /.notdef
 /.notdef
 /.notdef
 /.notdef
 /.notdef
 /.notdef
 /.notdef
 /.notdef
 /.notdef
 /.notdef
 /.notdef
 /.notdef
 /.notdef
 /.notdef
 /.notdef
 /.notdef
 /.notdef
 /.notdef
 /.notdef
 /.notdef
 /.notdef
 /.notdef
 /.notdef
 /.notdef
 /.notdef
 /.notdef
 /.notdef
 /.notdef
 /.notdef
 /space
 /exclamdown
 /cent
 /sterling
 /currency
 /yen
 /brokenbar
 /section
 /dieresis
 /copyright
 /ordfeminine
 /guillemotleft
 /logicalnot
 /hyphen
 /registered
 /macron
 /degree
 /plusminus
 /twosuperior
 /threesuperior
 /acute
 /mu
 /paragraph
 /periodcentered
 /cedilla
 /onesuperior
 /ordmasculine
 /guillemotright
 /onequarter
 /onehalf
 /threequarters
 /questiondown
 /Agrave
 /Aacute
 /Acircumflex
 /Atilde
 /Adieresis
 /Aring
 /AE
 /Ccedilla
 /Egrave
 /Eacute
 /Ecircumflex
 /Edieresis
 /Igrave
 /Iacute
 /Icircumflex
 /Idieresis
 /Eth
 /Ntilde
 /Ograve
 /Oacute
 /Ocircumflex
 /Otilde
 /Odieresis
 /multiply
 /Oslash
 /Ugrave
 /Uacute
 /Ucircumflex
 /Udieresis
 /Yacute
 /Thorn
 /germandbls
 /agrave
 /aacute
 /acircumflex
 /atilde
 /adieresis
 /aring
 /ae
 /ccedilla
 /egrave
 /eacute
 /ecircumflex
 /edieresis
 /igrave
 /iacute
 /icircumflex
 /idieresis
 /eth
 /ntilde
 /ograve
 /oacute
 /ocircumflex
 /otilde
 /odieresis
 /divide
 /oslash
 /ugrave
 /uacute
 /ucircumflex
 /udieresis
 /yacute
 /thorn
 /ydieresis
] def
%%EndProlog
%%BeginSetup
%%EndSetup
612.00 612.00 scale
n
0.4648 0.1500 m
0.4648 0.7435 l
0.4942 0.7337 l
0.5236 0.7244 l
0.5530 0.7164 l
0.5824 0.7098 l
0.6118 0.7044 l
0.6412 0.6994 l
0.6705 0.6945 l
0.6999 0.6899 l
0.7293 0.6857 l
0.7587 0.6820 l
0.7881 0.6783 l
0.8175 0.6747 l
0.8469 0.6712 l
0.8763 0.6679 l
0.9056 0.6651 l
0.9350 0.6625 l
0.9644 0.6601 l
0.9938 0.6578 l
1.0232 0.6553 l
1.0526 0.6526 l
1.0820 0.6498 l
1.1114 0.6471 l
1.1407 0.6448 l
1.1500 0.6442 l
1.1500 0.1500 l
1.1500 0.1500 l
c
GS
[/DeviceRGB] SCS
Color0 SRGB
fill
GR
[/Pattern /DeviceRGB] SCS
Color9 Pattern5 SC
fill
[/DeviceRGB] SCS
Color2 SC
[] 0 SD
0.0030 SLW
0 SLC
0 SLJ
n
0.4648 0.7435 m
0.4942 0.7337 l
0.5236 0.7244 l
0.5530 0.7164 l
0.5824 0.7098 l
0.6118 0.7044 l
0.6412 0.6994 l
0.6705 0.6945 l
0.6999 0.6899 l
0.7293 0.6857 l
0.7587 0.6820 l
0.7881 0.6783 l
0.8175 0.6747 l
0.8469 0.6712 l
0.8763 0.6679 l
0.9056 0.6651 l
0.9350 0.6625 l
0.9644 0.6601 l
0.9938 0.6578 l
1.0232 0.6553 l
1.0526 0.6526 l
1.0820 0.6498 l
1.1114 0.6471 l
1.1407 0.6448 l
1.1501 0.6442 l
s
n
0.4648 0.1500 m
0.4648 0.6210 l
0.4700 0.6210 l
0.4833 0.6208 l
0.4967 0.6206 l
0.5100 0.6204 l
0.5233 0.6202 l
0.5367 0.6201 l
0.5500 0.6198 l
0.5633 0.6197 l
0.5767 0.6194 l
0.5900 0.6192 l
0.6033 0.6191 l
0.6167 0.6189 l
0.6300 0.6187 l
0.6433 0.6185 l
0.6567 0.6183 l
0.6700 0.6181 l
0.6833 0.6178 l
0.6967 0.6176 l
0.7100 0.6174 l
0.7233 0.6171 l
0.7367 0.6169 l
0.7500 0.6166 l
0.7633 0.6164 l
0.7767 0.6161 l
0.7900 0.6158 l
0.8033 0.6156 l
0.8167 0.6153 l
0.8300 0.6150 l
0.8433 0.6148 l
0.8567 0.6145 l
0.8700 0.6142 l
0.8833 0.6138 l
0.8967 0.6136 l
0.9100 0.6133 l
0.9233 0.6130 l
0.9367 0.6127 l
0.9500 0.6123 l
0.9633 0.6121 l
0.9767 0.6118 l
0.9900 0.6114 l
1.0033 0.6111 l
1.0167 0.6107 l
1.0300 0.6104 l
1.0433 0.6100 l
1.0567 0.6097 l
1.0700 0.6095 l
1.0833 0.6093 l
1.0967 0.6089 l
1.1100 0.6084 l
1.1233 0.6080 l
1.1367 0.6076 l
1.1500 0.6072 l
1.1500 0.6072 l
1.1500 0.1500 l
1.1500 0.1500 l
c
[/DeviceRGB] SCS
Color0 SC
fill
[/DeviceRGB] SCS
Color4 SC
n
0.4648 0.6210 m
0.4700 0.6210 l
0.4833 0.6208 l
0.4967 0.6206 l
0.5100 0.6204 l
0.5233 0.6202 l
0.5367 0.6201 l
0.5500 0.6198 l
0.5633 0.6197 l
0.5767 0.6194 l
0.5900 0.6192 l
0.6033 0.6191 l
0.6167 0.6189 l
0.6300 0.6187 l
0.6433 0.6185 l
0.6567 0.6183 l
0.6700 0.6181 l
0.6833 0.6178 l
0.6967 0.6176 l
0.7100 0.6174 l
0.7233 0.6171 l
0.7367 0.6169 l
0.7500 0.6166 l
0.7633 0.6164 l
0.7767 0.6161 l
0.7900 0.6158 l
0.8033 0.6156 l
0.8167 0.6153 l
0.8300 0.6150 l
0.8433 0.6148 l
0.8567 0.6145 l
0.8700 0.6142 l
0.8833 0.6138 l
0.8967 0.6136 l
0.9100 0.6133 l
0.9233 0.6130 l
0.9367 0.6127 l
0.9500 0.6123 l
0.9633 0.6121 l
0.9767 0.6118 l
0.9900 0.6114 l
1.0033 0.6111 l
1.0167 0.6107 l
1.0300 0.6104 l
1.0433 0.6100 l
1.0567 0.6097 l
1.0700 0.6095 l
1.0833 0.6093 l
1.0967 0.6089 l
1.1100 0.6084 l
1.1233 0.6080 l
1.1367 0.6076 l
1.1500 0.6072 l
1.1501 0.6072 l
s
[/DeviceRGB] SCS
Color7 SC
[0.0210 0.0090 ] 0 SD
0.0030 SLW
n
0.1500 0.7333 m
1.1501 0.7333 l
s
[/DeviceRGB] SCS
Color2 SC
[] 0 SD
0.0015 SLW
n
0.4833 0.6167 m
0.5167 0.6167 l
s
n
0.5167 0.6367 m
0.5167 0.5967 l
s
n
0.4833 0.6167 m
0.4500 0.6167 l
s
n
0.4500 0.5967 m
0.4500 0.6367 l
s
n
0.4833 0.6167 m
0.4833 0.7917 l
s
n
0.4633 0.7917 m
0.5033 0.7917 l
s
n
0.4833 0.6167 m
0.4833 0.4417 l
s
n
0.5033 0.4417 m
0.4633 0.4417 l
s
n
0.4833 0.6167 0.0100 0.0100 0 360 EARC c
fill
n 0.4833 0.6167 0.0100 0.0100 0 360 EARC s
[/DeviceRGB] SCS
Color9 SC
n
0.4833 0.6167 m
0.4833 0.7917 l
s
n
0.4733 0.7917 m
0.4933 0.7917 l
s
n
0.4833 0.6167 m
0.4833 0.4417 l
s
n
0.4933 0.4417 m
0.4733 0.4417 l
s
[/DeviceRGB] SCS
Color1 SC
n
0.1500 0.1500 m
1.1500 0.1500 l
s
n
0.1500 0.8500 m
1.1500 0.8500 l
s
[] 0 SD
0.0030 SLW
n
0.3167 0.1500 m
0.3167 0.1600 l
s
n
0.3167 0.8500 m
0.3167 0.8400 l
s
n
0.6500 0.1500 m
0.6500 0.1600 l
s
n
0.6500 0.8500 m
0.6500 0.8400 l
s
n
0.9833 0.1500 m
0.9833 0.1600 l
s
n
0.9833 0.8500 m
0.9833 0.8400 l
s
n
0.1500 0.1500 m
0.1500 0.1700 l
s
n
0.1500 0.8500 m
0.1500 0.8300 l
s
n
0.4833 0.1500 m
0.4833 0.1700 l
s
n
0.4833 0.8500 m
0.4833 0.8300 l
s
n
0.8167 0.1500 m
0.8167 0.1700 l
s
n
0.8167 0.8500 m
0.8167 0.8300 l
s
n
1.1500 0.1500 m
1.1500 0.1700 l
s
n
1.1500 0.8500 m
1.1500 0.8300 l
s
/Times-Roman findfont
dup length dict begin
 {1 index /FID ne {def} {pop pop} ifelse} forall
 /Encoding DefEncoding def
 currentdict
end
/Font0 exch definefont pop
/Font0 FFSF
0.1367 0.1020 m
GS
[0.0560 0.0000 0.0000 0.0560 0 0] CC
(0) show
GR
/Font0 FFSF
0.4710 0.1016 m
GS
[0.0560 0.0000 0.0000 0.0560 0 0] CC
(5) show
GR
/Font0 FFSF
0.7892 0.1020 m
GS
[0.0560 0.0000 0.0000 0.0560 0 0] CC
(10) show
GR
/Font0 FFSF
1.1237 0.1016 m
GS
[0.0560 0.0000 0.0000 0.0560 0 0] CC
(15) show
GR
/Font0 FFSF
0.5535 0.0527 m
GS
[0.0560 0.0000 0.0000 0.0560 0 0] CC
(p) show
GR
/Font0 FFSF
0.5818 0.0303 m
GS
[0.0396 0.0000 0.0000 0.0396 0 0] CC
(T) show
GR
/Font0 FFSF
0.6061 0.0527 m
GS
[0.0560 0.0000 0.0000 0.0560 0 0] CC
(\(GeV\)) show
GR
[] 0 SD
0.0015 SLW
n
0.1500 0.1500 m
0.1500 0.8500 l
s
n
1.1500 0.1500 m
1.1500 0.8500 l
s
[] 0 SD
0.0030 SLW
n
0.1500 0.2083 m
0.1600 0.2083 l
s
n
1.1500 0.2083 m
1.1400 0.2083 l
s
n
0.1500 0.3250 m
0.1600 0.3250 l
s
n
1.1500 0.3250 m
1.1400 0.3250 l
s
n
0.1500 0.4417 m
0.1600 0.4417 l
s
n
1.1500 0.4417 m
1.1400 0.4417 l
s
n
0.1500 0.5583 m
0.1600 0.5583 l
s
n
1.1500 0.5583 m
1.1400 0.5583 l
s
n
0.1500 0.6750 m
0.1600 0.6750 l
s
n
1.1500 0.6750 m
1.1400 0.6750 l
s
n
0.1500 0.7917 m
0.1600 0.7917 l
s
n
1.1500 0.7917 m
1.1400 0.7917 l
s
n
0.1500 0.1500 m
0.1700 0.1500 l
s
n
1.1500 0.1500 m
1.1300 0.1500 l
s
n
0.1500 0.2667 m
0.1700 0.2667 l
s
n
1.1500 0.2667 m
1.1300 0.2667 l
s
n
0.1500 0.3833 m
0.1700 0.3833 l
s
n
1.1500 0.3833 m
1.1300 0.3833 l
s
n
0.1500 0.5000 m
0.1700 0.5000 l
s
n
1.1500 0.5000 m
1.1300 0.5000 l
s
n
0.1500 0.6167 m
0.1700 0.6167 l
s
n
1.1500 0.6167 m
1.1300 0.6167 l
s
n
0.1500 0.7333 m
0.1700 0.7333 l
s
n
1.1500 0.7333 m
1.1300 0.7333 l
s
/Font0 FFSF
0.1133 0.1314 m
GS
[0.0560 0.0000 0.0000 0.0560 0 0] CC
(0) show
GR
/Font0 FFSF
0.0714 0.2480 m
GS
[0.0560 0.0000 0.0000 0.0560 0 0] CC
(0.2) show
GR
/Font0 FFSF
0.0714 0.3647 m
GS
[0.0560 0.0000 0.0000 0.0560 0 0] CC
(0.4) show
GR
/Font0 FFSF
0.0718 0.4812 m
GS
[0.0560 0.0000 0.0000 0.0560 0 0] CC
(0.6) show
GR
/Font0 FFSF
0.0729 0.5980 m
GS
[0.0560 0.0000 0.0000 0.0560 0 0] CC
(0.8) show
GR
/Font0 FFSF
0.1176 0.7143 m
GS
[0.0560 0.0000 0.0000 0.0560 0 0] CC
(1) show
GR
/Font0 FFSF
0.0385 0.3075 m
GS
[0.0000 0.0560 -0.0560 0.0000 0 0] CC
(R) show
GR
/Font0 FFSF
0.0609 0.3447 m
GS
[0.0000 0.0396 -0.0396 0.0000 0 0] CC
(pA) show
GR
/Font0 FFSF
0.0385 0.3933 m
GS
[0.0000 0.0560 -0.0560 0.0000 0 0] CC
(\(p) show
GR
/Font0 FFSF
0.0609 0.4400 m
GS
[0.0000 0.0396 -0.0396 0.0000 0 0] CC
(T) show
GR
/Font0 FFSF
0.0385 0.4643 m
GS
[0.0000 0.0560 -0.0560 0.0000 0 0] CC
(\), R) show
GR
/Font0 FFSF
0.0609 0.5482 m
GS
[0.0000 0.0396 -0.0396 0.0000 0 0] CC
(AA) show
GR
/Font0 FFSF
0.0385 0.6055 m
GS
[0.0000 0.0560 -0.0560 0.0000 0 0] CC
(\(p) show
GR
/Font0 FFSF
0.0609 0.6522 m
GS
[0.0000 0.0396 -0.0396 0.0000 0 0] CC
(T) show
GR
/Font0 FFSF
0.0385 0.6765 m
GS
[0.0000 0.0560 -0.0560 0.0000 0 0] CC
(\)) show
GR
n
0.1500 0.1500 m
0.1500 0.8500 l
1.1500 0.8500 l
1.1500 0.1500 l
0.1500 0.1500 l
c
s
/Symbol findfont
/Font12 exch definefont pop
/Font12 FFSF
0.2277 0.2598 m
GS
[0.0420 0.0000 0.0000 0.0420 0 0] CC
(U) show
GR
/Font0 FFSF
0.2567 0.2598 m
GS
[0.0420 0.0000 0.0000 0.0420 0 0] CC
(\(1S\)+) show
GR
/Font12 FFSF
0.3528 0.2598 m
GS
[0.0420 0.0000 0.0000 0.0420 0 0] CC
(U) show
GR
/Font0 FFSF
0.3818 0.2598 m
GS
[0.0420 0.0000 0.0000 0.0420 0 0] CC
(\(2S\)+) show
GR
/Font12 FFSF
0.4779 0.2598 m
GS
[0.0420 0.0000 0.0000 0.0420 0 0] CC
(U) show
GR
/Font0 FFSF
0.5069 0.2598 m
GS
[0.0420 0.0000 0.0000 0.0420 0 0] CC
(\(3S\)) show
GR
/Helvetica findfont
dup length dict begin
 {1 index /FID ne {def} {pop pop} ifelse} forall
 /Encoding DefEncoding def
 currentdict
end
/Font4 exch definefont pop
/Font4 FFSF
0.5795 0.2598 m
GS
[0.0420 0.0000 0.0000 0.0420 0 0] CC
( at RHIC ) show
GR
/Font4 FFSF
0.2130 0.2010 m
GS
[0.0420 0.0000 0.0000 0.0420 0 0] CC
( CNM effects, s) show
GR
/Font4 FFSF
0.5000 0.2262 m
GS
[0.0297 0.0000 0.0000 0.0297 0 0] CC
(1/2) show
GR
/Font4 FFSF
0.5416 0.2010 m
GS
[0.0420 0.0000 0.0000 0.0420 0 0] CC
( = 200 GeV ) show
GR
n
0.7000 0.8600 m
0.7000 0.7484 l
1.1580 0.7484 l
1.1580 0.8600 l
c
[/DeviceRGB] SCS
Color0 SC
fill
[/DeviceRGB] SCS
Color1 SC
[] 0 SD
0.0015 SLW
n
0.7000 0.8600 m
0.7000 0.7484 l
1.1580 0.7484 l
1.1580 0.8600 l
0.7000 0.8600 l
c
s
/Font4 FFSF
0.7715 0.8186 m
GS
[0.0420 0.0000 0.0000 0.0420 0 0] CC
(p+Au with Cronin) show
GR
[/DeviceRGB] SCS
Color2 SC
[] 0 SD
0.0030 SLW
n
0.7115 0.8296 m
0.7515 0.8296 l
s
/Font4 FFSF
[/DeviceRGB] SCS
Color1 SC
0.7715 0.7678 m
GS
[0.0420 0.0000 0.0000 0.0420 0 0] CC
(p+Au without Cronin) show
GR
[/DeviceRGB] SCS
Color4 SC
n
0.7115 0.7788 m
0.7515 0.7788 l
s
%%Trailer
%%BoundingBox: -1 17 721 528
%%DocumentNeededResources: font Times-Roman
%%+ font Helvetica
%%+ font Symbol
%%EOF
