%!PS-Adobe-1.0
%%Creator: Unified Graphics System
%%Pages: (atend)
%%DocumentFonts: Helvetica
%%BoundingBox:   73  260  417  591
%%EndComments
/Sw{setlinewidth}def
/Sg{setgray}def
/Sd{setdash}def
/P {newpath
    moveto
0 0 rlineto
    stroke}def
/M {moveto}def
/D {lineto}def
/N {newpath}def
/S {stroke}def
/T {/Helvetica findfont
    exch
    scalefont
    setfont}def
/R {rotate}def
/W {show}def
/F {fill}def
/X {gsave}def
/Y {grestore}def
%%EndProlog
%%Page: 1 1
0.12000 0.12000 scale
1 setlinecap
1 setlinejoin
8 Sw
0.00 0.00 0.00 setrgbcolor
[] 0 Sd
N
2229 2278 M
2252 2226 D
S
N
2233 2278 M
2252 2233 D
S
N
2274 2278 M
2252 2226 D
2244 2211 D
2237 2203 D
2229 2200 D
2226 2200 D
2222 2203 D
2226 2207 D
2229 2203 D
S
N
2222 2278 M
2244 2278 D
S
N
2259 2278 M
2282 2278 D
S
N
656 3490 M
735 3490 D
S
N
656 3494 M
735 3494 D
S
N
656 3479 M
656 3524 D
660 3535 D
664 3539 D
671 3543 D
679 3543 D
686 3539 D
690 3535 D
694 3524 D
694 3494 D
S
N
656 3524 M
660 3532 D
664 3535 D
671 3539 D
679 3539 D
686 3535 D
690 3532 D
694 3524 D
S
N
735 3479 M
735 3505 D
S
N
694 3513 M
698 3520 D
701 3524 D
728 3535 D
731 3539 D
731 3543 D
728 3547 D
S
N
698 3520 M
705 3524 D
731 3532 D
735 3535 D
735 3543 D
728 3547 D
724 3547 D
S
N
745 3572 M
798 3572 D
S
N
745 3574 M
798 3574 D
S
N
753 3574 M
748 3579 D
745 3584 D
745 3589 D
748 3597 D
753 3602 D
760 3604 D
765 3604 D
773 3602 D
778 3597 D
780 3589 D
780 3584 D
778 3579 D
773 3574 D
S
N
745 3589 M
748 3594 D
753 3599 D
760 3602 D
765 3602 D
773 3599 D
778 3594 D
780 3589 D
S
N
745 3564 M
745 3574 D
S
N
798 3564 M
798 3582 D
S
N
728 3624 M
780 3624 D
S
N
728 3627 M
780 3627 D
S
N
728 3617 M
728 3647 D
730 3654 D
733 3657 D
738 3659 D
745 3659 D
750 3657 D
753 3654 D
755 3647 D
755 3627 D
S
N
728 3647 M
730 3652 D
733 3654 D
738 3657 D
745 3657 D
750 3654 D
752 3652 D
755 3647 D
S
N
780 3617 M
780 3634 D
S
N
727 3679 M
780 3679 D
S
N
727 3682 M
780 3682 D
S
N
752 3682 M
747 3687 D
745 3692 D
745 3697 D
747 3704 D
752 3709 D
760 3712 D
765 3712 D
772 3709 D
777 3704 D
780 3697 D
780 3692 D
777 3687 D
772 3682 D
S
N
745 3697 M
747 3702 D
752 3707 D
760 3709 D
765 3709 D
772 3707 D
777 3702 D
780 3697 D
S
N
727 3672 M
727 3682 D
S
N
641 3755 M
649 3748 D
660 3740 D
675 3733 D
694 3729 D
709 3729 D
727 3733 D
742 3740 D
754 3748 D
761 3755 D
S
N
649 3748 M
664 3740 D
675 3737 D
694 3733 D
709 3733 D
727 3737 D
739 3740 D
754 3748 D
S
N
682 3782 M
735 3804 D
S
N
682 3785 M
727 3804 D
S
N
682 3827 M
735 3804 D
750 3797 D
757 3789 D
761 3782 D
761 3778 D
757 3774 D
754 3778 D
757 3782 D
S
N
682 3774 M
682 3797 D
S
N
682 3812 M
682 3834 D
S
N
641 3849 M
649 3857 D
660 3864 D
675 3872 D
694 3875 D
709 3875 D
727 3872 D
742 3864 D
754 3857 D
761 3849 D
S
N
649 3857 M
664 3864 D
675 3868 D
694 3872 D
709 3872 D
727 3868 D
739 3864 D
754 3857 D
S
N
1050 4881 M
1050 2481 D
S
N
1050 2481 M
3450 2481 D
S
N
3450 2481 M
3450 4881 D
S
N
3450 4881 M
1050 4881 D
S
N
1050 4195 M
3450 4195 D
S
N
1113 2481 M
1113 2511 D
S
N
1239 2571 M
1239 2481 D
S
N
1366 2481 M
1366 2511 D
S
N
1492 2571 M
1492 2481 D
S
N
1618 2481 M
1618 2511 D
S
N
1745 2571 M
1745 2481 D
S
N
1871 2481 M
1871 2511 D
S
N
1997 2571 M
1997 2481 D
S
N
2124 2481 M
2124 2511 D
S
N
2250 2571 M
2250 2481 D
S
N
2376 2481 M
2376 2511 D
S
N
2503 2571 M
2503 2481 D
S
N
2629 2481 M
2629 2511 D
S
N
2755 2571 M
2755 2481 D
S
N
2882 2481 M
2882 2511 D
S
N
3008 2571 M
3008 2481 D
S
N
3134 2481 M
3134 2511 D
S
N
3261 2571 M
3261 2481 D
S
N
3387 2481 M
3387 2511 D
S
N
1192 2402 M
1237 2402 D
S
N
1277 2426 M
1277 2379 D
S
N
1279 2431 M
1279 2379 D
S
N
1279 2431 M
1252 2394 D
1292 2394 D
S
N
1269 2379 M
1287 2379 D
S
N
1445 2402 M
1490 2402 D
S
N
1509 2421 M
1512 2419 D
1509 2416 D
1507 2419 D
1507 2421 D
1509 2426 D
1512 2429 D
1519 2431 D
1529 2431 D
1537 2429 D
1539 2424 D
1539 2416 D
1537 2411 D
1529 2409 D
1522 2409 D
S
N
1529 2431 M
1534 2429 D
1537 2424 D
1537 2416 D
1534 2411 D
1529 2409 D
S
N
1529 2409 M
1534 2407 D
1539 2402 D
1542 2397 D
1542 2389 D
1539 2384 D
1537 2382 D
1529 2379 D
1519 2379 D
1512 2382 D
1509 2384 D
1507 2389 D
1507 2392 D
1509 2394 D
1512 2392 D
1509 2389 D
S
N
1537 2404 M
1539 2397 D
1539 2389 D
1537 2384 D
1534 2382 D
1529 2379 D
S
N
1697 2402 M
1742 2402 D
S
N
1762 2421 M
1765 2419 D
1762 2416 D
1760 2419 D
1760 2421 D
1762 2426 D
1765 2429 D
1772 2431 D
1782 2431 D
1790 2429 D
1792 2426 D
1795 2421 D
1795 2416 D
1792 2411 D
1785 2407 D
1772 2402 D
1767 2399 D
1762 2394 D
1760 2387 D
1760 2379 D
S
N
1782 2431 M
1787 2429 D
1790 2426 D
1792 2421 D
1792 2416 D
1790 2411 D
1782 2407 D
1772 2402 D
S
N
1760 2384 M
1762 2387 D
1767 2387 D
1780 2382 D
1787 2382 D
1792 2384 D
1795 2387 D
S
N
1767 2387 M
1780 2379 D
1790 2379 D
1792 2382 D
1795 2387 D
1795 2392 D
S
N
1950 2402 M
1995 2402 D
S
N
2020 2421 M
2025 2424 D
2032 2431 D
2032 2379 D
S
N
2030 2429 M
2030 2379 D
S
N
2020 2379 M
2042 2379 D
S
N
2248 2431 M
2240 2429 D
2235 2421 D
2233 2409 D
2233 2402 D
2235 2389 D
2240 2382 D
2248 2379 D
2253 2379 D
2260 2382 D
2265 2389 D
2267 2402 D
2267 2409 D
2265 2421 D
2260 2429 D
2253 2431 D
2248 2431 D
S
N
2248 2431 M
2243 2429 D
2240 2426 D
2238 2421 D
2235 2409 D
2235 2402 D
2238 2389 D
2240 2384 D
2243 2382 D
2248 2379 D
S
N
2253 2379 M
2257 2382 D
2260 2384 D
2262 2389 D
2265 2402 D
2265 2409 D
2262 2421 D
2260 2426 D
2257 2429 D
2253 2431 D
S
N
2493 2421 M
2498 2424 D
2505 2431 D
2505 2379 D
S
N
2503 2429 M
2503 2379 D
S
N
2493 2379 M
2515 2379 D
S
N
2740 2421 M
2743 2419 D
2740 2416 D
2738 2419 D
2738 2421 D
2740 2426 D
2743 2429 D
2750 2431 D
2760 2431 D
2768 2429 D
2770 2426 D
2773 2421 D
2773 2416 D
2770 2411 D
2763 2407 D
2750 2402 D
2745 2399 D
2740 2394 D
2738 2387 D
2738 2379 D
S
N
2760 2431 M
2765 2429 D
2768 2426 D
2770 2421 D
2770 2416 D
2768 2411 D
2760 2407 D
2750 2402 D
S
N
2738 2384 M
2740 2387 D
2745 2387 D
2758 2382 D
2765 2382 D
2770 2384 D
2773 2387 D
S
N
2745 2387 M
2758 2379 D
2768 2379 D
2770 2382 D
2773 2387 D
2773 2392 D
S
N
2993 2421 M
2995 2419 D
2993 2416 D
2990 2419 D
2990 2421 D
2993 2426 D
2995 2429 D
3003 2431 D
3013 2431 D
3020 2429 D
3023 2424 D
3023 2416 D
3020 2411 D
3013 2409 D
3005 2409 D
S
N
3013 2431 M
3018 2429 D
3020 2424 D
3020 2416 D
3018 2411 D
3013 2409 D
S
N
3013 2409 M
3018 2407 D
3023 2402 D
3025 2397 D
3025 2389 D
3023 2384 D
3020 2382 D
3013 2379 D
3003 2379 D
2995 2382 D
2993 2384 D
2990 2389 D
2990 2392 D
2993 2394 D
2995 2392 D
2993 2389 D
S
N
3020 2404 M
3023 2397 D
3023 2389 D
3020 2384 D
3018 2382 D
3013 2379 D
S
N
3266 2426 M
3266 2379 D
S
N
3268 2431 M
3268 2379 D
S
N
3268 2431 M
3241 2394 D
3280 2394 D
S
N
3258 2379 M
3276 2379 D
S
N
1113 4851 M
1113 4881 D
S
N
1239 4881 M
1239 4791 D
S
N
1366 4851 M
1366 4881 D
S
N
1492 4881 M
1492 4791 D
S
N
1618 4851 M
1618 4881 D
S
N
1745 4881 M
1745 4791 D
S
N
1871 4851 M
1871 4881 D
S
N
1997 4881 M
1997 4791 D
S
N
2124 4851 M
2124 4881 D
S
N
2250 4881 M
2250 4791 D
S
N
2376 4851 M
2376 4881 D
S
N
2503 4881 M
2503 4791 D
S
N
2629 4851 M
2629 4881 D
S
N
2755 4881 M
2755 4791 D
S
N
2882 4851 M
2882 4881 D
S
N
3008 4881 M
3008 4791 D
S
N
3134 4851 M
3134 4881 D
S
N
3261 4881 M
3261 4791 D
S
N
3387 4851 M
3387 4881 D
S
N
1050 2481 M
1140 2481 D
S
N
1080 2652 M
1050 2652 D
S
N
1050 2824 M
1140 2824 D
S
N
1080 2995 M
1050 2995 D
S
N
1050 3167 M
1140 3167 D
S
N
1080 3338 M
1050 3338 D
S
N
1050 3510 M
1140 3510 D
S
N
1080 3681 M
1050 3681 D
S
N
1050 3852 M
1140 3852 D
S
N
1080 4024 M
1050 4024 D
S
N
1050 4195 M
1140 4195 D
S
N
1080 4367 M
1050 4367 D
S
N
1050 4538 M
1140 4538 D
S
N
1080 4710 M
1050 4710 D
S
N
1050 4881 M
1140 4881 D
S
N
918 2503 M
910 2501 D
905 2493 D
903 2481 D
903 2474 D
905 2461 D
910 2454 D
918 2451 D
923 2451 D
930 2454 D
935 2461 D
937 2474 D
937 2481 D
935 2493 D
930 2501 D
923 2503 D
918 2503 D
S
N
918 2503 M
913 2501 D
910 2498 D
908 2493 D
905 2481 D
905 2474 D
908 2461 D
910 2456 D
913 2454 D
918 2451 D
S
N
923 2451 M
927 2454 D
930 2456 D
932 2461 D
935 2474 D
935 2481 D
932 2493 D
930 2498 D
927 2501 D
923 2503 D
S
N
957 2456 M
955 2454 D
957 2451 D
960 2454 D
957 2456 D
S
N
992 2503 M
985 2501 D
980 2493 D
977 2481 D
977 2474 D
980 2461 D
985 2454 D
992 2451 D
997 2451 D
1005 2454 D
1010 2461 D
1012 2474 D
1012 2481 D
1010 2493 D
1005 2501 D
997 2503 D
992 2503 D
S
N
992 2503 M
987 2501 D
985 2498 D
982 2493 D
980 2481 D
980 2474 D
982 2461 D
985 2456 D
987 2454 D
992 2451 D
S
N
997 2451 M
1002 2454 D
1005 2456 D
1007 2461 D
1010 2474 D
1010 2481 D
1007 2493 D
1005 2498 D
1002 2501 D
997 2503 D
S
N
918 2846 M
910 2844 D
905 2836 D
903 2824 D
903 2816 D
905 2804 D
910 2796 D
918 2794 D
923 2794 D
930 2796 D
935 2804 D
937 2816 D
937 2824 D
935 2836 D
930 2844 D
923 2846 D
918 2846 D
S
N
918 2846 M
913 2844 D
910 2841 D
908 2836 D
905 2824 D
905 2816 D
908 2804 D
910 2799 D
913 2796 D
918 2794 D
S
N
923 2794 M
927 2796 D
930 2799 D
932 2804 D
935 2816 D
935 2824 D
932 2836 D
930 2841 D
927 2844 D
923 2846 D
S
N
957 2799 M
955 2796 D
957 2794 D
960 2796 D
957 2799 D
S
N
980 2836 M
982 2834 D
980 2831 D
977 2834 D
977 2836 D
980 2841 D
982 2844 D
990 2846 D
1000 2846 D
1007 2844 D
1010 2841 D
1012 2836 D
1012 2831 D
1010 2826 D
1002 2821 D
990 2816 D
985 2814 D
980 2809 D
977 2801 D
977 2794 D
S
N
1000 2846 M
1005 2844 D
1007 2841 D
1010 2836 D
1010 2831 D
1007 2826 D
1000 2821 D
990 2816 D
S
N
977 2799 M
980 2801 D
985 2801 D
997 2796 D
1005 2796 D
1010 2799 D
1012 2801 D
S
N
985 2801 M
997 2794 D
1007 2794 D
1010 2796 D
1012 2801 D
1012 2806 D
S
N
918 3189 M
910 3187 D
905 3179 D
903 3167 D
903 3159 D
905 3147 D
910 3139 D
918 3137 D
923 3137 D
930 3139 D
935 3147 D
937 3159 D
937 3167 D
935 3179 D
930 3187 D
923 3189 D
918 3189 D
S
N
918 3189 M
913 3187 D
910 3184 D
908 3179 D
905 3167 D
905 3159 D
908 3147 D
910 3142 D
913 3139 D
918 3137 D
S
N
923 3137 M
927 3139 D
930 3142 D
932 3147 D
935 3159 D
935 3167 D
932 3179 D
930 3184 D
927 3187 D
923 3189 D
S
N
957 3142 M
955 3139 D
957 3137 D
960 3139 D
957 3142 D
S
N
1000 3184 M
1000 3137 D
S
N
1002 3189 M
1002 3137 D
S
N
1002 3189 M
975 3152 D
1015 3152 D
S
N
992 3137 M
1010 3137 D
S
N
918 3532 M
910 3530 D
905 3522 D
903 3510 D
903 3502 D
905 3490 D
910 3482 D
918 3480 D
923 3480 D
930 3482 D
935 3490 D
937 3502 D
937 3510 D
935 3522 D
930 3530 D
923 3532 D
918 3532 D
S
N
918 3532 M
913 3530 D
910 3527 D
908 3522 D
905 3510 D
905 3502 D
908 3490 D
910 3485 D
913 3482 D
918 3480 D
S
N
923 3480 M
927 3482 D
930 3485 D
932 3490 D
935 3502 D
935 3510 D
932 3522 D
930 3527 D
927 3530 D
923 3532 D
S
N
957 3485 M
955 3482 D
957 3480 D
960 3482 D
957 3485 D
S
N
1007 3525 M
1005 3522 D
1007 3520 D
1010 3522 D
1010 3525 D
1007 3530 D
1002 3532 D
995 3532 D
987 3530 D
982 3525 D
980 3520 D
977 3510 D
977 3495 D
980 3487 D
985 3482 D
992 3480 D
997 3480 D
1005 3482 D
1010 3487 D
1012 3495 D
1012 3497 D
1010 3505 D
1005 3510 D
997 3512 D
995 3512 D
987 3510 D
982 3505 D
980 3497 D
S
N
995 3532 M
990 3530 D
985 3525 D
982 3520 D
980 3510 D
980 3495 D
982 3487 D
987 3482 D
992 3480 D
S
N
997 3480 M
1002 3482 D
1007 3487 D
1010 3495 D
1010 3497 D
1007 3505 D
1002 3510 D
997 3512 D
S
N
918 3875 M
910 3872 D
905 3865 D
903 3852 D
903 3845 D
905 3832 D
910 3825 D
918 3823 D
923 3823 D
930 3825 D
935 3832 D
937 3845 D
937 3852 D
935 3865 D
930 3872 D
923 3875 D
918 3875 D
S
N
918 3875 M
913 3872 D
910 3870 D
908 3865 D
905 3852 D
905 3845 D
908 3832 D
910 3827 D
913 3825 D
918 3823 D
S
N
923 3823 M
927 3825 D
930 3827 D
932 3832 D
935 3845 D
935 3852 D
932 3865 D
930 3870 D
927 3872 D
923 3875 D
S
N
957 3827 M
955 3825 D
957 3823 D
960 3825 D
957 3827 D
S
N
990 3875 M
982 3872 D
980 3867 D
980 3860 D
982 3855 D
990 3852 D
1000 3852 D
1007 3855 D
1010 3860 D
1010 3867 D
1007 3872 D
1000 3875 D
990 3875 D
S
N
990 3875 M
985 3872 D
982 3867 D
982 3860 D
985 3855 D
990 3852 D
S
N
1000 3852 M
1005 3855 D
1007 3860 D
1007 3867 D
1005 3872 D
1000 3875 D
S
N
990 3852 M
982 3850 D
980 3847 D
977 3842 D
977 3832 D
980 3827 D
982 3825 D
990 3823 D
1000 3823 D
1007 3825 D
1010 3827 D
1012 3832 D
1012 3842 D
1010 3847 D
1007 3850 D
1000 3852 D
S
N
990 3852 M
985 3850 D
982 3847 D
980 3842 D
980 3832 D
982 3827 D
985 3825 D
990 3823 D
S
N
1000 3823 M
1005 3825 D
1007 3827 D
1010 3832 D
1010 3842 D
1007 3847 D
1005 3850 D
1000 3852 D
S
N
910 4208 M
915 4210 D
923 4218 D
923 4165 D
S
N
920 4215 M
920 4165 D
S
N
910 4165 M
932 4165 D
S
N
957 4170 M
955 4168 D
957 4165 D
960 4168 D
957 4170 D
S
N
992 4218 M
985 4215 D
980 4208 D
977 4195 D
977 4188 D
980 4175 D
985 4168 D
992 4165 D
997 4165 D
1005 4168 D
1010 4175 D
1012 4188 D
1012 4195 D
1010 4208 D
1005 4215 D
997 4218 D
992 4218 D
S
N
992 4218 M
987 4215 D
985 4213 D
982 4208 D
980 4195 D
980 4188 D
982 4175 D
985 4170 D
987 4168 D
992 4165 D
S
N
997 4165 M
1002 4168 D
1005 4170 D
1007 4175 D
1010 4188 D
1010 4195 D
1007 4208 D
1005 4213 D
1002 4215 D
997 4218 D
S
N
910 4551 M
915 4553 D
923 4561 D
923 4508 D
S
N
920 4558 M
920 4508 D
S
N
910 4508 M
932 4508 D
S
N
957 4513 M
955 4511 D
957 4508 D
960 4511 D
957 4513 D
S
N
980 4551 M
982 4548 D
980 4546 D
977 4548 D
977 4551 D
980 4556 D
982 4558 D
990 4561 D
1000 4561 D
1007 4558 D
1010 4556 D
1012 4551 D
1012 4546 D
1010 4541 D
1002 4536 D
990 4531 D
985 4528 D
980 4523 D
977 4516 D
977 4508 D
S
N
1000 4561 M
1005 4558 D
1007 4556 D
1010 4551 D
1010 4546 D
1007 4541 D
1000 4536 D
990 4531 D
S
N
977 4513 M
980 4516 D
985 4516 D
997 4511 D
1005 4511 D
1010 4513 D
1012 4516 D
S
N
985 4516 M
997 4508 D
1007 4508 D
1010 4511 D
1012 4516 D
1012 4521 D
S
N
910 4893 M
915 4896 D
923 4903 D
923 4851 D
S
N
920 4901 M
920 4851 D
S
N
910 4851 M
932 4851 D
S
N
957 4856 M
955 4854 D
957 4851 D
960 4854 D
957 4856 D
S
N
1000 4898 M
1000 4851 D
S
N
1002 4903 M
1002 4851 D
S
N
1002 4903 M
975 4866 D
1015 4866 D
S
N
992 4851 M
1010 4851 D
S
N
3360 2481 M
3450 2481 D
S
N
3450 2652 M
3420 2652 D
S
N
3360 2824 M
3450 2824 D
S
N
3450 2995 M
3420 2995 D
S
N
3360 3167 M
3450 3167 D
S
N
3450 3338 M
3420 3338 D
S
N
3360 3510 M
3450 3510 D
S
N
3450 3681 M
3420 3681 D
S
N
3360 3852 M
3450 3852 D
S
N
3450 4024 M
3420 4024 D
S
N
3360 4195 M
3450 4195 D
S
N
3450 4367 M
3420 4367 D
S
N
3360 4538 M
3450 4538 D
S
N
3450 4710 M
3420 4710 D
S
N
3360 4881 M
3450 4881 D
S
N
1884 4649 M
1884 4661 D
1891 4674 D
1897 4680 D
1909 4680 D
1916 4674 D
1922 4661 D
1928 4636 D
1928 4549 D
S
N
1884 4661 M
1897 4674 D
1909 4674 D
1922 4661 D
S
N
1978 4649 M
1978 4661 D
1972 4674 D
1966 4680 D
1953 4680 D
1947 4674 D
1941 4661 D
1934 4636 D
1934 4549 D
S
N
1978 4661 M
1966 4674 D
1953 4674 D
1941 4661 D
S
N
1909 4549 M
1953 4549 D
S
N
1597 3195 M
1597 3129 D
S
N
1600 3195 M
1600 3129 D
S
N
1618 3176 M
1618 3151 D
S
N
1587 3195 M
1637 3195 D
1637 3176 D
1634 3195 D
S
N
1600 3164 M
1618 3164 D
S
N
1587 3129 M
1637 3129 D
1637 3148 D
1634 3129 D
S
N
1662 3195 M
1662 3129 D
S
N
1665 3195 M
1665 3129 D
S
N
1653 3195 M
1690 3195 D
1700 3192 D
1703 3189 D
1706 3182 D
1706 3173 D
1703 3167 D
1700 3164 D
1690 3160 D
1665 3160 D
S
N
1690 3195 M
1697 3192 D
1700 3189 D
1703 3182 D
1703 3173 D
1700 3167 D
1697 3164 D
1690 3160 D
S
N
1653 3129 M
1675 3129 D
S
N
1766 3186 M
1769 3195 D
1769 3176 D
1766 3186 D
1759 3192 D
1750 3195 D
1741 3195 D
1731 3192 D
1725 3186 D
1725 3179 D
1728 3173 D
1731 3170 D
1737 3167 D
1756 3160 D
1762 3157 D
1769 3151 D
S
N
1725 3179 M
1731 3173 D
1737 3170 D
1756 3164 D
1762 3160 D
1766 3157 D
1769 3151 D
1769 3139 D
1762 3132 D
1753 3129 D
1744 3129 D
1734 3132 D
1728 3139 D
1725 3148 D
1725 3129 D
1728 3139 D
S
N
1806 3195 M
1797 3192 D
1791 3182 D
1788 3167 D
1788 3157 D
1791 3142 D
1797 3132 D
1806 3129 D
1813 3129 D
1822 3132 D
1828 3142 D
1831 3157 D
1831 3167 D
1828 3182 D
1822 3192 D
1813 3195 D
1806 3195 D
S
N
1806 3195 M
1800 3192 D
1797 3189 D
1794 3182 D
1791 3167 D
1791 3157 D
1794 3142 D
1797 3135 D
1800 3132 D
1806 3129 D
S
N
1813 3129 M
1819 3132 D
1822 3135 D
1825 3142 D
1828 3157 D
1828 3167 D
1825 3182 D
1822 3189 D
1819 3192 D
1813 3195 D
S
N
1891 3173 M
1888 3164 D
1881 3157 D
1872 3154 D
1869 3154 D
1860 3157 D
1853 3164 D
1850 3173 D
1850 3176 D
1853 3186 D
1860 3192 D
1869 3195 D
1875 3195 D
1885 3192 D
1891 3186 D
1894 3176 D
1894 3157 D
1891 3145 D
1888 3139 D
1881 3132 D
1872 3129 D
1863 3129 D
1856 3132 D
1853 3139 D
1853 3142 D
1856 3145 D
1860 3142 D
1856 3139 D
S
N
1869 3154 M
1863 3157 D
1856 3164 D
1853 3173 D
1853 3176 D
1856 3186 D
1863 3192 D
1869 3195 D
S
N
1875 3195 M
1881 3192 D
1888 3186 D
1891 3176 D
1891 3157 D
1888 3145 D
1885 3139 D
1878 3132 D
1872 3129 D
S
N
1969 3195 M
1969 3129 D
S
N
1972 3195 M
2010 3135 D
S
N
1972 3189 M
2010 3129 D
S
N
2010 3195 M
2010 3129 D
S
N
1960 3195 M
1972 3195 D
S
N
2000 3195 M
2019 3195 D
S
N
1960 3129 M
1979 3129 D
S
N
2041 3195 M
2041 3129 D
S
N
2044 3195 M
2044 3129 D
S
N
2032 3195 M
2054 3195 D
S
N
2032 3129 M
2079 3129 D
2079 3148 D
2076 3129 D
S
N
2113 3195 M
2104 3192 D
2098 3186 D
2094 3179 D
2091 3167 D
2091 3157 D
2094 3145 D
2098 3139 D
2104 3132 D
2113 3129 D
2119 3129 D
2129 3132 D
2135 3139 D
2138 3145 D
2141 3157 D
2141 3167 D
2138 3179 D
2135 3186 D
2129 3192 D
2119 3195 D
2113 3195 D
S
N
2113 3195 M
2107 3192 D
2101 3186 D
2098 3179 D
2094 3167 D
2094 3157 D
2098 3145 D
2101 3139 D
2107 3132 D
2113 3129 D
S
N
2119 3129 M
2126 3132 D
2132 3139 D
2135 3145 D
2138 3157 D
2138 3167 D
2135 3179 D
2132 3186 D
2126 3192 D
2119 3195 D
S
N
1597 3023 M
1597 2958 D
S
N
1600 3023 M
1637 2964 D
S
N
1600 3017 M
1637 2958 D
S
N
1637 3023 M
1637 2958 D
S
N
1587 3023 M
1600 3023 D
S
N
1628 3023 M
1647 3023 D
S
N
1587 2958 M
1606 2958 D
S
N
1669 3023 M
1669 2958 D
S
N
1672 3023 M
1672 2958 D
S
N
1659 3023 M
1681 3023 D
S
N
1659 2958 M
1706 2958 D
1706 2976 D
1703 2958 D
S
N
1741 3023 M
1731 3020 D
1725 3014 D
1722 3008 D
1719 2995 D
1719 2986 D
1722 2973 D
1725 2967 D
1731 2961 D
1741 2958 D
1747 2958 D
1756 2961 D
1762 2967 D
1766 2973 D
1769 2986 D
1769 2995 D
1766 3008 D
1762 3014 D
1756 3020 D
1747 3023 D
1741 3023 D
S
N
1741 3023 M
1734 3020 D
1728 3014 D
1725 3008 D
1722 2995 D
1722 2986 D
1725 2973 D
1728 2967 D
1734 2961 D
1741 2958 D
S
N
1747 2958 M
1753 2961 D
1759 2967 D
1762 2973 D
1766 2986 D
1766 2995 D
1762 3008 D
1759 3014 D
1753 3020 D
1747 3023 D
S
N
1844 3002 M
1844 2958 D
S
N
1847 3002 M
1847 2958 D
S
N
1847 2992 M
1853 2998 D
1863 3002 D
1869 3002 D
1878 2998 D
1881 2992 D
1881 2958 D
S
N
1869 3002 M
1875 2998 D
1878 2992 D
1878 2958 D
S
N
1834 3002 M
1847 3002 D
S
N
1834 2958 M
1856 2958 D
S
N
1869 2958 M
1891 2958 D
S
N
1913 3023 M
1913 2958 D
S
N
1916 3023 M
1916 2958 D
S
N
1903 3023 M
1941 3023 D
1950 3020 D
1953 3017 D
1957 3011 D
1957 3002 D
1953 2995 D
1950 2992 D
1941 2989 D
1916 2989 D
S
N
1941 3023 M
1947 3020 D
1950 3017 D
1953 3011 D
1953 3002 D
1950 2995 D
1947 2992 D
1941 2989 D
S
N
1903 2958 M
1925 2958 D
S
N
1982 3023 M
1982 2958 D
S
N
1985 3023 M
1985 2958 D
S
N
1972 3023 M
2004 3023 D
2013 3020 D
2019 3014 D
2022 3008 D
2025 2998 D
2025 2983 D
2022 2973 D
2019 2967 D
2013 2961 D
2004 2958 D
1972 2958 D
S
N
2004 3023 M
2010 3020 D
2016 3014 D
2019 3008 D
2022 2998 D
2022 2983 D
2019 2973 D
2016 2967 D
2010 2961 D
2004 2958 D
S
N
2051 3023 M
2051 2958 D
S
N
2054 3023 M
2054 2958 D
S
N
2072 3005 M
2072 2980 D
S
N
2041 3023 M
2091 3023 D
2091 3005 D
2088 3023 D
S
N
2054 2992 M
2072 2992 D
S
N
2041 2958 M
2063 2958 D
S
N
2163 3002 M
2163 2967 D
2166 2961 D
2176 2958 D
2182 2958 D
2191 2961 D
2198 2967 D
S
N
2166 3002 M
2166 2967 D
2170 2961 D
2176 2958 D
S
N
2198 3002 M
2198 2958 D
S
N
2201 3002 M
2201 2958 D
S
N
2154 3002 M
2166 3002 D
S
N
2188 3002 M
2201 3002 D
S
N
2198 2958 M
2210 2958 D
S
N
2232 3002 M
2232 2958 D
S
N
2235 3002 M
2235 2958 D
S
N
2235 2992 M
2242 2998 D
2251 3002 D
2257 3002 D
2267 2998 D
2270 2992 D
2270 2958 D
S
N
2257 3002 M
2263 2998 D
2267 2992 D
2267 2958 D
S
N
2223 3002 M
2235 3002 D
S
N
2223 2958 M
2245 2958 D
S
N
2257 2958 M
2279 2958 D
S
N
2332 2992 M
2329 2989 D
2332 2986 D
2335 2989 D
2335 2992 D
2329 2998 D
2323 3002 D
2314 3002 D
2304 2998 D
2298 2992 D
2295 2983 D
2295 2976 D
2298 2967 D
2304 2961 D
2314 2958 D
2320 2958 D
2329 2961 D
2335 2967 D
S
N
2314 3002 M
2307 2998 D
2301 2992 D
2298 2983 D
2298 2976 D
2301 2967 D
2307 2961 D
2314 2958 D
S
N
2357 2983 M
2395 2983 D
2395 2989 D
2392 2995 D
2389 2998 D
2382 3002 D
2373 3002 D
2364 2998 D
2357 2992 D
2354 2983 D
2354 2976 D
2357 2967 D
2364 2961 D
2373 2958 D
2379 2958 D
2389 2961 D
2395 2967 D
S
N
2392 2983 M
2392 2992 D
2389 2998 D
S
N
2373 3002 M
2367 2998 D
2361 2992 D
2357 2983 D
2357 2976 D
2361 2967 D
2367 2961 D
2373 2958 D
S
N
2420 3002 M
2420 2958 D
S
N
2423 3002 M
2423 2958 D
S
N
2423 2983 M
2426 2992 D
2433 2998 D
2439 3002 D
2448 3002 D
2451 2998 D
2451 2995 D
2448 2992 D
2445 2995 D
2448 2998 D
S
N
2411 3002 M
2423 3002 D
S
N
2411 2958 M
2433 2958 D
S
N
2473 3023 M
2473 2970 D
2476 2961 D
2483 2958 D
2489 2958 D
2495 2961 D
2498 2967 D
S
N
2476 3023 M
2476 2970 D
2480 2961 D
2483 2958 D
S
N
2464 3002 M
2489 3002 D
S
N
2520 2995 M
2520 2992 D
2517 2992 D
2517 2995 D
2520 2998 D
2526 3002 D
2539 3002 D
2545 2998 D
2548 2995 D
2552 2989 D
2552 2967 D
2555 2961 D
2558 2958 D
S
N
2548 2995 M
2548 2967 D
2552 2961 D
2558 2958 D
2561 2958 D
S
N
2548 2989 M
2545 2986 D
2526 2983 D
2517 2980 D
2514 2973 D
2514 2967 D
2517 2961 D
2526 2958 D
2536 2958 D
2542 2961 D
2548 2967 D
S
N
2526 2983 M
2520 2980 D
2517 2973 D
2517 2967 D
2520 2961 D
2526 2958 D
S
N
2583 3023 M
2580 3020 D
2583 3017 D
2586 3020 D
2583 3023 D
S
N
2583 3002 M
2583 2958 D
S
N
2586 3002 M
2586 2958 D
S
N
2573 3002 M
2586 3002 D
S
N
2573 2958 M
2595 2958 D
S
N
2617 3002 M
2617 2958 D
S
N
2620 3002 M
2620 2958 D
S
N
2620 2992 M
2627 2998 D
2636 3002 D
2642 3002 D
2652 2998 D
2655 2992 D
2655 2958 D
S
N
2642 3002 M
2649 2998 D
2652 2992 D
2652 2958 D
S
N
2608 3002 M
2620 3002 D
S
N
2608 2958 M
2630 2958 D
S
N
2642 2958 M
2664 2958 D
S
N
2686 3023 M
2686 2970 D
2689 2961 D
2696 2958 D
2702 2958 D
2708 2961 D
2711 2967 D
S
N
2689 3023 M
2689 2970 D
2692 2961 D
2696 2958 D
S
N
2677 3002 M
2702 3002 D
S
N
2733 3023 M
2730 3020 D
2733 3017 D
2736 3020 D
2733 3023 D
S
N
2733 3002 M
2733 2958 D
S
N
2736 3002 M
2736 2958 D
S
N
2724 3002 M
2736 3002 D
S
N
2724 2958 M
2746 2958 D
S
N
2764 2983 M
2802 2983 D
2802 2989 D
2799 2995 D
2796 2998 D
2790 3002 D
2780 3002 D
2771 2998 D
2764 2992 D
2761 2983 D
2761 2976 D
2764 2967 D
2771 2961 D
2780 2958 D
2786 2958 D
2796 2961 D
2802 2967 D
S
N
2799 2983 M
2799 2992 D
2796 2998 D
S
N
2780 3002 M
2774 2998 D
2768 2992 D
2764 2983 D
2764 2976 D
2768 2967 D
2774 2961 D
2780 2958 D
S
N
2852 2995 M
2855 3002 D
2855 2989 D
2852 2995 D
2849 2998 D
2843 3002 D
2830 3002 D
2824 2998 D
2821 2995 D
2821 2989 D
2824 2986 D
2830 2983 D
2846 2976 D
2852 2973 D
2855 2970 D
S
N
2821 2992 M
2824 2989 D
2830 2986 D
2846 2980 D
2852 2976 D
2855 2973 D
2855 2964 D
2852 2961 D
2846 2958 D
2833 2958 D
2827 2961 D
2824 2964 D
2821 2970 D
2821 2958 D
2824 2964 D
S
N
1597 2852 M
1597 2786 D
S
N
1600 2852 M
1600 2786 D
S
N
1618 2833 M
1618 2808 D
S
N
1587 2852 M
1637 2852 D
1637 2833 D
1634 2852 D
S
N
1600 2821 M
1618 2821 D
S
N
1587 2786 M
1637 2786 D
1637 2805 D
1634 2786 D
S
N
1662 2852 M
1662 2786 D
S
N
1665 2852 M
1665 2786 D
S
N
1653 2852 M
1690 2852 D
1700 2849 D
1703 2846 D
1706 2840 D
1706 2830 D
1703 2824 D
1700 2821 D
1690 2818 D
1665 2818 D
S
N
1690 2852 M
1697 2849 D
1700 2846 D
1703 2840 D
1703 2830 D
1700 2824 D
1697 2821 D
1690 2818 D
S
N
1653 2786 M
1675 2786 D
S
N
1766 2843 M
1769 2852 D
1769 2833 D
1766 2843 D
1759 2849 D
1750 2852 D
1741 2852 D
1731 2849 D
1725 2843 D
1725 2836 D
1728 2830 D
1731 2827 D
1737 2824 D
1756 2818 D
1762 2814 D
1769 2808 D
S
N
1725 2836 M
1731 2830 D
1737 2827 D
1756 2821 D
1762 2818 D
1766 2814 D
1769 2808 D
1769 2796 D
1762 2789 D
1753 2786 D
1744 2786 D
1734 2789 D
1728 2796 D
1725 2805 D
1725 2786 D
1728 2796 D
S
N
1806 2852 M
1797 2849 D
1791 2840 D
1788 2824 D
1788 2814 D
1791 2799 D
1797 2789 D
1806 2786 D
1813 2786 D
1822 2789 D
1828 2799 D
1831 2814 D
1831 2824 D
1828 2840 D
1822 2849 D
1813 2852 D
1806 2852 D
S
N
1806 2852 M
1800 2849 D
1797 2846 D
1794 2840 D
1791 2824 D
1791 2814 D
1794 2799 D
1797 2793 D
1800 2789 D
1806 2786 D
S
N
1813 2786 M
1819 2789 D
1822 2793 D
1825 2799 D
1828 2814 D
1828 2824 D
1825 2840 D
1822 2846 D
1819 2849 D
1813 2852 D
S
N
1891 2830 M
1888 2821 D
1881 2814 D
1872 2811 D
1869 2811 D
1860 2814 D
1853 2821 D
1850 2830 D
1850 2833 D
1853 2843 D
1860 2849 D
1869 2852 D
1875 2852 D
1885 2849 D
1891 2843 D
1894 2833 D
1894 2814 D
1891 2802 D
1888 2796 D
1881 2789 D
1872 2786 D
1863 2786 D
1856 2789 D
1853 2796 D
1853 2799 D
1856 2802 D
1860 2799 D
1856 2796 D
S
N
1869 2811 M
1863 2814 D
1856 2821 D
1853 2830 D
1853 2833 D
1856 2843 D
1863 2849 D
1869 2852 D
S
N
1875 2852 M
1881 2849 D
1888 2843 D
1891 2833 D
1891 2814 D
1888 2802 D
1885 2796 D
1878 2789 D
1872 2786 D
S
N
1969 2852 M
1969 2786 D
S
N
1972 2852 M
1972 2786 D
S
N
1960 2852 M
1982 2852 D
S
N
1960 2786 M
2007 2786 D
2007 2805 D
2004 2786 D
S
N
2041 2852 M
2032 2849 D
2025 2843 D
2022 2836 D
2019 2824 D
2019 2814 D
2022 2802 D
2025 2796 D
2032 2789 D
2041 2786 D
2047 2786 D
2057 2789 D
2063 2796 D
2066 2802 D
2069 2814 D
2069 2824 D
2066 2836 D
2063 2843 D
2057 2849 D
2047 2852 D
2041 2852 D
S
N
2041 2852 M
2035 2849 D
2029 2843 D
2025 2836 D
2022 2824 D
2022 2814 D
2025 2802 D
2029 2796 D
2035 2789 D
2041 2786 D
S
N
2047 2786 M
2054 2789 D
2060 2796 D
2063 2802 D
2066 2814 D
2066 2824 D
2063 2836 D
2060 2843 D
2054 2849 D
2047 2852 D
S
N
1597 2681 M
1597 2615 D
S
N
1600 2681 M
1600 2615 D
S
N
1587 2681 M
1609 2681 D
S
N
1587 2615 M
1634 2615 D
1634 2634 D
1631 2615 D
S
N
1669 2681 M
1659 2677 D
1653 2671 D
1650 2665 D
1647 2652 D
1647 2643 D
1650 2631 D
1653 2624 D
1659 2618 D
1669 2615 D
1675 2615 D
1684 2618 D
1690 2624 D
1694 2631 D
1697 2643 D
1697 2652 D
1694 2665 D
1690 2671 D
1684 2677 D
1675 2681 D
1669 2681 D
S
N
1669 2681 M
1662 2677 D
1656 2671 D
1653 2665 D
1650 2652 D
1650 2643 D
1653 2631 D
1656 2624 D
1662 2618 D
1669 2615 D
S
N
1675 2615 M
1681 2618 D
1687 2624 D
1690 2631 D
1694 2643 D
1694 2652 D
1690 2665 D
1687 2671 D
1681 2677 D
1675 2681 D
S
N
1772 2659 M
1772 2615 D
S
N
1775 2659 M
1775 2615 D
S
N
1775 2649 M
1781 2656 D
1791 2659 D
1797 2659 D
1806 2656 D
1809 2649 D
1809 2615 D
S
N
1797 2659 M
1803 2656 D
1806 2649 D
1806 2615 D
S
N
1762 2659 M
1775 2659 D
S
N
1762 2615 M
1784 2615 D
S
N
1797 2615 M
1819 2615 D
S
N
1841 2681 M
1841 2615 D
S
N
1844 2681 M
1844 2615 D
S
N
1831 2681 M
1869 2681 D
1878 2677 D
1881 2674 D
1885 2668 D
1885 2659 D
1881 2652 D
1878 2649 D
1869 2646 D
1844 2646 D
S
N
1869 2681 M
1875 2677 D
1878 2674 D
1881 2668 D
1881 2659 D
1878 2652 D
1875 2649 D
1869 2646 D
S
N
1831 2615 M
1853 2615 D
S
N
1910 2681 M
1910 2615 D
S
N
1913 2681 M
1913 2615 D
S
N
1900 2681 M
1932 2681 D
1941 2677 D
1947 2671 D
1950 2665 D
1953 2656 D
1953 2640 D
1950 2631 D
1947 2624 D
1941 2618 D
1932 2615 D
1900 2615 D
S
N
1932 2681 M
1938 2677 D
1944 2671 D
1947 2665 D
1950 2656 D
1950 2640 D
1947 2631 D
1944 2624 D
1938 2618 D
1932 2615 D
S
N
1979 2681 M
1979 2615 D
S
N
1982 2681 M
1982 2615 D
S
N
2000 2662 M
2000 2637 D
S
N
1969 2681 M
2019 2681 D
2019 2662 D
2016 2681 D
S
N
1982 2649 M
2000 2649 D
S
N
1969 2615 M
1991 2615 D
S
N
2091 2659 M
2091 2624 D
2094 2618 D
2104 2615 D
2110 2615 D
2119 2618 D
2126 2624 D
S
N
2094 2659 M
2094 2624 D
2098 2618 D
2104 2615 D
S
N
2126 2659 M
2126 2615 D
S
N
2129 2659 M
2129 2615 D
S
N
2082 2659 M
2094 2659 D
S
N
2116 2659 M
2129 2659 D
S
N
2126 2615 M
2138 2615 D
S
N
2160 2659 M
2160 2615 D
S
N
2163 2659 M
2163 2615 D
S
N
2163 2649 M
2170 2656 D
2179 2659 D
2185 2659 D
2195 2656 D
2198 2649 D
2198 2615 D
S
N
2185 2659 M
2191 2656 D
2195 2649 D
2195 2615 D
S
N
2151 2659 M
2163 2659 D
S
N
2151 2615 M
2173 2615 D
S
N
2185 2615 M
2207 2615 D
S
N
2260 2649 M
2257 2646 D
2260 2643 D
2263 2646 D
2263 2649 D
2257 2656 D
2251 2659 D
2242 2659 D
2232 2656 D
2226 2649 D
2223 2640 D
2223 2634 D
2226 2624 D
2232 2618 D
2242 2615 D
2248 2615 D
2257 2618 D
2263 2624 D
S
N
2242 2659 M
2235 2656 D
2229 2649 D
2226 2640 D
2226 2634 D
2229 2624 D
2235 2618 D
2242 2615 D
S
N
2285 2640 M
2323 2640 D
2323 2646 D
2320 2652 D
2317 2656 D
2310 2659 D
2301 2659 D
2292 2656 D
2285 2649 D
2282 2640 D
2282 2634 D
2285 2624 D
2292 2618 D
2301 2615 D
2307 2615 D
2317 2618 D
2323 2624 D
S
N
2320 2640 M
2320 2649 D
2317 2656 D
S
N
2301 2659 M
2295 2656 D
2289 2649 D
2285 2640 D
2285 2634 D
2289 2624 D
2295 2618 D
2301 2615 D
S
N
2348 2659 M
2348 2615 D
S
N
2351 2659 M
2351 2615 D
S
N
2351 2640 M
2354 2649 D
2361 2656 D
2367 2659 D
2376 2659 D
2379 2656 D
2379 2652 D
2376 2649 D
2373 2652 D
2376 2656 D
S
N
2339 2659 M
2351 2659 D
S
N
2339 2615 M
2361 2615 D
S
N
2401 2681 M
2401 2627 D
2404 2618 D
2411 2615 D
2417 2615 D
2423 2618 D
2426 2624 D
S
N
2404 2681 M
2404 2627 D
2407 2618 D
2411 2615 D
S
N
2392 2659 M
2417 2659 D
S
N
2448 2652 M
2448 2649 D
2445 2649 D
2445 2652 D
2448 2656 D
2454 2659 D
2467 2659 D
2473 2656 D
2476 2652 D
2480 2646 D
2480 2624 D
2483 2618 D
2486 2615 D
S
N
2476 2652 M
2476 2624 D
2480 2618 D
2486 2615 D
2489 2615 D
S
N
2476 2646 M
2473 2643 D
2454 2640 D
2445 2637 D
2442 2631 D
2442 2624 D
2445 2618 D
2454 2615 D
2464 2615 D
2470 2618 D
2476 2624 D
S
N
2454 2640 M
2448 2637 D
2445 2631 D
2445 2624 D
2448 2618 D
2454 2615 D
S
N
2511 2681 M
2508 2677 D
2511 2674 D
2514 2677 D
2511 2681 D
S
N
2511 2659 M
2511 2615 D
S
N
2514 2659 M
2514 2615 D
S
N
2501 2659 M
2514 2659 D
S
N
2501 2615 M
2523 2615 D
S
N
2545 2659 M
2545 2615 D
S
N
2548 2659 M
2548 2615 D
S
N
2548 2649 M
2555 2656 D
2564 2659 D
2570 2659 D
2580 2656 D
2583 2649 D
2583 2615 D
S
N
2570 2659 M
2577 2656 D
2580 2649 D
2580 2615 D
S
N
2536 2659 M
2548 2659 D
S
N
2536 2615 M
2558 2615 D
S
N
2570 2615 M
2592 2615 D
S
N
2614 2681 M
2614 2627 D
2617 2618 D
2624 2615 D
2630 2615 D
2636 2618 D
2639 2624 D
S
N
2617 2681 M
2617 2627 D
2620 2618 D
2624 2615 D
S
N
2605 2659 M
2630 2659 D
S
N
2661 2681 M
2658 2677 D
2661 2674 D
2664 2677 D
2661 2681 D
S
N
2661 2659 M
2661 2615 D
S
N
2664 2659 M
2664 2615 D
S
N
2652 2659 M
2664 2659 D
S
N
2652 2615 M
2674 2615 D
S
N
2692 2640 M
2730 2640 D
2730 2646 D
2727 2652 D
2724 2656 D
2717 2659 D
2708 2659 D
2699 2656 D
2692 2649 D
2689 2640 D
2689 2634 D
2692 2624 D
2699 2618 D
2708 2615 D
2714 2615 D
2724 2618 D
2730 2624 D
S
N
2727 2640 M
2727 2649 D
2724 2656 D
S
N
2708 2659 M
2702 2656 D
2696 2649 D
2692 2640 D
2692 2634 D
2696 2624 D
2702 2618 D
2708 2615 D
S
N
2780 2652 M
2783 2659 D
2783 2646 D
2780 2652 D
2777 2656 D
2771 2659 D
2758 2659 D
2752 2656 D
2749 2652 D
2749 2646 D
2752 2643 D
2758 2640 D
2774 2634 D
2780 2631 D
2783 2627 D
S
N
2749 2649 M
2752 2646 D
2758 2643 D
2774 2637 D
2780 2634 D
2783 2631 D
2783 2621 D
2780 2618 D
2774 2615 D
2761 2615 D
2755 2618 D
2752 2621 D
2749 2627 D
2749 2615 D
2752 2621 D
S
1.00 0.00 0.00 setrgbcolor
N
1239 3167 M
1492 3167 D
S
[39] 0 Sd
N
1239 2995 M
1492 2995 D
S
1.00 0.00 1.00 setrgbcolor
[] 0 Sd
N
1239 2824 M
1492 2824 D
S
[39] 0 Sd
N
1239 2652 M
1492 2652 D
S
1.00 0.00 0.00 setrgbcolor
[] 0 Sd
N
1050 4117 M
1113 4117 D
1113 4243 D
1239 4243 D
1239 4355 D
1366 4355 D
1366 4397 D
1492 4397 D
1492 4345 D
1618 4345 D
1618 4302 D
1745 4302 D
1745 4241 D
1871 4241 D
1871 4190 D
1997 4190 D
1997 4166 D
2124 4166 D
2124 4140 D
2250 4140 D
2250 4122 D
2376 4122 D
2376 4109 D
2503 4109 D
2503 4087 D
2629 4087 D
2629 4080 D
2755 4080 D
2755 4075 D
2882 4075 D
2882 4046 D
3008 4046 D
3008 4046 D
3134 4046 D
3134 4032 D
3261 4032 D
3261 4011 D
3387 4011 D
3387 4034 D
3450 4034 D
S
3450 2481 P
[39] 0 Sd
N
1050 4248 M
1113 4248 D
1113 4319 D
1239 4319 D
1239 4461 D
1366 4461 D
1366 4501 D
1492 4501 D
1492 4432 D
1618 4432 D
1618 4356 D
1745 4356 D
1745 4279 D
1871 4279 D
1871 4246 D
1997 4246 D
1997 4224 D
2124 4224 D
2124 4215 D
2250 4215 D
2250 4204 D
2376 4204 D
2376 4191 D
2503 4191 D
2503 4186 D
2629 4186 D
2629 4178 D
2755 4178 D
2755 4173 D
2882 4173 D
2882 4162 D
3008 4162 D
3008 4158 D
3134 4158 D
3134 4155 D
3261 4155 D
3261 4127 D
3387 4127 D
3387 4155 D
3450 4155 D
S
[] 0 Sd
3450 2481 P
[39] 0 Sd
N
1050 3946 M
1113 3946 D
1113 4157 D
1239 4157 D
1239 4268 D
1366 4268 D
1366 4279 D
1492 4279 D
1492 4259 D
1618 4259 D
1618 4246 D
1745 4246 D
1745 4189 D
1871 4189 D
1871 4143 D
1997 4143 D
1997 4103 D
2124 4103 D
2124 4071 D
2250 4071 D
2250 4043 D
2376 4043 D
2376 4017 D
2503 4017 D
2503 3994 D
2629 3994 D
2629 3973 D
2755 3973 D
2755 3966 D
2882 3966 D
2882 3931 D
3008 3931 D
3008 3925 D
3134 3925 D
3134 3919 D
3261 3919 D
3261 3888 D
3387 3888 D
3387 3905 D
3450 3905 D
S
[] 0 Sd
3450 2481 P
1.00 0.00 1.00 setrgbcolor
N
1050 4313 M
1058 4322 D
1084 4350 D
1113 4375 D
1136 4393 D
1161 4410 D
1186 4425 D
1212 4438 D
1239 4448 D
1260 4454 D
1280 4459 D
1300 4462 D
1321 4461 D
1341 4457 D
1362 4449 D
1383 4439 D
1404 4429 D
1423 4416 D
1442 4403 D
1462 4386 D
1482 4369 D
1502 4352 D
1523 4336 D
1543 4319 D
1563 4301 D
1583 4284 D
1603 4267 D
1623 4249 D
1644 4232 D
1663 4216 D
1683 4201 D
1703 4186 D
1724 4171 D
1745 4157 D
1764 4144 D
1784 4132 D
1805 4120 D
1825 4108 D
1846 4097 D
1866 4087 D
1886 4077 D
1906 4068 D
1926 4058 D
1947 4050 D
1967 4041 D
1987 4033 D
2007 4025 D
2027 4018 D
2048 4011 D
2068 4004 D
2088 3998 D
2108 3991 D
2129 3985 D
2149 3979 D
2169 3974 D
2189 3968 D
2209 3963 D
2230 3957 D
2250 3952 D
2270 3947 D
2290 3943 D
2311 3938 D
2331 3933 D
2351 3929 D
2371 3925 D
2391 3921 D
2412 3917 D
2432 3913 D
2452 3909 D
2472 3905 D
2493 3901 D
2513 3897 D
2533 3893 D
2553 3890 D
2573 3886 D
2594 3882 D
2614 3879 D
2634 3875 D
2654 3872 D
2674 3868 D
2695 3865 D
2715 3862 D
2735 3858 D
2755 3855 D
2775 3852 D
2796 3849 D
2816 3846 D
2836 3843 D
2856 3840 D
2877 3837 D
2897 3834 D
2917 3831 D
2937 3828 D
2957 3825 D
2978 3823 D
2998 3820 D
3018 3818 D
3038 3815 D
3058 3812 D
3079 3810 D
3099 3807 D
3119 3805 D
3139 3802 D
3159 3800 D
3180 3797 D
3200 3794 D
3220 3792 D
3240 3789 D
3261 3787 D
3286 3783 D
3311 3780 D
3336 3777 D
3362 3774 D
3387 3770 D
3412 3767 D
3437 3763 D
3450 3761 D
S
[39] 0 Sd
N
1050 4530 M
1063 4531 D
1089 4536 D
1113 4543 D
1140 4557 D
1164 4576 D
1188 4595 D
1213 4613 D
1239 4627 D
1260 4633 D
1281 4637 D
1301 4637 D
1321 4634 D
1341 4627 D
1364 4612 D
1386 4595 D
1406 4576 D
1424 4556 D
1442 4534 D
1463 4504 D
1482 4474 D
1502 4443 D
1522 4412 D
1543 4383 D
1561 4358 D
1579 4333 D
1598 4310 D
1619 4289 D
1644 4272 D
1663 4262 D
1683 4254 D
1703 4246 D
1724 4240 D
1745 4235 D
1765 4230 D
1785 4225 D
1805 4220 D
1825 4215 D
1846 4212 D
1866 4209 D
1886 4206 D
1906 4203 D
1927 4200 D
1947 4198 D
1967 4195 D
1987 4193 D
2007 4190 D
2028 4188 D
2048 4186 D
2068 4184 D
2088 4182 D
2109 4180 D
2129 4178 D
2149 4176 D
2169 4174 D
2189 4173 D
2210 4171 D
2230 4169 D
2250 4167 D
2270 4165 D
2290 4163 D
2311 4162 D
2331 4160 D
2351 4158 D
2371 4156 D
2391 4154 D
2412 4152 D
2432 4151 D
2452 4149 D
2472 4148 D
2493 4146 D
2513 4145 D
2533 4144 D
2553 4143 D
2573 4141 D
2594 4140 D
2614 4139 D
2634 4138 D
2654 4137 D
2674 4136 D
2695 4135 D
2715 4133 D
2735 4132 D
2755 4131 D
2775 4130 D
2796 4129 D
2816 4128 D
2836 4127 D
2856 4126 D
2877 4125 D
2897 4124 D
2917 4123 D
2937 4122 D
2957 4121 D
2978 4120 D
2998 4118 D
3018 4116 D
3038 4115 D
3058 4113 D
3079 4112 D
3099 4110 D
3119 4109 D
3139 4108 D
3159 4106 D
3180 4105 D
3200 4103 D
3220 4102 D
3240 4101 D
3261 4099 D
3286 4097 D
3311 4095 D
3336 4092 D
3362 4089 D
3387 4085 D
3412 4082 D
3438 4077 D
3450 4075 D
S
N
1050 4125 M
1071 4165 D
1113 4211 D
1136 4229 D
1160 4246 D
1185 4260 D
1212 4271 D
1239 4278 D
1260 4281 D
1280 4285 D
1300 4288 D
1320 4290 D
1341 4288 D
1361 4285 D
1381 4281 D
1402 4276 D
1422 4271 D
1442 4266 D
1462 4260 D
1482 4253 D
1503 4246 D
1523 4239 D
1543 4231 D
1565 4222 D
1586 4213 D
1607 4201 D
1626 4188 D
1644 4173 D
1664 4152 D
1684 4131 D
1704 4111 D
1725 4090 D
1745 4070 D
1765 4049 D
1785 4028 D
1805 4008 D
1826 3987 D
1846 3967 D
1865 3949 D
1884 3932 D
1905 3916 D
1926 3900 D
1947 3885 D
1967 3872 D
1987 3858 D
2007 3845 D
2027 3832 D
2048 3820 D
2068 3809 D
2088 3797 D
2108 3786 D
2128 3775 D
2149 3765 D
2169 3755 D
2189 3746 D
2209 3737 D
2230 3728 D
2250 3719 D
2270 3711 D
2290 3702 D
2310 3694 D
2331 3686 D
2351 3678 D
2371 3670 D
2391 3663 D
2412 3655 D
2432 3648 D
2452 3641 D
2472 3634 D
2492 3628 D
2513 3621 D
2533 3615 D
2553 3608 D
2573 3602 D
2593 3596 D
2614 3590 D
2634 3585 D
2654 3579 D
2674 3574 D
2695 3569 D
2715 3563 D
2735 3558 D
2755 3553 D
2775 3548 D
2796 3543 D
2816 3538 D
2836 3533 D
2856 3528 D
2876 3523 D
2897 3519 D
2917 3514 D
2937 3510 D
2957 3505 D
2978 3501 D
2998 3496 D
3018 3492 D
3038 3488 D
3058 3484 D
3079 3480 D
3099 3476 D
3119 3472 D
3139 3468 D
3159 3465 D
3180 3461 D
3200 3457 D
3220 3454 D
3240 3450 D
3261 3447 D
3286 3442 D
3311 3438 D
3336 3435 D
3362 3431 D
3387 3427 D
3412 3424 D
3437 3421 D
3450 3420 D
S
showpage
%%Trailer
%%Pages: 1
%%BoundingBox: 73 260 417 591
