%!PS-Adobe-3.0 EPSF-3.0
%%BoundingBox: 0 0 817 570
%%LanguageLevel: 2
%%Creator: OriginLab Corporation
%%Title: (C:\Users\hemin\Desktop\Graph1.eps)
%%CreationDate: Sat Dec 21 04:40:24 2013
%%EndComments

/OriginLab::PSL1 128 dict dup begin def
/Save0 save def
%%BeginResource: procset OriginLab::PSL1
/wd{1 index where{pop pop pop}{bind def}ifelse}bind def
/setcmykcolor{1 sub 4 1 roll 3{3 index add neg dup 0 lt{pop 0}if 3 1 roll}repeat setrgbcolor pop}wd
/selectfont{dup type/arraytype eq{exch findfont exch makefont setfont}{exch findfont exch scalefont setfont}ifelse}wd
/xshow{1 index length 0 le{}{currentpoint exch 3 index length 1 sub 0 exch 1 exch{dup 5 index exch 1 getinterval show 3 index exch get add 2 copy exch moveto}for pop pop}ifelse pop pop}wd
/glyphshow{matrix currentmatrix exch currentfont dup/FontMatrix get concat currentpoint translate
 dup/Metrics get 2 index get 0 4 2 roll gsave/CharProcs get exch 2 copy known not{pop/.notdef}if
 get exec fill grestore moveto setmatrix}wd
/grayimage/image load def/rgbtogray{cvx exec dup length 3 idiv 1 sub 0 exch 1 exch{dup 3 mul dup 3 index exch get 255 div .3 mul exch
 1 add dup 4 index exch get 255 div .59 mul exch 1 add 4 index exch get 255 div .11 mul add add
 255 mul dup 255 gt{255}if round cvi 2 index 3 1 roll put}for dup length 3 idiv 0 exch getinterval}bind def
/colorimage{0 setgray pop pop cvlit/rgbtogray cvx 2 packedarray cvx grayimage}wd
/bd{bind def}bind def/ld{load def}bd/ed{exch def}bd/xd{cvx def}bd
/np/newpath ld/a/arc ld/m/moveto ld/l/lineto ld/c/curveto ld/rm/rmoveto ld/rl/rlineto ld/rc/rcurveto ld/cp/closepath ld/cpt/currentpoint ld
/tr/translate ld/sc/scale ld/ro/rotate ld/t/transform ld/it/itransform ld/dt/dtransform ld/idt/idtransform ld
/mtx/matrix ld/cmtx/currentmatrix ld/dmtx/defaultmatrix ld/smtx/setmatrix ld/catmtx/concatmatrix ld
/sw/setlinewidth ld/scap/setlinecap ld/sj/setlinejoin ld/sm/setmiterlimit ld/sd/setdash ld/rgb/setrgbcolor ld/crgb/currentrgbcolor ld/cmyk/setcmykcolor ld/gs/gsave ld/gr/grestore ld
/st/stroke ld/fi/fill ld/eofi/eofill ld/cl/clip ld/eocl/eoclip ld
/df/definefont ld/ff/findfont ld/sf/setfont ld/scf/scalefont ld/self/selectfont ld/cf/currentfont ld
/s/show ld/xs/xshow ld/gls/glyphshow ld/xgls{cpt 3 1 roll add exch 3 -1 roll gls m}bd
/cd/currentdict ld/i/index ld
/DrawBox{4 2 roll m 1 index 0 rl 0 exch rl neg 0 rl cp}bd
/DrawBcc{4 2 roll m 2 copy 0 lt exch 0 lt xor{dup 0 exch rl exch 0 rl neg 0 exch rl}{exch dup 0 rl exch 0 exch rl neg 0 rl}ifelse cp}bd
/rectline{dup type/arraytype eq{dup length 0 exch 4 exch 4 sub{0 1 3{3 copy add get 4 1 roll pop}for pop 5 1 roll DrawBox}for pop}{DrawBox}ifelse}bd
/rectpath{dup type/arraytype eq{dup length 0 exch 4 exch 4 sub{0 1 3{3 copy add get 4 1 roll pop}for pop 5 1 roll DrawBcc}for pop}{DrawBcc}ifelse}bd
/pathproc{[{/m cvx}{/l cvx}{/c cvx}{/cp cvx}pathforall]cvx}bd
/L1img/image ld/L1idx[{0}
 {dup 7 and 3 1 roll -3 bitshift get exch 7 sub 1 mul bitshift  1 and}bind 1 index dup
 {dup 1 and 3 1 roll -1 bitshift get exch 1 sub 4 mul bitshift 15 and}bind 1 index dup dup
 {get}bind]def
/image{dup type/dicttype eq {dup/ImgCS get 0 get/Indexed eq}{false}ifelse
 {begin Width Height 8 ImageMatrix {rgb_string rgb_lookup
 cd/DataSource get dup type/filetype eq
 {mystring readstring pop}{exec}ifelse
 dup length 0 ne
 {L1idx BitsPerComponent get 0 1 Width 1 sub
 {3 copy exch exec exch 3 mul exch
 3 mul dup 5 index exch get exch 1 add dup 6 index exch get exch 1 add 6 index exch get
 7 index exch 4 index 2 add exch put 6 index exch 3 index 1 add exch put 5 index exch 2 index exch put pop
 }for pop pop pop }{pop pop pop ()}ifelse }false 3 colorimage end} {dup type/dicttype eq
 {{dup mark exch L1img pop pop}stopped{cleartomark begin Width Height BitsPerComponent ImageMatrix
 {cd/DataSource get dup type/filetype eq {mystring readstring pop}{exec}ifelse
 }false 3 colorimage end} if}{L1img}ifelse}ifelse
 }bd
/L1imgmask/imagemask ld/imagemask{dup type/dicttype eq
 {{dup mark exch L1imgmask pop pop}stopped {cleartomark begin Width Height polarityflag ImageMatrix
 {cd/DataSource get dup type/filetype eq {mystring readstring pop}{exec}ifelse
 }L1imgmask end}if}{L1imgmask}ifelse
 }bd
%%EndResource
/rectclip{np rectpath clip np}wd
/rectfill{gs np rectpath fi gr}wd
/rectstroke{gs np dup type/arraytype eq{dup length 6 eq}{false}ifelse{1 index type/arraytype eq{exch}{5 1 roll}ifelse rectline concat st}{rectline st}ifelse gr}wd
%%BeginFont: /MC1_Arabic-Transparent
12 dict begin
/FontInfo 8 dict dup begin
/ItalicAngle 0 def
/UnderlinePosition -217.00 def
/UnderlineThickness 150.00 def
/StrikeoutPosition 530.00 def
/StrikeoutThickness 102.00 def
/isFixedPitch false def
end readonly def
/FontName /MC1_Arabic-Transparent def
/FontType 3 def
/FontMatrix [1 2048 div 0 0 1 2048 div 0 0] def
/FontBBox [-1361 -665 4096 2060] def
/Encoding 256 array def 0 1 255{Encoding exch/.notdef put}for
Encoding 32/s32 put
Encoding 46/s46 put
Encoding 48/s48 put
Encoding 49/s49 put
Encoding 50/s50 put
Encoding 51/s51 put
Encoding 52/s52 put
Encoding 53/s53 put
Encoding 54/s54 put
Encoding 55/s55 put
Encoding 56/s56 put
/BoundingBoxes 12 dict def
BoundingBoxes begin
/s32 [0 -434 569 1854] def
/s46 [0 -434 569 1854] def
/s48 [0 -434 1139 1854] def
/s49 [0 -434 1139 1854] def
/s50 [0 -434 1139 1854] def
/s51 [0 -434 1139 1854] def
/s52 [0 -434 1139 1854] def
/s53 [0 -434 1139 1854] def
/s54 [0 -434 1139 1854] def
/s55 [0 -434 1139 1854] def
/s56 [0 -434 1139 1854] def
end
/Metrics 12 dict def
 Metrics begin
/s32 569 def
/s46 569 def
/s48 1139 def
/s49 1139 def
/s50 1139 def
/s51 1139 def
/s52 1139 def
/s53 1139 def
/s54 1139 def
/s55 1139 def
/s56 1139 def
end
/CharProcs 12 dict def
CharProcs begin
/.notdef {} def
/s46 {
186 0 m
186 205 186 0 186 205 c
391 205 186 205 391 205 c
391 0 391 205 391 0 c
186 0 391 0 186 0 c
closepath } bind def
/s48 {
85 723 m
85 896.33 102.83 1035.83 138.5 1141.5 c
174.17 1247.17 227.17 1328.67 297.5 1386 c
367.83 1443.33 456.33 1472 563 1472 c
641.67 1472 710.67 1456.17 770 1424.5 c
829.33 1392.83 878.33 1347.17 917 1287.5 c
955.67 1227.83 986 1155.17 1008 1069.5 c
1030 983.83 1041 868.33 1041 723 c
1041 551 1023.33 412.17 988 306.5 c
952.67 200.83 899.83 119.17 829.5 61.5 c
759.17 3.83 670.33 -25 563 -25 c
421.67 -25 310.67 25.67 230 127 c
133.33 249 85 447.67 85 723 c
closepath 270 723 m
270 482.33 298.17 322.17 354.5 242.5 c
410.83 162.83 480.33 123 563 123 c
645.67 123 715.17 163 771.5 243 c
827.83 323 856 483 856 723 c
856 964.33 827.83 1124.67 771.5 1204 c
715.17 1283.33 645 1323 561 1323 c
478.33 1323 412.33 1288 363 1218 c
301 1128.67 270 963.67 270 723 c
closepath } bind def
/s49 {
763 0 m
583 0 763 0 583 0 c
583 1147 583 0 583 1147 c
539.67 1105.67 482.83 1064.33 412.5 1023 c
342.17 981.67 279 950.67 223 930 c
223 1104 223 930 223 1104 c
323.67 1151.33 411.67 1208.67 487 1276 c
562.33 1343.33 615.67 1408.67 647 1472 c
763 1472 647 1472 763 1472 c
763 0 763 1472 763 0 c
closepath } bind def
/s50 {
1031 173 m
1031 0 1031 173 1031 0 c
62 0 1031 0 62 0 c
60.67 43.33 67.67 85 83 125 c
107.67 191 147.17 256 201.5 320 c
255.83 384 334.33 458 437 542 c
596.33 672.67 704 776.17 760 852.5 c
816 928.83 844 1001 844 1069 c
844 1140.33 818.5 1200.5 767.5 1249.5 c
716.5 1298.5 650 1323 568 1323 c
481.33 1323 412 1297 360 1245 c
308 1193 281.67 1121 281 1029 c
96 1048 281 1029 96 1048 c
108.67 1186 156.33 1291.17 239 1363.5 c
321.67 1435.83 432.67 1472 572 1472 c
712.67 1472 824 1433 906 1355 c
988 1277 1029 1180.33 1029 1065 c
1029 1006.33 1017 948.67 993 892 c
969 835.33 929.17 775.67 873.5 713 c
817.83 650.33 725.33 564.33 596 455 c
488 364.33 418.67 302.83 388 270.5 c
357.33 238.17 332 205.67 312 173 c
1031 173 312 173 1031 173 c
closepath } bind def
/s51 {
86 387 m
266 411 86 387 266 411 c
286.67 309 321.83 235.5 371.5 190.5 c
421.17 145.5 481.67 123 553 123 c
637.67 123 709.17 152.33 767.5 211 c
825.83 269.67 855 342.33 855 429 c
855 511.67 828 579.83 774 633.5 c
720 687.17 651.33 714 568 714 c
534 714 491.67 707.33 441 694 c
461 852 441 694 461 852 c
473 850.67 482.67 850 490 850 c
566.67 850 635.67 870 697 910 c
758.33 950 789 1011.67 789 1095 c
789 1161 766.67 1215.67 722 1259 c
677.33 1302.33 619.67 1324 549 1324 c
479 1324 420.67 1302 374 1258 c
327.33 1214 297.33 1148 284 1060 c
104 1092 284 1060 104 1092 c
126 1212.67 176 1306.17 254 1372.5 c
332 1438.83 429 1472 545 1472 c
625 1472 698.67 1454.83 766 1420.5 c
833.33 1386.17 884.83 1339.33 920.5 1280 c
956.17 1220.67 974 1157.67 974 1091 c
974 1027.67 957 970 923 918 c
889 866 838.67 824.67 772 794 c
858.67 774 926 732.5 974 669.5 c
1022 606.5 1046 527.67 1046 433 c
1046 305 999.33 196.5 906 107.5 c
812.67 18.5 694.67 -26 552 -26 c
423.33 -26 316.5 12.33 231.5 89 c
146.5 165.67 98 265 86 387 c
closepath } bind def
/s52 {
662 0 m
662 351 662 0 662 351 c
26 351 662 351 26 351 c
26 516 26 351 26 516 c
695 1466 26 516 695 1466 c
842 1466 695 1466 842 1466 c
842 516 842 1466 842 516 c
1040 516 842 516 1040 516 c
1040 351 1040 516 1040 351 c
842 351 1040 351 842 351 c
842 0 842 351 842 0 c
662 0 842 0 662 0 c
closepath 662 516 m
662 1177 662 516 662 1177 c
203 516 662 1177 203 516 c
662 516 203 516 662 516 c
closepath } bind def
/s53 {
85 384 m
274 400 85 384 274 400 c
288 308 320.5 238.83 371.5 192.5 c
422.5 146.17 484 123 556 123 c
642.67 123 716 155.67 776 221 c
836 286.33 866 373 866 481 c
866 583.67 837.17 664.67 779.5 724 c
721.83 783.33 646.33 813 553 813 c
495 813 442.67 799.83 396 773.5 c
349.33 747.17 312.67 713 286 671 c
117 693 286 671 117 693 c
259 1446 117 693 259 1446 c
988 1446 259 1446 988 1446 c
988 1274 988 1446 988 1274 c
403 1274 988 1274 403 1274 c
324 880 403 1274 324 880 c
412 941.33 504.33 972 601 972 c
729 972 837 927.67 925 839 c
1013 750.33 1057 636.33 1057 497 c
1057 364.33 1018.33 249.67 941 153 c
847 34.33 718.67 -25 556 -25 c
422.67 -25 313.83 12.33 229.5 87 c
145.17 161.67 97 260.67 85 384 c
closepath } bind def
/s54 {
1019 1107 m
840 1093 1019 1107 840 1093 c
824 1163.67 801.33 1215 772 1247 c
723.33 1298.33 663.33 1324 592 1324 c
534.67 1324 484.33 1308 441 1276 c
384.33 1234.67 339.67 1174.33 307 1095 c
274.33 1015.67 257.33 902.67 256 756 c
299.33 822 352.33 871 415 903 c
477.67 935 543.33 951 612 951 c
732 951 834.17 906.83 918.5 818.5 c
1002.83 730.17 1045 616 1045 476 c
1045 384 1025.17 298.5 985.5 219.5 c
945.83 140.5 891.33 80 822 38 c
752.67 -4 674 -25 586 -25 c
436 -25 313.67 30.17 219 140.5 c
124.33 250.83 77 432.67 77 686 c
77 969.33 129.33 1175.33 234 1304 c
325.33 1416 448.33 1472 603 1472 c
718.33 1472 812.83 1439.67 886.5 1375 c
960.17 1310.33 1004.33 1221 1019 1107 c
closepath 284 475 m
284 413 297.17 353.67 323.5 297 c
349.83 240.33 386.67 197.17 434 167.5 c
481.33 137.83 531 123 583 123 c
659 123 724.33 153.67 779 215 c
833.67 276.33 861 359.67 861 465 c
861 566.33 834 646.17 780 704.5 c
726 762.83 658 792 576 792 c
494.67 792 425.67 762.83 369 704.5 c
312.33 646.17 284 569.67 284 475 c
closepath } bind def
/s55 {
97 1274 m
97 1447 97 1274 97 1447 c
1046 1447 97 1447 1046 1447 c
1046 1307 1046 1447 1046 1307 c
952.67 1207.67 860.17 1075.67 768.5 911 c
676.83 746.33 606 577 556 403 c
520 280.33 497 146 487 0 c
302 0 487 0 302 0 c
304 115.33 326.67 254.67 370 418 c
413.33 581.33 475.5 738.83 556.5 890.5 c
637.5 1042.17 723.67 1170 815 1274 c
97 1274 815 1274 97 1274 c
closepath } bind def
/s56 {
362 795 m
287.33 822.33 232 861.33 196 912 c
160 962.67 142 1023.33 142 1094 c
142 1200.67 180.33 1290.33 257 1363 c
333.67 1435.67 435.67 1472 563 1472 c
691 1472 794 1434.83 872 1360.5 c
950 1286.17 989 1195.67 989 1089 c
989 1021 971.17 961.83 935.5 911.5 c
899.83 861.17 845.67 822.33 773 795 c
863 765.67 931.5 718.33 978.5 653 c
1025.5 587.67 1049 509.67 1049 419 c
1049 293.67 1004.67 188.33 916 103 c
827.33 17.67 710.67 -25 566 -25 c
421.33 -25 304.67 17.83 216 103.5 c
127.33 189.17 83 296 83 424 c
83 519.33 107.17 599.17 155.5 663.5 c
203.83 727.83 272.67 771.67 362 795 c
closepath 326 1100 m
326 1030.67 348.33 974 393 930 c
437.67 886 495.67 864 567 864 c
636.33 864 693.17 885.83 737.5 929.5 c
781.83 973.17 804 1026.67 804 1090 c
804 1156 781.17 1211.5 735.5 1256.5 c
689.83 1301.5 633 1324 565 1324 c
496.33 1324 439.33 1302 394 1258 c
348.67 1214 326 1161.33 326 1100 c
closepath 268 423 m
268 371.67 280.17 322 304.5 274 c
328.83 226 365 188.83 413 162.5 c
461 136.17 512.67 123 568 123 c
654 123 725 150.67 781 206 c
837 261.33 865 331.67 865 417 c
865 503.67 836.17 575.33 778.5 632 c
720.83 688.67 648.67 717 562 717 c
477.33 717 407.17 689 351.5 633 c
295.83 577 268 507 268 423 c
closepath } bind def
end
/BuildGlyph {
 exch dup /Metrics get 2 index get 0 setcharwidth
/CharProcs get exch 2 copy known not{pop/.notdef}if get exec fill}bind def
/BuildChar {
1 index /Encoding get exch get
1 index /BuildGlyph get exec
} bind def
currentdict end /MC1_Arabic-Transparent exch definefont pop
%%EndFont
%%BeginFont: /MC2_Arabic-Transparent
12 dict begin
/FontInfo 8 dict dup begin
/ItalicAngle 0 def
/UnderlinePosition -217.00 def
/UnderlineThickness 150.00 def
/StrikeoutPosition 530.00 def
/StrikeoutThickness 102.00 def
/isFixedPitch false def
end readonly def
/FontName /MC2_Arabic-Transparent def
/FontType 3 def
/FontMatrix [1 2048 div 0 0 1 2048 div 0 0] def
/FontBBox [-1361 -665 4096 2060] def
/Encoding 256 array def 0 1 255{Encoding exch/.notdef put}for
Encoding 32/s32 put
Encoding 37/s37 put
Encoding 40/s40 put
Encoding 41/s41 put
Encoding 43/s43 put
Encoding 44/s44 put
Encoding 46/s46 put
Encoding 50/s50 put
Encoding 52/s52 put
Encoding 54/s54 put
Encoding 55/s55 put
Encoding 61/s61 put
Encoding 65/s65 put
Encoding 67/s67 put
Encoding 69/s69 put
Encoding 73/s73 put
Encoding 76/s76 put
Encoding 78/s78 put
Encoding 80/s80 put
Encoding 84/s84 put
Encoding 86/s86 put
Encoding 97/s97 put
Encoding 98/s98 put
Encoding 99/s99 put
Encoding 100/s100 put
Encoding 101/s101 put
Encoding 103/s103 put
Encoding 104/s104 put
Encoding 105/s105 put
Encoding 108/s108 put
Encoding 110/s110 put
Encoding 111/s111 put
Encoding 114/s114 put
Encoding 115/s115 put
Encoding 116/s116 put
Encoding 117/s117 put
Encoding 118/s118 put
Encoding 121/s121 put
Encoding 123/s123 put
Encoding 125/s125 put
/BoundingBoxes 41 dict def
BoundingBoxes begin
/s32 [0 -434 569 1854] def
/s37 [0 -434 1821 1854] def
/s40 [0 -434 682 1854] def
/s41 [0 -434 682 1854] def
/s43 [0 -434 1196 1854] def
/s44 [0 -434 569 1854] def
/s46 [0 -434 569 1854] def
/s50 [0 -434 1139 1854] def
/s52 [0 -434 1139 1854] def
/s54 [0 -434 1139 1854] def
/s55 [0 -434 1139 1854] def
/s61 [0 -434 1196 1854] def
/s65 [-3 -434 1366 1854] def
/s67 [0 -434 1479 1854] def
/s69 [0 -434 1366 1854] def
/s73 [0 -434 569 1854] def
/s76 [0 -434 1139 1854] def
/s78 [0 -434 1479 1854] def
/s80 [0 -434 1366 1854] def
/s84 [0 -434 1251 1854] def
/s86 [0 -434 1366 1854] def
/s97 [0 -434 1139 1854] def
/s98 [0 -434 1139 1854] def
/s99 [0 -434 1024 1854] def
/s100 [0 -434 1139 1854] def
/s101 [0 -434 1139 1854] def
/s103 [0 -434 1139 1854] def
/s104 [0 -434 1139 1854] def
/s105 [0 -434 455 1854] def
/s108 [0 -434 455 1854] def
/s110 [0 -434 1139 1854] def
/s111 [0 -434 1139 1854] def
/s114 [0 -434 682 1854] def
/s115 [0 -434 1024 1854] def
/s116 [0 -434 569 1854] def
/s117 [0 -434 1139 1854] def
/s118 [0 -434 1024 1854] def
/s121 [0 -434 1024 1854] def
/s123 [0 -434 684 1854] def
/s125 [0 -434 684 1854] def
end
/Metrics 41 dict def
 Metrics begin
/s32 569 def
/s37 1821 def
/s40 682 def
/s41 682 def
/s43 1196 def
/s44 569 def
/s46 569 def
/s50 1139 def
/s52 1139 def
/s54 1139 def
/s55 1139 def
/s61 1196 def
/s65 1366 def
/s67 1479 def
/s69 1366 def
/s73 569 def
/s76 1139 def
/s78 1479 def
/s80 1366 def
/s84 1251 def
/s86 1366 def
/s97 1139 def
/s98 1139 def
/s99 1024 def
/s100 1139 def
/s101 1139 def
/s103 1139 def
/s104 1139 def
/s105 455 def
/s108 455 def
/s110 1139 def
/s111 1139 def
/s114 682 def
/s115 1024 def
/s116 569 def
/s117 1139 def
/s118 1024 def
/s121 1024 def
/s123 684 def
/s125 684 def
end
/CharProcs 41 dict def
CharProcs begin
/.notdef {} def
/s37 {
119 1114 m
119 1218.67 145.33 1307.67 198 1381 c
250.67 1454.33 327 1491 427 1491 c
519 1491 595.17 1458.17 655.5 1392.5 c
715.83 1326.83 746 1230.33 746 1103 c
746 979 715.5 883.5 654.5 816.5 c
593.5 749.5 518.33 716 429 716 c
340.33 716 266.5 749 207.5 815 c
148.5 881 119 980.67 119 1114 c
closepath 432 1367 m
387.33 1367 350.17 1347.67 320.5 1309 c
290.83 1270.33 276 1199.33 276 1096 c
276 1002 291 935.83 321 897.5 c
351 859.17 388 840 432 840 c
477.33 840 514.83 859.33 544.5 898 c
574.17 936.67 589 1007.33 589 1110 c
589 1204.67 574 1271.17 544 1309.5 c
514 1347.83 476.67 1367 432 1367 c
closepath 433 -54 m
1235 1491 433 -54 1235 1491 c
1381 1491 1235 1491 1381 1491 c
582 -54 1381 1491 582 -54 c
433 -54 582 -54 433 -54 c
closepath 1067 344 m
1067 449.33 1093.33 538.5 1146 611.5 c
1198.67 684.5 1275.33 721 1376 721 c
1468 721 1544.17 688.17 1604.5 622.5 c
1664.83 556.83 1695 460.33 1695 333 c
1695 209 1664.5 113.5 1603.5 46.5 c
1542.5 -20.5 1467 -54 1377 -54 c
1288.33 -54 1214.5 -20.83 1155.5 45.5 c
1096.5 111.83 1067 211.33 1067 344 c
closepath 1381 597 m
1335.67 597 1298.17 577.67 1268.5 539 c
1238.83 500.33 1224 429.33 1224 326 c
1224 232.67 1239 166.67 1269 128 c
1299 89.33 1336 70 1380 70 c
1426 70 1463.83 89.33 1493.5 128 c
1523.17 166.67 1538 237.33 1538 340 c
1538 434.67 1523 501.17 1493 539.5 c
1463 577.83 1425.67 597 1381 597 c
closepath } bind def
/s40 {
479 -431 m
379.67 -305.67 295.67 -159 227 9 c
158.33 177 124 351 124 531 c
124 689.67 149.67 841.67 201 987 c
261 1155.67 353.67 1323.67 479 1491 c
608 1491 479 1491 608 1491 c
527.33 1352.33 474 1253.33 448 1194 c
407.33 1102 375.33 1006 352 906 c
323.33 781.33 309 656 309 530 c
309 209.33 408.67 -111 608 -431 c
479 -431 608 -431 479 -431 c
closepath } bind def
/s41 {
253 -431 m
124 -431 253 -431 124 -431 c
323.33 -111 423 209.33 423 530 c
423 655.33 408.67 779.67 380 903 c
357.33 1003 325.67 1099 285 1191 c
259 1251 205.33 1351 124 1491 c
253 1491 124 1491 253 1491 c
378.33 1323.67 471 1155.67 531 987 c
582.33 841.67 608 689.67 608 531 c
608 351 573.5 177 504.5 9 c
435.5 -159 351.67 -305.67 253 -431 c
closepath } bind def
/s43 {
513 237 m
513 639 513 237 513 639 c
114 639 513 639 114 639 c
114 807 114 639 114 807 c
513 807 114 807 513 807 c
513 1206 513 807 513 1206 c
683 1206 513 1206 683 1206 c
683 807 683 1206 683 807 c
1082 807 683 807 1082 807 c
1082 639 1082 807 1082 639 c
683 639 1082 639 683 639 c
683 237 683 639 683 237 c
513 237 683 237 513 237 c
closepath } bind def
/s44 {
182 0 m
182 205 182 0 182 205 c
387 205 182 205 387 205 c
387 0 387 205 387 0 c
387 -75.33 373.67 -136.17 347 -182.5 c
320.33 -228.83 278 -264.67 220 -290 c
170 -213 220 -290 170 -213 c
208 -196.33 236 -171.83 254 -139.5 c
272 -107.17 282 -60.67 284 0 c
182 0 284 0 182 0 c
closepath } bind def
/s46 {
186 0 m
186 205 186 0 186 205 c
391 205 186 205 391 205 c
391 0 391 205 391 0 c
186 0 391 0 186 0 c
closepath } bind def
/s50 {
1031 173 m
1031 0 1031 173 1031 0 c
62 0 1031 0 62 0 c
60.67 43.33 67.67 85 83 125 c
107.67 191 147.17 256 201.5 320 c
255.83 384 334.33 458 437 542 c
596.33 672.67 704 776.17 760 852.5 c
816 928.83 844 1001 844 1069 c
844 1140.33 818.5 1200.5 767.5 1249.5 c
716.5 1298.5 650 1323 568 1323 c
481.33 1323 412 1297 360 1245 c
308 1193 281.67 1121 281 1029 c
96 1048 281 1029 96 1048 c
108.67 1186 156.33 1291.17 239 1363.5 c
321.67 1435.83 432.67 1472 572 1472 c
712.67 1472 824 1433 906 1355 c
988 1277 1029 1180.33 1029 1065 c
1029 1006.33 1017 948.67 993 892 c
969 835.33 929.17 775.67 873.5 713 c
817.83 650.33 725.33 564.33 596 455 c
488 364.33 418.67 302.83 388 270.5 c
357.33 238.17 332 205.67 312 173 c
1031 173 312 173 1031 173 c
closepath } bind def
/s52 {
662 0 m
662 351 662 0 662 351 c
26 351 662 351 26 351 c
26 516 26 351 26 516 c
695 1466 26 516 695 1466 c
842 1466 695 1466 842 1466 c
842 516 842 1466 842 516 c
1040 516 842 516 1040 516 c
1040 351 1040 516 1040 351 c
842 351 1040 351 842 351 c
842 0 842 351 842 0 c
662 0 842 0 662 0 c
closepath 662 516 m
662 1177 662 516 662 1177 c
203 516 662 1177 203 516 c
662 516 203 516 662 516 c
closepath } bind def
/s54 {
1019 1107 m
840 1093 1019 1107 840 1093 c
824 1163.67 801.33 1215 772 1247 c
723.33 1298.33 663.33 1324 592 1324 c
534.67 1324 484.33 1308 441 1276 c
384.33 1234.67 339.67 1174.33 307 1095 c
274.33 1015.67 257.33 902.67 256 756 c
299.33 822 352.33 871 415 903 c
477.67 935 543.33 951 612 951 c
732 951 834.17 906.83 918.5 818.5 c
1002.83 730.17 1045 616 1045 476 c
1045 384 1025.17 298.5 985.5 219.5 c
945.83 140.5 891.33 80 822 38 c
752.67 -4 674 -25 586 -25 c
436 -25 313.67 30.17 219 140.5 c
124.33 250.83 77 432.67 77 686 c
77 969.33 129.33 1175.33 234 1304 c
325.33 1416 448.33 1472 603 1472 c
718.33 1472 812.83 1439.67 886.5 1375 c
960.17 1310.33 1004.33 1221 1019 1107 c
closepath 284 475 m
284 413 297.17 353.67 323.5 297 c
349.83 240.33 386.67 197.17 434 167.5 c
481.33 137.83 531 123 583 123 c
659 123 724.33 153.67 779 215 c
833.67 276.33 861 359.67 861 465 c
861 566.33 834 646.17 780 704.5 c
726 762.83 658 792 576 792 c
494.67 792 425.67 762.83 369 704.5 c
312.33 646.17 284 569.67 284 475 c
closepath } bind def
/s55 {
97 1274 m
97 1447 97 1274 97 1447 c
1046 1447 97 1447 1046 1447 c
1046 1307 1046 1447 1046 1307 c
952.67 1207.67 860.17 1075.67 768.5 911 c
676.83 746.33 606 577 556 403 c
520 280.33 497 146 487 0 c
302 0 487 0 302 0 c
304 115.33 326.67 254.67 370 418 c
413.33 581.33 475.5 738.83 556.5 890.5 c
637.5 1042.17 723.67 1170 815 1274 c
97 1274 815 1274 97 1274 c
closepath } bind def
/s61 {
1082 862 m
114 862 1082 862 114 862 c
114 1030 114 862 114 1030 c
1082 1030 114 1030 1082 1030 c
1082 862 1082 1030 1082 862 c
closepath 1082 417 m
114 417 1082 417 114 417 c
114 585 114 417 114 585 c
1082 585 114 585 1082 585 c
1082 417 1082 585 1082 417 c
closepath } bind def
/s65 {
-3 0 m
560 1466 -3 0 560 1466 c
769 1466 560 1466 769 1466 c
1369 0 769 1466 1369 0 c
1148 0 1369 0 1148 0 c
977 444 1148 0 977 444 c
364 444 977 444 364 444 c
203 0 364 444 203 0 c
-3 0 203 0 -3 0 c
closepath 420 602 m
917 602 420 602 917 602 c
764 1008 917 602 764 1008 c
717.33 1131.33 682.67 1232.67 660 1312 c
641.33 1218 615 1124.67 581 1032 c
420 602 581 1032 420 602 c
closepath } bind def
/s67 {
1204 514 m
1398 465 1204 514 1398 465 c
1357.33 305.67 1284.17 184.17 1178.5 100.5 c
1072.83 16.83 943.67 -25 791 -25 c
633 -25 504.5 7.17 405.5 71.5 c
306.5 135.83 231.17 229 179.5 351 c
127.83 473 102 604 102 744 c
102 896.67 131.17 1029.83 189.5 1143.5 c
247.83 1257.17 330.83 1343.5 438.5 1402.5 c
546.17 1461.5 664.67 1491 794 1491 c
940.67 1491 1064 1453.67 1164 1379 c
1264 1304.33 1333.67 1199.33 1373 1064 c
1182 1019 1373 1064 1182 1019 c
1148 1125.67 1098.67 1203.33 1034 1252 c
969.33 1300.67 888 1325 790 1325 c
677.33 1325 583.17 1298 507.5 1244 c
431.83 1190 378.67 1117.5 348 1026.5 c
317.33 935.5 302 841.67 302 745 c
302 620.33 320.17 511.5 356.5 418.5 c
392.83 325.5 449.33 256 526 210 c
602.67 164 685.67 141 775 141 c
883.67 141 975.67 172.33 1051 235 c
1126.33 297.67 1177.33 390.67 1204 514 c
closepath } bind def
/s69 {
162 0 m
162 1466 162 0 162 1466 c
1222 1466 162 1466 1222 1466 c
1222 1293 1222 1466 1222 1293 c
356 1293 1222 1293 356 1293 c
356 844 356 1293 356 844 c
1167 844 356 844 1167 844 c
1167 672 1167 844 1167 672 c
356 672 1167 672 356 672 c
356 173 356 672 356 173 c
1256 173 356 173 1256 173 c
1256 0 1256 173 1256 0 c
162 0 1256 0 162 0 c
closepath } bind def
/s73 {
191 0 m
191 1466 191 0 191 1466 c
385 1466 191 1466 385 1466 c
385 0 385 1466 385 0 c
191 0 385 0 191 0 c
closepath } bind def
/s76 {
150 0 m
150 1466 150 0 150 1466 c
344 1466 150 1466 344 1466 c
344 173 344 1466 344 173 c
1066 173 344 173 1066 173 c
1066 0 1066 173 1066 0 c
150 0 1066 0 150 0 c
closepath } bind def
/s78 {
156 0 m
156 1466 156 0 156 1466 c
355 1466 156 1466 355 1466 c
1125 315 355 1466 1125 315 c
1125 1466 1125 315 1125 1466 c
1311 1466 1125 1466 1311 1466 c
1311 0 1311 1466 1311 0 c
1112 0 1311 0 1112 0 c
342 1152 1112 0 342 1152 c
342 0 342 1152 342 0 c
156 0 342 0 156 0 c
closepath } bind def
/s80 {
158 0 m
158 1466 158 0 158 1466 c
711 1466 158 1466 711 1466 c
808.33 1466 882.67 1461.33 934 1452 c
1006 1440 1066.33 1417.17 1115 1383.5 c
1163.67 1349.83 1202.83 1302.67 1232.5 1242 c
1262.17 1181.33 1277 1114.67 1277 1042 c
1277 917.33 1237.33 811.83 1158 725.5 c
1078.67 639.17 935.33 596 728 596 c
352 596 728 596 352 596 c
352 0 352 596 352 0 c
158 0 352 0 158 0 c
closepath 352 769 m
731 769 352 769 731 769 c
856.33 769 945.33 792.33 998 839 c
1050.67 885.67 1077 951.33 1077 1036 c
1077 1097.33 1061.5 1149.83 1030.5 1193.5 c
999.5 1237.17 958.67 1266 908 1280 c
875.33 1288.67 815 1293 727 1293 c
352 1293 727 1293 352 1293 c
352 769 352 1293 352 769 c
closepath } bind def
/s84 {
531 0 m
531 1293 531 0 531 1293 c
48 1293 531 1293 48 1293 c
48 1466 48 1293 48 1466 c
1210 1466 48 1466 1210 1466 c
1210 1293 1210 1466 1210 1293 c
725 1293 1210 1293 725 1293 c
725 0 725 1293 725 0 c
531 0 725 0 531 0 c
closepath } bind def
/s86 {
577 0 m
9 1466 577 0 9 1466 c
219 1466 9 1466 219 1466 c
600 401 219 1466 600 401 c
630.67 315.67 656.33 235.67 677 161 c
699.67 241 726 321 756 401 c
1152 1466 756 401 1152 1466 c
1350 1466 1152 1466 1350 1466 c
776 0 1350 1466 776 0 c
577 0 776 0 577 0 c
closepath } bind def
/s97 {
828 131 m
761.33 74.33 697.17 34.33 635.5 11 c
573.83 -12.33 507.67 -24 437 -24 c
320.33 -24 230.67 4.5 168 61.5 c
105.33 118.5 74 191.33 74 280 c
74 332 85.83 379.5 109.5 422.5 c
133.17 465.5 164.17 500 202.5 526 c
240.83 552 284 571.67 332 585 c
367.33 594.33 420.67 603.33 492 612 c
637.33 629.33 744.33 650 813 674 c
813.67 698.67 814 714.33 814 721 c
814 794.33 797 846 763 876 c
717 916.67 648.67 937 558 937 c
473.33 937 410.83 922.17 370.5 892.5 c
330.17 862.83 300.33 810.33 281 735 c
105 759 281 735 105 759 c
121 834.33 147.33 895.17 184 941.5 c
220.67 987.83 273.67 1023.5 343 1048.5 c
412.33 1073.5 492.67 1086 584 1086 c
674.67 1086 748.33 1075.33 805 1054 c
861.67 1032.67 903.33 1005.83 930 973.5 c
956.67 941.17 975.33 900.33 986 851 c
992 820.33 995 765 995 685 c
995 445 995 685 995 445 c
995 277.67 998.83 171.83 1006.5 127.5 c
1014.17 83.17 1029.33 40.67 1052 0 c
864 0 1052 0 864 0 c
845.33 37.33 833.33 81 828 131 c
closepath 813 533 m
747.67 506.33 649.67 483.67 519 465 c
445 454.33 392.67 442.33 362 429 c
331.33 415.67 307.67 396.17 291 370.5 c
274.33 344.83 266 316.33 266 285 c
266 237 284.17 197 320.5 165 c
356.83 133 410 117 480 117 c
549.33 117 611 132.17 665 162.5 c
719 192.83 758.67 234.33 784 287 c
803.33 327.67 813 387.67 813 467 c
813 533 813 467 813 533 c
closepath } bind def
/s98 {
301 0 m
134 0 301 0 134 0 c
134 1466 134 0 134 1466 c
314 1466 134 1466 314 1466 c
314 943 314 1466 314 943 c
390 1038.33 487 1086 605 1086 c
670.33 1086 732.17 1072.83 790.5 1046.5 c
848.83 1020.17 896.83 983.17 934.5 935.5 c
972.17 887.83 1001.67 830.33 1023 763 c
1044.33 695.67 1055 623.67 1055 547 c
1055 365 1010 224.33 920 125 c
830 25.67 722 -24 596 -24 c
470.67 -24 372.33 28.33 301 133 c
301 0 301 133 301 0 c
closepath 299 539 m
299 411.67 316.33 319.67 351 263 c
407.67 170.33 484.33 124 581 124 c
659.67 124 727.67 158.17 785 226.5 c
842.33 294.83 871 396.67 871 532 c
871 670.67 843.5 773 788.5 839 c
733.5 905 667 938 589 938 c
510.33 938 442.33 903.83 385 835.5 c
327.67 767.17 299 668.33 299 539 c
closepath } bind def
/s99 {
828 389 m
1005 366 828 389 1005 366 c
985.67 244 936.17 148.5 856.5 79.5 c
776.83 10.5 679 -24 563 -24 c
417.67 -24 300.83 23.5 212.5 118.5 c
124.17 213.5 80 349.67 80 527 c
80 641.67 99 742 137 828 c
175 914 232.83 978.5 310.5 1021.5 c
388.17 1064.5 472.67 1086 564 1086 c
679.33 1086 773.67 1056.83 847 998.5 c
920.33 940.17 967.33 857.33 988 750 c
813 723 988 750 813 723 c
796.33 794.33 766.83 848 724.5 884 c
682.17 920 631 938 571 938 c
480.33 938 406.67 905.5 350 840.5 c
293.33 775.5 265 672.67 265 532 c
265 389.33 292.33 285.67 347 221 c
401.67 156.33 473 124 561 124 c
631.67 124 690.67 145.67 738 189 c
785.33 232.33 815.33 299 828 389 c
closepath } bind def
/s100 {
824 0 m
824 134 824 0 824 134 c
756.67 28.67 657.67 -24 527 -24 c
442.33 -24 364.5 -0.67 293.5 46 c
222.5 92.67 167.5 157.83 128.5 241.5 c
89.5 325.17 70 421.33 70 530 c
70 636 87.67 732.17 123 818.5 c
158.33 904.83 211.33 971 282 1017 c
352.67 1063 431.67 1086 519 1086 c
583 1086 640 1072.5 690 1045.5 c
740 1018.5 780.67 983.33 812 940 c
812 1466 812 940 812 1466 c
991 1466 812 1466 991 1466 c
991 0 991 1466 991 0 c
824 0 991 0 824 0 c
closepath 255 530 m
255 394 283.67 292.33 341 225 c
398.33 157.67 466 124 544 124 c
622.67 124 689.5 156.17 744.5 220.5 c
799.5 284.83 827 383 827 515 c
827 660.33 799 767 743 835 c
687 903 618 937 536 937 c
456 937 389.17 904.33 335.5 839 c
281.83 773.67 255 670.67 255 530 c
closepath } bind def
/s101 {
862 342 m
1048 319 862 342 1048 319 c
1018.67 210.33 964.33 126 885 66 c
805.67 6 704.33 -24 581 -24 c
425.67 -24 302.5 23.83 211.5 119.5 c
120.5 215.17 75 349.33 75 522 c
75 700.67 121 839.33 213 938 c
305 1036.67 424.33 1086 571 1086 c
713 1086 829 1037.67 919 941 c
1009 844.33 1054 708.33 1054 533 c
1054 522.33 1053.67 506.33 1053 485 c
261 485 1053 485 261 485 c
267.67 368.33 300.67 279 360 217 c
419.33 155 493.33 124 582 124 c
648 124 704.33 141.33 751 176 c
797.67 210.67 834.67 266 862 342 c
closepath 271 633 m
864 633 271 633 864 633 c
856 722.33 833.33 789.33 796 834 c
738.67 903.33 664.33 938 573 938 c
490.33 938 420.83 910.33 364.5 855 c
308.17 799.67 277 725.67 271 633 c
closepath } bind def
/s103 {
102 -88 m
277 -114 102 -88 277 -114 c
284.33 -168 304.67 -207.33 338 -232 c
382.67 -265.33 443.67 -282 521 -282 c
604.33 -282 668.67 -265.33 714 -232 c
759.33 -198.67 790 -152 806 -92 c
815.33 -55.33 819.67 21.67 819 139 c
740.33 46.33 642.33 0 525 0 c
379 0 266 52.67 186 158 c
106 263.33 66 389.67 66 537 c
66 638.33 84.33 731.83 121 817.5 c
157.67 903.17 210.83 969.33 280.5 1016 c
350.17 1062.67 432 1086 526 1086 c
651.33 1086 754.67 1035.33 836 934 c
836 1062 836 934 836 1062 c
1002 1062 836 1062 1002 1062 c
1002 144 1002 1062 1002 144 c
1002 -21.33 985.17 -138.5 951.5 -207.5 c
917.83 -276.5 864.5 -331 791.5 -371 c
718.5 -411 628.67 -431 522 -431 c
395.33 -431 293 -402.5 215 -345.5 c
137 -288.5 99.33 -202.67 102 -88 c
closepath 251 550 m
251 410.67 278.67 309 334 245 c
389.33 181 458.67 149 542 149 c
624.67 149 694 180.83 750 244.5 c
806 308.17 834 408 834 544 c
834 674 805.17 772 747.5 838 c
689.83 904 620.33 937 539 937 c
459 937 391 904.5 335 839.5 c
279 774.5 251 678 251 550 c
closepath } bind def
/s104 {
135 0 m
135 1466 135 0 135 1466 c
315 1466 135 1466 315 1466 c
315 940 315 1466 315 940 c
399 1037.33 505 1086 633 1086 c
711.67 1086 780 1070.5 838 1039.5 c
896 1008.5 937.5 965.67 962.5 911 c
987.5 856.33 1000 777 1000 673 c
1000 0 1000 673 1000 0 c
820 0 1000 0 820 0 c
820 673 820 0 820 673 c
820 763 800.5 828.5 761.5 869.5 c
722.5 910.5 667.33 931 596 931 c
542.67 931 492.5 917.17 445.5 889.5 c
398.5 861.83 365 824.33 345 777 c
325 729.67 315 664.33 315 581 c
315 0 315 581 315 0 c
135 0 315 0 135 0 c
closepath } bind def
/s105 {
136 1259 m
136 1466 136 1259 136 1466 c
316 1466 136 1466 316 1466 c
316 1259 316 1466 316 1259 c
136 1259 316 1259 136 1259 c
closepath 136 0 m
136 1062 136 0 136 1062 c
316 1062 136 1062 316 1062 c
316 0 316 1062 316 0 c
136 0 316 0 136 0 c
closepath } bind def
/s108 {
131 0 m
131 1466 131 0 131 1466 c
311 1466 131 1466 311 1466 c
311 0 311 1466 311 0 c
131 0 311 0 131 0 c
closepath } bind def
/s110 {
135 0 m
135 1062 135 0 135 1062 c
297 1062 135 1062 297 1062 c
297 911 297 1062 297 911 c
375 1027.67 487.67 1086 635 1086 c
699 1086 757.83 1074.5 811.5 1051.5 c
865.17 1028.5 905.33 998.33 932 961 c
958.67 923.67 977.33 879.33 988 828 c
994.67 794.67 998 736.33 998 653 c
998 0 998 653 998 0 c
818 0 998 0 818 0 c
818 646 818 0 818 646 c
818 719.33 811 774.17 797 810.5 c
783 846.83 758.17 875.83 722.5 897.5 c
686.83 919.17 645 930 597 930 c
520.33 930 454.17 905.67 398.5 857 c
342.83 808.33 315 716 315 580 c
315 0 315 580 315 0 c
135 0 315 0 135 0 c
closepath } bind def
/s111 {
68 531 m
68 727.67 122.67 873.33 232 968 c
323.33 1046.67 434.67 1086 566 1086 c
712 1086 831.33 1038.17 924 942.5 c
1016.67 846.83 1063 714.67 1063 546 c
1063 409.33 1042.5 301.83 1001.5 223.5 c
960.5 145.17 900.83 84.33 822.5 41 c
744.17 -2.33 658.67 -24 566 -24 c
417.33 -24 297.17 23.67 205.5 119 c
113.83 214.33 68 351.67 68 531 c
closepath 253 531 m
253 395 282.67 293.17 342 225.5 c
401.33 157.83 476 124 566 124 c
655.33 124 729.67 158 789 226 c
848.33 294 878 397.67 878 537 c
878 668.33 848.17 767.83 788.5 835.5 c
728.83 903.17 654.67 937 566 937 c
476 937 401.33 903.33 342 836 c
282.67 768.67 253 667 253 531 c
closepath } bind def
/s114 {
133 0 m
133 1062 133 0 133 1062 c
295 1062 133 1062 295 1062 c
295 901 295 1062 295 901 c
336.33 976.33 374.5 1026 409.5 1050 c
444.5 1074 483 1086 525 1086 c
585.67 1086 647.33 1066.67 710 1028 c
648 861 710 1028 648 861 c
604 887 560 900 516 900 c
476.67 900 441.33 888.17 410 864.5 c
378.67 840.83 356.33 808 343 766 c
323 702 313 632 313 556 c
313 0 313 556 313 0 c
133 0 313 0 133 0 c
closepath } bind def
/s115 {
63 317 m
241 345 63 317 241 345 c
251 273.67 278.83 219 324.5 181 c
370.17 143 434 124 516 124 c
598.67 124 660 140.83 700 174.5 c
740 208.17 760 247.67 760 293 c
760 333.67 742.33 365.67 707 389 c
682.33 405 621 425.33 523 450 c
391 483.33 299.5 512.17 248.5 536.5 c
197.5 560.83 158.83 594.5 132.5 637.5 c
106.17 680.5 93 728 93 780 c
93 827.33 103.83 871.17 125.5 911.5 c
147.17 951.83 176.67 985.33 214 1012 c
242 1032.67 280.17 1050.17 328.5 1064.5 c
376.83 1078.83 428.67 1086 484 1086 c
567.33 1086 640.5 1074 703.5 1050 c
766.5 1026 813 993.5 843 952.5 c
873 911.5 893.67 856.67 905 788 c
729 764 905 788 729 764 c
721 818.67 697.83 861.33 659.5 892 c
621.17 922.67 567 938 497 938 c
414.33 938 355.33 924.33 320 897 c
284.67 869.67 267 837.67 267 801 c
267 777.67 274.33 756.67 289 738 c
303.67 718.67 326.67 702.67 358 690 c
376 683.33 429 668 517 644 c
644.33 610 733.17 582.17 783.5 560.5 c
833.83 538.83 873.33 507.33 902 466 c
930.67 424.67 945 373.33 945 312 c
945 252 927.5 195.5 892.5 142.5 c
857.5 89.5 807 48.5 741 19.5 c
675 -9.5 600.33 -24 517 -24 c
379 -24 273.83 4.67 201.5 62 c
129.17 119.33 83 204.33 63 317 c
closepath } bind def
/s116 {
528 161 m
554 2 528 161 554 2 c
503.33 -8.67 458 -14 418 -14 c
352.67 -14 302 -3.67 266 17 c
230 37.67 204.67 64.83 190 98.5 c
175.33 132.17 168 203 168 311 c
168 922 168 311 168 922 c
36 922 168 922 36 922 c
36 1062 36 922 36 1062 c
168 1062 36 1062 168 1062 c
168 1325 168 1062 168 1325 c
347 1433 168 1325 347 1433 c
347 1062 347 1433 347 1062 c
528 1062 347 1062 528 1062 c
528 922 528 1062 528 922 c
347 922 528 922 347 922 c
347 301 347 922 347 301 c
347 249.67 350.17 216.67 356.5 202 c
362.83 187.33 373.17 175.67 387.5 167 c
401.83 158.33 422.33 154 449 154 c
469 154 495.33 156.33 528 161 c
closepath } bind def
/s117 {
831 0 m
831 156 831 0 831 156 c
748.33 36 636 -24 494 -24 c
431.33 -24 372.83 -12 318.5 12 c
264.17 36 223.83 66.17 197.5 102.5 c
171.17 138.83 152.67 183.33 142 236 c
134.67 271.33 131 327.33 131 404 c
131 1062 131 404 131 1062 c
311 1062 131 1062 311 1062 c
311 473 311 1062 311 473 c
311 379 314.67 315.67 322 283 c
333.33 235.67 357.33 198.5 394 171.5 c
430.67 144.5 476 131 530 131 c
584 131 634.67 144.83 682 172.5 c
729.33 200.17 762.83 237.83 782.5 285.5 c
802.17 333.17 812 402.33 812 493 c
812 1062 812 493 812 1062 c
992 1062 812 1062 992 1062 c
992 0 992 1062 992 0 c
831 0 992 0 831 0 c
closepath } bind def
/s118 {
430 0 m
26 1062 430 0 26 1062 c
216 1062 26 1062 216 1062 c
444 426 216 1062 444 426 c
468.67 357.33 491.33 286 512 212 c
528 268 550.33 335.33 579 414 c
815 1062 579 414 815 1062 c
1000 1062 815 1062 1000 1062 c
598 0 1000 1062 598 0 c
430 0 598 0 430 0 c
closepath } bind def
/s121 {
127 -409 m
107 -240 127 -409 107 -240 c
146.33 -250.67 180.67 -256 210 -256 c
250 -256 282 -249.33 306 -236 c
330 -222.67 349.67 -204 365 -180 c
376.33 -162 394.67 -117.33 420 -46 c
423.33 -36 428.67 -21.33 436 -2 c
33 1062 436 -2 33 1062 c
227 1062 33 1062 227 1062 c
448 447 227 1062 448 447 c
476.67 369 502.33 287 525 201 c
545.67 283.67 570.33 364.33 599 443 c
826 1062 599 443 826 1062 c
1006 1062 826 1062 1006 1062 c
602 -18 1006 1062 602 -18 c
558.67 -134.67 525 -215 501 -259 c
469 -318.33 432.33 -361.83 391 -389.5 c
349.67 -417.17 300.33 -431 243 -431 c
208.33 -431 169.67 -423.67 127 -409 c
closepath } bind def
/s123 {
57 612 m
108.33 613.33 150.17 627.17 182.5 653.5 c
214.83 679.83 236.33 716 247 762 c
257.67 808 263.33 886.67 264 998 c
264.67 1109.33 266.67 1182.67 270 1218 c
276 1274 287.17 1319 303.5 1353 c
319.83 1387 340 1414.17 364 1434.5 c
388 1454.83 418.67 1470.33 456 1481 c
481.33 1487.67 522.67 1491 580 1491 c
636 1491 580 1491 636 1491 c
636 1334 636 1491 636 1334 c
605 1334 636 1334 605 1334 c
535.67 1334 489.67 1321.5 467 1296.5 c
444.33 1271.5 433 1215.67 433 1129 c
433 954.33 429.33 844 422 798 c
410 726.67 389.5 671.67 360.5 633 c
331.5 594.33 286 560 224 530 c
297.33 499.33 350.5 452.5 383.5 389.5 c
416.5 326.5 433 223.33 433 80 c
433 -50 434.33 -127.33 437 -152 c
442.33 -197.33 455.83 -229 477.5 -247 c
499.17 -265 541.67 -274 605 -274 c
636 -274 605 -274 636 -274 c
636 -431 636 -274 636 -431 c
580 -431 636 -431 580 -431 c
514.67 -431 467.33 -425.67 438 -415 c
395.33 -399.67 360 -374.83 332 -340.5 c
304 -306.17 285.83 -262.67 277.5 -210 c
269.17 -157.33 264.67 -71 264 49 c
263.33 169 257.67 252 247 298 c
236.33 344 214.83 380.33 182.5 407 c
150.17 433.67 108.33 447.67 57 449 c
57 612 57 449 57 612 c
closepath } bind def
/s125 {
626 612 m
626 449 626 612 626 449 c
574.67 447.67 532.83 433.67 500.5 407 c
468.17 380.33 446.67 344.17 436 298.5 c
425.33 252.83 419.67 174.33 419 63 c
418.33 -48.33 416.33 -121.67 413 -157 c
407 -213.67 395.83 -258.83 379.5 -292.5 c
363.17 -326.17 343 -353.17 319 -373.5 c
295 -393.83 264.33 -409.33 227 -420 c
201.67 -427.33 160.33 -431 103 -431 c
47 -431 103 -431 47 -431 c
47 -274 47 -431 47 -274 c
78 -274 47 -274 78 -274 c
147.33 -274 193.33 -261.5 216 -236.5 c
238.67 -211.5 250 -155.33 250 -68 c
250 98.67 253 204.33 259 249 c
269.67 323 291 382.17 323 426.5 c
355 470.83 400.33 505.33 459 530 c
382.33 566.67 328.33 615.17 297 675.5 c
265.67 735.83 250 837.67 250 981 c
250 1111 248.33 1188.67 245 1214 c
240.33 1258.67 227.17 1289.83 205.5 1307.5 c
183.83 1325.17 141.33 1334 78 1334 c
47 1334 78 1334 47 1334 c
47 1491 47 1334 47 1491 c
103 1491 47 1491 103 1491 c
168.33 1491 215.67 1485.67 245 1475 c
287.67 1460.33 323 1435.67 351 1401 c
379 1366.33 397.17 1322.67 405.5 1270 c
413.83 1217.33 418.33 1131 419 1011 c
419.67 891 425.33 808.17 436 762.5 c
446.67 716.83 468.17 680.67 500.5 654 c
532.83 627.33 574.67 613.33 626 612 c
closepath } bind def
end
/BuildGlyph {
 exch dup /Metrics get 2 index get 0 setcharwidth
/CharProcs get exch 2 copy known not{pop/.notdef}if get exec fill}bind def
/BuildChar {
1 index /Encoding get exch get
1 index /BuildGlyph get exec
} bind def
currentdict end /MC2_Arabic-Transparent exch definefont pop
%%EndFont
%%BeginFont: /MC3_Symbol
12 dict begin
/FontInfo 8 dict dup begin
/ItalicAngle 0 def
/UnderlinePosition -223.00 def
/UnderlineThickness 100.00 def
/StrikeoutPosition 530.00 def
/StrikeoutThickness 102.00 def
/isFixedPitch false def
end readonly def
/FontName /MC3_Symbol def
/FontType 3 def
/FontMatrix [1 2048 div 0 0 1 2048 div 0 0] def
/FontBBox [-1 -450 2279 2059] def
/Encoding 256 array def 0 1 255{Encoding exch/.notdef put}for
Encoding 32/s32 put
/BoundingBoxes 3 dict def
BoundingBoxes begin
/s32 [0 -450 512 2059] def
/s61654 [0 -450 0 2059] def
end
/Metrics 3 dict def
 Metrics begin
/s32 512 def
/s61654 0 def
end
/CharProcs 3 dict def
CharProcs begin
/.notdef {} def
/s61654 {
1050 1869 m
1124 1869 1050 1869 1124 1869 c
812 -78 1124 1869 812 -78 c
316 943 812 -78 316 943 c
118 852 316 943 118 852 c
84 916 118 852 84 916 c
385 1067 84 916 385 1067 c
790 244 385 1067 790 244 c
1050 1869 790 244 1050 1869 c
closepath } bind def
end
/BuildGlyph {
 exch dup /Metrics get 2 index get 0 setcharwidth
/CharProcs get exch 2 copy known not{pop/.notdef}if get exec fill}bind def
/BuildChar {
1 index /Encoding get exch get
1 index /BuildGlyph get exec
} bind def
currentdict end /MC3_Symbol exch definefont pop
%%EndFont
%%BeginFont: /MC4_Arabic-Transparent
12 dict begin
/FontInfo 8 dict dup begin
/ItalicAngle 0 def
/UnderlinePosition -217.00 def
/UnderlineThickness 150.00 def
/StrikeoutPosition 530.00 def
/StrikeoutThickness 102.00 def
/isFixedPitch false def
end readonly def
/FontName /MC4_Arabic-Transparent def
/FontType 3 def
/FontMatrix [1 2048 div 0 0 1 2048 div 0 0] def
/FontBBox [-1361 -665 4096 2060] def
/Encoding 256 array def 0 1 255{Encoding exch/.notdef put}for
Encoding 32/s32 put
Encoding 50/s50 put
Encoding 60/s60 put
Encoding 62/s62 put
Encoding 118/s118 put
/BoundingBoxes 6 dict def
BoundingBoxes begin
/s32 [0 -434 569 1854] def
/s50 [0 -434 1139 1854] def
/s60 [0 -434 1196 1854] def
/s62 [0 -434 1196 1854] def
/s118 [0 -434 1024 1854] def
end
/Metrics 6 dict def
 Metrics begin
/s32 569 def
/s50 1139 def
/s60 1196 def
/s62 1196 def
/s118 1024 def
end
/CharProcs 6 dict def
CharProcs begin
/.notdef {} def
/s50 {
1031 173 m
1031 0 1031 173 1031 0 c
62 0 1031 0 62 0 c
60.67 43.33 67.67 85 83 125 c
107.67 191 147.17 256 201.5 320 c
255.83 384 334.33 458 437 542 c
596.33 672.67 704 776.17 760 852.5 c
816 928.83 844 1001 844 1069 c
844 1140.33 818.5 1200.5 767.5 1249.5 c
716.5 1298.5 650 1323 568 1323 c
481.33 1323 412 1297 360 1245 c
308 1193 281.67 1121 281 1029 c
96 1048 281 1029 96 1048 c
108.67 1186 156.33 1291.17 239 1363.5 c
321.67 1435.83 432.67 1472 572 1472 c
712.67 1472 824 1433 906 1355 c
988 1277 1029 1180.33 1029 1065 c
1029 1006.33 1017 948.67 993 892 c
969 835.33 929.17 775.67 873.5 713 c
817.83 650.33 725.33 564.33 596 455 c
488 364.33 418.67 302.83 388 270.5 c
357.33 238.17 332 205.67 312 173 c
1031 173 312 173 1031 173 c
closepath } bind def
/s60 {
112 641 m
112 809 112 641 112 809 c
1083 1219 112 809 1083 1219 c
1083 1040 1083 1219 1083 1040 c
313 724 1083 1040 313 724 c
1083 405 313 724 1083 405 c
1083 226 1083 405 1083 226 c
112 641 1083 226 112 641 c
closepath } bind def
/s62 {
1083 641 m
112 226 1083 641 112 226 c
112 405 112 226 112 405 c
881 724 112 405 881 724 c
112 1040 881 724 112 1040 c
112 1219 112 1040 112 1219 c
1083 809 112 1219 1083 809 c
1083 641 1083 809 1083 641 c
closepath } bind def
/s118 {
430 0 m
26 1062 430 0 26 1062 c
216 1062 26 1062 216 1062 c
444 426 216 1062 444 426 c
468.67 357.33 491.33 286 512 212 c
528 268 550.33 335.33 579 414 c
815 1062 579 414 815 1062 c
1000 1062 815 1062 1000 1062 c
598 0 1000 1062 598 0 c
430 0 598 0 430 0 c
closepath } bind def
end
/BuildGlyph {
 exch dup /Metrics get 2 index get 0 setcharwidth
/CharProcs get exch 2 copy known not{pop/.notdef}if get exec fill}bind def
/BuildChar {
1 index /Encoding get exch get
1 index /BuildGlyph get exec
} bind def
currentdict end /MC4_Arabic-Transparent exch definefont pop
%%EndFont
0 0 816.01 569.03 rectpath cl np
/clipproc{clippath{[{/m cvx}{/l cvx}{/c cvx}{/cp cvx}pathforall}stopped
{cleartomark[pathbbox exch 3 i sub exch 2 i sub/rectpath cvx}if]np}bd
/iclmtx mtx cmtx def/iclpath clipproc xd/clinit{pathproc initclip np iclpath cl np exec}bd
/clmove{pathproc 3 1 roll clippath pathproc 2 i neg 2 i neg tr initclip np exec cl tr np exec}bd
/clrect[gs np iclpath{pathbbox}stopped{0 0 816.01 569.03 }if gr]def
/cloper{mtx cmtx iclmtx smtx exch exec smtx}bd
/cland{{exch cvx exec}cloper}bd
/clcopy{{exch clinit cvx exec}cloper}bd
/cldiff{{exch pathbbox 4 -1 roll clrect 0 get 2 copy gt{exch}if pop 4 1 roll
 3 -1 roll clrect 1 get 2 copy gt{exch}if pop 3 1 roll
 2 -1 roll clrect 2 get 2 copy lt{exch}if pop 2 1 roll
 1 -1 roll clrect 3 get 2 copy lt{exch}if pop 1 1 roll
 exch 3 i sub exch 2 i sub rectpath cvx exec}cloper}bd
/icl{{clinit}cloper}bd
0.239952 0.239936 sc

/initmtx mtx cmtx def
gs
gs
[1.00022 0 0 -1.00025 0 2371.58] concat
1 -1 sc
/MC1_Arabic-Transparent 108 self 578 -2100 m
(0)[60 ] xs
1 -1 sc
gr
gs
[1.00022 0 0 -1.00025 0 2371.58] concat
1 -1 sc
/MC1_Arabic-Transparent 108 self 879 -2100 m
(10)[60 60 ] xs
1 -1 sc
gr
gs
[1.00022 0 0 -1.00025 0 2371.58] concat
1 -1 sc
/MC1_Arabic-Transparent 108 self 1211 -2100 m
(20)[60 60 ] xs
1 -1 sc
gr
gs
[1.00022 0 0 -1.00025 0 2371.58] concat
1 -1 sc
/MC1_Arabic-Transparent 108 self 1542 -2100 m
(30)[60 60 ] xs
1 -1 sc
gr
gs
[1.00022 0 0 -1.00025 0 2371.58] concat
1 -1 sc
/MC1_Arabic-Transparent 108 self 1873 -2100 m
(40)[60 60 ] xs
1 -1 sc
gr
gs
[1.00022 0 0 -1.00025 0 2371.58] concat
1 -1 sc
/MC1_Arabic-Transparent 108 self 2204 -2100 m
(50)[60 60 ] xs
1 -1 sc
gr
gs
[1.00022 0 0 -1.00025 0 2371.58] concat
1 -1 sc
/MC1_Arabic-Transparent 108 self 2536 -2100 m
(60)[60 60 ] xs
1 -1 sc
gr
gs
[1.00022 0 0 -1.00025 0 2371.58] concat
1 -1 sc
/MC1_Arabic-Transparent 108 self 2867 -2100 m
(70)[60 60 ] xs
1 -1 sc
gr
gs
[1.00022 0 0 -1.00025 0 2371.58] concat
1 -1 sc
/MC1_Arabic-Transparent 108 self 361 -2009 m
(0.00)[60 30 60 60 ] xs
1 -1 sc
gr
gs
[1.00022 0 0 -1.00025 0 2371.58] concat
1 -1 sc
/MC1_Arabic-Transparent 108 self 361 -1725 m
(0.02)[60 30 60 60 ] xs
1 -1 sc
gr
gs
[1.00022 0 0 -1.00025 0 2371.58] concat
1 -1 sc
/MC1_Arabic-Transparent 108 self 361 -1441 m
(0.04)[60 30 60 60 ] xs
1 -1 sc
gr
gs
[1.00022 0 0 -1.00025 0 2371.58] concat
1 -1 sc
/MC1_Arabic-Transparent 108 self 361 -1158 m
(0.06)[60 30 60 60 ] xs
1 -1 sc
gr
gs
[1.00022 0 0 -1.00025 0 2371.58] concat
1 -1 sc
/MC1_Arabic-Transparent 108 self 361 -874 m
(0.08)[60 30 60 60 ] xs
1 -1 sc
gr
gs
[1.00022 0 0 -1.00025 0 2371.58] concat
1 -1 sc
/MC1_Arabic-Transparent 108 self 361 -590 m
(0.10)[60 30 60 60 ] xs
1 -1 sc
gr
gs
[1.00022 0 0 -1.00025 0 2371.58] concat
1 -1 sc
/MC1_Arabic-Transparent 108 self 361 -306 m
(0.12)[60 30 60 60 ] xs
1 -1 sc
gr
[1.00022 0 0 -1.00025 0 2371.58] concat
608 1978 m
608 1944 l
7 sw
1 sj
1 scap
st
774 1978 m
774 1961 l
st
939 1978 m
939 1944 l
st
1105 1978 m
1105 1961 l
st
1271 1978 m
1271 1944 l
st
1436 1978 m
1436 1961 l
st
1602 1978 m
1602 1944 l
st
1768 1978 m
1768 1961 l
st
1933 1978 m
1933 1944 l
st
2099 1978 m
2099 1961 l
st
2264 1978 m
2264 1944 l
st
2430 1978 m
2430 1961 l
st
2596 1978 m
2596 1944 l
st
2761 1978 m
2761 1961 l
st
2927 1978 m
2927 1944 l
st
608 1978 m
2927 1978 l
st
608 1978 m
642 1978 l
st
608 1836 m
625 1836 l
st
608 1694 m
642 1694 l
st
608 1552 m
625 1552 l
st
608 1410 m
642 1410 l
st
608 1268 m
625 1268 l
st
608 1127 m
642 1127 l
st
608 985 m
625 985 l
st
608 843 m
642 843 l
st
608 701 m
625 701 l
st
608 559 m
642 559 l
st
608 417 m
625 417 l
st
608 275 m
642 275 l
st
608 1978 m
608 275 l
st
608 275 m
608 309 l
st
774 275 m
774 292 l
st
939 275 m
939 309 l
st
1105 275 m
1105 292 l
st
1271 275 m
1271 309 l
st
1436 275 m
1436 292 l
st
1602 275 m
1602 309 l
st
1768 275 m
1768 292 l
st
1933 275 m
1933 309 l
st
2099 275 m
2099 292 l
st
2264 275 m
2264 309 l
st
2430 275 m
2430 292 l
st
2596 275 m
2596 309 l
st
2761 275 m
2761 292 l
st
2927 275 m
2927 309 l
st
608 275 m
2927 275 l
st
2927 1978 m
2893 1978 l
st
2927 1836 m
2910 1836 l
st
2927 1694 m
2893 1694 l
st
2927 1552 m
2910 1552 l
st
2927 1410 m
2893 1410 l
st
2927 1268 m
2910 1268 l
st
2927 1127 m
2893 1127 l
st
2927 985 m
2910 985 l
st
2927 843 m
2893 843 l
st
2927 701 m
2910 701 l
st
2927 559 m
2893 559 l
st
2927 417 m
2910 417 l
st
2927 275 m
2893 275 l
st
2927 1978 m
2927 275 l
st
gs
pathproc 608 275 2320 1704 np rectpath
/eocl cland
np exec
675 1721 32 32 rectfill
2927 275 m
3 sw
675 1721 32 32 rectstroke
857 1501 32 32 rectfill
857 1501 32 32 rectstroke
1089 1181 32 32 rectfill
1089 1181 32 32 rectstroke
1420 926 32 32 rectfill
1420 926 32 32 rectstroke
1752 756 32 32 rectfill
1752 756 32 32 rectstroke
2083 727 32 32 rectfill
2083 727 32 32 rectstroke
2414 798 32 32 rectfill
2414 798 32 32 rectstroke
2745 869 32 32 rectfill
2745 869 32 32 rectstroke
gr
gs
pathproc 608 275 2320 1704 np rectpath
/eocl cland
np exec
gr
gs
pathproc 608 275 2320 1704 np rectpath
/eocl cland
np exec
2099 715 m
2099 727 l
3 sw
st
2082 715 m
2116 715 l
st
2099 772 m
2099 759 l
st
2082 772 m
2116 772 l
st
2430 786 m
2430 798 l
st
2413 786 m
2447 786 l
st
2430 843 m
2430 830 l
st
2413 843 m
2447 843 l
st
2761 814 m
2761 869 l
st
2744 814 m
2778 814 l
st
2761 956 m
2761 901 l
st
2744 956 m
2778 956 l
st
gr
gs
pathproc 608 275 2320 1704 np rectpath
/eocl cland
np exec
939 1486 m
945 1507 l
968 1507 l
950 1520 l
957 1542 l
939 1528 l
920 1542 l
927 1520 l
909 1507 l
932 1507 l
cp
gs
1 0 0 rgb
eofi
gr
4 sw
1 0 0 rgb
st
1602 830 m
1608 851 l
1631 851 l
1613 864 l
1620 886 l
1602 872 l
1583 886 l
1590 864 l
1572 851 l
1595 851 l
cp
gs
eofi
gr
st
1933 681 m
1939 702 l
1962 702 l
1944 715 l
1951 737 l
1933 723 l
1914 737 l
1921 715 l
1903 702 l
1926 702 l
cp
gs
eofi
gr
st
gr
gs
1 -1 sc
/MC2_Arabic-Transparent 106 self 736 -451 m
(Pb + Pb, )[71 59 29 62 29 71 59 29 29 ] xs
1 -1 sc
1 -1 sc
/MC3_Symbol 78 self 1174 -451 m
/s61654 42 xgls
1 -1 sc
1 -1 sc
/MC2_Arabic-Transparent 106 self 1216 -451 m
(s)[53 ] xs
1 -1 sc
1 -1 sc
/MC2_Arabic-Transparent 105 self 1269 -484 m
(NN)[76 76 ] xs
1 -1 sc
1 -1 sc
/MC2_Arabic-Transparent 106 self 1421 -451 m
(= 2.76 TeV)[62 29 59 29 59 59 29 64 59 71 ] xs
1 -1 sc
gr
gs
gs
1299 1678 32 32 rectfill
2927 275 m
3 sw
1299 1678 32 32 rectstroke
gr
1 -1 sc
/MC2_Arabic-Transparent 108 self 1435 -1731 m
( ALICE, charged hadrons v)[30 72 60 30 78 72 30 30 54 60 60 36 60 60 60 30 60 60 60 36 60 60 54 30 53 ] xs
1 -1 sc
1 -1 sc
/MC2_Arabic-Transparent 64 self 2730 -1773 m
(2)[36 ] xs
1 -1 sc
1 -1 sc
/MC2_Arabic-Transparent 108 self 2766 -1731 m
({4})[36 60 36 ] xs
1 -1 sc
gs
1315 1831 m
1321 1852 l
1344 1852 l
1326 1865 l
1333 1887 l
1315 1873 l
1296 1887 l
1303 1865 l
1285 1852 l
1308 1852 l
cp
gs
1 0 0 rgb
eofi
gr
4 sw
1 0 0 rgb
st
gr
1 -1 sc
1435 -1899 m
( hydro results)[30 60 53 60 36 60 30 36 60 54 60 24 30 54 ] xs
1 -1 sc
gr
gs
gs
1 -1 sc
3045 -1181 tr
90 ro
/MC4_Arabic-Transparent 69 self 0 0 m
( )[19 ] xs
1 -1 sc
gr
gr
gs
1 -1 sc
/MC2_Arabic-Transparent 69 self 1758 -192 m
( )[19 ] xs
1 -1 sc
gr
gs
gs
1 -1 sc
278 -1312 tr
90 ro
/MC4_Arabic-Transparent 108 self 0 0 m
(<v)[63 54 ] xs
1 -1 sc
gr
gs
1 -1 sc
320 -1195 tr
90 ro
/MC4_Arabic-Transparent 64 self 0 0 m
(2)[36 ] xs
1 -1 sc
gr
gs
1 -1 sc
278 -1159 tr
90 ro
/MC4_Arabic-Transparent 108 self 0 0 m
(>)[63 ] xs
1 -1 sc
gr
gr
gs
1 -1 sc
/MC2_Arabic-Transparent 108 self 1453 -2277 m
(centrality \(%\))[54 60 60 30 36 60 24 24 30 53 30 36 96 36 ] xs
1 -1 sc
gr
gr
Save0 restore end
showpage
%%EOF
