\relax 
\providecommand\hyper@newdestlabel[2]{}
\@setckpt{Acknowledgement}{
\setcounter{page}{160}
\setcounter{equation}{79}
\setcounter{enumi}{9}
\setcounter{enumii}{0}
\setcounter{enumiii}{0}
\setcounter{enumiv}{0}
\setcounter{footnote}{32}
\setcounter{mpfootnote}{0}
\setcounter{part}{0}
\setcounter{section}{8}
\setcounter{subsection}{0}
\setcounter{subsubsection}{2}
\setcounter{paragraph}{0}
\setcounter{subparagraph}{0}
\setcounter{figure}{107}
\setcounter{table}{18}
\setcounter{tnote}{0}
\setcounter{fnote}{1}
\setcounter{cnote}{1}
\setcounter{ead}{1}
\setcounter{author}{0}
\setcounter{affn}{42}
\setcounter{NAT@ctr}{0}
\setcounter{parentequation}{0}
\setcounter{Item}{13}
\setcounter{Hfootnote}{31}
\setcounter{bookmark@seq@number}{103}
\setcounter{r@tfl@t}{0}
\setcounter{subfigure}{0}
\setcounter{lofdepth}{1}
\setcounter{subtable}{0}
\setcounter{lotdepth}{1}
\setcounter{linenumber}{1}
\setcounter{LN@truepage}{159}
\setcounter{section@level}{1}
}
