\relax 
\providecommand\hyper@newdestlabel[2]{}
\citation{Miller:2007ri}
\@writefile{toc}{\contentsline {section}{\numberline {3}Cold nuclear matter effects on heavy flavour and quarkonium production in p-A collisions}{39}{section.3}}
\newlabel{Cold nuclear matter effects}{{3}{39}{Cold nuclear matter effects on heavy flavour and quarkonium production in p-A collisions}{section.3}{}}
\@writefile{toc}{\contentsline {subsection}{\numberline {3.1}Heavy flavour in {\rm  p--A} collisions}{39}{subsection.3.1}}
\newlabel{CNM_Intro}{{3.1}{39}{Heavy flavour in {\rm p--A} collisions}{subsection.3.1}{}}
\citation{Mangano:1997ri}
\citation{Adare:2012yxa}
\citation{Adare:2013lkk}
\citation{Adare:2014iwg}
\citation{Adare:2013xlp}
\citation{Adler:2005ph,Adare:2007gn,Adare:2010fn}
\citation{Adare:2012qf}
\citation{Adare:2013ezl}
\citation{Adare:2012bv}
\citation{Adams:2004fc}
\citation{Adamczyk:2013poh}
\citation{Abelev:2014hha}
\citation{Abelev:2013yxa}
\citation{Abelev:2014zpa}
\citation{Adam:2015iga}
\citation{Abelev:2014oea}
\citation{Aad:2015ddl}
\citation{Chatrchyan:2013nza}
\citation{Aaij:2013zxa}
\citation{Aaij:2014mza}
\citation{Badier:1983dg,Badier:1985ri}
\citation{Baglin:1991gy,Baglin:1994ui,Baglin:1991vb}
\citation{Lourenco:1993mr}
\citation{Abreu:1998ee}
\citation{Abreu:1999nn}
\citation{Abreu:2000nj}
\citation{Alessandro:2003pi,Alessandro:2006jt}
\citation{Alessandro:2003pc}
\citation{Alessandro:2006dc}
\citation{Arnaldi:2010ky}
\citation{Alde:1990wa}
\citation{Alde:1991sw}
\citation{Leitch:1994vc}
\citation{Jansen:1994bz}
\citation{Kowitt:1993ns}
\citation{Schub:1995pu}
\citation{Leitch:1995yc}
\citation{Leitch:1999ea}
\citation{Chang:2003rz}
\citation{Brown:2000bz}
\citation{Abt:2007zg}
\citation{Abt:2005qs}
\citation{Abt:2006xa}
\citation{Abt:2002rd}
\citation{Abt:2005qr}
\citation{Abt:2008ya}
\citation{Abt:2009nu}
\citation{Abt:2006va}
\citation{Abt:2008ed}
\citation{Abt:2006wc}
\newlabel{cross-section-factorization}{{16}{40}{Heavy flavour in {\rm p--A} collisions}{equation.3.16}{}}
\newlabel{2-1_x-Bjorken}{{17}{40}{Heavy flavour in {\rm p--A} collisions}{equation.3.17}{}}
\newlabel{OHF_x-Bjorken}{{18}{40}{Heavy flavour in {\rm p--A} collisions}{equation.3.18}{}}
\newlabel{QQ_x-Bjorken}{{19}{40}{Heavy flavour in {\rm p--A} collisions}{equation.3.18}{}}
\@writefile{lot}{\contentsline {table}{\numberline {6}{\ignorespaces Available {p--A}\xspace  \ data in collider: the probes, the colliding system, $\ensuremath  {\sqrt  {s_{\mathrm  {\scriptscriptstyle NN}}}}\xspace  $, the kinematic range (with $\ensuremath  {y}\xspace  $ the rapidity in the centre-of-mass frame), the observables (as a function of variables) are given as well as the references.}}{41}{table.6}}
\newlabel{Tab-pA_data_collider}{{6}{41}{Available \pA \ data in collider: the probes, the colliding system, $\snn $, the kinematic range (with $\ycm $ the rapidity in the centre-of-mass frame), the observables (as a function of variables) are given as well as the references}{table.6}{}}
\@writefile{toc}{\contentsline {subsection}{\numberline {3.2}Theoretical models for CNM effects}{41}{subsection.3.2}}
\newlabel{CNM_theory}{{3.2}{41}{Theoretical models for CNM effects}{subsection.3.2}{}}
\@writefile{toc}{\contentsline {subsubsection}{\numberline {3.2.1}Typical timescales}{41}{subsubsection.3.2.1}}
\newlabel{sec:timescales}{{3.2.1}{41}{Typical timescales}{subsubsection.3.2.1}{}}
\@writefile{lot}{\contentsline {table}{\numberline {7}{\ignorespaces Available {p--A}\xspace  \ data in fixed target: the probes, the target, $\ensuremath  {\sqrt  {s_{\mathrm  {\scriptscriptstyle NN}}}}\xspace  $, the kinematic range (with $\ensuremath  {y}\xspace  $ the rapidity in the centre-of-mass frame), the observables (as a function of variables) are given as well as the references. The flag ($\dagger $) means that a cut on $|\qopname  \relax o{cos}\theta _{\rm  CS}|<0.5$ is applied in the analysis, where $\theta _{\rm  CS}$ is the decay muon angle in the Collins-Soper frame. Feynman-$x$ variable $\ensuremath  {x_{\mathrm  {F}}}\xspace  =\frac  {2p_{\rm  L,CM}}{\sqrt  {s_{\rm  NN}}}$, where $p_{\rm  L,CM}$ is the longitudinal momentum of the partonic system in the CM frame, is connected to the momentum fraction variables by $\ensuremath  {x_{\mathrm  {F}}}\xspace  \approx x_1-x_2$, in the limit $p_{\rm  T} \ll p$.}}{42}{table.7}}
\newlabel{Tab-pA_data_fixedtarget}{{7}{42}{Available \pA \ data in fixed target: the probes, the target, $\snn $, the kinematic range (with $\ycm $ the rapidity in the centre-of-mass frame), the observables (as a function of variables) are given as well as the references. The flag ($\dagger $) means that a cut on $|\cos \theta _{\rm CS}|<0.5$ is applied in the analysis, where $\theta _{\rm CS}$ is the decay muon angle in the Collins-Soper frame. Feynman-$x$ variable $\xf =\frac {2p_{\rm L,CM}}{\sqrt {s_{\rm NN}}}$, where $p_{\rm L,CM}$ is the longitudinal momentum of the partonic system in the CM frame, is connected to the momentum fraction variables by $\xf \approx x_1-x_2$, in the limit $p_{\rm T} \ll p$}{table.7}{}}
\citation{Kopeliovich:1991pu}
\citation{Adare:2013ezl}
\citation{Vogt:2010aa}
\@writefile{lof}{\contentsline {figure}{\numberline {25}{\ignorespaces Accessible $x_2$ and $m_{\rm  T}$ range at the LHC ($|\ensuremath  {y_{\mathrm  {lab}}}\xspace  | < 4.5$) in p--Pb collisions at $\ensuremath  {\sqrt  {s_{\mathrm  {\scriptscriptstyle NN}}}}\xspace  =5.02$ TeV for different heavy-flavour probes (D and B mesons, $\ensuremath  {\mathrm  {J}/\psi }\xspace  $ and $\Upsilon $) with $0<\ensuremath  {p_{\mathrm  {T}}}\xspace  < 10$\nobreakspace  {}GeV/$c$.}}{43}{figure.25}}
\newlabel{Fig-LHCx_range}{{25}{43}{Accessible $x_2$ and $m_{\rm T}$ range at the LHC ($|\ylab | < 4.5$) in p--Pb collisions at $\snn =5.02$ TeV for different heavy-flavour probes (D and B mesons, $\jpsi $ and $\Upsilon $) with $0<\pt < 10$~GeV/$c$}{figure.25}{}}
\@writefile{toc}{\contentsline {subsubsection}{\numberline {3.2.2}Nuclear PDFs}{43}{subsubsection.3.2.2}}
\newlabel{sec:npdf}{{3.2.2}{43}{Nuclear PDFs}{subsubsection.3.2.2}{}}
\citation{Eskola:2009uj}
\citation{Nelson:2012bc}
\citation{Nelson:2012bc}
\citation{Nelson:2012bc}
\citation{Nelson_inprog}
\citation{Albacete:2013ei}
\citation{Albacete:2013ei}
\citation{Eskola:2009uj}
\citation{Eskola:2009uj}
\citation{Vogt:2010aa}
\citation{Eskola:2009uj}
\citation{deFlorian:2003qf}
\citation{Albacete:2013ei}
\citation{delValle:2014wha}
\citation{Combridge:1978kx}
\citation{Aaij:2013zxa}
\@writefile{toc}{\contentsline {paragraph}{$\ensuremath  {\mathrm  {J}/\psi }\xspace  $ and $\Upsilon $ production}{44}{section*.11}}
\newlabel{sigtil}{{20}{44}{$\jpsi $ and $\Upsilon $ production}{equation.3.20}{}}
\citation{Eskola:2009uj}
\citation{deFlorian:2003qf}
\citation{Klein:2003dj,Vogt:2004dh}
\citation{Helenius:2012wd}
\citation{Ferreiro:2008qj}
\citation{Ferreiro:2009ur,Rakotozafindrabe:2012ss}
\citation{Ferreiro:2011xy,Ferreiro:2013pua}
\citation{Aaij:2013zxa}
\citation{delValle:2014wha}
\citation{Fujii:2013yja,Fujii:2013gxa}
\citation{Blaizot:2004wv}
\citation{Fujii:2005vj}
\@writefile{lof}{\contentsline {figure}{\numberline {26}{\ignorespaces }}{45}{figure.26}}
\newlabel{fig:CNMJpsiUpsypt}{{26}{45}{}{figure.26}{}}
\@writefile{toc}{\contentsline {paragraph}{Non-prompt $\ensuremath  {\mathrm  {J}/\psi }\xspace  $ production}{45}{section*.12}}
\@writefile{toc}{\contentsline {subsubsection}{\numberline {3.2.3}Saturation in the Colour Glass Condensate approach}{45}{subsubsection.3.2.3}}
\newlabel{sec:saturation}{{3.2.3}{45}{Saturation in the Colour Glass Condensate approach}{subsubsection.3.2.3}{}}
\citation{Albacete:2009fh}
\citation{Fujii:2013yja,Fujii:2013gxa}
\citation{Ducloue:2015gfa}
\citation{Kang:2013hta}
\citation{Ma:2015sia}
\citation{Fujii:2013yja,Fujii:2013gxa}
\citation{Fujii:2013yja,Fujii:2013gxa}
\@writefile{lof}{\contentsline {figure}{\numberline {27}{\ignorespaces Effect of nPDF as encoded in EPS09 LO on ${\ensuremath  {R_{\mathrm  {pPb}}}\xspace  }^{b\to \ensuremath  {\mathrm  {J}/\psi }\xspace  }$ at $\ensuremath  {\sqrt  {s_{\mathrm  {\scriptscriptstyle NN}}}}\xspace  =5$\nobreakspace  {}TeV.}}{46}{figure.27}}
\newlabel{fig:Ferreiro-B}{{27}{46}{Effect of nPDF as encoded in EPS09 LO on ${\rppb }^{b\to \jpsi }$ at $\snn =5$~TeV}{figure.27}{}}
\citation{Kopeliovich:2010nw,Kopeliovich:2011zz}
\citation{Kopeliovich:1991pu,Kopeliovich:1999am,Kopeliovich:2001ee}
\citation{Kopeliovich:2001ee,Kopeliovich:2010nw,Kopeliovich:2011zz}
\citation{Kopeliovich:2011zz}
\citation{Kopeliovich:2010nw}
\citation{Kopeliovich:2010nw}
\citation{Hufner:1996jw}
\citation{Kopeliovich:2001ee}
\citation{Hufner:1996jw}
\citation{Kopeliovich_inprog}
\citation{Kopeliovich:2010nw}
\citation{Kopeliovich:2010nw}
\@writefile{lof}{\contentsline {figure}{\numberline {28}{\ignorespaces  Nuclear modification factor $\ensuremath  {R_{\mathrm  {pA}}}\xspace  (y)$ for D and \ensuremath  {\mathrm  {J}/\psi }\xspace  \ in p--Pb collisions at $\ensuremath  {\sqrt  {s_{\mathrm  {\scriptscriptstyle NN}}}}\xspace  =5.02$ TeV in the CGC approach of Fuji and Watanabe\nobreakspace  {}\cite  {Fujii:2013yja,Fujii:2013gxa}. The bands indicate the uncertainties from the variations $m_c=1.2$--$1.5$\nobreakspace  {}GeV$/c^2$ and $Q_{s,A}^2(x_0)= (4-6) Q_{s,p}^2(x_0)$. }}{47}{figure.28}}
\newlabel{fig:HQ-Quarkonium-RpA-y}{{28}{47}{Nuclear modification factor $\rpa (y)$ for D and \jpsi \^^Min p--Pb collisions at $\snn =5.02$ TeV in the CGC approach of Fuji and Watanabe~\cite {Fujii:2013yja,Fujii:2013gxa}. The bands indicate the uncertainties from the variations $m_c=1.2$--$1.5$~GeV$/c^2$ and $Q_{s,A}^2(x_0)= (4-6) Q_{s,p}^2(x_0)$}{figure.28}{}}
\@writefile{toc}{\contentsline {subsubsection}{\numberline {3.2.4}Multiple scattering and energy loss}{47}{subsubsection.3.2.4}}
\newlabel{sec:eloss}{{3.2.4}{47}{Multiple scattering and energy loss}{subsubsection.3.2.4}{}}
\@writefile{toc}{\contentsline {paragraph}{\ensuremath  {{Q\overline  {Q}}}\xspace  \ propagation and attenuation in nuclei}{47}{section*.13}}
\newlabel{120}{{21}{47}{\QQbar \ propagation and attenuation in nuclei}{equation.3.21}{}}
\newlabel{140}{{22}{47}{\QQbar \ propagation and attenuation in nuclei}{equation.3.21}{}}
\citation{Vitev:2006bi}
\citation{Vitev:2007ve}
\citation{Neufeld:2010dz}
\citation{Vitev:2006bi,Neufeld:2010dz,Sharma:2012dy}
\citation{Sharma:2012dy}
\citation{Sharma:2012dy}
\@writefile{lof}{\contentsline {figure}{\numberline {29}{\ignorespaces  Calculations\nobreakspace  {}\cite  {Kopeliovich:2010nw} for the $\ensuremath  {p_{\mathrm  {T}}}\xspace  $-integrated nuclear suppression factor $\ensuremath  {R_{\mathrm  {dAu}}}\xspace  (y)$ for $\ensuremath  {\mathrm  {J}/\psi }\xspace  $ produced in d--Au collisions with rapidity $y$ at $\ensuremath  {\sqrt  {s_{\mathrm  {\scriptscriptstyle NN}}}}\xspace  =200\tmspace  +\thinmuskip {.1667em}$GeV. The upper solid curve presents the result of Eq.\nobreakspace  {}(\ref  {120}) and Eq.\nobreakspace  {}(\ref  {140}), including a small effect from shadowing. The lower solid (dashed) curve shows calculations for LHC at $\ensuremath  {\sqrt  {s_{\mathrm  {\scriptscriptstyle NN}}}}\xspace  =5\tmspace  +\thinmuskip {.1667em}$TeV, including (excluding) shadowing.}}{48}{figure.29}}
\newlabel{dAu}{{29}{48}{Calculations~\cite {Kopeliovich:2010nw} for the $\pt $-integrated nuclear suppression factor $\rdau (y)$ for $\jpsi $ produced in d--Au collisions with rapidity $y$ at $\snn =200\,$GeV. The upper solid curve presents the result of \eq {120} and \eq {140}, including a small effect from shadowing. The lower solid (dashed) curve shows calculations for LHC at $\snn =5\,$TeV, including (excluding) shadowing}{figure.29}{}}
\newlabel{fig:KPS}{{29}{48}{Calculations~\cite {Kopeliovich:2010nw} for the $\pt $-integrated nuclear suppression factor $\rdau (y)$ for $\jpsi $ produced in d--Au collisions with rapidity $y$ at $\snn =200\,$GeV. The upper solid curve presents the result of \eq {120} and \eq {140}, including a small effect from shadowing. The lower solid (dashed) curve shows calculations for LHC at $\snn =5\,$TeV, including (excluding) shadowing}{figure.29}{}}
\@writefile{toc}{\contentsline {paragraph}{Initial and final state energy loss, power corrections and Cronin effect}{48}{section*.14}}
\newlabel{eq:viteva}{{23}{48}{Initial and final state energy loss, power corrections and Cronin effect}{equation.3.23}{}}
\newlabel{eq:vitevb}{{24}{48}{Initial and final state energy loss, power corrections and Cronin effect}{equation.3.23}{}}
\newlabel{eq:vitevc}{{25}{48}{Initial and final state energy loss, power corrections and Cronin effect}{equation.3.23}{}}
\citation{Sharma:2012dy}
\citation{Neufeld:2010dz}
\citation{Sharma:2012dy}
\citation{Sharma:2012dy}
\citation{Arleo:2010rb,Arleo:2012rs,Arleo:2013zua,Peigne:2014uha,Peigne:2014rka}
\citation{Arleo:2010rb,Peigne:2014uha}
\citation{Peigne:2014rka}
\citation{Arleo:2012rs,Arleo:2013zua}
\citation{Arleo:2010rb,Arleo:2012rs,Arleo:2013zua,Peigne:2014uha,Peigne:2014rka}
\citation{Arleo:2010rb,Arleo:2012rs,Arleo:2013zua,Peigne:2014uha,Peigne:2014rka}
\citation{Lourenco:2008sk}
\citation{Eskola:1998iy,Eskola:1998df,Pumplin:2002vw,Stump:2003yu}
\citation{Lourenco:2008sk}
\citation{Eskola:1998iy,Eskola:1998df}
\citation{Lourenco:2008sk}
\citation{Eskola:1998iy,Eskola:1998df,Pumplin:2002vw,Stump:2003yu}
\citation{Lourenco:2008sk}
\citation{Eskola:1998iy,Eskola:1998df}
\citation{Arleo:2012rs,Arleo:2013zua}
\citation{Leitch:1999ea}
\@writefile{lof}{\contentsline {figure}{\numberline {30}{\ignorespaces Theoretical calculations\nobreakspace  {}\cite  {Sharma:2012dy} for $\Upsilon $ and $\ensuremath  {\mathrm  {J}/\psi }\xspace  $ $\ensuremath  {R_{\mathrm  {pA}}}\xspace  $, as a function of \ensuremath  {p_{\mathrm  {T}}}\xspace  and at mid-rapidity, in minimum-bias collisions with a small (upper curve, red) and large (lower curve, blue) energy loss effect at RHIC and LHC, respectively. }}{49}{figure.30}}
\newlabel{fig:RpAJ1}{{30}{49}{Theoretical calculations~\cite {Sharma:2012dy} for $\Upsilon $ and $\jpsi $ $\rpa $, as a function of \pt and at mid-rapidity, in minimum-bias collisions with a small (upper curve, red) and large (lower curve, blue) energy loss effect at RHIC and LHC, respectively}{figure.30}{}}
\@writefile{toc}{\contentsline {paragraph}{Coherent energy loss}{49}{section*.15}}
\citation{Arleo:2012rs}
\citation{Arleo:2014oha}
\citation{Arleo:2006qk}
\citation{Lourenco:2008sk}
\citation{Lourenco:2008sk}
\citation{Lourenco:2008sk}
\citation{Badier:1983dg}
\citation{Alessandro:2006jt,Alessandro:2003pc}
\citation{Leitch:1999ea}
\citation{Abt:2008ya}
\citation{Scomparin:2009tg}
\citation{daSilva:2009yy}
\@writefile{lof}{\contentsline {figure}{\numberline {31}{\ignorespaces Left: $\ensuremath  {\mathrm  {J}/\psi }\xspace  $ suppression due to coherent energy loss effects, fitted to E866 data in p--W collisions at $\ensuremath  {\sqrt  {s_{\mathrm  {\scriptscriptstyle NN}}}}\xspace  =38.7$\nobreakspace  {}GeV, as a function of Feynman-$x$, $x_{\rm  F} \simeq 2 p_z^{\ensuremath  {\mathrm  {J}/\psi }\xspace  }/\sqrt  {s}$. The vertical arrow indicates below which $x_{\rm  F}$ values $\ensuremath  {\mathrm  {J}/\psi }\xspace  $ production may be sensitive to nuclear absorption. Right: Predictions of $\ensuremath  {\mathrm  {J}/\psi }\xspace  $ and $\ensuremath  {\Upsilon }\xspace  $ suppression in {p--Pb}\xspace  \ collisions at the LHC. From Refs.\nobreakspace  {}\cite  {Arleo:2010rb,Arleo:2012rs,Arleo:2013zua,Peigne:2014uha,Peigne:2014rka}.}}{50}{figure.31}}
\newlabel{fig:coherent-loss-vs-LHC}{{31}{50}{Left: $\jpsi $ suppression due to coherent energy loss effects, fitted to E866 data in p--W collisions at $\snn =38.7$~GeV, as a function of Feynman-$x$, $x_{\rm F} \simeq 2 p_z^{\jpsi }/\sqrt {s}$. The vertical arrow indicates below which $x_{\rm F}$ values $\jpsi $ production may be sensitive to nuclear absorption. Right: Predictions of $\jpsi $ and $\ups $ suppression in \pPb \ collisions at the LHC. From \cis {Arleo:2010rb,Arleo:2012rs,Arleo:2013zua,Peigne:2014uha,Peigne:2014rka}}{figure.31}{}}
\@writefile{toc}{\contentsline {subsubsection}{\numberline {3.2.5}Nuclear absorption}{50}{subsubsection.3.2.5}}
\newlabel{sec:absorption}{{3.2.5}{50}{Nuclear absorption}{subsubsection.3.2.5}{}}
\citation{Brambilla:2010cs}
\citation{McGlinchey:2012bp}
\citation{Eskola:2009uj}
\citation{Lourenco:2008sk}
\citation{Arleo:2006qk}
\citation{Lourenco:2008sk}
\citation{McGlinchey:2012bp}
\citation{delValle:2014wha}
\citation{Fujii:2013yja}
\citation{Vitev:2006bi}
\citation{Ferreiro:2009ur,Rakotozafindrabe:2012ss}
\citation{Ferreiro:2011xy,Ferreiro:2013pua}
\citation{Vogt:2010aa}
\citation{Fujii:2013gxa}
\citation{Sharma:2012dy}
\citation{Arleo:2012rs,Arleo:2013zua}
\citation{Kopeliovich:2010nw,Kopeliovich:2011zz}
\@writefile{lof}{\contentsline {figure}{\numberline {32}{\ignorespaces Left: Energy dependence of $\sigma _{\rm  abs}^{\ensuremath  {\mathrm  {J}/\psi }\xspace  }$ at mid-rapidity\nobreakspace  {}\cite  {Lourenco:2008sk} using the EKS98-CTEQ61L nPDFs\nobreakspace  {}\cite {Eskola:1998iy,Eskola:1998df, Pumplin:2002vw,Stump:2003yu}. Right: The $\ensuremath  {x_{\mathrm  {F}}}\xspace  $ dependence of $\sigma _{\rm  abs}^{\ensuremath  {\mathrm  {J}/\psi }\xspace  }$, determined\nobreakspace  {}\cite {Lourenco:2008sk} from fixed-target measurements and using the EKS98 nPDFs\nobreakspace  {}\cite {Eskola:1998iy,Eskola:1998df}.}}{51}{figure.32}}
\newlabel{fig:LVWfig1}{{32}{51}{Left: Energy dependence of $\sigma _{\rm abs}^{\jpsi }$ at mid-rapidity~\cite {Lourenco:2008sk} using the EKS98-CTEQ61L nPDFs~\protect \cite {Eskola:1998iy,Eskola:1998df, Pumplin:2002vw,Stump:2003yu}. Right: The $\xf $ dependence of $\sigma _{\rm abs}^{\jpsi }$, determined~\protect \cite {Lourenco:2008sk} from fixed-target measurements and using the EKS98 nPDFs~\protect \cite {Eskola:1998iy,Eskola:1998df}}{figure.32}{}}
\@writefile{toc}{\contentsline {subsubsection}{\numberline {3.2.6}Summary of CNM models}{51}{subsubsection.3.2.6}}
\newlabel{sec:cnm-theo-sum}{{3.2.6}{51}{Summary of CNM models}{subsubsection.3.2.6}{}}
\@writefile{toc}{\contentsline {subsection}{\numberline {3.3}Recent RHIC and LHC results}{51}{subsection.3.3}}
\newlabel{CNM_ExpData}{{3.3}{51}{Recent RHIC and LHC results}{subsection.3.3}{}}
\citation{Averbeck:2011ga}
\citation{Cacciari:2003uh,Cacciari:2012ny}
\citation{Kniehl:2005st,Kniehl:2005mk}
\citation{Averbeck:2011ga}
\citation{Adare:2006kf}
\citation{Abelev:2012kr}
\citation{Aamodt:2011gj}
\citation{Acosta:2004yw}
\citation{Bossu:2011qe}
\citation{Adare:2006kf,Aamodt:2011gj,Acosta:2004yw}
\citation{ALICE:2013spa}
\citation{Abelev:2012kr}
\citation{Abelev:2014qha}
\citation{Aaij:2012asz}
\citation{Aaij:2011jh}
\citation{Aaij:2013yaa}
\@writefile{lot}{\contentsline {table}{\numberline {8}{\ignorespaces Summary of the various models of CNM approaches discussed in the text and compared to data in\nobreakspace  {}Section\nobreakspace  {}\ref  {CNM_ExpData}. The main physical processes and ingredients used in each calculation are listed.}}{52}{table.8}}
\newlabel{tab:cnm-theo-sum}{{8}{52}{Summary of the various models of CNM approaches discussed in the text and compared to data in~\sect {CNM_ExpData}. The main physical processes and ingredients used in each calculation are listed}{table.8}{}}
\@writefile{toc}{\contentsline {subsubsection}{\numberline {3.3.1}Reference for {p--A}\xspace  measurements at the LHC}{52}{subsubsection.3.3.1}}
\newlabel{sec:CNM:ppRef}{{3.3.1}{52}{Reference for \pA measurements at the LHC}{subsubsection.3.3.1}{}}
\citation{LHCb:08082014sca}
\citation{Aaij:2014nwa}
\citation{Abelev:2014qha}
\citation{Aaij:2013yaa}
\citation{Abelev:2006db,Adare:2012yxa}
\citation{Adare:2012yxa,Adare:2013lkk}
\citation{Adare:2012yxa}
\citation{Vitev:2006bi,Vitev:2007ve}
\citation{Adare:2012yxa,Adare:2013lkk}
\citation{Adare:2012yxa,Adare:2013lkk}
\citation{Adare:2012yxa,Adare:2013lkk}
\citation{Vitev:2006bi,Vitev:2007ve}
\citation{Adare:2012yxa,Adare:2013lkk}
\citation{Vitev:2006bi,Vitev:2007ve}
\citation{Li:2014dha}
\citation{Li:2014dha}
\@writefile{toc}{\contentsline {subsubsection}{\numberline {3.3.2}Open heavy-flavour measurements}{53}{subsubsection.3.3.2}}
\newlabel{sec:CNM:OHF}{{3.3.2}{53}{Open heavy-flavour measurements}{subsubsection.3.3.2}{}}
\@writefile{toc}{\contentsline {paragraph}{Heavy-flavour decay leptons}{53}{section*.16}}
\@writefile{lof}{\contentsline {figure}{\numberline {33}{\ignorespaces Nuclear modification factor of heavy-flavour decay leptons in {d--Au}\xspace  collisions at $\ensuremath  {\sqrt  {s_{\mathrm  {\scriptscriptstyle NN}}}}\xspace  =200$\ensuremath  {\text  {\nobreakspace  {}GeV}}\xspace  as a function of transverse momentum in the 0--20\% and 60--88\% centrality classes, as measured with the PHENIX detector\nobreakspace  {}\cite  {Adare:2012yxa,Adare:2013lkk}.  }}{54}{figure.33}}
\newlabel{fig:HFlepton_RdAvspt_RHIC}{{33}{54}{Nuclear modification factor of heavy-flavour decay leptons in \dAu collisions at $\snn =200$\GeV as a function of transverse momentum in the 0--20\% and 60--88\% centrality classes, as measured with the PHENIX detector~\cite {Adare:2012yxa,Adare:2013lkk}}{figure.33}{}}
\@writefile{lof}{\contentsline {figure}{\numberline {34}{\ignorespaces Nuclear modification factor of heavy-flavour decay leptons in {d--Au}\xspace  collisions at $\ensuremath  {\sqrt  {s_{\mathrm  {\scriptscriptstyle NN}}}}\xspace  =200$\ensuremath  {\text  {\nobreakspace  {}GeV}}\xspace  as a function of transverse momentum in the 0--20\% and 60--88\% centrality classes, as measured with the PHENIX detector\nobreakspace  {}\cite  {Adare:2012yxa,Adare:2013lkk}. A PYTHIA calculation considering EPS09 LO is also shown, courtesy of Sanghoon Lim. The calculation by Vitev {\it  et al.} considering nPDFs, $\ensuremath  {k_{\mathrm  {T}}}\xspace  $ broadening and CNM energy loss is also shown\nobreakspace  {}\cite  {Vitev:2006bi,Vitev:2007ve}.  }}{54}{figure.34}}
\newlabel{fig:HFlepton_RdAvspt_RHIC_model}{{34}{54}{Nuclear modification factor of heavy-flavour decay leptons in \dAu collisions at $\snn =200$\GeV as a function of transverse momentum in the 0--20\% and 60--88\% centrality classes, as measured with the PHENIX detector~\cite {Adare:2012yxa,Adare:2013lkk}. A PYTHIA calculation considering EPS09 LO is also shown, courtesy of Sanghoon Lim. The calculation by Vitev {\it et al.} considering nPDFs, $\kt $ broadening and CNM energy loss is also shown~\cite {Vitev:2006bi,Vitev:2007ve}}{figure.34}{}}
\citation{Adare:2014iwg}
\citation{Adare:2014iwg}
\citation{Adare:2014iwg}
\citation{Abelev:2014hha}
\citation{ALICE:2011aa,Abelev:2014hha}
\citation{Mangano:1991jk}
\citation{Eskola:2009uj}
\citation{Fujii:2013yja}
\citation{Sharma:2009hn}
\citation{Abelev:2014hha}
\citation{Abelev:2014hha}
\citation{Russo:2014iia}
\@writefile{lof}{\contentsline {figure}{\numberline {35}{\ignorespaces  Inclusive $\ensuremath  {e^+e^-}\xspace  $ pair yield from minimum bias {d--Au}\xspace  collisions at $\ensuremath  {\sqrt  {s_{\mathrm  {\scriptscriptstyle NN}}}}\xspace  =200$\ensuremath  {\text  {\nobreakspace  {}GeV}}\xspace  as a function of dilepton invariant mass\nobreakspace  {}\cite  {Adare:2014iwg}. The data are compared to the PHENIX model of expected sources. The insert shows in detail the mass range up to $4.5\nobreakspace  {}\ensuremath  {\text  {\nobreakspace  {}GeV}/c}\xspace  ^{2}$. In the lower panel, the ratio of data to expected sources is shown with systematic uncertainties.  }}{55}{figure.35}}
\newlabel{fig:HFdilepton_dAu_PHENIX}{{35}{55}{Inclusive $\ee $ pair yield from minimum bias \dAu collisions at $\snn =200$\GeV as a function of dilepton invariant mass~\cite {Adare:2014iwg}. The data are compared to the PHENIX model of expected sources. The insert shows in detail the mass range up to $4.5~\GeVc ^{2}$. In the lower panel, the ratio of data to expected sources is shown with systematic uncertainties}{figure.35}{}}
\@writefile{toc}{\contentsline {paragraph}{Dilepton invariant mass}{55}{section*.17}}
\@writefile{toc}{\contentsline {paragraph}{{\rm  D} mesons}{55}{section*.18}}
\citation{Aaij:2013zxa}
\citation{delValle:2014wha}
\citation{Aaij:2013zxa}
\citation{delValle:2014wha}
\citation{Aaij:2013zxa}
\citation{Aad:2015ddl}
\@writefile{lof}{\contentsline {figure}{\numberline {36}{\ignorespaces Nuclear modification factor of prompt D mesons in {p--Pb}\xspace  collisions at $\ensuremath  {\sqrt  {s_{\mathrm  {\scriptscriptstyle NN}}}}\xspace  =5.02$\ensuremath  {\text  {\nobreakspace  {}TeV}}\xspace  as a function of transverse momentum as measured with the ALICE detector\nobreakspace  {}\cite  {Abelev:2014hha}. The measurements are compared with theoretical calculations including various CNM effects.  }}{56}{figure.36}}
\newlabel{fig:D_RpAvspt_LHC}{{36}{56}{Nuclear modification factor of prompt D mesons in \pPb collisions at $\snn =5.02$\TeV as a function of transverse momentum as measured with the ALICE detector~\cite {Abelev:2014hha}. The measurements are compared with theoretical calculations including various CNM effects}{figure.36}{}}
\@writefile{lof}{\contentsline {figure}{\numberline {37}{\ignorespaces LHCb measurements of non-prompt $\ensuremath  {\mathrm  {J}/\psi }\xspace  $ mesons in {p--Pb}\xspace  collisions at $\ensuremath  {\sqrt  {s_{\mathrm  {\scriptscriptstyle NN}}}}\xspace  =5.02$\ensuremath  {\text  {\nobreakspace  {}TeV}}\xspace  \nobreakspace  {}\cite  {Aaij:2013zxa}. Left: nuclear modification factor as a function of rapidity, compared to nPDF-based calculations\nobreakspace  {}\cite  {delValle:2014wha}. Right: forward to backward rapidity ratio as a function of transverse momentum.  }}{56}{figure.37}}
\newlabel{fig:NonPromptJpsi_pPb_LHCb}{{37}{56}{LHCb measurements of non-prompt $\jpsi $ mesons in \pPb collisions at $\snn =5.02$\TeV ~\cite {Aaij:2013zxa}. Left: nuclear modification factor as a function of rapidity, compared to nPDF-based calculations~\cite {delValle:2014wha}. Right: forward to backward rapidity ratio as a function of transverse momentum}{figure.37}{}}
\citation{CMS:2014tfa,Innocenti:2014hha}
\citation{CMS:2014tca}
\citation{Sjostrand:2006za,Sjostrand:2007gs}
\citation{Adare:2013xlp}
\citation{Adare:2013xlp}
\citation{Gelis:2010nm,Marquet:2007vb,Lappi:2012nh}
\citation{Kang:2011bp}
\@writefile{lof}{\contentsline {figure}{\numberline {38}{\ignorespaces  Heavy-flavour decay electron ($\ensuremath  {p_{\mathrm  {T}}}\xspace  >0.5\ensuremath  {\text  {\nobreakspace  {}GeV}/c}\xspace  $, $|\eta |<0.5$) to heavy-flavour decay muon ($\ensuremath  {p_{\mathrm  {T}}}\xspace  >1\ensuremath  {\text  {\nobreakspace  {}GeV}/c}\xspace  $, $1.4<\eta <2.1$) $\Delta \phi $ correlations in \ensuremath  {\rm  pp}\xspace  (left) and {d--Au}\xspace  (right) collisions at $\ensuremath  {\sqrt  {s}}\xspace  =200$\ensuremath  {\text  {\nobreakspace  {}GeV}}\xspace  \nobreakspace  {}\cite  {Adare:2013xlp}. The \ensuremath  {\rm  pp}\xspace  results are compared to POWHEG, PYTHIA and MC\spacefactor \@m NLO calculations. }}{57}{figure.38}}
\newlabel{fig:pA:HFeHFm}{{38}{57}{Heavy-flavour decay electron ($\pt >0.5\GeVc $, $|\eta |<0.5$) to heavy-flavour decay muon ($\pt >1\GeVc $, $1.4<\eta <2.1$) $\Delta \phi $ correlations in \pp (left) and \dAu (right) collisions at $\s =200$\GeV ~\cite {Adare:2013xlp}. The \pp results are compared to POWHEG, PYTHIA and MC\@NLO calculations}{figure.38}{}}
\@writefile{toc}{\contentsline {paragraph}{Open beauty measurements}{57}{section*.19}}
\@writefile{toc}{\contentsline {paragraph}{Heavy-flavour azimuthal correlations}{57}{section*.20}}
\citation{Adare:2013xlp}
\citation{Bjelogrlic:2014kia}
\citation{Adare:2010fn}
\citation{Abelev:2013yxa,Adam:2015iga}
\citation{Aaij:2013zxa}
\citation{Adare:2010fn}
\citation{Abelev:2013yxa,Adam:2015iga}
\citation{Aaij:2013zxa}
\citation{Adare:2010fn}
\citation{Cacciari:2005rk}
\citation{Adare:2013ezl}
\citation{Abelev:2013yxa,Adam:2015iga}
\citation{Aaij:2013zxa}
\citation{Aaij:2013zxa,Aad:2015ddl}
\@writefile{toc}{\contentsline {subsubsection}{\numberline {3.3.3}Quarkonium measurements}{58}{subsubsection.3.3.3}}
\newlabel{sec:CNM:Onia}{{3.3.3}{58}{Quarkonium measurements}{subsubsection.3.3.3}{}}
\@writefile{toc}{\contentsline {paragraph}{Charmonium}{58}{section*.21}}
\citation{Vogt:2010aa,Ferreiro:2008wc,Ferreiro:2013pua}
\citation{Fujii:2013gxa}
\citation{Arleo:2010rb,Kopeliovich:2011zz}
\citation{Adare:2010fn}
\citation{Abelev:2013yxa,Adam:2015iga}
\citation{Aaij:2013zxa}
\citation{Adare:2010fn}
\citation{Abelev:2013yxa,Adam:2015iga}
\citation{Aaij:2013zxa}
\citation{Adare:2010fn,Abelev:2013yxa,Adam:2015iga,Aaij:2013zxa}
\@writefile{lof}{\contentsline {figure}{\numberline {39}{\ignorespaces Left: rapidity dependence of \ensuremath  {R_{\mathrm  {dAu}}}\xspace  for inclusive \ensuremath  {\mathrm  {J}/\psi }\xspace  in PHENIX\nobreakspace  {}\cite  {Adare:2010fn}. The error bars represent the uncorrelated uncertainties (statistical and systematic), the open boxes the point-to-point correlated systematic uncertainties and the box at unity the correlated one. Right: rapidity dependence of \ensuremath  {R_{\mathrm  {pPb}}}\xspace  for inclusive \ensuremath  {\mathrm  {J}/\psi }\xspace  in ALICE\nobreakspace  {}\cite  {Abelev:2013yxa,Adam:2015iga} and prompt \ensuremath  {\mathrm  {J}/\psi }\xspace  in LHCb\nobreakspace  {}\cite  {Aaij:2013zxa}. The error bars represent the statistical uncertainties while the open boxes the systematic uncertainties. Other uncertainties are displayed similarly to PHENIX. }}{59}{figure.39}}
\newlabel{fig:fig01}{{39}{59}{Left: rapidity dependence of \rdau for inclusive \jpsi in PHENIX~\cite {Adare:2010fn}. The error bars represent the uncorrelated uncertainties (statistical and systematic), the open boxes the point-to-point correlated systematic uncertainties and the box at unity the correlated one. Right: rapidity dependence of \rppb for inclusive \jpsi in ALICE~\cite {Abelev:2013yxa,Adam:2015iga} and prompt \jpsi in LHCb~\cite {Aaij:2013zxa}. The error bars represent the statistical uncertainties while the open boxes the systematic uncertainties. Other uncertainties are displayed similarly to PHENIX}{figure.39}{}}
\citation{Adare:2012qf}
\citation{Adam:2015iga}
\citation{Adare:2012qf}
\citation{Adam:2015iga}
\citation{Sharma:2012dy}
\citation{Aaij:2013zxa,Abelev:2013yxa,Aad:2015ddl}
\citation{Adare:2010fn,Adare:2012qf}
\citation{Adare:2010fn}
\citation{Adare:2010fn}
\@writefile{lof}{\contentsline {figure}{\numberline {40}{\ignorespaces $x_2 = \frac  {m}{\ensuremath  {\sqrt  {s_{\mathrm  {\scriptscriptstyle NN}}}}\xspace  }\qopname  \relax o{exp}(-y)$ dependence of \ensuremath  {R_{\mathrm  {pA}}}\xspace  for inclusive J/$\psi $ in PHENIX\nobreakspace  {}\cite  {Adare:2010fn} and ALICE\nobreakspace  {}\cite  {Abelev:2013yxa,Adam:2015iga} and for prompt \ensuremath  {\mathrm  {J}/\psi }\xspace  in LHCb\nobreakspace  {}\cite  {Aaij:2013zxa}. The uncertainties are described in Figure\nobreakspace  {}\ref  {fig:fig01}.}}{60}{figure.40}}
\newlabel{fig:fig01x2}{{40}{60}{$x_2 = \frac {m}{\snn }\exp (-y)$ dependence of \rpa for inclusive J/$\psi $ in PHENIX~\cite {Adare:2010fn} and ALICE~\cite {Abelev:2013yxa,Adam:2015iga} and for prompt \jpsi in LHCb~\cite {Aaij:2013zxa}. The uncertainties are described in \fig {fig:fig01}}{figure.40}{}}
\citation{MartinBlanco:2014pia,Lakomov:2014yga}
\citation{Adam:2014qja}
\citation{Abelev:2012rz}
\citation{Abelev:2012rz}
\@writefile{lof}{\contentsline {figure}{\numberline {41}{\ignorespaces Left: transverse momentum dependence of \ensuremath  {R_{\mathrm  {dAu}}}\xspace  for three rapidity ranges for inclusive \ensuremath  {\mathrm  {J}/\psi }\xspace  in PHENIX\nobreakspace  {}\cite  {Adare:2012qf}. Right: transverse momentum dependence of \ensuremath  {R_{\mathrm  {pPb}}}\xspace  for inclusive \ensuremath  {\mathrm  {J}/\psi }\xspace  in ALICE\nobreakspace  {}\cite  {Adam:2015iga}. The uncertainties are the same as described in Figure\nobreakspace  {}\ref  {fig:fig01}.}}{61}{figure.41}}
\newlabel{fig:fig02}{{41}{61}{Left: transverse momentum dependence of \rdau for three rapidity ranges for inclusive \jpsi in PHENIX~\cite {Adare:2012qf}. Right: transverse momentum dependence of \rppb for inclusive \jpsi in ALICE~\cite {Adam:2015iga}. The uncertainties are the same as described in \fig {fig:fig01}}{figure.41}{}}
\citation{Adare:2012qf}
\citation{Adare:2012yxa,Adare:2013lkk}
\citation{Adare:2009ic}
\citation{Ferreiro:2014bia}
\citation{Adare:2012qf}
\citation{Adare:2012yxa,Adare:2013lkk}
\citation{Adare:2012qf}
\citation{Adare:2012yxa,Adare:2013lkk}
\citation{Satz:2005hx}
\citation{Leitch:1999ea,Abt:2006va,Alessandro:2006jt}
\citation{Ferreiro:2012mm}
\@writefile{lof}{\contentsline {figure}{\numberline {42}{\ignorespaces \ensuremath  {R_{\mathrm  {CP}}}\xspace  as a function of \ensuremath  {R_{\mathrm  {dAu}}}\xspace  for inclusive \ensuremath  {\mathrm  {J}/\psi }\xspace  in PHENIX\nobreakspace  {}\cite  {Adare:2010fn}. The curves are constraint lines for three geometric dependencies of the nuclear modification. The ellipses represent a one standard deviation contour for the systematic uncertainties.}}{62}{figure.42}}
\newlabel{fig:fig03}{{42}{62}{\rcp as a function of \rdau for inclusive \jpsi in PHENIX~\cite {Adare:2010fn}. The curves are constraint lines for three geometric dependencies of the nuclear modification. The ellipses represent a one standard deviation contour for the systematic uncertainties}{figure.42}{}}
\citation{Adare:2013ezl}
\citation{Abelev:2014zpa}
\citation{Abelev:2014zpa}
\citation{Arnaldi:2014kta}
\citation{Vogt:2010aa,Ferreiro:2012mm}
\citation{Peigne:2014uha}
\citation{Ferreiro:2014bia}
\citation{Liu:2013via}
\citation{Adare:2013ezl}
\citation{Abelev:2014zpa}
\citation{Adare:2013ezl}
\citation{Abelev:2014zpa}
\citation{Adare:2012bv,Adamczyk:2013poh}
\citation{Abelev:2014oea,Aaij:2014mza}
\@writefile{lof}{\contentsline {figure}{\numberline {43}{\ignorespaces Transverse momentum of \ensuremath  {R_{\mathrm  {dAu}}}\xspace  of inclusive J/$\psi $ for three different rapidity ranges in 0--20\% centrality bin\nobreakspace  {}\cite  {Adare:2012qf} and comparison to heavy flavour electron and muon in PHENIX\nobreakspace  {}\cite  {Adare:2012yxa,Adare:2013lkk}.}}{63}{figure.43}}
\newlabel{fig:fig05}{{43}{63}{Transverse momentum of \rdau of inclusive J/$\psi $ for three different rapidity ranges in 0--20\% centrality bin~\cite {Adare:2012qf} and comparison to heavy flavour electron and muon in PHENIX~\cite {Adare:2012yxa,Adare:2013lkk}}{figure.43}{}}
\@writefile{toc}{\contentsline {paragraph}{Bottomonium measurements}{63}{section*.22}}
\citation{Adare:2012bv}
\citation{Adamczyk:2013poh}
\citation{Abelev:2014oea}
\citation{Aaij:2014mza}
\citation{Adare:2012bv}
\citation{Adamczyk:2013poh}
\citation{Abelev:2014oea}
\citation{Aaij:2014mza}
\citation{Abelev:2014oea,Aaij:2014mza}
\citation{Satz:2005hx}
\@writefile{lof}{\contentsline {figure}{\numberline {44}{\ignorespaces Left: relative nuclear modification ($\left [ \ensuremath  {\psi \text  {(2S)}}\xspace  /\ensuremath  {\mathrm  {J}/\psi }\xspace  \right ]_{\rm  dAu} / \left [ \ensuremath  {\psi \text  {(2S)}}\xspace  /\ensuremath  {\mathrm  {J}/\psi }\xspace  \right ]_{\rm  pp}$) of inclusive \ensuremath  {\mathrm  {J}/\psi }\xspace  to \ensuremath  {\psi \text  {(2S)}}\xspace  as a function of \ensuremath  {\mathrm  {N_{coll}}}\xspace  in PHENIX\nobreakspace  {}\cite  {Adare:2013ezl}. Right: transverse momentum dependence of the relative nuclear modification of \ensuremath  {\mathrm  {J}/\psi }\xspace  to $\psi (2S)$ in ALICE\nobreakspace  {}\cite  {Abelev:2014zpa}. The uncertainties are the same as described in Figure\nobreakspace  {}\ref  {fig:fig01}.}}{64}{figure.44}}
\newlabel{fig:fig04}{{44}{64}{Left: relative nuclear modification ($\left [ \psiP /\jpsi \right ]_{\rm dAu} / \left [ \psiP /\jpsi \right ]_{\rm pp}$) of inclusive \jpsi to \psiP as a function of \Ncoll in PHENIX~\cite {Adare:2013ezl}. Right: transverse momentum dependence of the relative nuclear modification of \jpsi to $\psi (2S)$ in ALICE~\cite {Abelev:2014zpa}. The uncertainties are the same as described in \fig {fig:fig01}}{figure.44}{}}
\@writefile{lof}{\contentsline {figure}{\numberline {45}{\ignorespaces Left: rapidity dependence of $\ensuremath  {\Upsilon \text  {(1S+2S+3S)}}\xspace  $ in PHENIX\nobreakspace  {}\cite  {Adare:2012bv} and STAR\nobreakspace  {}\cite  {Adamczyk:2013poh}. Right: rapidity dependence of \ensuremath  {R_{\mathrm  {pPb}}}\xspace  for \ensuremath  {\Upsilon \text  {(1S)}}\xspace  in ALICE\nobreakspace  {}\cite  {Abelev:2014oea} and LHCb\nobreakspace  {}\cite  {Aaij:2014mza}}}{64}{figure.45}}
\newlabel{fig:fig06}{{45}{64}{Left: rapidity dependence of $\upsabc $ in PHENIX~\cite {Adare:2012bv} and STAR~\cite {Adamczyk:2013poh}. Right: rapidity dependence of \rppb for \upsa in ALICE~\cite {Abelev:2014oea} and LHCb~\cite {Aaij:2014mza}}{figure.45}{}}
\citation{Abelev:2014oea}
\citation{Aaij:2014mza}
\citation{Chatrchyan:2013nza}
\citation{Chatrchyan:2013nza}
\citation{Abelev:2014oea}
\citation{Aaij:2014mza}
\citation{Chatrchyan:2013nza}
\citation{Chatrchyan:2013nza}
\citation{Chatrchyan:2013nza}
\citation{Chatrchyan:2013nza}
\citation{Abe:1995an,Chatrchyan:2013nza,Chatrchyan:2013yna}
\citation{Aaij:2014nwa,LHCb:2012aa,Aaij:2013yaa}
\@writefile{lof}{\contentsline {figure}{\numberline {46}{\ignorespaces Left: $\ensuremath  {\Upsilon \text  {(nS)}}\xspace  /\ensuremath  {\Upsilon \text  {(1S)}}\xspace  $ ratio in \ensuremath  {\rm  pp}\xspace  and {p--Pb}\xspace  collisions in ALICE\nobreakspace  {}\cite  {Abelev:2014oea}, LHCb\nobreakspace  {}\cite  {Aaij:2014mza} and CMS\nobreakspace  {}\cite  {Chatrchyan:2013nza}. For a better visibility, the ALICE data points are displaced by +0.2 in rapidity. Right: relative modification factor $\left [ \ensuremath  {\Upsilon \text  {(nS)}}\xspace  /\ensuremath  {\Upsilon \text  {(1S)}}\xspace  \right ]_{\rm  pPb} / \left [ \ensuremath  {\Upsilon \text  {(nS)}}\xspace  /\ensuremath  {\Upsilon \text  {(1S)}}\xspace  \right ]_{\rm  pp}$ in CMS\nobreakspace  {}\cite  {Chatrchyan:2013nza}.}}{65}{figure.46}}
\newlabel{fig:fig07}{{46}{65}{Left: $\upsn /\upsa $ ratio in \pp and \pPb collisions in ALICE~\cite {Abelev:2014oea}, LHCb~\cite {Aaij:2014mza} and CMS~\cite {Chatrchyan:2013nza}. For a better visibility, the ALICE data points are displaced by +0.2 in rapidity. Right: relative modification factor $\left [ \upsn /\upsa \right ]_{\rm pPb} / \left [ \upsn /\upsa \right ]_{\rm pp}$ in CMS~\cite {Chatrchyan:2013nza}}{figure.46}{}}
\@writefile{lof}{\contentsline {figure}{\numberline {47}{\ignorespaces Self-normalized cross section ratio $\frac  {\ensuremath  {\Upsilon \text  {(1S)}}\xspace  }{\left < \ensuremath  {\Upsilon \text  {(1S)}}\xspace  \right >}$ vs $\frac  {N_{\rm  tracklets}}{\left < N_{\rm  tracklets} \right >}$ (left) and $\frac  {E_{\rm  T}}{\left < E_{\rm  T} \right >}$ (right) in \ensuremath  {\rm  pp}\xspace  collisions at 2.76\ensuremath  {\text  {\nobreakspace  {}TeV}}\xspace  , {p--Pb}\xspace  collisions at 5.02\ensuremath  {\text  {\nobreakspace  {}TeV}}\xspace  and {Pb--Pb}\xspace  collisions at 2.76\ensuremath  {\text  {\nobreakspace  {}TeV}}\xspace  in CMS\nobreakspace  {}\cite  {Chatrchyan:2013nza}. Here $N_{\rm  tracklets}$ is the charged-track multiplicity measured in $|\eta |<2.4$ and $E_{\rm  T}$ the transverse energy measured in $4<|\eta |<5.2$. The dotted line is a linear function with a slope equal to unity.}}{65}{figure.47}}
\newlabel{fig:fig08}{{47}{65}{Self-normalized cross section ratio $\frac {\upsa }{\left < \upsa \right >}$ vs $\frac {N_{\rm tracklets}}{\left < N_{\rm tracklets} \right >}$ (left) and $\frac {E_{\rm T}}{\left < E_{\rm T} \right >}$ (right) in \pp collisions at 2.76\TeV , \pPb collisions at 5.02\TeV and \PbPb collisions at 2.76\TeV in CMS~\cite {Chatrchyan:2013nza}. Here $N_{\rm tracklets}$ is the charged-track multiplicity measured in $|\eta |<2.4$ and $E_{\rm T}$ the transverse energy measured in $4<|\eta |<5.2$. The dotted line is a linear function with a slope equal to unity}{figure.47}{}}
\citation{Chatrchyan:2013nza}
\citation{Chatrchyan:2013nza}
\citation{Vogt:2015uba}
\citation{Vogt:2015uba}
\citation{Vogt:2015uba}
\citation{Arleo:2014oha}
\citation{Arleo:2014oha}
\@writefile{toc}{\contentsline {subsection}{\numberline {3.4}Extrapolation of CNM effects from {\rm  p--A} to {\rm  A--A} collisions}{66}{subsection.3.4}}
\newlabel{CNM_pAtoAA}{{3.4}{66}{Extrapolation of CNM effects from {\rm p--A} to {\rm A--A} collisions}{subsection.3.4}{}}
\@writefile{toc}{\contentsline {paragraph}{Nuclear PDF}{66}{section*.23}}
\newlabel{CNMfactorization}{{26}{66}{Nuclear PDF}{equation.3.26}{}}
\@writefile{toc}{\contentsline {paragraph}{Multiple scattering and energy loss}{66}{section*.24}}
\citation{Kopeliovich:2010nw}
\citation{Kopeliovich:2010nw}
\citation{Adare:2007gn}
\citation{GranierdeCassagnac:2007aj}
\citation{Adare:2007gn}
\citation{GranierdeCassagnac:2007aj}
\citation{Brambilla:2010cs}
\@writefile{lof}{\contentsline {figure}{\numberline {48}{\ignorespaces The $\ensuremath  {\mathrm  {J}/\psi }\xspace  $ $\ensuremath  {R_{\mathrm  {AA}}}\xspace  $ (red) ratio is compared to the product $\ensuremath  {R_{\mathrm  {pA}}}\xspace  (+y) \cdot \ensuremath  {R_{\mathrm  {pA}}}\xspace  (-y)$ (points) along with the individual {p--A}\xspace  \ ratios at forward (dashed) and backward (dot-dashed) rapidity. Results are compared for the $y$ (left) and $\ensuremath  {p_{\mathrm  {T}}}\xspace  $ (right) dependencies at NLO, from Ref.\nobreakspace  {}\cite  {Vogt:2015uba}.}}{67}{figure.48}}
\newlabel{factpsi}{{48}{67}{The $\jpsi $ $\raa $ (red) ratio is compared to the product $\rpa (+y) \cdot \rpa (-y)$ (points) along with the individual \pA \ ratios at forward (dashed) and backward (dot-dashed) rapidity. Results are compared for the $y$ (left) and $\pt $ (right) dependencies at NLO, from Ref.~\cite {Vogt:2015uba}}{figure.48}{}}
\@writefile{lof}{\contentsline {figure}{\numberline {49}{\ignorespaces Sketch of the rapidity regions populated by medium-induced radiation in an A--B collision in the coherent energy loss model. The `target' B and `projectile' A move with respectively negative and positive rapidities.}}{67}{figure.49}}
\newlabel{fig-rap-regions}{{49}{67}{Sketch of the rapidity regions populated by medium-induced radiation in an A--B collision in the coherent energy loss model. The `target' B and `projectile' A move with respectively negative and positive rapidities}{figure.49}{}}
\@writefile{toc}{\contentsline {paragraph}{Data-driven extrapolation}{67}{section*.25}}
\citation{Ferreiro:2009ur}
\citation{Rakotozafindrabe:2010su}
\citation{Ferreiro:2009ur}
\citation{Abelev:2013yxa}
\newlabel{CNMextrapolation}{{27}{68}{Data-driven extrapolation}{equation.3.27}{}}
\@writefile{toc}{\contentsline {subsection}{\numberline {3.5}Summary and outlook}{68}{subsection.3.5}}
\newlabel{CNM_status}{{3.5}{68}{Summary and outlook}{subsection.3.5}{}}
\@setckpt{CNM_Merged}{
\setcounter{page}{71}
\setcounter{equation}{27}
\setcounter{enumi}{9}
\setcounter{enumii}{0}
\setcounter{enumiii}{0}
\setcounter{enumiv}{0}
\setcounter{footnote}{20}
\setcounter{mpfootnote}{0}
\setcounter{part}{0}
\setcounter{section}{3}
\setcounter{subsection}{5}
\setcounter{subsubsection}{0}
\setcounter{paragraph}{0}
\setcounter{subparagraph}{0}
\setcounter{figure}{49}
\setcounter{table}{8}
\setcounter{tnote}{0}
\setcounter{fnote}{1}
\setcounter{cnote}{1}
\setcounter{ead}{1}
\setcounter{author}{0}
\setcounter{affn}{42}
\setcounter{NAT@ctr}{0}
\setcounter{parentequation}{0}
\setcounter{Item}{13}
\setcounter{Hfootnote}{19}
\setcounter{bookmark@seq@number}{32}
\setcounter{r@tfl@t}{0}
\setcounter{subfigure}{0}
\setcounter{lofdepth}{1}
\setcounter{subtable}{0}
\setcounter{lotdepth}{1}
\setcounter{linenumber}{1}
\setcounter{LN@truepage}{70}
\setcounter{section@level}{2}
}
