\relax 
\providecommand\hyper@newdestlabel[2]{}
\citation{Bhattacharya:2015jpa}
\citation{Nason:1987xz,Nason:1989zy,Beenakker:1988bq,Beenakker:1990ma}
\citation{Mangano:1991jk}
\@writefile{toc}{\contentsline {section}{\numberline {2}Heavy flavour and quarkonium production in \ensuremath  {\rm  pp}\xspace  collisions}{8}{section.2}}
\newlabel{pp section}{{2}{8}{Heavy flavour and quarkonium production in \pp collisions}{section.2}{}}
\@writefile{toc}{\contentsline {subsection}{\numberline {2.1}Production mechanisms of open and hidden heavy-flavour in \ensuremath  {\rm  pp}\xspace  collisions}{8}{subsection.2.1}}
\newlabel{sec:pp:Theory}{{2.1}{8}{Production mechanisms of open and hidden heavy-flavour in \pp collisions}{subsection.2.1}{}}
\@writefile{toc}{\contentsline {subsubsection}{\numberline {2.1.1}Open-heavy-flavour production}{8}{subsubsection.2.1.1}}
\newlabel{sec:pp:Theory:OpenHF}{{2.1.1}{8}{Open-heavy-flavour production}{subsubsection.2.1.1}{}}
\@writefile{toc}{\contentsline {paragraph}{Fixed-Flavour-Number Scheme}{8}{section*.2}}
\newlabel{eq:xsQ}{{1}{8}{Fixed-Flavour-Number Scheme}{equation.2.1}{}}
\newlabel{eq:xsQ2}{{2}{8}{Fixed-Flavour-Number Scheme}{equation.2.2}{}}
\citation{Kniehl:2015fla}
\citation{Kniehl:2015fla}
\citation{Kniehl:2015fla}
\citation{Czakon:2013goa}
\citation{Czakon:2014xsa}
\citation{Aversa:1988vb}
\newlabel{eq:xsB}{{3}{9}{Fixed-Flavour-Number Scheme}{equation.2.3}{}}
\@writefile{toc}{\contentsline {paragraph}{ZM-VFNS}{9}{section*.3}}
\newlabel{eq:xsH}{{4}{9}{ZM-VFNS}{equation.2.4}{}}
\citation{Cacciari:1993mq}
\citation{Binnewies:1998xq,Binnewies:1997gz,Binnewies:1998vm}
\citation{Kniehl:2004fy,Kniehl:2005mk}
\citation{Aivazis:1993kh,Aivazis:1994pi}
\citation{Kramer:2000hn}
\citation{Tung:2001mv}
\citation{Kretzer:1998ju,Stavreva:2012bs,Guzzi:2011ew}
\citation{Collins:1998rz}
\citation{Collins:1998rz}
\citation{Thorne:2008xf,Olness:2008px}
\citation{Kretzer:1997pd,Kretzer:1998nt}
\citation{Olness:1997yc}
\citation{Kramer:2001gd,Kramer:2003cw,Kramer:2003jw,Kniehl:2004fy,Kniehl:2005ej,Kneesch:2007ey,Kniehl:2008zza,Kniehl:2009mh,Kniehl:2011bk,Kniehl:2012ti,Kniehl:2015fla}
\citation{Bolzoni:2012kx}
\citation{Bolzoni:2013vya}
\newlabel{eq:pff}{{5}{10}{ZM-VFNS}{equation.2.5}{}}
\@writefile{toc}{\contentsline {paragraph}{GM-VFNS}{10}{section*.4}}
\citation{Kramer:2000hn}
\citation{Kniehl:2015fla}
\citation{Cacciari:1998it}
\citation{Forte:2002fg,Ball:2011mu}
\citation{Cacciari:2012ny}
\citation{Sjostrand:2007gs}
\citation{Corcella:2000bw}
\citation{Frixione:2003ei}
\citation{Frixione:2007nw}
\citation{Klasen:2014dba}
\newlabel{eq:xsH2}{{6}{11}{GM-VFNS}{equation.2.6}{}}
\@writefile{toc}{\contentsline {paragraph}{FONLL}{11}{section*.5}}
\@writefile{toc}{\contentsline {paragraph}{Monte Carlo generators}{11}{section*.6}}
\citation{Fritzsch:1977ay,Halzen:1977rs}
\citation{Amundson:1995em}
\citation{Amundson:1995em}
\citation{Bedjidian:2004gd}
\citation{Chang:1979nn,Baier:1981uk,Baier:1983va}
\citation{Campbell:2007ws,Artoisenet:2007xi,Gong:2008sn,Gong:2008hk,Artoisenet:2008fc}
\citation{Lansberg:2008gk,ConesadelValle:2011fw,Brambilla:2010cs}
\@writefile{toc}{\contentsline {subsubsection}{\numberline {2.1.2}Quarkonium-production mechanism}{12}{subsubsection.2.1.2}}
\newlabel{sec:pp:Theory:Onia}{{2.1.2}{12}{Quarkonium-production mechanism}{subsubsection.2.1.2}{}}
\@writefile{toc}{\contentsline {paragraph}{The Colour-Evaporation Model (CEM)}{12}{section*.7}}
\newlabel{eq:sigma_CEM}{{8}{12}{The Colour-Evaporation Model (CEM)}{equation.2.8}{}}
\@writefile{toc}{\contentsline {paragraph}{The Colour-Singlet Model (CSM)}{12}{section*.8}}
\newlabel{eq:sigma_CSM}{{9}{12}{The Colour-Singlet Model (CSM)}{equation.2.9}{}}
\citation{Brodsky:2009cf,Lansberg:2010cn,Feng:2015cba}
\citation{Ma:2008gq,Gong:2009kp,He:2009uf}
\citation{Aaron:2010gz}
\citation{Lansberg:2010vq,Lansberg:2011hi,Lansberg:2012ta,Lansberg:2013iya}
\citation{Barbieri:1976fp}
\citation{Bodwin:1992ye}
\citation{Bodwin:1994jh}
\citation{Bodwin:2005gg}
\citation{Butenschoen:2012px}
\citation{Gong:2012ug}
\citation{Chao:2012iv}
\citation{Sharma:2012dy}
\citation{Brambilla:2010cs}
\citation{Nayak:2005rt,Nayak:2005rw}
\citation{Kang:2011mg,Ma:2014svb}
\citation{Fleming:2012wy}
\@writefile{toc}{\contentsline {paragraph}{The Colour-Octet Mechanism (COM) and NRQCD}{13}{section*.9}}
\newlabel{eq:sigma_NRQCD}{{10}{13}{The Colour-Octet Mechanism (COM) and NRQCD}{equation.2.10}{}}
\@writefile{toc}{\contentsline {paragraph}{Theory prospects}{13}{section*.10}}
\citation{Feng:2015cba}
\citation{Hagler:2000dd,Yuan:2000qe}
\citation{Boer:2012bt,Ma:2012hh}
\citation{Kang:2013hta,Ma:2014mri}
\citation{Nayak:2007mb}
\citation{Chatrchyan:2012jua}
\citation{Abreu:2000nj}
\citation{Aaij:2014bga}
\citation{Mangano:1991jk}
\citation{Cacciari:2003uh,Cacciari:2012ny}
\citation{Bortoletto:1988kw,Barate:1999bg,Acosta:2003ax,Adamczyk:2012af,Abelev:2012vra,LHCb:2010lga,Aaij:2013mga}
\citation{Abelev:2014hla,Abelev:2012gx,Albajar:1990zu,Abe:1995dv,Adare:2009ic}
\citation{Mangano:1991jk}
\citation{Cacciari:2003uh,Cacciari:2012ny}
\citation{Bortoletto:1988kw,Barate:1999bg,Acosta:2003ax,Adamczyk:2012af,Abelev:2012vra,LHCb:2010lga,Aaij:2013mga}
\citation{Abelev:2014hla,Abelev:2012gx,Albajar:1990zu,Abe:1995dv,Adare:2009ic}
\citation{Mangano:1991jk}
\citation{Cacciari:2003uh,Cacciari:2012ny}
\citation{Adare:2006hc,Adare:2010ud,Adare:2013xlp,Aggarwal:2010xp,Agakishiev:2011mr}
\citation{Abelev:2012xe,Abelev:2014gla,Abelev:2012pi,Abelev:2012qh,Aad:2011rr}
\citation{Cacciari:2003uh,Cacciari:2012ny}
\citation{Kniehl:2004fy,Kniehl:2005mk}
\citation{Maciula:2013wg}
\citation{Klasen:2014dba}
\@writefile{toc}{\contentsline {subsection}{\numberline {2.2}Recent cross section measurements at hadron colliders}{14}{subsection.2.2}}
\newlabel{sec:pp:Data}{{2.2}{14}{Recent cross section measurements at hadron colliders}{subsection.2.2}{}}
\citation{Abelev:2012sca,Abelev:2014hla}
\citation{Adare:2006hc}
\citation{Abelev:2014gla}
\citation{Abelev:2012pi}
\citation{Cacciari:2003uh,Cacciari:2012ny}
\citation{Kniehl:2004fy,Kniehl:2005mk}
\citation{Maciula:2013wg}
\citation{Adare:2006hc}
\citation{Abelev:2014gla}
\citation{Abelev:2012pi}
\citation{Cacciari:2003uh,Cacciari:2012ny}
\citation{Kniehl:2004fy,Kniehl:2005mk}
\citation{Maciula:2013wg}
\citation{Adamczyk:2012af,Acosta:2003ax,Reisert:2007zza,ALICE:2011aa,Abelev:2012vra,Abelev:2012tca,Aaij:2013mga}
\citation{Adamczyk:2012af}
\citation{Acosta:2003ax,Reisert:2007zza,Aaij:2013mga}
\citation{ALICE:2011aa,Abelev:2012vra,Abelev:2012tca}
\citation{Adamczyk:2012af}
\citation{ALICE:2011aa}
\citation{Aaij:2013mga}
\citation{Cacciari:2003uh,Cacciari:2012ny}
\citation{Kniehl:2004fy,Kniehl:2005mk}
\citation{Adamczyk:2012af}
\citation{ALICE:2011aa}
\citation{Aaij:2013mga}
\citation{Cacciari:2003uh,Cacciari:2012ny}
\citation{Kniehl:2004fy,Kniehl:2005mk}
\citation{Aaltonen:2011sf}
\citation{Aitala:1996cy}
\citation{Link:2001ee}
\citation{Artuso:2001us}
\citation{Agashe:2014kda}
\citation{Aaij:2013mga}
\citation{Kniehl:2004fy,Kniehl:2005mk}
\citation{Aaltonen:2011sf}
\citation{Aitala:1996cy}
\citation{Link:2001ee}
\citation{Artuso:2001us}
\citation{Agashe:2014kda}
\citation{Aaij:2013mga}
\citation{Kniehl:2004fy,Kniehl:2005mk}
\citation{Cacciari:2003uh,Cacciari:2012ny}
\citation{Frixione:2007nw}
\citation{Kniehl:2004fy,Kniehl:2005mk}
\citation{Klasen:2014dba}
\@writefile{lof}{\contentsline {figure}{\numberline {1}{\ignorespaces Compilation of total beauty cross section measurements}}{15}{figure.1}}
\newlabel{fig:pp:CharmAndBottomXsec}{{1}{15}{Compilation of total beauty cross section measurements}{figure.1}{}}
\@writefile{toc}{\contentsline {subsubsection}{\numberline {2.2.1}Leptons from heavy-flavour decays}{15}{subsubsection.2.2.1}}
\newlabel{subsubsec:pp:HFLeptons}{{2.2.1}{15}{Leptons from heavy-flavour decays}{subsubsection.2.2.1}{}}
\@writefile{toc}{\contentsline {subsubsection}{\numberline {2.2.2}Open charm}{15}{subsubsection.2.2.2}}
\newlabel{subsubsec:pp:OpenCharm}{{2.2.2}{15}{Open charm}{subsubsection.2.2.2}{}}
\citation{Briere:2006em,Klempt:2009pi,Butler:2013kdw,Bevan:2014iga}
\citation{Aitala:1996cy}
\citation{Link:2001ee}
\citation{Artuso:2001us}
\citation{Aaltonen:2011sf}
\citation{Aaij:2013mga}
\citation{Kneesch:2007ey}
\newlabel{fig:pp:PHENIXHFe}{{2(a)}{16}{Subfigure 2(a)}{subfigure.2.1}{}}
\newlabel{sub@fig:pp:PHENIXHFe}{{(a)}{16}{Subfigure 2(a)\relax }{subfigure.2.1}{}}
\newlabel{fig:pp:ALICE:HFe}{{2(b)}{16}{Subfigure 2(b)}{subfigure.2.2}{}}
\newlabel{sub@fig:pp:ALICE:HFe}{{(b)}{16}{Subfigure 2(b)\relax }{subfigure.2.2}{}}
\newlabel{fig:pp:ALICE:HFm}{{2(c)}{16}{Subfigure 2(c)}{subfigure.2.3}{}}
\newlabel{sub@fig:pp:ALICE:HFm}{{(c)}{16}{Subfigure 2(c)\relax }{subfigure.2.3}{}}
\@writefile{lof}{\contentsline {figure}{\numberline {2}{\ignorespaces   $\ensuremath  {{\rm  d}\sigma /{\rm  d}p_{\mathrm  {T}}}\xspace  $ for heavy-flavour decay leptons in \ensuremath  {\rm  pp}\xspace  collisions: (a) electrons at mid-rapidity for \ensuremath  {\sqrt  {s}}\xspace  = 200\ensuremath  {\text  {\nobreakspace  {}GeV}}\xspace  from PHENIX\nobreakspace  {}\cite  {Adare:2006hc}, (b) electrons at mid-rapidity for \ensuremath  {\sqrt  {s}}\xspace  = 2.76\ensuremath  {\text  {\nobreakspace  {}TeV}}\xspace  \nobreakspace  {}\cite  {Abelev:2014gla} and (c) muons at forward-rapidity for \ensuremath  {\sqrt  {s}}\xspace  = 2.76\ensuremath  {\text  {\nobreakspace  {}TeV}}\xspace  from ALICE\nobreakspace  {}\cite  {Abelev:2012pi}. FONLL\nobreakspace  {}\cite  {Cacciari:2003uh, Cacciari:2012ny} predictions are also shown; in (a) and (c) the calculations for leptons from charm and beauty decays are shown separately (without theoretical uncertainty bands in (a)). GM-VFNS\nobreakspace  {}\cite  {Kniehl:2004fy,Kniehl:2005mk} and \ensuremath  {k_{\mathrm  {T}}}\xspace  -factorisation\nobreakspace  {}\cite  {Maciula:2013wg} calculations are also drawn in (b). }}{16}{figure.2}}
\newlabel{fig:pp:HFlepton}{{2}{16}{$\dsdpt $ for heavy-flavour decay leptons in \pp collisions: (a) electrons at mid-rapidity for \s = 200\GeV from PHENIX~\cite {Adare:2006hc}, (b) electrons at mid-rapidity for \s = 2.76\TeV ~\cite {Abelev:2014gla} and (c) muons at forward-rapidity for \s = 2.76\TeV from ALICE~\cite {Abelev:2012pi}. FONLL~\cite {Cacciari:2003uh, Cacciari:2012ny} predictions are also shown; in (a) and (c) the calculations for leptons from charm and beauty decays are shown separately (without theoretical uncertainty bands in (a)). GM-VFNS~\cite {Kniehl:2004fy,Kniehl:2005mk} and \kt -factorisation~\cite {Maciula:2013wg} calculations are also drawn in (b)}{figure.2}{}}
\@writefile{lof}{\contentsline {subfigure}{\numberline{(a)}{\ignorespaces {PHENIX, $\ensuremath {{\rm HF} \to e^{\pm }}\xspace $, \ensuremath {\sqrt {s}}\xspace = 200\ensuremath {\text {\nobreakspace {}GeV}}\xspace }}}{16}{figure.2}}
\@writefile{lof}{\contentsline {subfigure}{\numberline{(b)}{\ignorespaces {ALICE, $\ensuremath {{\rm HF} \to e^{\pm }}\xspace $, $\ensuremath {\sqrt {s}}\xspace =2.76$\ensuremath {\text {\nobreakspace {}TeV}}\xspace }}}{16}{figure.2}}
\@writefile{lof}{\contentsline {subfigure}{\numberline{(c)}{\ignorespaces {ALICE, $\ensuremath {{\rm HF} \to \mu ^{\pm }}\xspace $, $\ensuremath {\sqrt {s}}\xspace =2.76$\ensuremath {\text {\nobreakspace {}TeV}}\xspace }}}{16}{figure.2}}
\newlabel{fig:pp:STAR:D}{{3(a)}{16}{Subfigure 3(a)}{subfigure.3.1}{}}
\newlabel{sub@fig:pp:STAR:D}{{(a)}{16}{Subfigure 3(a)\relax }{subfigure.3.1}{}}
\newlabel{fig:pp:ALICE:Dplus}{{3(b)}{16}{Subfigure 3(b)}{subfigure.3.2}{}}
\newlabel{sub@fig:pp:ALICE:Dplus}{{(b)}{16}{Subfigure 3(b)\relax }{subfigure.3.2}{}}
\newlabel{fig:pp:LHCb:Ds}{{3(c)}{16}{Subfigure 3(c)}{subfigure.3.3}{}}
\newlabel{sub@fig:pp:LHCb:Ds}{{(c)}{16}{Subfigure 3(c)\relax }{subfigure.3.3}{}}
\@writefile{lof}{\contentsline {figure}{\numberline {3}{\ignorespaces   $\ensuremath  {{\rm  d}\sigma /{\rm  d}p_{\mathrm  {T}}}\xspace  $ for D meson production in \ensuremath  {\rm  pp}\xspace  collisions at different energies. (a): $\ensuremath  {\mathrm  {D}^{0}}\xspace  $ and $\ensuremath  {\mathrm  {D}^{*+}}\xspace  $ measurements at \ensuremath  {\sqrt  {s}}\xspace  = 200\ensuremath  {\text  {\nobreakspace  {}GeV}}\xspace  with the STAR detector\nobreakspace  {}\cite  {Adamczyk:2012af}. (b): $\ensuremath  {\mathrm  {D}^{+}}\xspace  $ data at \ensuremath  {\sqrt  {s}}\xspace  = 7\ensuremath  {\text  {\nobreakspace  {}TeV}}\xspace  with the ALICE detector\nobreakspace  {}\cite  {ALICE:2011aa}. (c): $\ensuremath  {\mathrm  {D}^{+}_{s}}\xspace  $ data at \ensuremath  {\sqrt  {s}}\xspace  = 7\ensuremath  {\text  {\nobreakspace  {}TeV}}\xspace  with the LHCb detector\nobreakspace  {}\cite  {Aaij:2013mga}, where data from different $y$ ranges are scaled by factors $10^{-m}$, with $m$ shown in the plot. The measurements are compared to FONLL\nobreakspace  {}\cite  {Cacciari:2003uh, Cacciari:2012ny} and GM-VFNS\nobreakspace  {}\cite  {Kniehl:2004fy,Kniehl:2005mk} calculations. }}{16}{figure.3}}
\newlabel{fig:pp:Dmeson}{{3}{16}{$\dsdpt $ for D meson production in \pp collisions at different energies. (a): $\Dzero $ and $\Dstarplus $ measurements at \s = 200\GeV with the STAR detector~\cite {Adamczyk:2012af}. (b): $\Dplus $ data at \s = 7\TeV with the ALICE detector~\cite {ALICE:2011aa}. (c): $\Ds $ data at \s = 7\TeV with the LHCb detector~\cite {Aaij:2013mga}, where data from different $y$ ranges are scaled by factors $10^{-m}$, with $m$ shown in the plot. The measurements are compared to FONLL~\cite {Cacciari:2003uh, Cacciari:2012ny} and GM-VFNS~\cite {Kniehl:2004fy,Kniehl:2005mk} calculations}{figure.3}{}}
\@writefile{lof}{\contentsline {subfigure}{\numberline{(a)}{\ignorespaces {STAR, inclusive $\ensuremath {\mathrm {D}^{0}}\xspace $ and $\ensuremath {\mathrm {D}^{*+}}\xspace $, \ensuremath {\sqrt {s}}\xspace = 200\ensuremath {\text {\nobreakspace {}GeV}}\xspace }}}{16}{figure.3}}
\@writefile{lof}{\contentsline {subfigure}{\numberline{(b)}{\ignorespaces {ALICE, prompt $\ensuremath {\mathrm {D}^{+}}\xspace $, \ensuremath {\sqrt {s}}\xspace = 7\ensuremath {\text {\nobreakspace {}TeV}}\xspace }}}{16}{figure.3}}
\@writefile{lof}{\contentsline {subfigure}{\numberline{(c)}{\ignorespaces {LHCb, prompt $\ensuremath {\mathrm {D}^{+}_{s}}\xspace $, \ensuremath {\sqrt {s}}\xspace = 7\ensuremath {\text {\nobreakspace {}TeV}}\xspace }}}{16}{figure.3}}
\citation{Butler:2013kdw,Bevan:2014iga}
\citation{Aad:2014fpa}
\citation{Mangano:1991jk}
\citation{Cacciari:2003uh,Cacciari:2012ny}
\citation{Kniehl:2004fy,Kniehl:2005mk}
\citation{ATLAS:2014ala}
\citation{Cacciari:2012ny}
\citation{Aaij:2014bga}
\citation{Aad:2014fpa}
\citation{Mangano:1991jk}
\citation{Cacciari:2003uh,Cacciari:2012ny}
\citation{Kniehl:2004fy,Kniehl:2005mk}
\citation{ATLAS:2014ala}
\citation{Cacciari:2012ny}
\citation{Aaij:2014bga}
\citation{Mangano:1997ri,Kniehl:2008zza}
\citation{Aad:2014fpa,ATLAS:2014ala,Aaij:2014bga}
\citation{Cacciari:2003uh,Cacciari:2012ny}
\citation{Kniehl:2004fy,Kniehl:2005mk}
\citation{Mangano:1991jk}
\citation{Khachatryan:2011mk,ATLAS:2013cia}
\citation{Khachatryan:2011mk,ATLAS:2013cia}
\citation{Chatrchyan:2012xg}
\citation{Chatrchyan:2012xg}
\citation{Aaltonen:2009tz,Abazov:2013xda,ATLAS:2013cia,Aaij:2011ep,Aaij:2013noa,Aaij:2012jd,Khachatryan:2011mk,Chatrchyan:2011pw,Chatrchyan:2011vh}
\citation{Khachatryan:2011mk,ATLAS:2013cia}
\citation{Cacciari:2003uh,Cacciari:2012ny}
\newlabel{fig:pp:LcMassDifference}{{4(a)}{17}{Subfigure 4(a)}{subfigure.4.1}{}}
\newlabel{sub@fig:pp:LcMassDifference}{{(a)}{17}{Subfigure 4(a)\relax }{subfigure.4.1}{}}
\newlabel{fig:pp:LambdaC}{{4(b)}{17}{Subfigure 4(b)}{subfigure.4.2}{}}
\newlabel{sub@fig:pp:LambdaC}{{(b)}{17}{Subfigure 4(b)\relax }{subfigure.4.2}{}}
\@writefile{lof}{\contentsline {figure}{\numberline {4}{\ignorespaces   (a): $\ensuremath  {\Lambda _c^+}\xspace  $ and $\ensuremath  {\Sigma _c^+}\xspace  (2455)$ mass differences as measured by CDF\nobreakspace  {}\cite  {Aaltonen:2011sf}, Fermilab E791\nobreakspace  {}\cite  {Aitala:1996cy}, FOCUS\nobreakspace  {}\cite  {Link:2001ee}, and CLEO\nobreakspace  {}\cite  {Artuso:2001us}. The vertical dashed line together with the surrounding box symbolizes the world average value and its uncertainty taken from\nobreakspace  {}Ref.\nobreakspace  {}\cite  {Agashe:2014kda}. (b) : $\ensuremath  {{\rm  d}\sigma /{\rm  d}p_{\mathrm  {T}}}\xspace  $ for $\ensuremath  {\Lambda _c^+}\xspace  $ production in \ensuremath  {\rm  pp}\xspace  collisions at \ensuremath  {\sqrt  {s}}\xspace  = 7\ensuremath  {\text  {\nobreakspace  {}TeV}}\xspace  \nobreakspace  {}\cite  {Aaij:2013mga} compared to GM-VFNS\nobreakspace  {}\cite  {Kniehl:2004fy,Kniehl:2005mk} calculations. }}{17}{figure.4}}
\newlabel{fig:pp:EtaLambdaC}{{4}{17}{(a): $\lambdacplus $ and $\sigmacplus (2455)$ mass differences as measured by CDF~\cite {Aaltonen:2011sf}, Fermilab E791~\cite {Aitala:1996cy}, FOCUS~\cite {Link:2001ee}, and CLEO~\cite {Artuso:2001us}. The vertical dashed line together with the surrounding box symbolizes the world average value and its uncertainty taken from~\ci {Agashe:2014kda}. (b) : $\dsdpt $ for $\lambdacplus $ production in \pp collisions at \s = 7\TeV ~\cite {Aaij:2013mga} compared to GM-VFNS~\cite {Kniehl:2004fy,Kniehl:2005mk} calculations}{figure.4}{}}
\@writefile{lof}{\contentsline {subfigure}{\numberline{(a)}{\ignorespaces {$\ensuremath {\Sigma _c^+}\xspace $ and $\ensuremath {\Lambda _c^+}\xspace $ mass difference}}}{17}{figure.4}}
\@writefile{lof}{\contentsline {subfigure}{\numberline{(b)}{\ignorespaces {LHCb, prompt $\ensuremath {\Lambda _c^+}\xspace $, \ensuremath {\sqrt {s}}\xspace = 7\ensuremath {\text {\nobreakspace {}TeV}}\xspace }}}{17}{figure.4}}
\@writefile{toc}{\contentsline {subsubsection}{\numberline {2.2.3}Open beauty}{17}{subsubsection.2.2.3}}
\newlabel{subsubsec:pp:OpenBeauty}{{2.2.3}{17}{Open beauty}{subsubsection.2.2.3}{}}
\citation{Chatrchyan:2012dk}
\citation{ATLAS:2011ac}
\citation{ATLAS:2011ac}
\citation{Sjostrand:2006za,Alioli:2010xd,Frixione:2002ik,Frixione:2003ei,Corcella:2000bw}
\citation{Chatrchyan:2012dk}
\citation{ATLAS:2011ac}
\citation{ATLAS:2011ac}
\citation{Sjostrand:2006za,Alioli:2010xd,Frixione:2002ik,Frixione:2003ei,Corcella:2000bw}
\citation{Aaltonen:2014wfa}
\citation{Abazov:2008qm,Aaltonen:2009ny}
\citation{Chatrchyan:2012ni,Aaij:2014yka}
\citation{Ebert:2005xj,Liu:2007fg,Jenkins:2007dm,Karliner:2008sv,Lewis:2008fu,Karliner:2008in,Zhang:2008pm,Klempt:2009pi,Detmold:2012ge}
\citation{Chatrchyan:2012xg}
\newlabel{fig:pp:NonPromptOnia:Pis2S}{{5(a)}{18}{Subfigure 5(a)}{subfigure.5.1}{}}
\newlabel{sub@fig:pp:NonPromptOnia:Pis2S}{{(a)}{18}{Subfigure 5(a)\relax }{subfigure.5.1}{}}
\newlabel{fig:pp:NonPromptOnia:Chic1}{{5(b)}{18}{Subfigure 5(b)}{subfigure.5.2}{}}
\newlabel{sub@fig:pp:NonPromptOnia:Chic1}{{(b)}{18}{Subfigure 5(b)\relax }{subfigure.5.2}{}}
\newlabel{fig:pp:NonPromptOnia:Etac}{{5(c)}{18}{Subfigure 5(c)}{subfigure.5.3}{}}
\newlabel{sub@fig:pp:NonPromptOnia:Etac}{{(c)}{18}{Subfigure 5(c)\relax }{subfigure.5.3}{}}
\@writefile{lof}{\contentsline {figure}{\numberline {5}{\ignorespaces   $\ensuremath  {p_{\mathrm  {T}}}\xspace  $-differential cross sections for non-prompt charmonia --assumed to come from $\ensuremath  {b}\xspace  $ decays-- for (a) $\ensuremath  {\psi \text  {(2S)}}\xspace  $\nobreakspace  {}\cite  {Aad:2014fpa} ${\rm  d}^2\sigma /{\rm  d}\ensuremath  {p_{\mathrm  {T}}}\xspace  {\rm  d}y$ by ATLAS compared to NLO\nobreakspace  {}\cite  {Mangano:1991jk}, FONLL\nobreakspace  {}\cite  {Cacciari:2003uh, Cacciari:2012ny} and GM-VFNS\nobreakspace  {}\cite  {Kniehl:2004fy,Kniehl:2005mk} calculations, (b) $\chi _{c1}$ and $\chi _{c2}$ $\ensuremath  {{\rm  d}\sigma /{\rm  d}p_{\mathrm  {T}}}\xspace  $ by ATLAS\nobreakspace  {}\cite  {ATLAS:2014ala} compared to FONLL\nobreakspace  {}\cite  {Cacciari:2012ny}, (c) $\ensuremath  {\eta _c}\xspace  $ and $\ensuremath  {\mathrm  {J}/\psi }\xspace  $ $\ensuremath  {{\rm  d}\sigma /{\rm  d}p_{\mathrm  {T}}}\xspace  $ by LHCb\nobreakspace  {}\cite  {Aaij:2014bga}. }}{18}{figure.5}}
\newlabel{fig:pp:NonPromptOnia}{{5}{18}{$\pt $-differential cross sections for non-prompt charmonia --assumed to come from $\bquark $ decays-- for (a) $\psiP $~\cite {Aad:2014fpa} ${\rm d}^2\sigma /{\rm d}\pt {\rm d}y$ by ATLAS compared to NLO~\cite {Mangano:1991jk}, FONLL~\cite {Cacciari:2003uh, Cacciari:2012ny} and GM-VFNS~\cite {Kniehl:2004fy,Kniehl:2005mk} calculations, (b) $\chi _{c1}$ and $\chi _{c2}$ $\dsdpt $ by ATLAS~\cite {ATLAS:2014ala} compared to FONLL~\cite {Cacciari:2012ny}, (c) $\etac $ and $\jpsi $ $\dsdpt $ by LHCb~\cite {Aaij:2014bga}}{figure.5}{}}
\@writefile{lof}{\contentsline {subfigure}{\numberline{(a)}{\ignorespaces {ATLAS, $\ensuremath {\psi \text {(2S)}}\xspace $, \ensuremath {\sqrt {s}}\xspace = 7\ensuremath {\text {\nobreakspace {}TeV}}\xspace }}}{18}{figure.5}}
\@writefile{lof}{\contentsline {subfigure}{\numberline{(b)}{\ignorespaces {ATLAS, $\chi _{c1}$ and $\chi _{c2}$, \ensuremath {\sqrt {s}}\xspace = 7\ensuremath {\text {\nobreakspace {}TeV}}\xspace }}}{18}{figure.5}}
\@writefile{lof}{\contentsline {subfigure}{\numberline{(c)}{\ignorespaces {LHCb, $\ensuremath {\eta _c}\xspace $ (red filled circles) and $\ensuremath {\mathrm {J}/\psi }\xspace $ (blue open circles), $2.0 < y < 4.5$, \ensuremath {\sqrt {s}}\xspace = 7\ensuremath {\text {\nobreakspace {}TeV}}\xspace }}}{18}{figure.5}}
\newlabel{fig:pp:CMS:Bplus:pt}{{6(a)}{18}{Subfigure 6(a)}{subfigure.6.1}{}}
\newlabel{sub@fig:pp:CMS:Bplus:pt}{{(a)}{18}{Subfigure 6(a)\relax }{subfigure.6.1}{}}
\newlabel{fig:pp:ATLAS:Bplus:pt}{{6(b)}{18}{Subfigure 6(b)}{subfigure.6.2}{}}
\newlabel{sub@fig:pp:ATLAS:Bplus:pt}{{(b)}{18}{Subfigure 6(b)\relax }{subfigure.6.2}{}}
\newlabel{fig:pp:ATLAS:Bplus:y}{{6(c)}{18}{Subfigure 6(c)}{subfigure.6.3}{}}
\newlabel{sub@fig:pp:ATLAS:Bplus:y}{{(c)}{18}{Subfigure 6(c)\relax }{subfigure.6.3}{}}
\@writefile{lof}{\contentsline {figure}{\numberline {6}{\ignorespaces  $\mathrm  {B}^+$differential cross sections $\ensuremath  {{\rm  d}\sigma /{\rm  d}p_{\mathrm  {T}}}\xspace  $ (a), (b) and $\ensuremath  {{\rm  d}\sigma /{\rm  d}y}\xspace  $ (c) in \ensuremath  {\rm  pp}\xspace  collisions at \ensuremath  {\sqrt  {s}}\xspace  = 7\ensuremath  {\text  {\nobreakspace  {}TeV}}\xspace  compared to theory predictions\nobreakspace  {}\cite  {Khachatryan:2011mk,ATLAS:2013cia}. In (c) the error bars correspond to the differential cross-section measurement with total uncertainty (lines on the error bars indicate the statistical component). }}{18}{figure.6}}
\newlabel{fig:pp:Bplusmeson}{{6}{18}{$\mathrm {B}^+$differential cross sections $\dsdpt $ (a), (b) and $\dsdy $ (c) in \pp collisions at \s = 7\TeV compared to theory predictions~\cite {Khachatryan:2011mk,ATLAS:2013cia}. In (c) the error bars correspond to the differential cross-section measurement with total uncertainty (lines on the error bars indicate the statistical component)}{figure.6}{}}
\@writefile{lof}{\contentsline {subfigure}{\numberline{(a)}{\ignorespaces {CMS, $\ensuremath {p_{\mathrm {T}}}\xspace $ differential}}}{18}{figure.6}}
\@writefile{lof}{\contentsline {subfigure}{\numberline{(b)}{\ignorespaces {ATLAS, CMS, $\ensuremath {p_{\mathrm {T}}}\xspace $ differential}}}{18}{figure.6}}
\@writefile{lof}{\contentsline {subfigure}{\numberline{(c)}{\ignorespaces {ATLAS, $y$ differential}}}{18}{figure.6}}
\citation{DELPHI:2011aa}
\citation{ATLAS:2011ac,Chatrchyan:2012dk}
\citation{Nason:2004rx}
\citation{Alioli:2010xd}
\citation{Sjostrand:2006za}
\citation{Frixione:2002ik,Frixione:2003ei}
\citation{Corcella:2000bw}
\newlabel{fig:pp:Lambdab:dsdpt}{{7(a)}{19}{Subfigure 7(a)}{subfigure.7.1}{}}
\newlabel{sub@fig:pp:Lambdab:dsdpt}{{(a)}{19}{Subfigure 7(a)\relax }{subfigure.7.1}{}}
\newlabel{fig:pp:Lambdab:dsdy}{{7(b)}{19}{Subfigure 7(b)}{subfigure.7.2}{}}
\newlabel{sub@fig:pp:Lambdab:dsdy}{{(b)}{19}{Subfigure 7(b)\relax }{subfigure.7.2}{}}
\newlabel{fig:pp:Lambdab:B0Bp}{{7(c)}{19}{Subfigure 7(c)}{subfigure.7.3}{}}
\newlabel{sub@fig:pp:Lambdab:B0Bp}{{(c)}{19}{Subfigure 7(c)\relax }{subfigure.7.3}{}}
\@writefile{lof}{\contentsline {figure}{\numberline {7}{\ignorespaces   $\ensuremath  {\Lambda _b^+}\xspace  $ studies at the LHC in \ensuremath  {\rm  pp}\xspace  collisions at \ensuremath  {\sqrt  {s}}\xspace  = 7\ensuremath  {\text  {\nobreakspace  {}TeV}}\xspace  by CMS\nobreakspace  {}\cite  {Chatrchyan:2012xg} compared to PYTHIA and POWHEG calculations for (a) $\ensuremath  {{\rm  d}\sigma /{\rm  d}p_{\mathrm  {T}}}\xspace  $ for $|y|<2.0$ and for (b) $\ensuremath  {{\rm  d}\sigma /{\rm  d}y}\xspace  $ for $\ensuremath  {\Lambda _b^+}\xspace  $ for $\ensuremath  {p_{\mathrm  {T}}}\xspace  > 10$\ensuremath  {\text  {\nobreakspace  {}GeV}}\xspace  . (c) Comparison of the (self-normalised) \ensuremath  {p_{\mathrm  {T}}}\xspace  differential cross section for $\mathrm  {B}^+$, $\mathrm  {B}^0$ and \ensuremath  {\Lambda _b^+}\xspace  . }}{19}{figure.7}}
\newlabel{fig:pp:Lambdab}{{7}{19}{$\lambdabplus $ studies at the LHC in \pp collisions at \s = 7\TeV by CMS~\cite {Chatrchyan:2012xg} compared to PYTHIA and POWHEG calculations for (a) $\dsdpt $ for $|y|<2.0$ and for (b) $\dsdy $ for $\lambdabplus $ for $\pt > 10$\GeV . (c) Comparison of the (self-normalised) \pt differential cross section for $\mathrm {B}^+$, $\mathrm {B}^0$ and \lambdabplus }{figure.7}{}}
\@writefile{lof}{\contentsline {subfigure}{\numberline{(a)}{\ignorespaces {CMS, $\ensuremath {\Lambda _b^+}\xspace $ $\ensuremath {{\rm d}\sigma /{\rm d}p_{\mathrm {T}}}\xspace $, \ensuremath {\sqrt {s}}\xspace = 7\ensuremath {\text {\nobreakspace {}TeV}}\xspace }}}{19}{figure.7}}
\@writefile{lof}{\contentsline {subfigure}{\numberline{(b)}{\ignorespaces {CMS, $\ensuremath {\Lambda _b^+}\xspace $ $\ensuremath {{\rm d}\sigma /{\rm d}y}\xspace $, \ensuremath {\sqrt {s}}\xspace = 7\ensuremath {\text {\nobreakspace {}TeV}}\xspace }}}{19}{figure.7}}
\@writefile{lof}{\contentsline {subfigure}{\numberline{(c)}{\ignorespaces {CMS, self-normalised $\ensuremath {{\rm d}\sigma /{\rm d}p_{\mathrm {T}}}\xspace $, \ensuremath {\sqrt {s}}\xspace = 7\ensuremath {\text {\nobreakspace {}TeV}}\xspace }}}{19}{figure.7}}
\newlabel{fig:pp:CMS:Bjet}{{8(a)}{19}{Subfigure 8(a)}{subfigure.8.1}{}}
\newlabel{sub@fig:pp:CMS:Bjet}{{(a)}{19}{Subfigure 8(a)\relax }{subfigure.8.1}{}}
\newlabel{fig:pp:ATLAS:Bjet}{{8(b)}{19}{Subfigure 8(b)}{subfigure.8.2}{}}
\newlabel{sub@fig:pp:ATLAS:Bjet}{{(b)}{19}{Subfigure 8(b)\relax }{subfigure.8.2}{}}
\@writefile{lof}{\contentsline {figure}{\numberline {8}{\ignorespaces   $\ensuremath  {b}\xspace  $-jet cross section as a function of \ensuremath  {p_{\mathrm  {T}}}\xspace  in \ensuremath  {\rm  pp}\xspace  collisions at \ensuremath  {\sqrt  {s}}\xspace  = 7\ensuremath  {\text  {\nobreakspace  {}TeV}}\xspace  : (a) $\ensuremath  {{\rm  d}\sigma /{\rm  d}p_{\mathrm  {T}}}\xspace  $ from the lifetime-based and muon-based analyses by CMS\nobreakspace  {}\cite  {Chatrchyan:2012dk} and ATLAS\nobreakspace  {}\cite  {ATLAS:2011ac} compared to the MC{@}NLO calculation, and (b) ${\rm  d}^2\sigma /{\rm  d}\ensuremath  {p_{\mathrm  {T}}}\xspace  {\rm  d}y$ by ATLAS from the lifetime-based analysis\nobreakspace  {}\cite  {ATLAS:2011ac} compared to the predictions of PYTHIA, POWHEG (matched to PYTHIA) and MC{@}NLO (matched to HERWIG)\nobreakspace  {}\cite  {Sjostrand:2006za,Alioli:2010xd,Frixione:2002ik,Frixione:2003ei,Corcella:2000bw}. }}{19}{figure.8}}
\newlabel{fig:pp:Bjet}{{8}{19}{$\bquark $-jet cross section as a function of \pt in \pp collisions at \s = 7\TeV : (a) $\dsdpt $ from the lifetime-based and muon-based analyses by CMS~\cite {Chatrchyan:2012dk} and ATLAS~\cite {ATLAS:2011ac} compared to the MC{@}NLO calculation, and (b) ${\rm d}^2\sigma /{\rm d}\pt {\rm d}y$ by ATLAS from the lifetime-based analysis~\cite {ATLAS:2011ac} compared to the predictions of PYTHIA, POWHEG (matched to PYTHIA) and MC{@}NLO (matched to HERWIG)~\cite {Sjostrand:2006za,Alioli:2010xd,Frixione:2002ik,Frixione:2003ei,Corcella:2000bw}}{figure.8}{}}
\@writefile{lof}{\contentsline {subfigure}{\numberline{(a)}{\ignorespaces {CMS, $\ensuremath {b}\xspace $-jets, \ensuremath {\sqrt {s}}\xspace = 7\ensuremath {\text {\nobreakspace {}TeV}}\xspace }}}{19}{figure.8}}
\@writefile{lof}{\contentsline {subfigure}{\numberline{(b)}{\ignorespaces {ATLAS, $\ensuremath {b}\xspace $-jet, \ensuremath {\sqrt {s}}\xspace = 7\ensuremath {\text {\nobreakspace {}TeV}}\xspace }}}{19}{figure.8}}
\citation{Feng:2015cba}
\citation{Nelson:2012bc}
\citation{Abelev:2012gx}
\citation{Aad:2011sp}
\citation{Chatrchyan:2011kc}
\citation{Adare:2009ic}
\citation{Aaij:2011jh}
\citation{Ma:2010yw}
\citation{Campbell:2007ws,Artoisenet:2007xi}
\citation{Artoisenet:2008fc,Lansberg:2008gk}
\citation{Frawley:2008kk}
\citation{Abelev:2012gx}
\citation{Aad:2011sp}
\citation{Chatrchyan:2011kc}
\citation{Aaij:2011jh}
\citation{Ma:2010yw}
\citation{Campbell:2007ws,Artoisenet:2007xi}
\citation{Artoisenet:2008fc,Lansberg:2008gk}
\citation{Frawley:2008kk}
\citation{Abelev:2012gx}
\citation{Aad:2011sp}
\citation{Chatrchyan:2011kc}
\citation{Aad:2014fpa}
\citation{Acosta:2003zx,Bauer:2004bc}
\citation{Chatrchyan:2013cld}
\citation{Aaij:2011sn}
\citation{Butenschoen:2013pxa}
\citation{Aaij:2014bga}
\citation{Han:2014jya}
\citation{Aad:2014fpa}
\citation{Acosta:2003zx,Bauer:2004bc}
\citation{Chatrchyan:2013cld}
\citation{Aaij:2011sn}
\citation{Butenschoen:2013pxa}
\citation{Aaij:2014bga}
\citation{Han:2014jya}
\citation{Acosta:2003zx,Abazov:2004kp}
\citation{Aad:2014fpa}
\citation{Butenschoen:2013pxa}
\citation{Aaij:2013zoa}
\citation{Agashe:2014kda}
\@writefile{toc}{\contentsline {subsubsection}{\numberline {2.2.4}Prompt charmonium}{20}{subsubsection.2.2.4}}
\newlabel{subsubsec:exp_onium_prompt}{{2.2.4}{20}{Prompt charmonium}{subsubsection.2.2.4}{}}
\newlabel{fig:pp:LHCb:Jpsi}{{9(a)}{20}{Subfigure 9(a)}{subfigure.9.1}{}}
\newlabel{sub@fig:pp:LHCb:Jpsi}{{(a)}{20}{Subfigure 9(a)\relax }{subfigure.9.1}{}}
\newlabel{fig:pp:ALICE:Jpsi}{{9(b)}{20}{Subfigure 9(b)}{subfigure.9.2}{}}
\newlabel{sub@fig:pp:ALICE:Jpsi}{{(b)}{20}{Subfigure 9(b)\relax }{subfigure.9.2}{}}
\@writefile{lof}{\contentsline {figure}{\numberline {9}{\ignorespaces   (a) Prompt $\ensuremath  {\mathrm  {J}/\psi }\xspace  $ yield as measured by LHCb\nobreakspace  {}\cite  {Aaij:2011jh} at \ensuremath  {\sqrt  {s}}\xspace  = 7\ensuremath  {\text  {\nobreakspace  {}TeV}}\xspace  compared to different theory predictions referred to as ``prompt NLO NRQCD''\cite  {Ma:2010yw}, ''DirectNLO CS''\cite  {Campbell:2007ws,Artoisenet:2007xi}, ``Direct NNLO$^\star $ CS'' \cite  {Artoisenet:2008fc,Lansberg:2008gk} and ``Prompt NLO CEM'' \cite  {Frawley:2008kk}. (b) Fraction of $\ensuremath  {\mathrm  {J}/\psi }\xspace  $ from B as measured by ALICE\cite  {Abelev:2012gx}, ATLAS\nobreakspace  {}\cite  {Aad:2011sp} and CMS\nobreakspace  {}\cite  {Chatrchyan:2011kc} at \ensuremath  {\sqrt  {s}}\xspace  = 7\ensuremath  {\text  {\nobreakspace  {}TeV}}\xspace  in the central rapidity region. }}{20}{figure.9}}
\newlabel{fig:pp:prompt_dimuon}{{9}{20}{(a) Prompt $\jpsi $ yield as measured by LHCb~\cite {Aaij:2011jh} at \s = 7\TeV compared to different theory predictions referred to as ``prompt NLO NRQCD''\cite {Ma:2010yw}, ''DirectNLO CS''\cite {Campbell:2007ws,Artoisenet:2007xi}, ``Direct NNLO$^\star $ CS'' \cite {Artoisenet:2008fc,Lansberg:2008gk} and ``Prompt NLO CEM'' \cite {Frawley:2008kk}. (b) Fraction of $\jpsi $ from B as measured by ALICE\cite {Abelev:2012gx}, ATLAS~\cite {Aad:2011sp} and CMS~\cite {Chatrchyan:2011kc} at \s = 7\TeV in the central rapidity region}{figure.9}{}}
\@writefile{lof}{\contentsline {subfigure}{\numberline{(a)}{\ignorespaces {}}}{20}{figure.9}}
\@writefile{lof}{\contentsline {subfigure}{\numberline{(b)}{\ignorespaces {}}}{20}{figure.9}}
\citation{Butenschoen:2014dra,Han:2014jya,Zhang:2014ybe}
\citation{Aaij:2013dja}
\citation{Abe:1997yz}
\citation{Kramer:2001hh,Lansberg:2006dh}
\citation{Ma:2010vd}
\newlabel{fig:pp:ATLAS:Psi2S}{{10(a)}{21}{Subfigure 10(a)}{subfigure.10.1}{}}
\newlabel{sub@fig:pp:ATLAS:Psi2S}{{(a)}{21}{Subfigure 10(a)\relax }{subfigure.10.1}{}}
\newlabel{fig:pp:X3872}{{10(b)}{21}{Subfigure 10(b)}{subfigure.10.2}{}}
\newlabel{sub@fig:pp:X3872}{{(b)}{21}{Subfigure 10(b)\relax }{subfigure.10.2}{}}
\newlabel{fig:pp:ppbardecay}{{10(c)}{21}{Subfigure 10(c)}{subfigure.10.3}{}}
\newlabel{sub@fig:pp:ppbardecay}{{(c)}{21}{Subfigure 10(c)\relax }{subfigure.10.3}{}}
\@writefile{lof}{\contentsline {figure}{\numberline {10}{\ignorespaces   (a): ATLAS $\ensuremath  {\psi \text  {(2S)}}\xspace  $ differential cross section\nobreakspace  {}\cite  {Aad:2014fpa} compared to different theoretical curves. (b): prompt X(3872) production cross section measured by the CDF\nobreakspace  {}\cite  {Acosta:2003zx,Bauer:2004bc}, CMS\nobreakspace  {}\cite  {Chatrchyan:2013cld}, and LHCb\nobreakspace  {}\cite  {Aaij:2011sn} Collaborations compared with NLO NRQCD allowing the CS contribution to differ from that from HQSS\nobreakspace  {}\cite  {Butenschoen:2013pxa}. (c): Prompt-$\ensuremath  {\eta _c}\xspace  $ transverse-momentum cross section in \ensuremath  {\rm  pp}\xspace  collisions at \ensuremath  {\sqrt  {s}}\xspace  = 8\ensuremath  {\text  {\nobreakspace  {}TeV}}\xspace  measured by LHCb\nobreakspace  {}\cite  {Aaij:2014bga} compared to the CS contribution following HQSS and fitted CO contributions at NLO\nobreakspace  {}\cite  {Han:2014jya}. }}{21}{figure.10}}
\newlabel{fig:pp:OniaRare}{{10}{21}{(a): ATLAS $\psiP $ differential cross section~\cite {Aad:2014fpa} compared to different theoretical curves. (b): prompt X(3872) production cross section measured by the CDF~\cite {Acosta:2003zx,Bauer:2004bc}, CMS~\cite {Chatrchyan:2013cld}, and LHCb~\cite {Aaij:2011sn} Collaborations compared with NLO NRQCD allowing the CS contribution to differ from that from HQSS~\cite {Butenschoen:2013pxa}. (c): Prompt-$\etac $ transverse-momentum cross section in \pp collisions at \s = 8\TeV measured by LHCb~\cite {Aaij:2014bga} compared to the CS contribution following HQSS and fitted CO contributions at NLO~\cite {Han:2014jya}}{figure.10}{}}
\@writefile{lof}{\contentsline {subfigure}{\numberline{(a)}{\ignorespaces {Theory and ATLAS, $\ensuremath {\psi \text {(2S)}}\xspace $, \ensuremath {\sqrt {s}}\xspace =7\ensuremath {\text {\nobreakspace {}TeV}}\xspace }}}{21}{figure.10}}
\@writefile{lof}{\contentsline {subfigure}{\numberline{(b)}{\ignorespaces {Prompt X(3872) compilation and theory}}}{21}{figure.10}}
\@writefile{lof}{\contentsline {subfigure}{\numberline{(c)}{\ignorespaces {Theory and LHCb, $\ensuremath {\eta _c}\xspace $, \ensuremath {\sqrt {s}}\xspace =8\ensuremath {\text {\nobreakspace {}TeV}}\xspace }}}{21}{figure.10}}
\citation{Aaij:2013dja,Chatrchyan:2012ub,Abulencia:2007bra}
\citation{Ma:2010vd,Likhoded:2013aya}
\citation{ATLAS:2014ala}
\citation{Ma:2010vd,Shao:2012iz,Ma:2010yw}
\citation{Baranov:2011ib,Baranov:2010zz}
\citation{Aaij:2013dja,Chatrchyan:2012ub,Abulencia:2007bra}
\citation{Ma:2010vd,Likhoded:2013aya}
\citation{ATLAS:2014ala}
\citation{Ma:2010vd,Shao:2012iz,Ma:2010yw}
\citation{Baranov:2011ib,Baranov:2010zz}
\citation{Gong:2012ah}
\citation{Aad:2012dlq,Chatrchyan:2013yna}
\citation{Chatrchyan:2013yna}
\citation{Aad:2012dlq}
\citation{Aad:2012dlq,Chatrchyan:2013yna}
\citation{Chatrchyan:2013yna}
\citation{Aad:2012dlq}
\citation{Lansberg:2012ta,Abelev:2014qha}
\newlabel{fig:pp:FeedDownFraction-psi}{{11(a)}{22}{Subfigure 11(a)}{subfigure.11.1}{}}
\newlabel{sub@fig:pp:FeedDownFraction-psi}{{(a)}{22}{Subfigure 11(a)\relax }{subfigure.11.1}{}}
\newlabel{fig:pp:ChiCRatio}{{11(b)}{22}{Subfigure 11(b)}{subfigure.11.2}{}}
\newlabel{sub@fig:pp:ChiCRatio}{{(b)}{22}{Subfigure 11(b)\relax }{subfigure.11.2}{}}
\newlabel{fig:pp:PromptOnia:Chic1}{{11(c)}{22}{Subfigure 11(c)}{subfigure.11.3}{}}
\newlabel{sub@fig:pp:PromptOnia:Chic1}{{(c)}{22}{Subfigure 11(c)\relax }{subfigure.11.3}{}}
\@writefile{lof}{\contentsline {figure}{\numberline {11}{\ignorespaces   (a): Typical source of prompt \ensuremath  {\mathrm  {J}/\psi }\xspace  and low and mid \ensuremath  {p_{\mathrm  {T}}}\xspace  . (b): Ratio of $\chi _{{\rm  c}1}$ to $\chi _{{\rm  c}2}$ as measured by the LHCb experiment in \ensuremath  {\rm  pp}\xspace  \nobreakspace  {}collisions at \ensuremath  {\sqrt  {s}}\xspace  = 7\ensuremath  {\text  {\nobreakspace  {}TeV}}\xspace  compared to results from other experiments\nobreakspace  {}\cite  {Aaij:2013dja,Chatrchyan:2012ub,Abulencia:2007bra} and NRQCD calculations\nobreakspace  {}\cite  {Ma:2010vd,Likhoded:2013aya}. (c): $\chi _{{\rm  c}1}$ $\ensuremath  {{\rm  d}\sigma /{\rm  d}p_{\mathrm  {T}}}\xspace  $\nobreakspace  {}\cite  {ATLAS:2014ala} as compared to LO CSM\footnotemark , NLO NRQCD\nobreakspace  {}\cite  {Ma:2010vd,Shao:2012iz,Ma:2010yw} and \ensuremath  {k_{\mathrm  {T}}}\xspace  factorization\nobreakspace  {}\cite  {Baranov:2011ib,Baranov:2010zz}. }}{22}{figure.11}}
\newlabel{fig:pp:ChiC}{{11}{22}{(a): Typical source of prompt \jpsi and low and mid \pt . (b): Ratio of $\chi _{{\rm c}1}$ to $\chi _{{\rm c}2}$ as measured by the LHCb experiment in \pp ~collisions at \s = 7\TeV compared to results from other experiments~\cite {Aaij:2013dja,Chatrchyan:2012ub,Abulencia:2007bra} and NRQCD calculations~\cite {Ma:2010vd,Likhoded:2013aya}. (c): $\chi _{{\rm c}1}$ $\dsdpt $~\cite {ATLAS:2014ala} as compared to LO CSM\protect \footnotemark , NLO NRQCD~\cite {Ma:2010vd,Shao:2012iz,Ma:2010yw} and \kt factorization~\cite {Baranov:2011ib,Baranov:2010zz}}{figure.11}{}}
\@writefile{lof}{\contentsline {subfigure}{\numberline{(a)}{\ignorespaces {Typical source of prompt \ensuremath {\mathrm {J}/\psi }\xspace and low and mid \ensuremath {p_{\mathrm {T}}}\xspace }}}{22}{figure.11}}
\@writefile{lof}{\contentsline {subfigure}{\numberline{(b)}{\ignorespaces {$\chi _{c2}/\chi _{c1}$ compilation, \ensuremath {\sqrt {s}}\xspace = 7\ensuremath {\text {\nobreakspace {}TeV}}\xspace }}}{22}{figure.11}}
\@writefile{lof}{\contentsline {subfigure}{\numberline{(c)}{\ignorespaces {ATLAS, $\chi _{c1}$ prompt cross section, \ensuremath {\sqrt {s}}\xspace = 7\ensuremath {\text {\nobreakspace {}TeV}}\xspace }}}{22}{figure.11}}
\@writefile{toc}{\contentsline {subsubsection}{\numberline {2.2.5}Bottomonium}{22}{subsubsection.2.2.5}}
\citation{Aad:2011ih}
\citation{Khachatryan:2014ofa,Aaij:2014hla}
\citation{Aaij:2014caa}
\citation{Khachatryan:2014ofa,Aaij:2014hla}
\citation{Aaij:2014caa}
\citation{Aaij:2014caa,Aad:2012dlq,Aad:2011xv,Chatrchyan:2013yna,Abelev:2014qha,Khachatryan:2010zg,Aaij:2013yaa,Aaij:2012se,LHCb:2012aa}
\citation{Aaij:2014caa,Aad:2012dlq,Aad:2011xv,Chatrchyan:2013yna,Abelev:2014qha,Khachatryan:2010zg,Aaij:2013yaa,Aaij:2012se,LHCb:2012aa}
\citation{Aaij:2014caa}
\citation{Affolder:1999wm}
\citation{Affolder:1999wm}
\citation{Khachatryan:2014ofa,Aaij:2014hla}
\citation{Aaij:2014caa}
\citation{Aaij:2014ija}
\citation{Chang:2003cq,Chang:2005hq}
\citation{Aaij:2014ija}
\citation{Chang:2003cq,Chang:2005hq}
\citation{Aaij:2014ija}
\citation{Chang:1992jb,Chang:1994aw,Chang:1996jt,Chang:2005bf,Kolodziej:1995nv,Berezhnoy:1994ba,Berezhnoy:1996an,Baranov:1997wy}
\citation{Chang:2003cq,Chang:2005hq}
\newlabel{fig:pp:CMSLHCb:Ups}{{12(a)}{23}{Subfigure 12(a)}{subfigure.12.1}{}}
\newlabel{sub@fig:pp:CMSLHCb:Ups}{{(a)}{23}{Subfigure 12(a)\relax }{subfigure.12.1}{}}
\newlabel{fig:pp:CMS:Ups1}{{12(b)}{23}{Subfigure 12(b)}{subfigure.12.2}{}}
\newlabel{sub@fig:pp:CMS:Ups1}{{(b)}{23}{Subfigure 12(b)\relax }{subfigure.12.2}{}}
\newlabel{fig:pp:CMS:Ups}{{12(c)}{23}{Subfigure 12(c)}{subfigure.12.3}{}}
\newlabel{sub@fig:pp:CMS:Ups}{{(c)}{23}{Subfigure 12(c)\relax }{subfigure.12.3}{}}
\@writefile{lof}{\contentsline {figure}{\numberline {12}{\ignorespaces   (a): \ensuremath  {\Upsilon \text  {(1S)}}\xspace  rapidity differential cross section as measured by ATLAS, CMS and LHCb\nobreakspace  {}\cite  {Aad:2012dlq,Chatrchyan:2013yna}. (b) Transverse momentum dependence of the \ensuremath  {\Upsilon \text  {(1S)}}\xspace  states as measured by CMS\nobreakspace  {}\cite  {Chatrchyan:2013yna}. (c) Transverse momentum dependence of the \ensuremath  {\Upsilon }\xspace  states ratio as measured by ATLAS\nobreakspace  {}\cite  {Aad:2012dlq}. }}{23}{figure.12}}
\newlabel{fig:pp:Ups}{{12}{23}{(a): \upsa rapidity differential cross section as measured by ATLAS, CMS and LHCb~\cite {Aad:2012dlq,Chatrchyan:2013yna}. (b) Transverse momentum dependence of the \upsa states as measured by CMS~\cite {Chatrchyan:2013yna}. (c) Transverse momentum dependence of the \ups states ratio as measured by ATLAS~\cite {Aad:2012dlq}}{figure.12}{}}
\@writefile{lof}{\contentsline {subfigure}{\numberline{(a)}{\ignorespaces {LO CSM compared to the extrapolated direct CMS and LHCb \ensuremath {\Upsilon \text {(1S)}}\xspace ${\rm d}\sigma /{\rm d}y$, \ensuremath {\sqrt {s}}\xspace = 7\ensuremath {\text {\nobreakspace {}TeV}}\xspace }}}{23}{figure.12}}
\@writefile{lof}{\contentsline {subfigure}{\numberline{(b)}{\ignorespaces {Theory and CMS, \ensuremath {\Upsilon \text {(1S)}}\xspace , \ensuremath {\sqrt {s}}\xspace = 7\ensuremath {\text {\nobreakspace {}TeV}}\xspace }}}{23}{figure.12}}
\@writefile{lof}{\contentsline {subfigure}{\numberline{(c)}{\ignorespaces {ATLAS and CMS, ratio of the \ensuremath {\Upsilon }\xspace states, \ensuremath {\sqrt {s}}\xspace = 7\ensuremath {\text {\nobreakspace {}TeV}}\xspace }}}{23}{figure.12}}
\citation{Aaij:2013voa}
\citation{Mattson:2002vu,Ocherashvili:2004hi}
\newlabel{fig:pp:ChibRatio}{{13(a)}{24}{Subfigure 13(a)}{subfigure.13.1}{}}
\newlabel{sub@fig:pp:ChibRatio}{{(a)}{24}{Subfigure 13(a)\relax }{subfigure.13.1}{}}
\newlabel{fig:pp:ChibtoUps1S}{{13(b)}{24}{Subfigure 13(b)}{subfigure.13.2}{}}
\newlabel{sub@fig:pp:ChibtoUps1S}{{(b)}{24}{Subfigure 13(b)\relax }{subfigure.13.2}{}}
\newlabel{fig:pp:ChibtoUps3S}{{13(c)}{24}{Subfigure 13(c)}{subfigure.13.3}{}}
\newlabel{sub@fig:pp:ChibtoUps3S}{{(c)}{24}{Subfigure 13(c)\relax }{subfigure.13.3}{}}
\@writefile{lof}{\contentsline {figure}{\numberline {13}{\ignorespaces   (a) Ratio of the production cross section of $\chi _{b2}$ and $\chi _{b1}$ in \ensuremath  {\rm  pp}\xspace  collisions at \ensuremath  {\sqrt  {s}}\xspace  = 8\ensuremath  {\text  {\nobreakspace  {}TeV}}\xspace  \nobreakspace  {}\cite  {Khachatryan:2014ofa,Aaij:2014hla}. (b) and (c) : Fractions of $\ensuremath  {\chi _b}\xspace  $ to \ensuremath  {\Upsilon \text  {(1S)}}\xspace  as function of \ensuremath  {\Upsilon }\xspace  $\ensuremath  {p_{\mathrm  {T}}}\xspace  $\nobreakspace  {}\cite  {Aaij:2014caa}. For better visualization the data points are slightly displaced from the bin centres. The inner error bars represent statistical uncertainties, while the outer error bars indicate statistical and systematic uncertainties added in quadrature. }}{24}{figure.13}}
\newlabel{fig:pp:Chib}{{13}{24}{(a) Ratio of the production cross section of $\chi _{b2}$ and $\chi _{b1}$ in \pp collisions at \s = 8\TeV ~\cite {Khachatryan:2014ofa,Aaij:2014hla}. (b) and (c) : Fractions of $\chib $ to \upsa as function of \ups $\pt $~\cite {Aaij:2014caa}. For better visualization the data points are slightly displaced from the bin centres. The inner error bars represent statistical uncertainties, while the outer error bars indicate statistical and systematic uncertainties added in quadrature}{figure.13}{}}
\@writefile{lof}{\contentsline {subfigure}{\numberline{(a)}{\ignorespaces {Ratio of $\ensuremath {\chi _b}\xspace $ states, \ensuremath {\sqrt {s}}\xspace = 8\ensuremath {\text {\nobreakspace {}TeV}}\xspace }}}{24}{figure.13}}
\@writefile{lof}{\contentsline {subfigure}{\numberline{(b)}{\ignorespaces {Fraction of feed-down of $\ensuremath {\chi _b}\xspace (1,2,3P)$ to \ensuremath {\Upsilon }\xspace , \ensuremath {\sqrt {s}}\xspace = 7 and 8\ensuremath {\text {\nobreakspace {}TeV}}\xspace }}}{24}{figure.13}}
\@writefile{lof}{\contentsline {subfigure}{\numberline{(c)}{\ignorespaces {Fraction of feed-down of $\ensuremath {\chi _b}\xspace (3P)$ to \ensuremath {\Upsilon \text {(3S)}}\xspace , \ensuremath {\sqrt {s}}\xspace = 7 and 8\ensuremath {\text {\nobreakspace {}TeV}}\xspace }}}{24}{figure.13}}
\newlabel{fig:pp:FeedDownFraction-upsi1s}{{14(a)}{24}{Subfigure 14(a)}{subfigure.14.1}{}}
\newlabel{sub@fig:pp:FeedDownFraction-upsi1s}{{(a)}{24}{Subfigure 14(a)\relax }{subfigure.14.1}{}}
\newlabel{fig:pp:FeedDownFraction-upsi2s}{{14(b)}{24}{Subfigure 14(b)}{subfigure.14.2}{}}
\newlabel{sub@fig:pp:FeedDownFraction-upsi2s}{{(b)}{24}{Subfigure 14(b)\relax }{subfigure.14.2}{}}
\newlabel{fig:pp:FeedDownFraction-upsi3s}{{14(c)}{24}{Subfigure 14(c)}{subfigure.14.3}{}}
\newlabel{sub@fig:pp:FeedDownFraction-upsi3s}{{(c)}{24}{Subfigure 14(c)\relax }{subfigure.14.3}{}}
\@writefile{lof}{\contentsline {figure}{\numberline {14}{\ignorespaces   Typical sources of $\Upsilon (nS)$ at low and high \ensuremath  {p_{\mathrm  {T}}}\xspace  . These numbers are mostly derived from LHC measurements\nobreakspace  {}\cite  {Aaij:2014caa,Aad:2012dlq,Aad:2011xv, Chatrchyan:2013yna,Abelev:2014qha,Khachatryan:2010zg,Aaij:2013yaa,Aaij:2012se,LHCb:2012aa} assuming an absence of a significant rapidity dependence. }}{24}{figure.14}}
\newlabel{fig:pp:FeedDownFraction-upsi}{{14}{24}{Typical sources of $\Upsilon (nS)$ at low and high \pt . These numbers are mostly derived from LHC measurements~\cite {Aaij:2014caa,Aad:2012dlq,Aad:2011xv, Chatrchyan:2013yna,Abelev:2014qha,Khachatryan:2010zg,Aaij:2013yaa,Aaij:2012se,LHCb:2012aa} assuming an absence of a significant rapidity dependence}{figure.14}{}}
\@writefile{lof}{\contentsline {subfigure}{\numberline{(a)}{\ignorespaces {\ensuremath {\Upsilon \text {(1S)}}\xspace }}}{24}{figure.14}}
\@writefile{lof}{\contentsline {subfigure}{\numberline{(b)}{\ignorespaces {\ensuremath {\Upsilon \text {(2S)}}\xspace }}}{24}{figure.14}}
\@writefile{lof}{\contentsline {subfigure}{\numberline{(c)}{\ignorespaces {\ensuremath {\Upsilon \text {(3S)}}\xspace }}}{24}{figure.14}}
\@writefile{toc}{\contentsline {subsubsection}{\numberline {2.2.6}${\rm  B}_c$ and multiple-charm baryons}{24}{subsubsection.2.2.6}}
\@writefile{toc}{\contentsline {subsection}{\numberline {2.3}Quarkonium polarization studies}{24}{subsection.2.3}}
\newlabel{sec:pp:Polarization}{{2.3}{24}{Quarkonium polarization studies}{subsection.2.3}{}}
\citation{Faccioli:2010kd}
\citation{Collins:1977iv}
\citation{Gottfried:1964nx}
\citation{Braaten:2008mz}
\citation{Faccioli:2010kd,Palestini:2010xu}
\citation{Faccioli:2010kd}
\newlabel{fig:pp:LHCbBc:pt}{{15(a)}{25}{Subfigure 15(a)}{subfigure.15.1}{}}
\newlabel{sub@fig:pp:LHCbBc:pt}{{(a)}{25}{Subfigure 15(a)\relax }{subfigure.15.1}{}}
\newlabel{fig:pp:LHCbBc:y}{{15(b)}{25}{Subfigure 15(b)}{subfigure.15.2}{}}
\newlabel{sub@fig:pp:LHCbBc:y}{{(b)}{25}{Subfigure 15(b)\relax }{subfigure.15.2}{}}
\@writefile{lof}{\contentsline {figure}{\numberline {15}{\ignorespaces   ${\rm  B}_c^+$ meson production in \ensuremath  {\rm  pp}\xspace  collisions at \ensuremath  {\sqrt  {s}}\xspace  = 8\ensuremath  {\text  {\nobreakspace  {}TeV}}\xspace  as measured by the LHCb Collaboration in its ${\rm  B}_c^+ \rightarrow \ensuremath  {\mathrm  {J}/\psi }\xspace  \ \pi ^+$ decay\nobreakspace  {}\cite  {Aaij:2014ija} within $0 < \ensuremath  {p_{\mathrm  {T}}}\xspace  < 20$\ensuremath  {\text  {\nobreakspace  {}GeV}/c}\xspace  and $2.0 < y < 4.5$. The solid histogram is a theory evaluation based on the complete order-$\alpha _s^4$ calculation --as opposed to fragmentation-function-based computations--, implemented in the ${\rm  B}_c$ generator BCVEGPY\nobreakspace  {}\cite  {Chang:2003cq,Chang:2005hq}. }}{25}{figure.15}}
\newlabel{fig:pp:LHCbBc}{{15}{25}{${\rm B}_c^+$ meson production in \pp collisions at \s = 8\TeV as measured by the LHCb Collaboration in its ${\rm B}_c^+ \rightarrow \jpsi \ \pi ^+$ decay~\cite {Aaij:2014ija} within $0 < \pt < 20$\GeVc and $2.0 < y < 4.5$. The solid histogram is a theory evaluation based on the complete order-$\alpha _s^4$ calculation --as opposed to fragmentation-function-based computations--, implemented in the ${\rm B}_c$ generator BCVEGPY~\cite {Chang:2003cq,Chang:2005hq}}{figure.15}{}}
\@writefile{lof}{\contentsline {subfigure}{\numberline{(a)}{\ignorespaces {$\ensuremath {p_{\mathrm {T}}}\xspace $ dependence}}}{25}{figure.15}}
\@writefile{lof}{\contentsline {subfigure}{\numberline{(b)}{\ignorespaces {$y$ dependence}}}{25}{figure.15}}
\newlabel{eq:angularDistribution}{{11}{25}{Quarkonium polarization studies}{equation.2.11}{}}
\citation{Aaij:2013nlm}
\citation{Aaij:2014qea}
\citation{Butenschoen:2012px,Gong:2012ug,Chao:2012iv}
\citation{Gong:2008sn,Lansberg:2010vq}
\citation{Shao:2014yta,Han:2014jya}
\citation{Chatrchyan:2013cla}
\citation{Chatrchyan:2012woa}
\citation{Shao:2012fs}
\citation{Faccioli:2011be}
\citation{Arnaldi:2009ph}
\citation{Faccioli:2012kp}
\citation{Aaij:2013nlm}
\citation{Aaij:2014qea}
\citation{Butenschoen:2012px}
\citation{Butenschoen:2012px,Gong:2012ug,Chao:2012iv}
\citation{Aaij:2013nlm}
\citation{Aaij:2014qea}
\citation{Butenschoen:2012px}
\citation{Butenschoen:2012px,Gong:2012ug,Chao:2012iv}
\citation{Chatrchyan:2013cla}
\citation{Gong:2012ug}
\citation{Chatrchyan:2012woa}
\citation{Chatrchyan:2013cla}
\citation{Gong:2012ug}
\citation{Chatrchyan:2012woa}
\@writefile{lof}{\contentsline {figure}{\numberline {16}{\ignorespaces Polarisation parameter $\lambda _{\theta }$ for prompt \ensuremath  {\mathrm  {J}/\psi }\xspace  \nobreakspace  {}\cite  {Aaij:2013nlm} (a) and \ensuremath  {\psi \text  {(2S)}}\xspace  \nobreakspace  {}\cite  {Aaij:2014qea} (b) from LHCb compared to different model predictions: direct NLO CSM\nobreakspace  {}\cite  {Butenschoen:2012px} and three NLO NRQCD calculations\nobreakspace  {}\cite  {Butenschoen:2012px,Gong:2012ug,Chao:2012iv}, at $2.5<y<4.0$ in the helicity frame.}}{27}{figure.16}}
\@writefile{lof}{\contentsline {subfigure}{\numberline{(a)}{\ignorespaces {}}}{27}{figure.16}}
\@writefile{lof}{\contentsline {subfigure}{\numberline{(b)}{\ignorespaces {}}}{27}{figure.16}}
\newlabel{quarkoniapolarization_LHCb}{{16}{27}{Polarisation parameter $\lambda _{\theta }$ for prompt \jpsi ~\cite {Aaij:2013nlm} (a) and \psiP ~\cite {Aaij:2014qea} (b) from LHCb compared to different model predictions: direct NLO CSM~\cite {Butenschoen:2012px} and three NLO NRQCD calculations~\cite {Butenschoen:2012px,Gong:2012ug,Chao:2012iv}, at $2.5<y<4.0$ in the helicity frame}{figure.16}{}}
\newlabel{psiPolarization_CMS}{{17(a)}{28}{Subfigure 17(a)}{subfigure.17.1}{}}
\newlabel{sub@psiPolarization_CMS}{{(a)}{28}{Subfigure 17(a)\relax }{subfigure.17.1}{}}
\newlabel{upsilonPolarization_CMS}{{17(b)}{28}{Subfigure 17(b)}{subfigure.17.2}{}}
\newlabel{sub@upsilonPolarization_CMS}{{(b)}{28}{Subfigure 17(b)\relax }{subfigure.17.2}{}}
\@writefile{lof}{\contentsline {figure}{\numberline {17}{\ignorespaces  (a) Polarisation parameters, $\lambda _{\theta }$, $\lambda _{\phi }$ and $\lambda _{\theta \phi }$, as a function of \ensuremath  {p_{\mathrm  {T}}}\xspace  measured in the $HX$ frame of prompt \ensuremath  {\mathrm  {J}/\psi }\xspace  , \ensuremath  {\psi \text  {(2S)}}\xspace  \nobreakspace  {}\cite  {Chatrchyan:2013cla}. Upper panels show also NLO NRQCD calculations\nobreakspace  {}\cite  {Gong:2012ug} of $\lambda _{\theta }$ for prompt \ensuremath  {\mathrm  {J}/\psi }\xspace  and \ensuremath  {\psi \text  {(2S)}}\xspace  for $\delimiter "026A30C y \delimiter "026A30C <$ 2.4. (b) Polarisation parameters, $\lambda _{\theta }$, $\lambda _{\phi }$ and $\lambda _{\theta \phi }$, as a function of \ensuremath  {p_{\mathrm  {T}}}\xspace  measured in the $HX$ frame of \ensuremath  {\Upsilon \text  {(1S)}}\xspace  , \ensuremath  {\Upsilon \text  {(2S)}}\xspace  , \ensuremath  {\Upsilon \text  {(3S)}}\xspace  \nobreakspace  {}\cite  {Chatrchyan:2012woa} for $\delimiter "026A30C y \delimiter "026A30C < 0.6$. }}{28}{figure.17}}
\@writefile{lof}{\contentsline {subfigure}{\numberline{(a)}{\ignorespaces {}}}{28}{figure.17}}
\@writefile{lof}{\contentsline {subfigure}{\numberline{(b)}{\ignorespaces {}}}{28}{figure.17}}
\citation{Adare:2009js}
\citation{Adamczyk:2012ey}
\citation{Adare:2011vq}
\citation{Adare:2011vq}
\citation{Adamczyk:2013vjy}
\citation{Adamczyk:2012ey}
\citation{Adare:2011vq}
\citation{Adare:2011vq}
\citation{Affolder:2000nn}
\citation{Abe:1997yz}
\citation{Abe:1997jz}
\citation{Abulencia:2007us}
\citation{Abe:1997yz}
\citation{Abe:1997jz}
\citation{Abelev:2011md}
\citation{Abelev:2012gx}
\citation{LHCb:2012af}
\citation{Abelev:2014qha}
\citation{Aaij:2013nlm}
\citation{LHCb:2012af}
\citation{Aaij:2012ag}
\citation{Chatrchyan:2013cla}
\citation{Chatrchyan:2011kc}
\citation{Arnaldi:2009ph}
\citation{Abt:2002vq}
\citation{Alexopoulos:1995dt}
\citation{Arnaldi:2009ph}
\citation{Abt:2002vq}
\citation{Alexopoulos:1995dt}
\citation{Gribushin:1999ha}
\citation{Abt:2002vq}
\citation{Alexopoulos:1995dt}
\citation{Gribushin:1999ha}
\citation{Abt:2002vq}
\citation{Alexopoulos:1995dt}
\citation{Alexopoulos:1997yd}
\citation{Abt:2002vq}
\citation{Alexopoulos:1995dt}
\citation{Chang:2003rz}
\citation{Abt:2002vq}
\citation{Alexopoulos:1995dt}
\citation{Abt:2009nu}
\citation{Abt:2002vq}
\citation{Abt:2006va}
\citation{Affolder:2000nn}
\citation{Abulencia:2007us}
\citation{Aaij:2014qea}
\citation{Chatrchyan:2013cla}
\citation{Acosta:2001gv}
\citation{Affolder:1999wm}
\citation{Affolder:1999wm}
\citation{Affolder:1999wm}
\citation{CDF:2011ag}
\citation{Affolder:1999wm}
\citation{Affolder:1999wm}
\citation{Affolder:1999wm}
\citation{Abazov:2008aa}
\citation{Affolder:1999wm}
\citation{Affolder:1999wm}
\citation{Affolder:1999wm}
\citation{Chatrchyan:2012woa}
\citation{Chatrchyan:2013yna}
\citation{Aaij:2014caa}
\citation{Abazov:2008aa}
\citation{Chatrchyan:2013yna}
\citation{Aaij:2014caa}
\citation{CDF:2011ag}
\citation{Chatrchyan:2013yna}
\citation{Aaij:2014caa}
\citation{Chatrchyan:2012woa}
\citation{Chatrchyan:2013yna}
\citation{Aaij:2014caa}
\citation{CDF:2011ag}
\citation{Aaij:2014caa}
\citation{Chatrchyan:2012woa}
\citation{Aaij:2014caa}
\@writefile{lot}{\contentsline {table}{\numberline {1}{\ignorespaces World existing data for \ensuremath  {\mathrm  {J}/\psi }\xspace  polarisation in \ensuremath  {\rm  pp}\xspace  and {p--A}\xspace  collisions.}}{29}{table.1}}
\newlabel{tab:jpsiPolarization}{{1}{29}{World existing data for \jpsi polarisation in \pp and \pA collisions}{table.1}{}}
\@writefile{lot}{\contentsline {table}{\numberline {2}{\ignorespaces World existing data for \ensuremath  {\psi \text  {(2S)}}\xspace  polarisation in \ensuremath  {\rm  pp}\xspace  .}}{30}{table.2}}
\newlabel{tab:psiPolarization}{{2}{30}{World existing data for \psiP polarisation in \pp }{table.2}{}}
\@writefile{lot}{\contentsline {table}{\numberline {3}{\ignorespaces World existing data for \ensuremath  {\Upsilon \text  {(1S)}}\xspace  polarisation in \ensuremath  {\rm  pp}\xspace  .}}{30}{table.3}}
\newlabel{tab:ups1Polarization}{{3}{30}{World existing data for \upsa polarisation in \pp }{table.3}{}}
\@writefile{lot}{\contentsline {table}{\numberline {4}{\ignorespaces World existing data for \ensuremath  {\Upsilon \text  {(2S)}}\xspace  polarisation in \ensuremath  {\rm  pp}\xspace  .}}{31}{table.4}}
\newlabel{tab:ups2Polarization}{{4}{31}{World existing data for \upsb polarisation in \pp }{table.4}{}}
\@writefile{lot}{\contentsline {table}{\numberline {5}{\ignorespaces World existing data for \ensuremath  {\Upsilon \text  {(3S)}}\xspace  polarisation in \ensuremath  {\rm  pp}\xspace  .}}{31}{table.5}}
\newlabel{tab:ups3Polarization}{{5}{31}{World existing data for \upsc polarisation in \pp }{table.5}{}}
\citation{Alner:1985wj,Wang:1991us,Sjostrand:1987su,Bartalini:2010su}
\citation{Maciula:2012rs,Porteboeuf:2010dw}
\citation{Werner:2010ny,Lang:2013ex}
\citation{Abelev:2012rz}
\citation{Ferreiro:2012fb}
\citation{Abelev:2012rz}
\citation{Abelev:2012rz}
\citation{Chatrchyan:2013nza}
\citation{Chatrchyan:2013nza}
\citation{Chatrchyan:2013nza}
\@writefile{toc}{\contentsline {subsection}{\numberline {2.4}New observables}{32}{subsection.2.4}}
\newlabel{sec:pp:NewObs}{{2.4}{32}{New observables}{subsection.2.4}{}}
\@writefile{toc}{\contentsline {subsubsection}{\numberline {2.4.1}Production as a function of multiplicity}{32}{subsubsection.2.4.1}}
\newlabel{sec:pp:HadCorrelations}{{2.4.1}{32}{Production as a function of multiplicity}{subsubsection.2.4.1}{}}
\@writefile{lof}{\contentsline {figure}{\numberline {18}{\ignorespaces   \ensuremath  {\mathrm  {J}/\psi }\xspace  yield as a function of the charged-particle density at mid-rapidity in \ensuremath  {\rm  pp}\xspace  collisions at \ensuremath  {\sqrt  {s}}\xspace  = 7\ensuremath  {\text  {\nobreakspace  {}TeV}}\xspace  \nobreakspace  {}\cite  {Abelev:2012rz}. Both the yields at forward- ($\ensuremath  {\mathrm  {J}/\psi }\xspace  \to \ensuremath  {\mu ^+\mu ^-}\xspace  $, $2.5 < y < 4$) and at mid-rapidity ($\ensuremath  {\mathrm  {J}/\psi }\xspace  \to \ensuremath  {e^+e^-}\xspace  $, $|y| < $ 0.9) are shown. }}{32}{figure.18}}
\newlabel{fig:ALICE_JPsi_mult}{{18}{32}{\jpsi yield as a function of the charged-particle density at mid-rapidity in \pp collisions at \s = 7\TeV ~\cite {Abelev:2012rz}. Both the yields at forward- ($\jpsi \to \mumu $, $2.5 < y < 4$) and at mid-rapidity ($\jpsi \to \ee $, $|y| < $ 0.9) are shown}{figure.18}{}}
\citation{Adam:2015ota}
\citation{Ferreiro:2012fb,Ferreiro:2015gea}
\citation{Drescher:2000ha,Werner:2013tya}
\citation{Sjostrand:2007gs,Sjostrand:2006za}
\citation{Maciula:2012rs,Werner:2010ny,Ferreiro:2015gea}
\citation{Adam:2015ota}
\citation{Sjostrand:2007gs,Sjostrand:2006za}
\citation{Drescher:2000ha,Werner:2013tya}
\citation{Ferreiro:2012fb,Ferreiro:2015gea}
\citation{Adam:2015ota}
\citation{Sjostrand:2007gs,Sjostrand:2006za}
\citation{Drescher:2000ha,Werner:2013tya}
\citation{Ferreiro:2012fb,Ferreiro:2015gea}
\citation{Field:2002da}
\citation{Field:2002da}
\@writefile{lof}{\contentsline {figure}{\numberline {19}{\ignorespaces   Cross section ratio of $\ensuremath  {\Upsilon \text  {(2S)}}\xspace  /\ensuremath  {\Upsilon \text  {(1S)}}\xspace  $ and $\ensuremath  {\Upsilon \text  {(3S)}}\xspace  /\ensuremath  {\Upsilon \text  {(1S)}}\xspace  $ for $|y| < 1.93$ as a function of the transverse energy ($E_{\rm  T}$) measured in $4.0 < |\eta | < 5.2$ (left) and the number of charged tracks ($N_{\rm  tracks}$) measured in $|\eta |<2.4$ (right), in \ensuremath  {\rm  pp}\xspace  collisions at \ensuremath  {\sqrt  {s}}\xspace  = 2.76\ensuremath  {\text  {\nobreakspace  {}TeV}}\xspace  (open symbols) and {p--Pb}\xspace  collisions at \ensuremath  {\sqrt  {s_{\mathrm  {\scriptscriptstyle NN}}}}\xspace  =5.02\ensuremath  {\text  {\nobreakspace  {}TeV}}\xspace  \nobreakspace  {}(filled symbols)\nobreakspace  {}\cite  {Chatrchyan:2013nza}. }}{33}{figure.19}}
\newlabel{fig:CMS_ups_mult}{{19}{33}{Cross section ratio of $\upsb /\upsa $ and $\upsc /\upsa $ for $|y| < 1.93$ as a function of the transverse energy ($E_{\rm T}$) measured in $4.0 < |\eta | < 5.2$ (left) and the number of charged tracks ($N_{\rm tracks}$) measured in $|\eta |<2.4$ (right), in \pp collisions at \s = 2.76\TeV (open symbols) and \pPb collisions at \snn =5.02\TeV ~(filled symbols)~\cite {Chatrchyan:2013nza}}{figure.19}{}}
\citation{Reisert:2007zza}
\citation{Adare:2013xlp}
\citation{Aaij:2012dz,ATLAS:2011ac,Khachatryan:2011wq}
\citation{Aaij:2012dz,Khachatryan:2011wq}
\citation{Adare:2013xlp}
\citation{Brambilla:2010cs}
\citation{Khachatryan:2011wq}
\citation{Aggarwal:2010xp,Adare:2009ic,Adare:2010ud}
\citation{Abelev:2014hla}
\citation{Aggarwal:2010xp,Abelev:2014hla}
\citation{Aggarwal:2010xp}
\citation{Abelev:2014hla}
\citation{Aggarwal:2010xp}
\citation{Abelev:2014hla}
\citation{Aggarwal:2010xp}
\citation{Bjelogrlic:2014kia}
\citation{Abelev:2009qaa,Adamczyk:2012ey}
\@writefile{lof}{\contentsline {figure}{\numberline {20}{\ignorespaces   D-meson production (left) and non-prompt \ensuremath  {\mathrm  {J}/\psi }\xspace  (right) as a function of charged-particle multiplicity in \ensuremath  {\rm  pp}\xspace  collisions at \ensuremath  {\sqrt  {s}}\xspace  = 7\ensuremath  {\text  {\nobreakspace  {}TeV}}\xspace  \nobreakspace  {}\cite  {Adam:2015ota} compared to PYTHIA\nobreakspace  {}8 \nobreakspace  {}\cite  {Sjostrand:2007gs,Sjostrand:2006za}, EPOS\nobreakspace  {}3 \nobreakspace  {}\cite  {Drescher:2000ha,Werner:2013tya} and the percolation scenario \nobreakspace  {}\cite  {Ferreiro:2012fb, Ferreiro:2015gea}. }}{34}{figure.20}}
\newlabel{fig:ALICE_D_mult}{{20}{34}{D-meson production (left) and non-prompt \jpsi (right) as a function of charged-particle multiplicity in \pp collisions at \s = 7\TeV ~\cite {Adam:2015ota} compared to PYTHIA~8 ~\cite {Sjostrand:2007gs,Sjostrand:2006za}, EPOS~3 ~\cite {Drescher:2000ha,Werner:2013tya} and the percolation scenario ~\cite {Ferreiro:2012fb, Ferreiro:2015gea}}{figure.20}{}}
\@writefile{toc}{\contentsline {subsubsection}{\numberline {2.4.2}Associated production}{34}{subsubsection.2.4.2}}
\newlabel{sec:pp:AngleCorrelations}{{2.4.2}{34}{Associated production}{subsubsection.2.4.2}{}}
\newlabel{sec:pp:associated}{{2.4.2}{34}{Associated production}{subsubsection.2.4.2}{}}
\@writefile{lof}{\contentsline {figure}{\numberline {21}{\ignorespaces   Azimuthal correlation of B--$\overline  {\rm  B}$ mesons measured by CMS in different ranges of the leading jet \ensuremath  {p_{\mathrm  {T}}}\xspace  \ and compared to PYTHIA\nobreakspace  {}\cite  {Khachatryan:2011wq}. }}{35}{figure.21}}
\newlabel{HFcorrppLHC}{{21}{35}{Azimuthal correlation of B--$\overline {\rm B}$ mesons measured by CMS in different ranges of the leading jet \pt \ and compared to PYTHIA~\cite {Khachatryan:2011wq}}{figure.21}{}}
\newlabel{fig:pp:eHcorrppALICE}{{22(a)}{35}{Subfigure 22(a)}{subfigure.22.1}{}}
\newlabel{sub@fig:pp:eHcorrppALICE}{{(a)}{35}{Subfigure 22(a)\relax }{subfigure.22.1}{}}
\newlabel{fig:pp:eHcorrppSTAR}{{22(b)}{35}{Subfigure 22(b)}{subfigure.22.2}{}}
\newlabel{sub@fig:pp:eHcorrppSTAR}{{(b)}{35}{Subfigure 22(b)\relax }{subfigure.22.2}{}}
\@writefile{lof}{\contentsline {figure}{\numberline {22}{\ignorespaces   (a) : angular correlations between heavy-flavour decay electrons and charged hadrons measured by ALICE in \ensuremath  {\rm  pp}\xspace  collisions at $\ensuremath  {\sqrt  {s}}\xspace  = 2.76$\ensuremath  {\text  {\nobreakspace  {}TeV}}\xspace  , compared to PYTHIA\nobreakspace  {}\cite  {Abelev:2014hla}. (b) : Relative beauty contribution to the heavy-flavour electron yield measured by STAR in \ensuremath  {\rm  pp}\xspace  collisions at $\ensuremath  {\sqrt  {s}}\xspace  = 0.2$\ensuremath  {\text  {\nobreakspace  {}TeV}}\xspace  , compared to FONLL calculations\nobreakspace  {}\cite  {Aggarwal:2010xp}. }}{35}{figure.22}}
\newlabel{fig:pp:eHcorrpp}{{22}{35}{(a) : angular correlations between heavy-flavour decay electrons and charged hadrons measured by ALICE in \pp collisions at $\s = 2.76$\TeV , compared to PYTHIA~\cite {Abelev:2014hla}. (b) : Relative beauty contribution to the heavy-flavour electron yield measured by STAR in \pp collisions at $\s = 0.2$\TeV , compared to FONLL calculations~\cite {Aggarwal:2010xp}}{figure.22}{}}
\@writefile{lof}{\contentsline {subfigure}{\numberline{(a)}{\ignorespaces {}}}{35}{figure.22}}
\@writefile{lof}{\contentsline {subfigure}{\numberline{(b)}{\ignorespaces {}}}{35}{figure.22}}
\citation{Aaij:2011yc}
\citation{Abazov:2014qba}
\citation{Khachatryan:2014iia}
\citation{Aaij:2012dz}
\citation{Aaij:2014hea}
\citation{Abazov:2013hya}
\citation{Chatrchyan:2013uja}
\citation{Aad:2014rua}
\citation{Aad:2014kba}
\citation{Aaltonen:2008mt}
\citation{Abazov:2013uza}
\citation{Aad:2011jn}
\citation{Chatrchyan:2013zja}
\citation{Aaij:2014gta}
\citation{Aaltonen:2014rda}
\citation{Aad:2015sda}
\citation{Berezhnoy:1998aa}
\citation{Lansberg:2008gk}
\citation{Aaij:2012dz}
\citation{Aaij:2012dz}
\citation{Aaij:2011yc}
\citation{Kom:2011bd,Baranov:2011ch,Berezhnoy:2012xq,Baranov:2012re}
\citation{Kartvelishvili:1984ur,Humpert:1983yj,Vogt:1995tf,Li:2009ug,Qiao:2009kg,Ko:2010xy,Berezhnoy:2011xy,Li:2013csa,Lansberg:2013qka,Sun:2014gca}
\citation{Lansberg:2013qka,Lansberg:2014swa}
\@writefile{lof}{\contentsline {figure}{\numberline {23}{\ignorespaces Double charm cross sections}}{36}{figure.23}}
\newlabel{fig:pp:DoubleCharm}{{23}{36}{Double charm cross sections}{figure.23}{}}
\citation{Abazov:2014qba}
\citation{Khachatryan:2014iia}
\citation{Abazov:2014qba}
\citation{Kom:2011bd}
\citation{Lansberg:2013qka,Sun:2014gca,Lansberg:2014swa}
\citation{Khachatryan:2014iia}
\citation{Lansberg:2014swa}
\citation{Sun:2014gca}
\citation{Aad:2014rua,Aad:2014kba}
\citation{Aad:2014kba}
\citation{Gong:2012ah,Mao:2011kf}
\citation{Aad:2014kba}
\citation{Gong:2012ah,Mao:2011kf}
\citation{Strikman:2001gz,d'Enterria:2013ck}
\@writefile{lof}{\contentsline {figure}{\numberline {24}{\ignorespaces Double charm cross sections}}{37}{figure.24}}
\newlabel{fig:pp:AtlasZJpsi}{{24}{37}{Double charm cross sections}{figure.24}{}}
\@writefile{toc}{\contentsline {subsection}{\numberline {2.5}Summary and outlook}{38}{subsection.2.5}}
\newlabel{sec:pp:Summary}{{2.5}{38}{Summary and outlook}{subsection.2.5}{}}
\@setckpt{pp_Merged}{
\setcounter{page}{39}
\setcounter{equation}{12}
\setcounter{enumi}{9}
\setcounter{enumii}{0}
\setcounter{enumiii}{0}
\setcounter{enumiv}{0}
\setcounter{footnote}{16}
\setcounter{mpfootnote}{0}
\setcounter{part}{0}
\setcounter{section}{2}
\setcounter{subsection}{5}
\setcounter{subsubsection}{0}
\setcounter{paragraph}{0}
\setcounter{subparagraph}{0}
\setcounter{figure}{24}
\setcounter{table}{5}
\setcounter{tnote}{0}
\setcounter{fnote}{1}
\setcounter{cnote}{1}
\setcounter{ead}{1}
\setcounter{author}{0}
\setcounter{affn}{42}
\setcounter{NAT@ctr}{0}
\setcounter{parentequation}{0}
\setcounter{Item}{13}
\setcounter{Hfootnote}{15}
\setcounter{bookmark@seq@number}{17}
\setcounter{r@tfl@t}{0}
\setcounter{subfigure}{0}
\setcounter{lofdepth}{1}
\setcounter{subtable}{0}
\setcounter{lotdepth}{1}
\setcounter{linenumber}{1}
\setcounter{LN@truepage}{38}
\setcounter{section@level}{2}
}
