\relax 
\providecommand\hyper@newdestlabel[2]{}
\citation{Matsui:1986dk}
\citation{Digal:2001ue}
\citation{Thews:2000rj}
\citation{BraunMunzinger:2000px,Stachel:2013zma}
\citation{Aamodt:2010cz}
\citation{Afanasiev:2012dg,Chatrchyan:2012vq,Chatrchyan:2012nt,Aad:2012ew,Chatrchyan:2014csa}
\citation{Adare:2010de,Adamczyk:2014uip}
\@writefile{toc}{\contentsline {section}{\numberline {5}Quarkonia in nucleus--nucleus collisions}{108}{section.5}}
\newlabel{sec:quarkonia}{{5}{108}{Quarkonia in nucleus--nucleus collisions}{section.5}{}}
\newlabel{sec:intro_quarkonia}{{5}{108}{Quarkonia in nucleus--nucleus collisions}{section.5}{}}
\citation{Zhao:2007hh,Zhao:2008pp}
\citation{Brambilla:2010cs}
\citation{Abreu:1998wx}
\citation{Abreu:1997ji,Abreu:1997jh,Abreu:1999qw,Abreu:2000ni,Abreu:2000xe,Abreu:2001kd,Alessandro:2004ap}
\citation{Abreu:2000xe,Alessandro:2006ju}
\citation{Arnaldi:2007zz,Arnaldi:2009ph}
\citation{Arnaldi:2009ph}
\citation{Adler:2003rc,Adare:2006ns,Adare:2011yf}
\citation{Silvestre:2008tw}
\citation{Atomssa:2009ek}
\citation{Adare:2008sh}
\citation{Adare:2014nsa}
\citation{daSilva:2014ria}
\citation{Adare:2012wf}
\citation{Adare:2014hje}
\citation{Adamczyk:2012ey,Adamczyk:2013tvk}
\citation{Adamczyk:2012pw}
\citation{Abelev:2009qaa,Adamczyk:2013tvk}
\citation{Zha:2014nia}
\citation{Adamczyk:2013poh}
\citation{Zha:2014nia}
\@writefile{lot}{\contentsline {table}{\numberline {12}{\ignorespaces Quarkonium results obtained in {AA}\xspace  at SPS. The nucleon-nucleon energy in the centre-of-mass frame (\ensuremath  {\sqrt  {s_{\mathrm  {\scriptscriptstyle NN}}}}\xspace  ), the covered kinematic range, the probes and observables are reported.}}{109}{table.12}}
\newlabel{tab:expSummary_SPS}{{12}{109}{Quarkonium results obtained in \AAcoll at SPS. The nucleon-nucleon energy in the centre-of-mass frame (\snn ), the covered kinematic range, the probes and observables are reported}{table.12}{}}
\@writefile{lof}{\contentsline {figure}{\numberline {75}{\ignorespaces Left: \ensuremath  {p_{\mathrm  {T}}}\xspace  -$y$ acceptance coverage of the ALICE (red) and CMS (blue) experiments for \ensuremath  {\mathrm  {J}/\psi }\xspace  . Right: \ensuremath  {p_{\mathrm  {T}}}\xspace  -$y$ acceptance coverage of the ALICE and CMS experiments for \ensuremath  {\Upsilon \text  {(nS)}}\xspace  . Filled areas correspond the the ranges investigated in recent ALICE and CMS quarkonium publications. The hashed areas correspond to the acceptance range which can potentially be covered by the experiments. In fact, while the high-\ensuremath  {p_{\mathrm  {T}}}\xspace  reach in ALICE is limited by statistics, the low-\ensuremath  {p_{\mathrm  {T}}}\xspace  \ensuremath  {\mathrm  {J}/\psi }\xspace  coverage by CMS is limited by the muon identification capabilities, affected by the large background in {Pb--Pb}\xspace  collisions.}}{110}{figure.75}}
\newlabel{fig:Acceptance}{{75}{110}{Left: \pt -$y$ acceptance coverage of the ALICE (red) and CMS (blue) experiments for \jpsi . Right: \pt -$y$ acceptance coverage of the ALICE and CMS experiments for \upsn . Filled areas correspond the the ranges investigated in recent ALICE and CMS quarkonium publications. The hashed areas correspond to the acceptance range which can potentially be covered by the experiments. In fact, while the high-\pt reach in ALICE is limited by statistics, the low-\pt \jpsi coverage by CMS is limited by the muon identification capabilities, affected by the large background in \PbPb collisions}{figure.75}{}}
\@writefile{lot}{\contentsline {table}{\numberline {13}{\ignorespaces Quarkonium results obtained in {AA}\xspace  from RHIC experiments. The experiment, the probes, the collision energy (\ensuremath  {\sqrt  {s_{\mathrm  {\scriptscriptstyle NN}}}}\xspace  ), the covered kinematic range and the observables are indicated.}}{110}{table.13}}
\newlabel{tab:expSummary_RHIC}{{13}{110}{Quarkonium results obtained in \AAcoll from RHIC experiments. The experiment, the probes, the collision energy (\snn ), the covered kinematic range and the observables are indicated}{table.13}{}}
\citation{Abelev:2013ila,Adam:2015rba}
\citation{Abelev:2012rv,Abelev:2013ila}
\citation{ALICE:2013xna}
\citation{Arnaldi:2012bg}
\citation{Abelev:2014nua}
\citation{Aad:2010aa}
\citation{Chatrchyan:2012np}
\citation{CMS:2013dla}
\citation{Chatrchyan:2012np}
\citation{Khachatryan:2014bva}
\citation{Chatrchyan:2012np}
\citation{Chatrchyan:2011pe,Chatrchyan:2012lxa}
\citation{Chatrchyan:2013nza}
\@writefile{lot}{\contentsline {table}{\numberline {14}{\ignorespaces Quarkonium results obtained in {AA}\xspace  from LHC experiments. The experiment, the probes, the collision energy (\ensuremath  {\sqrt  {s_{\mathrm  {\scriptscriptstyle NN}}}}\xspace  ), the covered kinematic range and the observables are indicated.}}{111}{table.14}}
\newlabel{tab:expSummary_LHC}{{14}{111}{Quarkonium results obtained in \AAcoll from LHC experiments. The experiment, the probes, the collision energy (\snn ), the covered kinematic range and the observables are indicated}{table.14}{}}
\citation{Satz:2005hx}
\citation{Satz:2005hx}
\citation{Brambilla:2010vq}
\citation{Brambilla:2010cs}
\citation{Brambilla:2004wf,Brambilla:2004jw,Brambilla:2010cs,Brambilla:2014jmp}
\citation{Asakawa:2000tr}
\citation{Rothkopf:2011ef,Burnier:2013nla}
\citation{Kim:2014iga}
\@writefile{toc}{\contentsline {subsection}{\numberline {5.1}Theory overview}{112}{subsection.5.1}}
\@writefile{toc}{\contentsline {subsubsection}{\numberline {5.1.1}Sequential suppression and lattice QCD}{112}{subsubsection.5.1.1}}
\newlabel{sec:seq-supp}{{5.1.1}{112}{Sequential suppression and lattice QCD}{subsubsection.5.1.1}{}}
\@writefile{lot}{\contentsline {table}{\numberline {15}{\ignorespaces Mass, binding energy, and radius for charmonia and bottomonia\nobreakspace  {}\cite  {Satz:2005hx}.}}{112}{table.15}}
\newlabel{tab:resonances}{{15}{112}{Mass, binding energy, and radius for charmonia and bottomonia~\cite {Satz:2005hx}}{table.15}{}}
\citation{Aarts:2007pk,Kelly:2013cpa}
\citation{Antoniazzi:1992af,Antoniazzi:1992iv,Lemoigne:1982jc}
\citation{Abe:1995an,Affolder:1999wm,Aaij:2012se,Aad:2011ih,Aaij:2014caa}
\citation{Karsch:2005nk}
\citation{Aarts:2013kaa,Aarts:2011sm,Aarts:2010ek,Aarts:2014cda}
\citation{Karsch:2005nk}
\citation{Lourenco:2008sk,McGlinchey:2012bp}
\@writefile{lof}{\contentsline {figure}{\numberline {76}{\ignorespaces Sequential quarkonium suppression for \ensuremath  {\mathrm  {J}/\psi }\xspace  (left) and \ensuremath  {\Upsilon \text  {(1S)}}\xspace  (right) states\nobreakspace  {}\cite  {Karsch:2005nk}.}}{113}{figure.76}}
\newlabel{fig:seq}{{76}{113}{Sequential quarkonium suppression for \jpsi (left) and \upsa (right) states~\cite {Karsch:2005nk}}{figure.76}{}}
\@writefile{toc}{\contentsline {subsubsection}{\numberline {5.1.2}Effect of nuclear PDFs on quarkonium production in nucleus--nucleus collisions}{113}{subsubsection.5.1.2}}
\newlabel{sec:npdf_aa}{{5.1.2}{113}{Effect of nuclear PDFs on quarkonium production in nucleus--nucleus collisions}{subsubsection.5.1.2}{}}
\citation{Eskola:2009uj}
\citation{Vogt:2010aa}
\citation{Eskola:2009uj}
\citation{Vogt:2010aa}
\citation{Ferreiro:2008wc,Rakotozafindrabe:2011rw}
\citation{Ferreiro:2008wc,Rakotozafindrabe:2011rw}
\citation{Ferreiro:2008wc,Rakotozafindrabe:2011rw}
\citation{Ferreiro:2008wc,Rakotozafindrabe:2011rw}
\@writefile{lof}{\contentsline {figure}{\numberline {77}{\ignorespaces The nuclear modification factor $R_{\rm  AA}$ for \ensuremath  {\mathrm  {J}/\psi }\xspace  (upper) and \ensuremath  {\Upsilon }\xspace  (lower) production, calculated in the CEM model using the EPS09 modifications\nobreakspace  {}\cite  {Eskola:2009uj}, is shown for {Pb--Pb}\xspace  collisions at \ensuremath  {\sqrt  {s_{\mathrm  {\scriptscriptstyle NN}}}}\xspace  =2.76 \ensuremath  {\text  {\nobreakspace  {}TeV}}\xspace  . The results are presented as a function of rapidity (left) and \ensuremath  {p_{\mathrm  {T}}}\xspace  (right)\nobreakspace  {}\cite  {Vogt:2010aa}. The dashed red histogram shows the EPS09 NLO uncertainties. The blue curves show the LO modification and the corresponding uncertainty band as a function of rapidity only. }}{114}{figure.77}}
\newlabel{fig:JpsiUpsypt}{{77}{114}{The nuclear modification factor $R_{\rm AA}$ for \jpsi (upper) and \ups (lower) production, calculated in the CEM model using the EPS09 modifications~\cite {Eskola:2009uj}, is shown for \PbPb collisions at \snn =2.76 \TeV . The results are presented as a function of rapidity (left) and \pt (right)~\cite {Vogt:2010aa}. The dashed red histogram shows the EPS09 NLO uncertainties. The blue curves show the LO modification and the corresponding uncertainty band as a function of rapidity only}{figure.77}{}}
\citation{Nelson:2012bc}
\citation{Nelson_inprog}
\citation{Eskola:2009uj}
\@writefile{lof}{\contentsline {figure}{\numberline {78}{\ignorespaces \ensuremath  {\mathrm  {J}/\psi }\xspace  rapidity (left) and \ensuremath  {p_{\mathrm  {T}}}\xspace  dependence (right) of the EKS98 LO and nDSg LO shadowing corrections performed using the CSM model according to\nobreakspace  {}\cite  {Ferreiro:2008wc,Rakotozafindrabe:2011rw} in {Pb--Pb}\xspace  collisions at \ensuremath  {\sqrt  {s_{\mathrm  {\scriptscriptstyle NN}}}}\xspace  = 2.76\ensuremath  {\text  {\nobreakspace  {}TeV}}\xspace  . The bands for the EKS98/nDSg models shown in the figure correspond to the variation of the factorisation scale.}}{115}{figure.78}}
\newlabel{fig1and2ferreiro}{{78}{115}{\jpsi rapidity (left) and \pt dependence (right) of the EKS98 LO and nDSg LO shadowing corrections performed using the CSM model according to~\cite {Ferreiro:2008wc,Rakotozafindrabe:2011rw} in \pb collisions at \snn = 2.76\TeV . The bands for the EKS98/nDSg models shown in the figure correspond to the variation of the factorisation scale}{figure.78}{}}
\@writefile{lof}{\contentsline {figure}{\numberline {79}{\ignorespaces  \ensuremath  {\mathrm  {J}/\psi }\xspace  centrality dependence of the EKS98 LO and nDSg LO shadowing corrections performed using the CSM model according to\nobreakspace  {}\cite  {Ferreiro:2008wc,Rakotozafindrabe:2011rw} in {Pb--Pb}\xspace  collisions at \ensuremath  {\sqrt  {s_{\mathrm  {\scriptscriptstyle NN}}}}\xspace  = 2.76\ensuremath  {\text  {\nobreakspace  {}TeV}}\xspace  . The bands for the EKS98/nDSg models shown in the figure correspond to the uncertainty in the factorisation scale.}}{115}{figure.79}}
\newlabel{fig3ferreiro}{{79}{115}{\jpsi centrality dependence of the EKS98 LO and nDSg LO shadowing corrections performed using the CSM model according to~\cite {Ferreiro:2008wc,Rakotozafindrabe:2011rw} in \pb collisions at \snn = 2.76\TeV . The bands for the EKS98/nDSg models shown in the figure correspond to the uncertainty in the factorisation scale}{figure.79}{}}
\newlabel{sigtilAA}{{55}{115}{Effect of nuclear PDFs on quarkonium production in nucleus--nucleus collisions}{equation.5.55}{}}
\citation{Eskola:2009uj}
\citation{Vogt:2010aa}
\citation{Eskola:2009uj}
\citation{deFlorian:2003qf}
\citation{RVinprog}
\citation{RVinprog}
\citation{Ferreiro:2008wc}
\citation{Eskola:1998df}
\citation{deFlorian:2003qf}
\citation{Eskola:2009uj}
\citation{Ferreiro:2008qj}
\citation{Klein:2003dj,Vogt:2004dh}
\citation{Stachel:2013zma,Andronic:2008gu}
\@writefile{toc}{\contentsline {subsubsection}{\numberline {5.1.3}Statistical (re)generation models}{116}{subsubsection.5.1.3}}
\newlabel{sec:regeneration}{{5.1.3}{116}{Statistical (re)generation models}{subsubsection.5.1.3}{}}
\citation{Matsui:1986dk}
\citation{BraunMunzinger:2000dv}
\citation{BraunMunzinger:2000px,BraunMunzinger:2000ep,BraunMunzinger:2009ih}
\citation{BraunMunzinger:2000px,BraunMunzinger:2000ep,BraunMunzinger:2009ih}
\citation{Andronic:2003zv}
\citation{Andronic:2006ky,Andronic:2007bi}
\citation{Andronic:2006ky,Andronic:2007bi}
\citation{Andronic:2008gm}
\citation{Andronic:2008gm}
\citation{Andronic:2006ky,Andronic:2007bi}
\citation{Grandchamp:2003uw,Grandchamp:2005yw,Rapp:2009my}
\citation{Grandchamp:2001pf}
\citation{Bhanot:1979vb}
\citation{Grandchamp:2001pf}
\citation{Brambilla:2013dpa}
\citation{Grandchamp:2002wp,Grandchamp:2003uw}
\citation{Song:2012at}
\citation{Hamieh:2000tk}
\@writefile{toc}{\contentsline {subsubsection}{\numberline {5.1.4}Transport approach for in-medium quarkonia}{118}{subsubsection.5.1.4}}
\newlabel{sec:transport}{{5.1.4}{118}{Transport approach for in-medium quarkonia}{subsubsection.5.1.4}{}}
\newlabel{eq:boltz}{{56}{118}{Transport approach for in-medium quarkonia}{equation.5.56}{}}
\newlabel{eq:rate}{{57}{118}{Transport approach for in-medium quarkonia}{equation.5.57}{}}
\newlabel{eq:Neq}{{58}{118}{Transport approach for in-medium quarkonia}{equation.5.58}{}}
\newlabel{eq:NQQ}{{60}{118}{Transport approach for in-medium quarkonia}{equation.5.60}{}}
\citation{Grandchamp:2003uw,Zhao:2010nk}
\citation{Zhao:2010nk}
\citation{Riek:2010fk}
\citation{Grandchamp:2002wp,Grandchamp:2003uw}
\citation{Zhao:2010nk}
\citation{Zhao:2010nk}
\citation{Zhao:2007hh}
\citation{Zhao:2010ti}
\citation{Schnedermann:1993ws}
\citation{Zhao:2008vu}
\citation{vanHees:2014ida}
\@writefile{lof}{\contentsline {figure}{\numberline {80}{\ignorespaces Transport coefficients of charmonia in the QGP. Left: inelastic reaction rates for J$/\psi $ and $\chi _c$ in strong- ($V$=$U$) and weak-binding ($V$=$F$) scenarios defined in the text. Right: \ensuremath  {\mathrm  {J}/\psi }\xspace  equilibrium numbers for conditions in central {Pb--Pb}\xspace  and {Au--Au}\xspace  at full SPS and RHIC energies, respectively, using different values of the in-medium $c$-quark mass in the QGP ($T\ge 180\ensuremath  {\text  {\nobreakspace  {}MeV}}\xspace  $) and for D-mesons in hadronic matter ($T\le 180\ensuremath  {\text  {\nobreakspace  {}MeV}}\xspace  $); in practice the equilibrium numbers are constructed as continuous across the transition region. }}{119}{figure.80}}
\newlabel{fig:trans}{{80}{119}{Transport coefficients of charmonia in the QGP. Left: inelastic reaction rates for J$/\psi $ and $\chi _c$ in strong- ($V$=$U$) and weak-binding ($V$=$F$) scenarios defined in the text. Right: \jpsi equilibrium numbers for conditions in central \PbPb and \AuAu at full SPS and RHIC energies, respectively, using different values of the in-medium $c$-quark mass in the QGP ($T\ge 180\MeV $) and for D-mesons in hadronic matter ($T\le 180\MeV $); in practice the equilibrium numbers are constructed as continuous across the transition region}{figure.80}{}}
\citation{Riek:2010fk}
\citation{Zhao:2011cv}
\citation{Emerick:2011xu}
\citation{Yan:2006ve,Liu:2009nb}
\citation{Zhou:2009vz,Zhou:2014kka}
\@writefile{lof}{\contentsline {figure}{\numberline {81}{\ignorespaces Temperature dependence of J$/\psi $ binding energy (left panel) and charm-quark mass (right panel) in the QGP in the strong- and weak-binding scenarios (solid ($V$=$U$) and dashed lines ($V$=$F$), respectively) as implemented into the rate equation approach\nobreakspace  {}\cite  {Zhao:2010nk}.}}{120}{figure.81}}
\newlabel{fig:med}{{81}{120}{Temperature dependence of J$/\psi $ binding energy (left panel) and charm-quark mass (right panel) in the QGP in the strong- and weak-binding scenarios (solid ($V$=$U$) and dashed lines ($V$=$F$), respectively) as implemented into the rate equation approach~\cite {Zhao:2010nk}}{figure.81}{}}
\citation{Attems:2012js,Berges:2012iw,Heller:2012je,vanderSchee:2013pia}
\citation{Florkowski:2010cf,Martinez:2010sc,Martinez:2012tu,Bazow:2013ifa}
\citation{Dumitru:2007hy,Dumitru:2009ni,Burnier:2009yu,Dumitru:2009fy,Margotta:2011ta}
\citation{Margotta:2011ta}
\citation{Strickland:2011mw,Strickland:2011aa,Strickland:2012as}
\citation{Strickland:2011aa,Schenke:2011tv}
\citation{Abe:1995an,Affolder:1999wm}
\citation{Aaij:2014caa}
\@writefile{lof}{\contentsline {figure}{\numberline {82}{\ignorespaces Elliptic flow \ensuremath  {v_{2}}\xspace  for prompt \ensuremath  {\mathrm  {J}/\psi }\xspace  in {Pb--Pb}\xspace  collisions at \ensuremath  {\sqrt  {s_{\mathrm  {\scriptscriptstyle NN}}}}\xspace  = 2.76\ensuremath  {\text  {\nobreakspace  {}TeV}}\xspace  as predicted by the THU model. The calculation is with impact parameter b = 8.4\tmspace  +\thinmuskip {.1667em}fm, corresponding to the 0--100\% centrality range. The dot-dashed, dashed and solid lines represent the initial, regeneration, and total contributions, respectively.}}{121}{figure.82}}
\newlabel{fig:zhuang4}{{82}{121}{Elliptic flow \vtwo for prompt \jpsi in \PbPb collisions at \snn = 2.76\TeV as predicted by the THU model. The calculation is with impact parameter b = 8.4\,fm, corresponding to the 0--100\% centrality range. The dot-dashed, dashed and solid lines represent the initial, regeneration, and total contributions, respectively}{figure.82}{}}
\@writefile{toc}{\contentsline {subsubsection}{\numberline {5.1.5}Non-equilibrium effects on quarkonium suppression}{121}{subsubsection.5.1.5}}
\newlabel{sec:non-equilib}{{5.1.5}{121}{Non-equilibrium effects on quarkonium suppression}{subsubsection.5.1.5}{}}
\citation{Sharma:2012dy}
\citation{Capella:2000zp,Capella:2007jv,Ferreiro:2012rq}
\@writefile{toc}{\contentsline {subsubsection}{\numberline {5.1.6}Collisional dissociation of quarkonia from final-state interactions}{122}{subsubsection.5.1.6}}
\newlabel{sec:finalstate_diss}{{5.1.6}{122}{Collisional dissociation of quarkonia from final-state interactions}{subsubsection.5.1.6}{}}
\@writefile{toc}{\contentsline {subsubsection}{\numberline {5.1.7}Comover models}{122}{subsubsection.5.1.7}}
\newlabel{sec:comovers}{{5.1.7}{122}{Comover models}{subsubsection.5.1.7}{}}
\newlabel{eq:recorateeq}{{61}{122}{Comover models}{equation.5.61}{}}
\newlabel{eq:fullsupp}{{62}{122}{Comover models}{equation.5.62}{}}
\@writefile{toc}{\contentsline {subsubsection}{\numberline {5.1.8}Summary of theoretical models for experimental comparison}{123}{subsubsection.5.1.8}}
\newlabel{sec:summ_theo}{{5.1.8}{123}{Summary of theoretical models for experimental comparison}{subsubsection.5.1.8}{}}
\citation{Abelev:2012kr}
\citation{Adare:2006kf}
\citation{Acosta:2004yw}
\citation{Abelev:2012kr}
\citation{Aamodt:2011gj}
\citation{Chatrchyan:2012np}
\citation{Abelev:2014nua}
\citation{Aaij:2014nwa}
\citation{Chatrchyan:2012np}
\citation{Adare:2011yf}
\citation{Adamczyk:2013tvk}
\citation{Abelev:2013ila,Abelev:2012rv}
\@writefile{lot}{\contentsline {table}{\numberline {16}{\ignorespaces Overview of the \ensuremath  {\rm  pp}\xspace  datasets and approaches adopted for the evaluation of the $\sigma _{\rm  pp}$ production cross section for the quarkonium states under study.}}{124}{table.16}}
\newlabel{tab:ppref_summary}{{16}{124}{Overview of the \pp datasets and approaches adopted for the evaluation of the $\sigma _{\rm pp}$ production cross section for the quarkonium states under study}{table.16}{}}
\@writefile{toc}{\contentsline {subsection}{\numberline {5.2}Experimental overview of quarkonium results at RHIC and LHC}{124}{subsection.5.2}}
\newlabel{LHC_exp}{{5.2}{124}{Experimental overview of quarkonium results at RHIC and LHC}{subsection.5.2}{}}
\@writefile{toc}{\contentsline {subsubsection}{\numberline {5.2.1}Proton--proton collisions as a reference for \ensuremath  {R_{\mathrm  {AA}}}\xspace  at the LHC}{124}{subsubsection.5.2.1}}
\newlabel{sec:pp_ref}{{5.2.1}{124}{Proton--proton collisions as a reference for \raa at the LHC}{subsubsection.5.2.1}{}}
\@writefile{toc}{\contentsline {subsubsection}{\numberline {5.2.2}$\rm  J/\psi $ \ensuremath  {R_{\mathrm  {AA}}}\xspace  results at low \ensuremath  {p_{\mathrm  {T}}}\xspace  }{124}{subsubsection.5.2.2}}
\newlabel{sec:raa_lowpt}{{5.2.2}{124}{\texorpdfstring {$\rm J/\psi $}{J/psi} \raa results at low \pt }{subsubsection.5.2.2}{}}
\citation{Abelev:2013ila,Abelev:2012rv}
\citation{Adare:2011yf}
\citation{Abelev:2013ila,Abelev:2012rv}
\citation{Adare:2011yf}
\citation{Zhao:2011cv,Liu:2009nb,Ferreiro:2012rq}
\citation{Abelev:2013ila}
\citation{Adare:2011yf}
\citation{Andronic:2011yq}
\citation{Andronic:2011yq}
\citation{Adare:2011yf}
\@writefile{lof}{\contentsline {figure}{\numberline {83}{\ignorespaces ALICE\nobreakspace  {}\cite  {Abelev:2013ila,Abelev:2012rv} (closed symbols) and PHENIX\nobreakspace  {}\cite  {Adare:2011yf} (open symbols) inclusive \ensuremath  {\mathrm  {J}/\psi }\xspace  nuclear modification factor versus the number of participant nucleons, at forward rapidity (left) and at mid-rapidity (right).}}{125}{figure.83}}
\newlabel{fig:Alice_Phenix_Centr}{{83}{125}{ALICE~\cite {Abelev:2013ila,Abelev:2012rv} (closed symbols) and PHENIX~\cite {Adare:2011yf} (open symbols) inclusive \jpsi nuclear modification factor versus the number of participant nucleons, at forward rapidity (left) and at mid-rapidity (right)}{figure.83}{}}
\@writefile{lof}{\contentsline {figure}{\numberline {84}{\ignorespaces Comparison of the ALICE \ensuremath  {\mathrm  {J}/\psi }\xspace  \ensuremath  {R_{\mathrm  {AA}}}\xspace  at forward rapidity (left) and mid-rapidity (right) with the theory predictions based on the TAMU (X. Zhao et al.) and THU (Y.P. Liu et al.) transport models discussed in Section\nobreakspace  {}\ref  {sec:transport}. Bands correspond to the uncertainty associated to the model, i.e. to the variation of the charm cross section for the THU model and a variation of the shadowing amount for the TAMU approach. Predictions from the statistical model discussed in Section\nobreakspace  {}\ref  {sec:regeneration} (A. Andronic et al.) are also shown. The two curves correspond, in this case, to two assumptions on the values of the $d\sigma _{c\mathaccentV {bar}016{c}}/dy$ cross sections. Calculations based on the comover model (E. Ferreiro), presented in Section\nobreakspace  {}\ref  {sec:comovers}, are included in the plot. The lower and upper curves correspond to variations of the charm cross section.}}{125}{figure.84}}
\newlabel{fig:RAA_models_NPart}{{84}{125}{Comparison of the ALICE \jpsi \raa at forward rapidity (left) and mid-rapidity (right) with the theory predictions based on the TAMU (X. Zhao et al.) and THU (Y.P. Liu et al.) transport models discussed in \sect {sec:transport}. Bands correspond to the uncertainty associated to the model, i.e. to the variation of the charm cross section for the THU model and a variation of the shadowing amount for the TAMU approach. Predictions from the statistical model discussed in \sect {sec:regeneration} (A. Andronic et al.) are also shown. The two curves correspond, in this case, to two assumptions on the values of the $d\sigma _{c\bar {c}}/dy$ cross sections. Calculations based on the comover model (E. Ferreiro), presented in \sect {sec:comovers}, are included in the plot. The lower and upper curves correspond to variations of the charm cross section}{figure.84}{}}
\citation{Adam:2015rba}
\citation{Abelev:2013ila}
\citation{Adare:2011yf}
\citation{Adam:2015rba}
\citation{Adare:2011yf}
\citation{Abelev:2013ila}
\citation{Adare:2011yf}
\citation{Adam:2015rba}
\citation{Adare:2011yf}
\citation{Zhao:2011cv,Liu:2009nb}
\citation{Abelev:2013ila}
\citation{Abelev:2013ila}
\citation{Abelev:2013ila}
\citation{Book:2014mia}
\citation{Abelev:2013ila}
\@writefile{lof}{\contentsline {figure}{\numberline {85}{\ignorespaces \ensuremath  {\mathrm  {J}/\psi }\xspace  \ensuremath  {R_{\mathrm  {AA}}}\xspace  from ALICE\nobreakspace  {}\cite  {Abelev:2013ila} and PHENIX\nobreakspace  {}\cite  {Adare:2011yf} compared to predictions from the statistical hadronisation model\nobreakspace  {}\cite  {Andronic:2011yq}.}}{126}{figure.85}}
\newlabel{fig:stat_mod_charm}{{85}{126}{\jpsi \raa from ALICE~\cite {Abelev:2013ila} and PHENIX~\cite {Adare:2011yf} compared to predictions from the statistical hadronisation model~\cite {Andronic:2011yq}}{figure.85}{}}
\citation{Chatrchyan:2012np}
\citation{Adamczyk:2012ey}
\citation{Chatrchyan:2012np}
\citation{Adamczyk:2012ey}
\citation{Chatrchyan:2012np}
\citation{Chatrchyan:2012np}
\citation{Chatrchyan:2012np}
\citation{CMS:2012wba}
\@writefile{lof}{\contentsline {figure}{\numberline {86}{\ignorespaces ALICE inclusive \ensuremath  {\mathrm  {J}/\psi }\xspace  \ensuremath  {R_{\mathrm  {AA}}}\xspace  versus \ensuremath  {p_{\mathrm  {T}}}\xspace  \nobreakspace  {}\cite  {Abelev:2013ila}. Left: forward rapidity result compared to the PHENIX result\nobreakspace  {}\cite  {Adare:2011yf} in a similar rapidity region. Both results are obtained in the 0-20\% most central collisions. Right: mid-rapidity result\nobreakspace  {}\cite  {Adam:2015rba} compared to the PHENIX result\nobreakspace  {}\cite  {Adare:2011yf}, both evaluated in the 0-40\% most central collisions}}{127}{figure.86}}
\newlabel{fig:ALICE_RAAvspT}{{86}{127}{ALICE inclusive \jpsi \raa versus \pt ~\cite {Abelev:2013ila}. Left: forward rapidity result compared to the PHENIX result~\cite {Adare:2011yf} in a similar rapidity region. Both results are obtained in the 0-20\% most central collisions. Right: mid-rapidity result~\cite {Adam:2015rba} compared to the PHENIX result~\cite {Adare:2011yf}, both evaluated in the 0-40\% most central collisions}{figure.86}{}}
\@writefile{lof}{\contentsline {figure}{\numberline {87}{\ignorespaces ALICE inclusive \ensuremath  {\mathrm  {J}/\psi }\xspace  \ensuremath  {R_{\mathrm  {AA}}}\xspace  , measured in the forward rapidity region, versus \ensuremath  {p_{\mathrm  {T}}}\xspace  \nobreakspace  {}\cite  {Abelev:2013ila}, compared to the TAMU (left) and THU (right) theoretical transport calculations including a (re)combination component to the \ensuremath  {\mathrm  {J}/\psi }\xspace  production.}}{127}{figure.87}}
\newlabel{fig:ALICE_RAAvspT_models}{{87}{127}{ALICE inclusive \jpsi \raa , measured in the forward rapidity region, versus \pt ~\cite {Abelev:2013ila}, compared to the TAMU (left) and THU (right) theoretical transport calculations including a (re)combination component to the \jpsi production}{figure.87}{}}
\@writefile{toc}{\contentsline {subsubsection}{\numberline {5.2.3}$\rm  J/\psi $ \ensuremath  {R_{\mathrm  {AA}}}\xspace  results at high \ensuremath  {p_{\mathrm  {T}}}\xspace  }{127}{subsubsection.5.2.3}}
\newlabel{sec:raa_hipt}{{5.2.3}{127}{\texorpdfstring {$\rm J/\psi $}{J/psi} \raa results at high \pt }{subsubsection.5.2.3}{}}
\citation{Adamczyk:2012ey}
\@writefile{lof}{\contentsline {figure}{\numberline {88}{\ignorespaces ALICE inclusive \ensuremath  {\mathrm  {J}/\psi }\xspace  \ensuremath  {R_{\mathrm  {AA}}}\xspace  versus rapidity\nobreakspace  {}\cite  {Abelev:2013ila}, compared to nPDF calculations (see Section\nobreakspace  {}\ref  {sec:npdf_aa}).}}{128}{figure.88}}
\newlabel{fig:ALICE_RAAvsy}{{88}{128}{ALICE inclusive \jpsi \raa versus rapidity~\cite {Abelev:2013ila}, compared to nPDF calculations (see \sect {sec:npdf_aa})}{figure.88}{}}
\@writefile{lof}{\contentsline {figure}{\numberline {89}{\ignorespaces \ensuremath  {\mathrm  {J}/\psi }\xspace  \ensuremath  {R_{\mathrm  {AA}}}\xspace  as function of centrality. Left: CMS high-\ensuremath  {p_{\mathrm  {T}}}\xspace  prompt \ensuremath  {\mathrm  {J}/\psi }\xspace  , $6.5<\ensuremath  {p_{\mathrm  {T}}}\xspace  <30\ensuremath  {\text  {\nobreakspace  {}GeV}/c}\xspace  $ and $|y|<2.4$ (squares)\nobreakspace  {}\cite  {Chatrchyan:2012np}, and STAR inclusive \ensuremath  {\mathrm  {J}/\psi }\xspace  with $\ensuremath  {p_{\mathrm  {T}}}\xspace  >5\ensuremath  {\text  {\nobreakspace  {}GeV}/c}\xspace  $ measured in $|y|<1$ (open stars)\nobreakspace  {}\cite  {Adamczyk:2012ey}; Right: CMS high-\ensuremath  {p_{\mathrm  {T}}}\xspace  prompt \ensuremath  {\mathrm  {J}/\psi }\xspace  compared to the TAMU transport model calculation discussed in Section\nobreakspace  {}\ref  {sec:transport}.}}{128}{figure.89}}
\newlabel{fig:CMS_JPsi_Raa}{{89}{128}{\jpsi \raa as function of centrality. Left: CMS high-\pt prompt \jpsi , $6.5<\pt <30\GeVc $ and $|y|<2.4$ (squares)~\cite {Chatrchyan:2012np}, and STAR inclusive \jpsi with $\pt >5\GeVc $ measured in $|y|<1$ (open stars)~\cite {Adamczyk:2012ey}; Right: CMS high-\pt prompt \jpsi compared to the TAMU transport model calculation discussed in \sect {sec:transport}}{figure.89}{}}
\citation{ALICE:2013xna}
\citation{ALICE:2013xna}
\citation{Zhao:2012gc}
\citation{Liu:2009gx}
\citation{Adamczyk:2012pw}
\citation{ALICE:2013xna}
\citation{Zhao:2012gc}
\citation{Liu:2009gx}
\citation{Adamczyk:2012pw}
\@writefile{lof}{\contentsline {figure}{\numberline {90}{\ignorespaces CMS prompt \ensuremath  {\mathrm  {J}/\psi }\xspace  \ensuremath  {R_{\mathrm  {AA}}}\xspace  as function of centrality\nobreakspace  {}\cite  {Chatrchyan:2012np}, compared to the nPDF calculations discussed in Section\nobreakspace  {}\ref  {sec:npdf_aa} (left) and to the collisional dissociation model described in Section\nobreakspace  {}\ref  {sec:finalstate_diss} (right).}}{129}{figure.90}}
\newlabel{fig:CMS_jpsi_Raa_shad}{{90}{129}{CMS prompt \jpsi \raa as function of centrality~\cite {Chatrchyan:2012np}, compared to the nPDF calculations discussed in \sect {sec:npdf_aa} (left) and to the collisional dissociation model described in \sect {sec:finalstate_diss} (right)}{figure.90}{}}
\@writefile{toc}{\contentsline {subsubsection}{\numberline {5.2.4}$\rm  J/\psi $ azimuthal anisotropy}{129}{subsubsection.5.2.4}}
\newlabel{sec:jpsi_flow}{{5.2.4}{129}{\texorpdfstring {$\rm J/\psi $}{J/psi} azimuthal anisotropy}{subsubsection.5.2.4}{}}
\citation{Adamczyk:2012pw}
\citation{CMS:2013dla}
\citation{Chatrchyan:2012xq}
\citation{Adare:2014nsa}
\citation{Adare:2014nsa}
\citation{Adare:2012wf}
\citation{Adare:2014nsa}
\citation{Adare:2012wf}
\citation{Adare:2012wf}
\citation{Zha:2014nia}
\citation{Grandchamp:2002wp}
\@writefile{lof}{\contentsline {figure}{\numberline {91}{\ignorespaces Left: ALICE inclusive \ensuremath  {\mathrm  {J}/\psi }\xspace  measurement as a function of transverse momentum for semi-central \unhbox \voidb@x \hbox {Pb-Pb} collisions\nobreakspace  {}\cite  {ALICE:2013xna}, compared to TAMU\nobreakspace  {}\cite  {Zhao:2012gc} and THU\nobreakspace  {}\cite  {Liu:2009gx} transport models calculations. Right: STAR inclusive \ensuremath  {\mathrm  {J}/\psi }\xspace  measurement as a function of transverse momentum in different centrality bins\nobreakspace  {}\cite  {Adamczyk:2012pw}.}}{130}{figure.91}}
\newlabel{fig:jpsi_v2}{{91}{130}{Left: ALICE inclusive \jpsi measurement as a function of transverse momentum for semi-central \mbox {Pb-Pb} collisions~\cite {ALICE:2013xna}, compared to TAMU~\cite {Zhao:2012gc} and THU~\cite {Liu:2009gx} transport models calculations. Right: STAR inclusive \jpsi measurement as a function of transverse momentum in different centrality bins~\cite {Adamczyk:2012pw}}{figure.91}{}}
\@writefile{toc}{\contentsline {subsubsection}{\numberline {5.2.5}$\rm  J/\psi $ \ensuremath  {R_{\mathrm  {AA}}}\xspace  results for various colliding systems and beam energies at RHIC}{130}{subsubsection.5.2.5}}
\newlabel{sec:rhic_exp}{{5.2.5}{130}{\texorpdfstring {$\rm J/\psi $}{J/psi} \raa results for various colliding systems and beam energies at RHIC}{subsubsection.5.2.5}{}}
\citation{Alessandro:2006ju}
\citation{Khachatryan:2014bva}
\citation{Arnaldi:2012bg}
\citation{Khachatryan:2014bva}
\citation{Khachatryan:2014bva}
\citation{Du:2015wha}
\citation{Arnaldi:2012bg}
\@writefile{lof}{\contentsline {figure}{\numberline {92}{\ignorespaces Left: PHENIX \ensuremath  {\mathrm  {J}/\psi }\xspace  \ensuremath  {R_{\mathrm  {AA}}}\xspace  measured in {Cu--Au}\xspace  \nobreakspace  {}\cite  {Adare:2014nsa} and {Au--Au}\xspace  collisions, shown as a function of the collision centrality. Right: PHENIX \ensuremath  {\mathrm  {J}/\psi }\xspace  \ensuremath  {R_{\mathrm  {AA}}}\xspace  at various collision energies (\ensuremath  {\sqrt  {s_{\mathrm  {\scriptscriptstyle NN}}}}\xspace  = 39, 62.4 and 200 \ensuremath  {\text  {\nobreakspace  {}GeV}}\xspace  )\nobreakspace  {}\cite  {Adare:2012wf}.}}{131}{figure.92}}
\newlabel{fig:PHENIX_scans}{{92}{131}{Left: PHENIX \jpsi \raa measured in \CuAu ~\cite {Adare:2014nsa} and \AuAu collisions, shown as a function of the collision centrality. Right: PHENIX \jpsi \raa at various collision energies (\snn = 39, 62.4 and 200 \GeV )~\cite {Adare:2012wf}}{figure.92}{}}
\@writefile{toc}{\contentsline {subsubsection}{\numberline {5.2.6}Excited charmonium states}{131}{subsubsection.5.2.6}}
\newlabel{sec:exc_charm}{{5.2.6}{131}{Excited charmonium states}{subsubsection.5.2.6}{}}
\citation{Affolder:1999wm,Aaij:2012se,Aad:2011ih,Aaij:2014caa}
\citation{Adare:2012bv,Adare:2014hje,Adamczyk:2013poh}
\@writefile{lof}{\contentsline {figure}{\numberline {93}{\ignorespaces Double ratio of measured yields, \ensuremath  {\left .(N_{\ensuremath  {\psi \text  {(2S)}}\xspace  }/N_{\ensuremath  {\mathrm  {J}/\psi }\xspace  })_{\mathrm  {Pb-Pb}}/(N_{\ensuremath  {\psi \text  {(2S)}}\xspace  }/N_{\ensuremath  {\mathrm  {J}/\psi }\xspace  })_{\mathrm  {pp}}\right .\xspace  }, as a function of centrality, for the mid-rapidity (blue squares) and forward rapidity (red circles, slightly shifted) analysis bins\nobreakspace  {}\cite  {Khachatryan:2014bva}. The centrality-integrated results are displayed in the right panel. Statistical (systematic) uncertainties are shown as bars (boxes). The boxes at unity indicate the (global) \ensuremath  {\rm  pp}\xspace  uncertainties.}}{132}{figure.93}}
\newlabel{fig:charm_cms_doubleratio}{{93}{132}{Double ratio of measured yields, \doubleRatioPsi , as a function of centrality, for the mid-rapidity (blue squares) and forward rapidity (red circles, slightly shifted) analysis bins~\cite {Khachatryan:2014bva}. The centrality-integrated results are displayed in the right panel. Statistical (systematic) uncertainties are shown as bars (boxes). The boxes at unity indicate the (global) \pp uncertainties}{figure.93}{}}
\@writefile{toc}{\contentsline {subsubsection}{\numberline {5.2.7}Bottomonium \ensuremath  {R_{\mathrm  {AA}}}\xspace  results}{132}{subsubsection.5.2.7}}
\newlabel{sec:bottomonium}{{5.2.7}{132}{Bottomonium \raa results}{subsubsection.5.2.7}{}}
\citation{Adare:2012bv,Adare:2014hje}
\citation{Adamczyk:2013poh}
\citation{Adare:2012bv,Adare:2014hje}
\citation{Adamczyk:2013poh}
\citation{Abelev:2014nua}
\citation{Chatrchyan:2011pe,Chatrchyan:2012lxa}
\citation{Abelev:2014nua}
\citation{Chatrchyan:2011pe,Chatrchyan:2012lxa}
\citation{Chatrchyan:2011pe,Chatrchyan:2012lxa}
\citation{Abelev:2014nua}
\citation{Chatrchyan:2011pe,Chatrchyan:2012lxa}
\citation{Abelev:2014nua}
\citation{Abelev:2014nua}
\citation{Chatrchyan:2011pe,Chatrchyan:2012lxa}
\citation{Abelev:2014nua}
\citation{Chatrchyan:2011pe,Chatrchyan:2012lxa}
\citation{Chatrchyan:2011pe,Chatrchyan:2012lxa}
\citation{Emerick:2011xu}
\citation{Chatrchyan:2013nza}
\citation{Andronic:2014sga}
\citation{Abelev:2014nua}
\citation{Chatrchyan:2012np}
\@writefile{lof}{\contentsline {figure}{\numberline {94}{\ignorespaces Left: \ensuremath  {R_{\mathrm  {AA}}}\xspace  of \ensuremath  {\Upsilon \text  {(1S+2S+3S)}}\xspace  as a function of centrality measured by PHENIX in $|y|<0.35$\nobreakspace  {}\cite  {Adare:2012bv,Adare:2014hje} and STAR in $|y|<0.5$\nobreakspace  {}\cite  {Adamczyk:2013poh} compared to TAMU (grey band) and aHYDRO (lines). Right: STAR measurement of the \ensuremath  {R_{\mathrm  {AA}}}\xspace  of \ensuremath  {\Upsilon \text  {(1S)}}\xspace  with $|y|<0.5$ as a function of centrality compared to the same models.}}{133}{figure.94}}
\newlabel{fig:RHIC_Ups}{{94}{133}{Left: \raa of \upsabc as a function of centrality measured by PHENIX in $|y|<0.35$~\cite {Adare:2012bv,Adare:2014hje} and STAR in $|y|<0.5$~\cite {Adamczyk:2013poh} compared to TAMU (grey band) and aHYDRO (lines). Right: STAR measurement of the \raa of \upsa with $|y|<0.5$ as a function of centrality compared to the same models}{figure.94}{}}
\citation{Strickland:2012cq}
\citation{Chatrchyan:2013nza}
\@writefile{lof}{\contentsline {figure}{\numberline {95}{\ignorespaces \ensuremath  {\Upsilon \text  {(nS)}}\xspace  \ensuremath  {R_{\mathrm  {AA}}}\xspace  as a function of centrality. \ensuremath  {\Upsilon \text  {(1S)}}\xspace  \ensuremath  {R_{\mathrm  {AA}}}\xspace  is measured in $2.5<|y|<4$ by ALICE\nobreakspace  {}\cite  {Abelev:2014nua}. CMS measured the centrality dependence of the \ensuremath  {\Upsilon \text  {(1S)}}\xspace  and \ensuremath  {\Upsilon \text  {(2S)}}\xspace  \ensuremath  {R_{\mathrm  {AA}}}\xspace  at $|y|<2.4$\nobreakspace  {}\cite  {Chatrchyan:2011pe,Chatrchyan:2012lxa}. Centrality integrated values are shown in the right panel, including an upper limit at 95\% confidence level of the \ensuremath  {\Upsilon \text  {(3S)}}\xspace  \ensuremath  {R_{\mathrm  {AA}}}\xspace  by CMS in $|y|<2.4$.}}{134}{figure.95}}
\newlabel{fig:CMS-ALICE_Ups}{{95}{134}{\upsn \raa as a function of centrality. \upsa \raa is measured in $2.5<|y|<4$ by ALICE~\cite {Abelev:2014nua}. CMS measured the centrality dependence of the \upsa and \upsb \raa at $|y|<2.4$~\cite {Chatrchyan:2011pe,Chatrchyan:2012lxa}. Centrality integrated values are shown in the right panel, including an upper limit at 95\% confidence level of the \upsc \raa by CMS in $|y|<2.4$}{figure.95}{}}
\@writefile{lof}{\contentsline {figure}{\numberline {96}{\ignorespaces \ensuremath  {\Upsilon \text  {(1S)}}\xspace  \ \ensuremath  {R_{\mathrm  {AA}}}\xspace  \ versus centrality at $|y|<2.4$\nobreakspace  {}\cite  {Chatrchyan:2011pe,Chatrchyan:2012lxa} (top) and $2.5<y<4$\nobreakspace  {}\cite  {Abelev:2014nua} (bottom), compared to TAMU (left) and aHYDRO (right) model calculations discussed in Sections\nobreakspace  {}\ref  {sec:transport} and\nobreakspace  {}\ref  {sec:non-equilib}.}}{135}{figure.96}}
\newlabel{fig:Upsilon_centrality_theory}{{96}{135}{\upsa \ \raa \ versus centrality at $|y|<2.4$~\cite {Chatrchyan:2011pe,Chatrchyan:2012lxa} (top) and $2.5<y<4$~\cite {Abelev:2014nua} (bottom), compared to TAMU (left) and aHYDRO (right) model calculations discussed in Sections~\ref {sec:transport} and~\ref {sec:non-equilib}}{figure.96}{}}
\@writefile{lof}{\contentsline {figure}{\numberline {97}{\ignorespaces \ensuremath  {\Upsilon \text  {(1S)}}\xspace  \ \ensuremath  {R_{\mathrm  {AA}}}\xspace  \ versus rapidity from ALICE\nobreakspace  {}\cite  {Abelev:2014nua} and CMS\nobreakspace  {}\cite  {Chatrchyan:2011pe,Chatrchyan:2012lxa}. In the bottom row, the \ensuremath  {R_{\mathrm  {AA}}}\xspace  is to TAMU (left) and aHYDRO (right) model calculations discussed in Sections\nobreakspace  {}\ref  {sec:transport} and\nobreakspace  {}\ref  {sec:non-equilib}.}}{135}{figure.97}}
\newlabel{fig:Upsilon_rap_CMS-ALICE}{{97}{135}{\upsa \ \raa \ versus rapidity from ALICE~\cite {Abelev:2014nua} and CMS~\cite {Chatrchyan:2011pe,Chatrchyan:2012lxa}. In the bottom row, the \raa is to TAMU (left) and aHYDRO (right) model calculations discussed in Sections~\ref {sec:transport} and~\ref {sec:non-equilib}}{figure.97}{}}
\citation{Abelev:2013yxa}
\citation{Adam:2015iga}
\citation{Arleo:2013zua}
\citation{Adam:2015iga}
\citation{Adare:2010de,Adare:2006ns,Adamczyk:2012ey,Chatrchyan:2012np,ALICE:2012ab}
\citation{Adare:2010de,Adare:2006ns,Adamczyk:2012ey,Chatrchyan:2012np,ALICE:2012ab}
\citation{Satz:1993pb,Satz:2013ama}
\citation{Satz:2013ama}
\citation{Adare:2010de}
\citation{Adamczyk:2014uip}
\citation{Adare:2006ns}
\citation{Chatrchyan:2012np,ALICE:2012ab}
\citation{Adare:2010de,Adamczyk:2012ey}
\citation{Sharma:2012dy}
\@writefile{toc}{\contentsline {subsection}{\numberline {5.3}Alternative references for quarkonium production in nucleus--nucleus collisions}{136}{subsection.5.3}}
\newlabel{sec:other_ref}{{5.3}{136}{Alternative references for quarkonium production in nucleus--nucleus collisions}{subsection.5.3}{}}
\@writefile{toc}{\contentsline {subsubsection}{\numberline {5.3.1}Proton--nucleus collisions}{136}{subsubsection.5.3.1}}
\newlabel{sec:pa_ref}{{5.3.1}{136}{Proton--nucleus collisions}{subsubsection.5.3.1}{}}
\@writefile{toc}{\contentsline {subsubsection}{\numberline {5.3.2}Open heavy flavour}{136}{subsubsection.5.3.2}}
\newlabel{sec:hf_ref}{{5.3.2}{136}{Open heavy flavour}{subsubsection.5.3.2}{}}
\citation{Arleo:2014oha}
\@writefile{toc}{\contentsline {subsection}{\numberline {5.4}Summary and outlook}{137}{subsection.5.4}}
\@writefile{lof}{\contentsline {figure}{\numberline {98}{\ignorespaces Comparison of nuclear modification factors for open and closed charm at RHIC (top) and the LHC (bottom)\nobreakspace  {}\cite  {Adare:2010de,Adare:2006ns,Adamczyk:2012ey,Chatrchyan:2012np,ALICE:2012ab}. Transverse momentum integrated results are shown on the left, while high \ensuremath  {p_{\mathrm  {T}}}\xspace  \ensuremath  {R_{\mathrm  {AA}}}\xspace  are compared on the right. Due to the lack of low \ensuremath  {p_{\mathrm  {T}}}\xspace  open charm data at the LHC, the bottom left panel is missing.}}{138}{figure.98}}
\newlabel{fig:open_closed_HF}{{98}{138}{Comparison of nuclear modification factors for open and closed charm at RHIC (top) and the LHC (bottom)~\cite {Adare:2010de,Adare:2006ns,Adamczyk:2012ey,Chatrchyan:2012np,ALICE:2012ab}. Transverse momentum integrated results are shown on the left, while high \pt \raa are compared on the right. Due to the lack of low \pt open charm data at the LHC, the bottom left panel is missing}{figure.98}{}}
\@setckpt{QUARKONIA_Merged}{
\setcounter{page}{139}
\setcounter{equation}{62}
\setcounter{enumi}{9}
\setcounter{enumii}{0}
\setcounter{enumiii}{0}
\setcounter{enumiv}{0}
\setcounter{footnote}{29}
\setcounter{mpfootnote}{0}
\setcounter{part}{0}
\setcounter{section}{5}
\setcounter{subsection}{4}
\setcounter{subsubsection}{0}
\setcounter{paragraph}{0}
\setcounter{subparagraph}{0}
\setcounter{figure}{98}
\setcounter{table}{16}
\setcounter{tnote}{0}
\setcounter{fnote}{1}
\setcounter{cnote}{1}
\setcounter{ead}{1}
\setcounter{author}{0}
\setcounter{affn}{42}
\setcounter{NAT@ctr}{0}
\setcounter{parentequation}{0}
\setcounter{Item}{13}
\setcounter{Hfootnote}{28}
\setcounter{bookmark@seq@number}{80}
\setcounter{r@tfl@t}{0}
\setcounter{subfigure}{0}
\setcounter{lofdepth}{1}
\setcounter{subtable}{0}
\setcounter{lotdepth}{1}
\setcounter{linenumber}{1}
\setcounter{LN@truepage}{138}
\setcounter{section@level}{2}
}
