\relax 
\providecommand\hyper@newdestlabel[2]{}
\providecommand\HyperFirstAtBeginDocument{\AtBeginDocument}
\HyperFirstAtBeginDocument{\ifx\hyper@anchor\@undefined
\global\let\oldcontentsline\contentsline
\gdef\contentsline#1#2#3#4{\oldcontentsline{#1}{#2}{#3}}
\global\let\oldnewlabel\newlabel
\gdef\newlabel#1#2{\newlabelxx{#1}#2}
\gdef\newlabelxx#1#2#3#4#5#6{\oldnewlabel{#1}{{#2}{#3}}}
\AtEndDocument{\ifx\hyper@anchor\@undefined
\let\contentsline\oldcontentsline
\let\newlabel\oldnewlabel
\fi}
\fi}
\global\let\hyper@last\relax 
\gdef\HyperFirstAtBeginDocument#1{#1}
\providecommand\HyField@AuxAddToFields[1]{}
\providecommand\HyField@AuxAddToCoFields[2]{}
\emailauthor{massacri@lal.in2p3.fr}{L.~Massacrier\corref {cor1}\fnref {ed}}
\Newlabel{1}{a}
\Newlabel{2}{b}
\Newlabel{3}{c}
\Newlabel{4}{d}
\Newlabel{5}{e}
\Newlabel{6}{f}
\Newlabel{8}{g}
\Newlabel{9}{h}
\Newlabel{10}{i}
\Newlabel{11}{j}
\Newlabel{12}{k}
\Newlabel{13}{l}
\Newlabel{14}{m}
\Newlabel{15}{n}
\Newlabel{16}{o}
\Newlabel{17}{p}
\Newlabel{18}{q}
\Newlabel{19}{r}
\Newlabel{20}{s}
\Newlabel{20bis}{t}
\Newlabel{21}{u}
\Newlabel{22}{v}
\Newlabel{23}{w}
\Newlabel{24}{x}
\Newlabel{25}{y}
\Newlabel{26}{z}
\Newlabel{27}{aa}
\Newlabel{28}{ab}
\Newlabel{29}{ac}
\Newlabel{30}{ad}
\Newlabel{31}{ae}
\Newlabel{32}{af}
\Newlabel{33}{ag}
\Newlabel{34}{ah}
\Newlabel{35}{ai}
\Newlabel{37}{aj}
\Newlabel{38}{ak}
\Newlabel{39}{al}
\Newlabel{39bis}{am}
\Newlabel{40}{an}
\Newlabel{40bis}{ao}
\Newlabel{41}{ap}
\Newlabel{cor1}{1}
\Newlabel{ed}{1}
\@input{introduction.aux}
\@input{pp_Merged.aux}
\@input{CNM_Merged.aux}
\@input{OHF_Merged.aux}
\@input{QUARKONIA_Merged.aux}
\@input{DIFFRACTION_Merged.aux}
\@input{UPGRADE_Merged.aux}
\@input{summary.aux}
\@input{Acknowledgement.aux}
\bibstyle{utphys}
\bibdata{fullBiblio}
\bibcite{Bhattacharya:2015jpa}{{1}{}{{}}{{}}}
\bibcite{Nason:1987xz}{{2}{}{{}}{{}}}
\bibcite{Nason:1989zy}{{3}{}{{}}{{}}}
\bibcite{Beenakker:1988bq}{{4}{}{{}}{{}}}
\bibcite{Beenakker:1990ma}{{5}{}{{}}{{}}}
\bibcite{Mangano:1991jk}{{6}{}{{}}{{}}}
\bibcite{Kniehl:2015fla}{{7}{}{{}}{{}}}
\bibcite{Czakon:2013goa}{{8}{}{{}}{{}}}
\bibcite{Czakon:2014xsa}{{9}{}{{}}{{}}}
\bibcite{Aversa:1988vb}{{10}{}{{}}{{}}}
\bibcite{Cacciari:1993mq}{{11}{}{{}}{{}}}
\bibcite{Binnewies:1998xq}{{12}{}{{}}{{}}}
\bibcite{Binnewies:1997gz}{{13}{}{{}}{{}}}
\bibcite{Binnewies:1998vm}{{14}{}{{}}{{}}}
\bibcite{Kniehl:2004fy}{{15}{}{{}}{{}}}
\bibcite{Kniehl:2005mk}{{16}{}{{}}{{}}}
\bibcite{Aivazis:1993kh}{{17}{}{{}}{{}}}
\bibcite{Aivazis:1994pi}{{18}{}{{}}{{}}}
\bibcite{Kramer:2000hn}{{19}{}{{}}{{}}}
\bibcite{Tung:2001mv}{{20}{}{{}}{{}}}
\bibcite{Kretzer:1998ju}{{21}{}{{}}{{}}}
\bibcite{Stavreva:2012bs}{{22}{}{{}}{{}}}
\bibcite{Guzzi:2011ew}{{23}{}{{}}{{}}}
\bibcite{Collins:1998rz}{{24}{}{{}}{{}}}
\bibcite{Thorne:2008xf}{{25}{}{{}}{{}}}
\bibcite{Olness:2008px}{{26}{}{{}}{{}}}
\bibcite{Kretzer:1997pd}{{27}{}{{}}{{}}}
\bibcite{Kretzer:1998nt}{{28}{}{{}}{{}}}
\bibcite{Olness:1997yc}{{29}{}{{}}{{}}}
\bibcite{Kramer:2001gd}{{30}{}{{}}{{}}}
\bibcite{Kramer:2003cw}{{31}{}{{}}{{}}}
\bibcite{Kramer:2003jw}{{32}{}{{}}{{}}}
\bibcite{Kniehl:2005ej}{{33}{}{{}}{{}}}
\bibcite{Kneesch:2007ey}{{34}{}{{}}{{}}}
\bibcite{Kniehl:2008zza}{{35}{}{{}}{{}}}
\bibcite{Kniehl:2009mh}{{36}{}{{}}{{}}}
\bibcite{Kniehl:2011bk}{{37}{}{{}}{{}}}
\bibcite{Kniehl:2012ti}{{38}{}{{}}{{}}}
\bibcite{Bolzoni:2012kx}{{39}{}{{}}{{}}}
\bibcite{Bolzoni:2013vya}{{40}{}{{}}{{}}}
\bibcite{Cacciari:1998it}{{41}{}{{}}{{}}}
\bibcite{Forte:2002fg}{{42}{}{{}}{{}}}
\bibcite{Ball:2011mu}{{43}{}{{}}{{}}}
\bibcite{Cacciari:2012ny}{{44}{}{{}}{{}}}
\bibcite{Sjostrand:2007gs}{{45}{}{{}}{{}}}
\bibcite{Corcella:2000bw}{{46}{}{{}}{{}}}
\bibcite{Frixione:2003ei}{{47}{}{{}}{{}}}
\bibcite{Frixione:2007nw}{{48}{}{{}}{{}}}
\bibcite{Klasen:2014dba}{{49}{}{{}}{{}}}
\bibcite{Fritzsch:1977ay}{{50}{}{{}}{{}}}
\bibcite{Halzen:1977rs}{{51}{}{{}}{{}}}
\bibcite{Amundson:1995em}{{52}{}{{}}{{}}}
\bibcite{Bedjidian:2004gd}{{53}{}{{}}{{}}}
\bibcite{Chang:1979nn}{{54}{}{{}}{{}}}
\bibcite{Baier:1981uk}{{55}{}{{}}{{}}}
\bibcite{Baier:1983va}{{56}{}{{}}{{}}}
\bibcite{Campbell:2007ws}{{57}{}{{}}{{}}}
\bibcite{Artoisenet:2007xi}{{58}{}{{}}{{}}}
\bibcite{Gong:2008sn}{{59}{}{{}}{{}}}
\bibcite{Gong:2008hk}{{60}{}{{}}{{}}}
\bibcite{Artoisenet:2008fc}{{61}{}{{}}{{}}}
\bibcite{Lansberg:2008gk}{{62}{}{{}}{{}}}
\bibcite{ConesadelValle:2011fw}{{63}{}{{}}{{}}}
\bibcite{Brambilla:2010cs}{{64}{}{{}}{{}}}
\bibcite{Brodsky:2009cf}{{65}{}{{}}{{}}}
\bibcite{Lansberg:2010cn}{{66}{}{{}}{{}}}
\bibcite{Feng:2015cba}{{67}{}{{}}{{}}}
\bibcite{Ma:2008gq}{{68}{}{{}}{{}}}
\bibcite{Gong:2009kp}{{69}{}{{}}{{}}}
\bibcite{He:2009uf}{{70}{}{{}}{{}}}
\bibcite{Aaron:2010gz}{{71}{}{{}}{{}}}
\bibcite{Lansberg:2010vq}{{72}{}{{}}{{}}}
\bibcite{Lansberg:2011hi}{{73}{}{{}}{{}}}
\bibcite{Lansberg:2012ta}{{74}{}{{}}{{}}}
\bibcite{Lansberg:2013iya}{{75}{}{{}}{{}}}
\bibcite{Barbieri:1976fp}{{76}{}{{}}{{}}}
\bibcite{Bodwin:1992ye}{{77}{}{{}}{{}}}
\bibcite{Bodwin:1994jh}{{78}{}{{}}{{}}}
\bibcite{Bodwin:2005gg}{{79}{}{{}}{{}}}
\bibcite{Butenschoen:2012px}{{80}{}{{}}{{}}}
\bibcite{Gong:2012ug}{{81}{}{{}}{{}}}
\bibcite{Chao:2012iv}{{82}{}{{}}{{}}}
\bibcite{Sharma:2012dy}{{83}{}{{}}{{}}}
\bibcite{Nayak:2005rt}{{84}{}{{}}{{}}}
\bibcite{Nayak:2005rw}{{85}{}{{}}{{}}}
\bibcite{Kang:2011mg}{{86}{}{{}}{{}}}
\bibcite{Ma:2014svb}{{87}{}{{}}{{}}}
\bibcite{Fleming:2012wy}{{88}{}{{}}{{}}}
\bibcite{Hagler:2000dd}{{89}{}{{}}{{}}}
\bibcite{Yuan:2000qe}{{90}{}{{}}{{}}}
\bibcite{Boer:2012bt}{{91}{}{{}}{{}}}
\bibcite{Ma:2012hh}{{92}{}{{}}{{}}}
\bibcite{Kang:2013hta}{{93}{}{{}}{{}}}
\bibcite{Ma:2014mri}{{94}{}{{}}{{}}}
\bibcite{Nayak:2007mb}{{95}{}{{}}{{}}}
\bibcite{Chatrchyan:2012jua}{{96}{}{{}}{{}}}
\bibcite{Abreu:2000nj}{{97}{}{{}}{{}}}
\bibcite{Aaij:2014bga}{{98}{}{{}}{{}}}
\bibcite{Cacciari:2003uh}{{99}{}{{}}{{}}}
\bibcite{Bortoletto:1988kw}{{100}{}{{}}{{}}}
\bibcite{Barate:1999bg}{{101}{}{{}}{{}}}
\bibcite{Acosta:2003ax}{{102}{}{{}}{{}}}
\bibcite{Adamczyk:2012af}{{103}{}{{}}{{}}}
\bibcite{Abelev:2012vra}{{104}{}{{}}{{}}}
\bibcite{LHCb:2010lga}{{105}{}{{}}{{}}}
\bibcite{Aaij:2013mga}{{106}{}{{}}{{}}}
\bibcite{Abelev:2014hla}{{107}{}{{}}{{}}}
\bibcite{Abelev:2012gx}{{108}{}{{}}{{}}}
\bibcite{Albajar:1990zu}{{109}{}{{}}{{}}}
\bibcite{Abe:1995dv}{{110}{}{{}}{{}}}
\bibcite{Adare:2009ic}{{111}{}{{}}{{}}}
\bibcite{Adare:2006hc}{{112}{}{{}}{{}}}
\bibcite{Adare:2010ud}{{113}{}{{}}{{}}}
\bibcite{Adare:2013xlp}{{114}{}{{}}{{}}}
\bibcite{Aggarwal:2010xp}{{115}{}{{}}{{}}}
\bibcite{Agakishiev:2011mr}{{116}{}{{}}{{}}}
\bibcite{Abelev:2012xe}{{117}{}{{}}{{}}}
\bibcite{Abelev:2014gla}{{118}{}{{}}{{}}}
\bibcite{Abelev:2012pi}{{119}{}{{}}{{}}}
\bibcite{Abelev:2012qh}{{120}{}{{}}{{}}}
\bibcite{Aad:2011rr}{{121}{}{{}}{{}}}
\bibcite{Maciula:2013wg}{{122}{}{{}}{{}}}
\bibcite{Abelev:2012sca}{{123}{}{{}}{{}}}
\bibcite{Reisert:2007zza}{{124}{}{{}}{{}}}
\bibcite{ALICE:2011aa}{{125}{}{{}}{{}}}
\bibcite{Abelev:2012tca}{{126}{}{{}}{{}}}
\bibcite{Aaltonen:2011sf}{{127}{}{{}}{{}}}
\bibcite{Aitala:1996cy}{{128}{}{{}}{{}}}
\bibcite{Link:2001ee}{{129}{}{{}}{{}}}
\bibcite{Artuso:2001us}{{130}{}{{}}{{}}}
\bibcite{Agashe:2014kda}{{131}{}{{}}{{}}}
\bibcite{Briere:2006em}{{132}{}{{}}{{}}}
\bibcite{Klempt:2009pi}{{133}{}{{}}{{}}}
\bibcite{Butler:2013kdw}{{134}{}{{}}{{}}}
\bibcite{Bevan:2014iga}{{135}{}{{}}{{}}}
\bibcite{Aad:2014fpa}{{136}{}{{}}{{}}}
\bibcite{ATLAS:2014ala}{{137}{}{{}}{{}}}
\bibcite{Mangano:1997ri}{{138}{}{{}}{{}}}
\bibcite{Khachatryan:2011mk}{{139}{}{{}}{{}}}
\bibcite{ATLAS:2013cia}{{140}{}{{}}{{}}}
\bibcite{Chatrchyan:2012xg}{{141}{}{{}}{{}}}
\bibcite{Aaltonen:2009tz}{{142}{}{{}}{{}}}
\bibcite{Abazov:2013xda}{{143}{}{{}}{{}}}
\bibcite{Aaij:2011ep}{{144}{}{{}}{{}}}
\bibcite{Aaij:2013noa}{{145}{}{{}}{{}}}
\bibcite{Aaij:2012jd}{{146}{}{{}}{{}}}
\bibcite{Chatrchyan:2011pw}{{147}{}{{}}{{}}}
\bibcite{Chatrchyan:2011vh}{{148}{}{{}}{{}}}
\bibcite{Chatrchyan:2012dk}{{149}{}{{}}{{}}}
\bibcite{ATLAS:2011ac}{{150}{}{{}}{{}}}
\bibcite{Sjostrand:2006za}{{151}{}{{}}{{}}}
\bibcite{Alioli:2010xd}{{152}{}{{}}{{}}}
\bibcite{Frixione:2002ik}{{153}{}{{}}{{}}}
\bibcite{Aaltonen:2014wfa}{{154}{}{{}}{{}}}
\bibcite{Abazov:2008qm}{{155}{}{{}}{{}}}
\bibcite{Aaltonen:2009ny}{{156}{}{{}}{{}}}
\bibcite{Chatrchyan:2012ni}{{157}{}{{}}{{}}}
\bibcite{Aaij:2014yka}{{158}{}{{}}{{}}}
\bibcite{Ebert:2005xj}{{159}{}{{}}{{}}}
\bibcite{Liu:2007fg}{{160}{}{{}}{{}}}
\bibcite{Jenkins:2007dm}{{161}{}{{}}{{}}}
\bibcite{Karliner:2008sv}{{162}{}{{}}{{}}}
\bibcite{Lewis:2008fu}{{163}{}{{}}{{}}}
\bibcite{Karliner:2008in}{{164}{}{{}}{{}}}
\bibcite{Zhang:2008pm}{{165}{}{{}}{{}}}
\bibcite{Detmold:2012ge}{{166}{}{{}}{{}}}
\bibcite{DELPHI:2011aa}{{167}{}{{}}{{}}}
\bibcite{Nason:2004rx}{{168}{}{{}}{{}}}
\bibcite{Nelson:2012bc}{{169}{}{{}}{{}}}
\bibcite{Aad:2011sp}{{170}{}{{}}{{}}}
\bibcite{Chatrchyan:2011kc}{{171}{}{{}}{{}}}
\bibcite{Aaij:2011jh}{{172}{}{{}}{{}}}
\bibcite{Ma:2010yw}{{173}{}{{}}{{}}}
\bibcite{Frawley:2008kk}{{174}{}{{}}{{}}}
\bibcite{Acosta:2003zx}{{175}{}{{}}{{}}}
\bibcite{Bauer:2004bc}{{176}{}{{}}{{}}}
\bibcite{Chatrchyan:2013cld}{{177}{}{{}}{{}}}
\bibcite{Aaij:2011sn}{{178}{}{{}}{{}}}
\bibcite{Butenschoen:2013pxa}{{179}{}{{}}{{}}}
\bibcite{Han:2014jya}{{180}{}{{}}{{}}}
\bibcite{Abazov:2004kp}{{181}{}{{}}{{}}}
\bibcite{Aaij:2013zoa}{{182}{}{{}}{{}}}
\bibcite{Butenschoen:2014dra}{{183}{}{{}}{{}}}
\bibcite{Zhang:2014ybe}{{184}{}{{}}{{}}}
\bibcite{Aaij:2013dja}{{185}{}{{}}{{}}}
\bibcite{Abe:1997yz}{{186}{}{{}}{{}}}
\bibcite{Kramer:2001hh}{{187}{}{{}}{{}}}
\bibcite{Lansberg:2006dh}{{188}{}{{}}{{}}}
\bibcite{Ma:2010vd}{{189}{}{{}}{{}}}
\bibcite{Chatrchyan:2012ub}{{190}{}{{}}{{}}}
\bibcite{Abulencia:2007bra}{{191}{}{{}}{{}}}
\bibcite{Likhoded:2013aya}{{192}{}{{}}{{}}}
\bibcite{Shao:2012iz}{{193}{}{{}}{{}}}
\bibcite{Baranov:2011ib}{{194}{}{{}}{{}}}
\bibcite{Baranov:2010zz}{{195}{}{{}}{{}}}
\bibcite{Gong:2012ah}{{196}{}{{}}{{}}}
\bibcite{Aad:2012dlq}{{197}{}{{}}{{}}}
\bibcite{Chatrchyan:2013yna}{{198}{}{{}}{{}}}
\bibcite{Abelev:2014qha}{{199}{}{{}}{{}}}
\bibcite{Aad:2011ih}{{200}{}{{}}{{}}}
\bibcite{Khachatryan:2014ofa}{{201}{}{{}}{{}}}
\bibcite{Aaij:2014hla}{{202}{}{{}}{{}}}
\bibcite{Aaij:2014caa}{{203}{}{{}}{{}}}
\bibcite{Aad:2011xv}{{204}{}{{}}{{}}}
\bibcite{Khachatryan:2010zg}{{205}{}{{}}{{}}}
\bibcite{Aaij:2013yaa}{{206}{}{{}}{{}}}
\bibcite{Aaij:2012se}{{207}{}{{}}{{}}}
\bibcite{LHCb:2012aa}{{208}{}{{}}{{}}}
\bibcite{Affolder:1999wm}{{209}{}{{}}{{}}}
\bibcite{Aaij:2014ija}{{210}{}{{}}{{}}}
\bibcite{Chang:2003cq}{{211}{}{{}}{{}}}
\bibcite{Chang:2005hq}{{212}{}{{}}{{}}}
\bibcite{Chang:1992jb}{{213}{}{{}}{{}}}
\bibcite{Chang:1994aw}{{214}{}{{}}{{}}}
\bibcite{Chang:1996jt}{{215}{}{{}}{{}}}
\bibcite{Chang:2005bf}{{216}{}{{}}{{}}}
\bibcite{Kolodziej:1995nv}{{217}{}{{}}{{}}}
\bibcite{Berezhnoy:1994ba}{{218}{}{{}}{{}}}
\bibcite{Berezhnoy:1996an}{{219}{}{{}}{{}}}
\bibcite{Baranov:1997wy}{{220}{}{{}}{{}}}
\bibcite{Aaij:2013voa}{{221}{}{{}}{{}}}
\bibcite{Mattson:2002vu}{{222}{}{{}}{{}}}
\bibcite{Ocherashvili:2004hi}{{223}{}{{}}{{}}}
\bibcite{Faccioli:2010kd}{{224}{}{{}}{{}}}
\bibcite{Collins:1977iv}{{225}{}{{}}{{}}}
\bibcite{Gottfried:1964nx}{{226}{}{{}}{{}}}
\bibcite{Braaten:2008mz}{{227}{}{{}}{{}}}
\bibcite{Palestini:2010xu}{{228}{}{{}}{{}}}
\bibcite{Aaij:2013nlm}{{229}{}{{}}{{}}}
\bibcite{Aaij:2014qea}{{230}{}{{}}{{}}}
\bibcite{Shao:2014yta}{{231}{}{{}}{{}}}
\bibcite{Chatrchyan:2013cla}{{232}{}{{}}{{}}}
\bibcite{Chatrchyan:2012woa}{{233}{}{{}}{{}}}
\bibcite{Shao:2012fs}{{234}{}{{}}{{}}}
\bibcite{Faccioli:2011be}{{235}{}{{}}{{}}}
\bibcite{Arnaldi:2009ph}{{236}{}{{}}{{}}}
\bibcite{Faccioli:2012kp}{{237}{}{{}}{{}}}
\bibcite{Adare:2009js}{{238}{}{{}}{{}}}
\bibcite{Adamczyk:2012ey}{{239}{}{{}}{{}}}
\bibcite{Adare:2011vq}{{240}{}{{}}{{}}}
\bibcite{Adamczyk:2013vjy}{{241}{}{{}}{{}}}
\bibcite{Affolder:2000nn}{{242}{}{{}}{{}}}
\bibcite{Abe:1997jz}{{243}{}{{}}{{}}}
\bibcite{Abulencia:2007us}{{244}{}{{}}{{}}}
\bibcite{Abelev:2011md}{{245}{}{{}}{{}}}
\bibcite{LHCb:2012af}{{246}{}{{}}{{}}}
\bibcite{Aaij:2012ag}{{247}{}{{}}{{}}}
\bibcite{Abt:2002vq}{{248}{}{{}}{{}}}
\bibcite{Alexopoulos:1995dt}{{249}{}{{}}{{}}}
\bibcite{Gribushin:1999ha}{{250}{}{{}}{{}}}
\bibcite{Alexopoulos:1997yd}{{251}{}{{}}{{}}}
\bibcite{Chang:2003rz}{{252}{}{{}}{{}}}
\bibcite{Abt:2009nu}{{253}{}{{}}{{}}}
\bibcite{Abt:2006va}{{254}{}{{}}{{}}}
\bibcite{Acosta:2001gv}{{255}{}{{}}{{}}}
\bibcite{CDF:2011ag}{{256}{}{{}}{{}}}
\bibcite{Abazov:2008aa}{{257}{}{{}}{{}}}
\bibcite{Alner:1985wj}{{258}{}{{}}{{}}}
\bibcite{Wang:1991us}{{259}{}{{}}{{}}}
\bibcite{Sjostrand:1987su}{{260}{}{{}}{{}}}
\bibcite{Bartalini:2010su}{{261}{}{{}}{{}}}
\bibcite{Maciula:2012rs}{{262}{}{{}}{{}}}
\bibcite{Porteboeuf:2010dw}{{263}{}{{}}{{}}}
\bibcite{Werner:2010ny}{{264}{}{{}}{{}}}
\bibcite{Lang:2013ex}{{265}{}{{}}{{}}}
\bibcite{Abelev:2012rz}{{266}{}{{}}{{}}}
\bibcite{Ferreiro:2012fb}{{267}{}{{}}{{}}}
\bibcite{Chatrchyan:2013nza}{{268}{}{{}}{{}}}
\bibcite{Adam:2015ota}{{269}{}{{}}{{}}}
\bibcite{Ferreiro:2015gea}{{270}{}{{}}{{}}}
\bibcite{Drescher:2000ha}{{271}{}{{}}{{}}}
\bibcite{Werner:2013tya}{{272}{}{{}}{{}}}
\bibcite{Field:2002da}{{273}{}{{}}{{}}}
\bibcite{Aaij:2012dz}{{274}{}{{}}{{}}}
\bibcite{Khachatryan:2011wq}{{275}{}{{}}{{}}}
\bibcite{Bjelogrlic:2014kia}{{276}{}{{}}{{}}}
\bibcite{Abelev:2009qaa}{{277}{}{{}}{{}}}
\bibcite{Aaij:2011yc}{{278}{}{{}}{{}}}
\bibcite{Abazov:2014qba}{{279}{}{{}}{{}}}
\bibcite{Khachatryan:2014iia}{{280}{}{{}}{{}}}
\bibcite{Aaij:2014hea}{{281}{}{{}}{{}}}
\bibcite{Abazov:2013hya}{{282}{}{{}}{{}}}
\bibcite{Chatrchyan:2013uja}{{283}{}{{}}{{}}}
\bibcite{Aad:2014rua}{{284}{}{{}}{{}}}
\bibcite{Aad:2014kba}{{285}{}{{}}{{}}}
\bibcite{Aaltonen:2008mt}{{286}{}{{}}{{}}}
\bibcite{Abazov:2013uza}{{287}{}{{}}{{}}}
\bibcite{Aad:2011jn}{{288}{}{{}}{{}}}
\bibcite{Chatrchyan:2013zja}{{289}{}{{}}{{}}}
\bibcite{Aaij:2014gta}{{290}{}{{}}{{}}}
\bibcite{Aaltonen:2014rda}{{291}{}{{}}{{}}}
\bibcite{Aad:2015sda}{{292}{}{{}}{{}}}
\bibcite{Berezhnoy:1998aa}{{293}{}{{}}{{}}}
\bibcite{Kom:2011bd}{{294}{}{{}}{{}}}
\bibcite{Baranov:2011ch}{{295}{}{{}}{{}}}
\bibcite{Berezhnoy:2012xq}{{296}{}{{}}{{}}}
\bibcite{Baranov:2012re}{{297}{}{{}}{{}}}
\bibcite{Kartvelishvili:1984ur}{{298}{}{{}}{{}}}
\bibcite{Humpert:1983yj}{{299}{}{{}}{{}}}
\bibcite{Vogt:1995tf}{{300}{}{{}}{{}}}
\bibcite{Li:2009ug}{{301}{}{{}}{{}}}
\bibcite{Qiao:2009kg}{{302}{}{{}}{{}}}
\bibcite{Ko:2010xy}{{303}{}{{}}{{}}}
\bibcite{Berezhnoy:2011xy}{{304}{}{{}}{{}}}
\bibcite{Li:2013csa}{{305}{}{{}}{{}}}
\bibcite{Lansberg:2013qka}{{306}{}{{}}{{}}}
\bibcite{Sun:2014gca}{{307}{}{{}}{{}}}
\bibcite{Lansberg:2014swa}{{308}{}{{}}{{}}}
\bibcite{Mao:2011kf}{{309}{}{{}}{{}}}
\bibcite{Strikman:2001gz}{{310}{}{{}}{{}}}
\bibcite{d'Enterria:2013ck}{{311}{}{{}}{{}}}
\bibcite{Miller:2007ri}{{312}{}{{}}{{}}}
\bibcite{Adare:2012yxa}{{313}{}{{}}{{}}}
\bibcite{Adare:2013lkk}{{314}{}{{}}{{}}}
\bibcite{Adare:2014iwg}{{315}{}{{}}{{}}}
\bibcite{Adler:2005ph}{{316}{}{{}}{{}}}
\bibcite{Adare:2007gn}{{317}{}{{}}{{}}}
\bibcite{Adare:2010fn}{{318}{}{{}}{{}}}
\bibcite{Adare:2012qf}{{319}{}{{}}{{}}}
\bibcite{Adare:2013ezl}{{320}{}{{}}{{}}}
\bibcite{Adare:2012bv}{{321}{}{{}}{{}}}
\bibcite{Adams:2004fc}{{322}{}{{}}{{}}}
\bibcite{Adamczyk:2013poh}{{323}{}{{}}{{}}}
\bibcite{Abelev:2014hha}{{324}{}{{}}{{}}}
\bibcite{Abelev:2013yxa}{{325}{}{{}}{{}}}
\bibcite{Abelev:2014zpa}{{326}{}{{}}{{}}}
\bibcite{Adam:2015iga}{{327}{}{{}}{{}}}
\bibcite{Abelev:2014oea}{{328}{}{{}}{{}}}
\bibcite{Aad:2015ddl}{{329}{}{{}}{{}}}
\bibcite{Aaij:2013zxa}{{330}{}{{}}{{}}}
\bibcite{Aaij:2014mza}{{331}{}{{}}{{}}}
\bibcite{Badier:1983dg}{{332}{}{{}}{{}}}
\bibcite{Badier:1985ri}{{333}{}{{}}{{}}}
\bibcite{Baglin:1991gy}{{334}{}{{}}{{}}}
\bibcite{Baglin:1994ui}{{335}{}{{}}{{}}}
\bibcite{Baglin:1991vb}{{336}{}{{}}{{}}}
\bibcite{Lourenco:1993mr}{{337}{}{{}}{{}}}
\bibcite{Abreu:1998ee}{{338}{}{{}}{{}}}
\bibcite{Abreu:1999nn}{{339}{}{{}}{{}}}
\bibcite{Alessandro:2003pi}{{340}{}{{}}{{}}}
\bibcite{Alessandro:2006jt}{{341}{}{{}}{{}}}
\bibcite{Alessandro:2003pc}{{342}{}{{}}{{}}}
\bibcite{Alessandro:2006dc}{{343}{}{{}}{{}}}
\bibcite{Arnaldi:2010ky}{{344}{}{{}}{{}}}
\bibcite{Alde:1990wa}{{345}{}{{}}{{}}}
\bibcite{Alde:1991sw}{{346}{}{{}}{{}}}
\bibcite{Leitch:1994vc}{{347}{}{{}}{{}}}
\bibcite{Jansen:1994bz}{{348}{}{{}}{{}}}
\bibcite{Kowitt:1993ns}{{349}{}{{}}{{}}}
\bibcite{Schub:1995pu}{{350}{}{{}}{{}}}
\bibcite{Leitch:1995yc}{{351}{}{{}}{{}}}
\bibcite{Leitch:1999ea}{{352}{}{{}}{{}}}
\bibcite{Brown:2000bz}{{353}{}{{}}{{}}}
\bibcite{Abt:2007zg}{{354}{}{{}}{{}}}
\bibcite{Abt:2005qs}{{355}{}{{}}{{}}}
\bibcite{Abt:2006xa}{{356}{}{{}}{{}}}
\bibcite{Abt:2002rd}{{357}{}{{}}{{}}}
\bibcite{Abt:2005qr}{{358}{}{{}}{{}}}
\bibcite{Abt:2008ya}{{359}{}{{}}{{}}}
\bibcite{Abt:2008ed}{{360}{}{{}}{{}}}
\bibcite{Abt:2006wc}{{361}{}{{}}{{}}}
\bibcite{Kopeliovich:1991pu}{{362}{}{{}}{{}}}
\bibcite{Vogt:2010aa}{{363}{}{{}}{{}}}
\bibcite{Eskola:2009uj}{{364}{}{{}}{{}}}
\bibcite{Nelson_inprog}{{365}{}{{}}{{}}}
\bibcite{Albacete:2013ei}{{366}{}{{}}{{}}}
\bibcite{deFlorian:2003qf}{{367}{}{{}}{{}}}
\bibcite{delValle:2014wha}{{368}{}{{}}{{}}}
\bibcite{Combridge:1978kx}{{369}{}{{}}{{}}}
\bibcite{Klein:2003dj}{{370}{}{{}}{{}}}
\bibcite{Vogt:2004dh}{{371}{}{{}}{{}}}
\bibcite{Helenius:2012wd}{{372}{}{{}}{{}}}
\bibcite{Ferreiro:2008qj}{{373}{}{{}}{{}}}
\bibcite{Ferreiro:2009ur}{{374}{}{{}}{{}}}
\bibcite{Rakotozafindrabe:2012ss}{{375}{}{{}}{{}}}
\bibcite{Ferreiro:2011xy}{{376}{}{{}}{{}}}
\bibcite{Ferreiro:2013pua}{{377}{}{{}}{{}}}
\bibcite{Fujii:2013yja}{{378}{}{{}}{{}}}
\bibcite{Fujii:2013gxa}{{379}{}{{}}{{}}}
\bibcite{Blaizot:2004wv}{{380}{}{{}}{{}}}
\bibcite{Fujii:2005vj}{{381}{}{{}}{{}}}
\bibcite{Albacete:2009fh}{{382}{}{{}}{{}}}
\bibcite{Ducloue:2015gfa}{{383}{}{{}}{{}}}
\bibcite{Ma:2015sia}{{384}{}{{}}{{}}}
\bibcite{Kopeliovich:2010nw}{{385}{}{{}}{{}}}
\bibcite{Kopeliovich:2011zz}{{386}{}{{}}{{}}}
\bibcite{Kopeliovich:1999am}{{387}{}{{}}{{}}}
\bibcite{Kopeliovich:2001ee}{{388}{}{{}}{{}}}
\bibcite{Hufner:1996jw}{{389}{}{{}}{{}}}
\bibcite{Kopeliovich_inprog}{{390}{}{{}}{{}}}
\bibcite{Vitev:2006bi}{{391}{}{{}}{{}}}
\bibcite{Vitev:2007ve}{{392}{}{{}}{{}}}
\bibcite{Neufeld:2010dz}{{393}{}{{}}{{}}}
\bibcite{Arleo:2010rb}{{394}{}{{}}{{}}}
\bibcite{Arleo:2012rs}{{395}{}{{}}{{}}}
\bibcite{Arleo:2013zua}{{396}{}{{}}{{}}}
\bibcite{Peigne:2014uha}{{397}{}{{}}{{}}}
\bibcite{Peigne:2014rka}{{398}{}{{}}{{}}}
\bibcite{Lourenco:2008sk}{{399}{}{{}}{{}}}
\bibcite{Eskola:1998iy}{{400}{}{{}}{{}}}
\bibcite{Eskola:1998df}{{401}{}{{}}{{}}}
\bibcite{Pumplin:2002vw}{{402}{}{{}}{{}}}
\bibcite{Stump:2003yu}{{403}{}{{}}{{}}}
\bibcite{Arleo:2014oha}{{404}{}{{}}{{}}}
\bibcite{Arleo:2006qk}{{405}{}{{}}{{}}}
\bibcite{Scomparin:2009tg}{{406}{}{{}}{{}}}
\bibcite{daSilva:2009yy}{{407}{}{{}}{{}}}
\bibcite{McGlinchey:2012bp}{{408}{}{{}}{{}}}
\bibcite{Averbeck:2011ga}{{409}{}{{}}{{}}}
\bibcite{Kniehl:2005st}{{410}{}{{}}{{}}}
\bibcite{Adare:2006kf}{{411}{}{{}}{{}}}
\bibcite{Abelev:2012kr}{{412}{}{{}}{{}}}
\bibcite{Aamodt:2011gj}{{413}{}{{}}{{}}}
\bibcite{Acosta:2004yw}{{414}{}{{}}{{}}}
\bibcite{Bossu:2011qe}{{415}{}{{}}{{}}}
\bibcite{ALICE:2013spa}{{416}{}{{}}{{}}}
\bibcite{Aaij:2012asz}{{417}{}{{}}{{}}}
\bibcite{LHCb:08082014sca}{{418}{}{{}}{{}}}
\bibcite{Aaij:2014nwa}{{419}{}{{}}{{}}}
\bibcite{Abelev:2006db}{{420}{}{{}}{{}}}
\bibcite{Li:2014dha}{{421}{}{{}}{{}}}
\bibcite{Sharma:2009hn}{{422}{}{{}}{{}}}
\bibcite{Russo:2014iia}{{423}{}{{}}{{}}}
\bibcite{CMS:2014tfa}{{424}{}{{}}{{}}}
\bibcite{Innocenti:2014hha}{{425}{}{{}}{{}}}
\bibcite{CMS:2014tca}{{426}{}{{}}{{}}}
\bibcite{Gelis:2010nm}{{427}{}{{}}{{}}}
\bibcite{Marquet:2007vb}{{428}{}{{}}{{}}}
\bibcite{Lappi:2012nh}{{429}{}{{}}{{}}}
\bibcite{Kang:2011bp}{{430}{}{{}}{{}}}
\bibcite{Cacciari:2005rk}{{431}{}{{}}{{}}}
\bibcite{Ferreiro:2008wc}{{432}{}{{}}{{}}}
\bibcite{MartinBlanco:2014pia}{{433}{}{{}}{{}}}
\bibcite{Lakomov:2014yga}{{434}{}{{}}{{}}}
\bibcite{Adam:2014qja}{{435}{}{{}}{{}}}
\bibcite{Ferreiro:2014bia}{{436}{}{{}}{{}}}
\bibcite{Satz:2005hx}{{437}{}{{}}{{}}}
\bibcite{Ferreiro:2012mm}{{438}{}{{}}{{}}}
\bibcite{Arnaldi:2014kta}{{439}{}{{}}{{}}}
\bibcite{Liu:2013via}{{440}{}{{}}{{}}}
\bibcite{Abe:1995an}{{441}{}{{}}{{}}}
\bibcite{Vogt:2015uba}{{442}{}{{}}{{}}}
\bibcite{GranierdeCassagnac:2007aj}{{443}{}{{}}{{}}}
\bibcite{Rakotozafindrabe:2010su}{{444}{}{{}}{{}}}
\bibcite{Mueller:1985zz}{{445}{}{{}}{{}}}
\bibcite{Mangano:1992qq}{{446}{}{{}}{{}}}
\bibcite{Banfi:2007gu}{{447}{}{{}}{{}}}
\bibcite{Gyulassy:1990ye}{{448}{}{{}}{{}}}
\bibcite{Baier:1996sk}{{449}{}{{}}{{}}}
\bibcite{Thoma:1990fm}{{450}{}{{}}{{}}}
\bibcite{Braaten:1991jj}{{451}{}{{}}{{}}}
\bibcite{Braaten:1991we}{{452}{}{{}}{{}}}
\bibcite{Herzog:2006gh}{{453}{}{{}}{{}}}
\bibcite{Gubser:2006bz}{{454}{}{{}}{{}}}
\bibcite{Dokshitzer:2001zm}{{455}{}{{}}{{}}}
\bibcite{Armesto:2003jh}{{456}{}{{}}{{}}}
\bibcite{Djordjevic:2003zk}{{457}{}{{}}{{}}}
\bibcite{Zhang:2003wk}{{458}{}{{}}{{}}}
\bibcite{Wicks:2007am}{{459}{}{{}}{{}}}
\bibcite{Adil:2006ra}{{460}{}{{}}{{}}}
\bibcite{BraunMunzinger:2007tn}{{461}{}{{}}{{}}}
\bibcite{Zhang:2007dm}{{462}{}{{}}{{}}}
\bibcite{Batsouli:2002qf}{{463}{}{{}}{{}}}
\bibcite{Greco:2003vf}{{464}{}{{}}{{}}}
\bibcite{Andronic:2003zv}{{465}{}{{}}{{}}}
\bibcite{Rapp:2009my}{{466}{}{{}}{{}}}
\bibcite{Adare:2014rly}{{467}{}{{}}{{}}}
\bibcite{Adcox:2002cg}{{468}{}{{}}{{}}}
\bibcite{Adare:2010de}{{469}{}{{}}{{}}}
\bibcite{Adare:2006nq}{{470}{}{{}}{{}}}
\bibcite{Adler:2005xv}{{471}{}{{}}{{}}}
\bibcite{Adler:2004ta}{{472}{}{{}}{{}}}
\bibcite{Adare:2013yxp}{{473}{}{{}}{{}}}
\bibcite{Adare:2012px}{{474}{}{{}}{{}}}
\bibcite{Adamczyk:2014uip}{{475}{}{{}}{{}}}
\bibcite{Adamczyk:2014yew}{{476}{}{{}}{{}}}
\bibcite{ALICE:2012ab}{{477}{}{{}}{{}}}
\bibcite{Abelev:2014ipa}{{478}{}{{}}{{}}}
\bibcite{Abelev:2013lca}{{479}{}{{}}{{}}}
\bibcite{Adam:2015rba}{{480}{}{{}}{{}}}
\bibcite{Chatrchyan:2013exa}{{481}{}{{}}{{}}}
\bibcite{Chatrchyan:2012np}{{482}{}{{}}{{}}}
\bibcite{ATLAS:2012ama}{{483}{}{{}}{{}}}
\bibcite{Mustafa:2012jh}{{484}{}{{}}{{}}}
\bibcite{Sakai:2013ata}{{485}{}{{}}{{}}}
\bibcite{Perepelitsa:2012cza}{{486}{}{{}}{{}}}
\bibcite{Ye:2014eia}{{487}{}{{}}{{}}}
\bibcite{Grelli:2012yv}{{488}{}{{}}{{}}}
\bibcite{Innocenti:2012ds}{{489}{}{{}}{{}}}
\bibcite{Kuznetsova:2008gr}{{490}{}{{}}{{}}}
\bibcite{He:2012df}{{491}{}{{}}{{}}}
\bibcite{Festanti:2014foa}{{492}{}{{}}{{}}}
\bibcite{Mischke:2008af}{{493}{}{{}}{{}}}
\bibcite{CMS:2012wba}{{494}{}{{}}{{}}}
\bibcite{Huang:2013vaa}{{495}{}{{}}{{}}}
\bibcite{CMS:2012rba}{{496}{}{{}}{{}}}
\bibcite{Bruna:2014pfa}{{497}{}{{}}{{}}}
\bibcite{Poskanzer:1998yz}{{498}{}{{}}{{}}}
\bibcite{Adler:2002pu}{{499}{}{{}}{{}}}
\bibcite{Bilandzic:2010jr}{{500}{}{{}}{{}}}
\bibcite{Bailhache:2014fia}{{501}{}{{}}{{}}}
\bibcite{balescu1975equil}{{502}{}{{}}{{}}}
\bibcite{risken1989fp}{{503}{}{{}}{{}}}
\bibcite{Berrehrah:2013mua}{{504}{}{{}}{{}}}
\bibcite{Berrehrah:2014kba}{{505}{}{{}}{{}}}
\bibcite{Song:2015sfa}{{506}{}{{}}{{}}}
\bibcite{Alberico:2013bza}{{507}{}{{}}{{}}}
\bibcite{Alberico:2011zy}{{508}{}{{}}{{}}}
\bibcite{Beraudo:2009pe}{{509}{}{{}}{{}}}
\bibcite{Ito:1951}{{510}{}{{}}{{}}}
\bibcite{Djordjevic:2009cr}{{511}{}{{}}{{}}}
\bibcite{Djordjevic:2008iz}{{512}{}{{}}{{}}}
\bibcite{Djordjevic:2006tw}{{513}{}{{}}{{}}}
\bibcite{Djordjevic:2011dd}{{514}{}{{}}{{}}}
\bibcite{Djordjevic:2013xoa}{{515}{}{{}}{{}}}
\bibcite{Kapusta:2006pm}{{516}{}{{}}{{}}}
\bibcite{bellac2000thermal}{{517}{}{{}}{{}}}
\bibcite{Gyulassy:2000er}{{518}{}{{}}{{}}}
\bibcite{Wicks:2005gt}{{519}{}{{}}{{}}}
\bibcite{Maezawa:2010vj}{{520}{}{{}}{{}}}
\bibcite{Maezawa:2008kh}{{521}{}{{}}{{}}}
\bibcite{Nakamura:2003pu}{{522}{}{{}}{{}}}
\bibcite{Hart:2000ha}{{523}{}{{}}{{}}}
\bibcite{Bak:2007fk}{{524}{}{{}}{{}}}
\bibcite{Neufeld:2011yh}{{525}{}{{}}{{}}}
\bibcite{Neufeld:2014yaa}{{526}{}{{}}{{}}}
\bibcite{Huang:2015mva}{{527}{}{{}}{{}}}
\bibcite{Gossiaux:2008jv}{{528}{}{{}}{{}}}
\bibcite{Gossiaux:2009mk}{{529}{}{{}}{{}}}
\bibcite{Nahrgang:2013saa}{{530}{}{{}}{{}}}
\bibcite{Svetitsky:1987gq}{{531}{}{{}}{{}}}
\bibcite{Dokshitzer:1995qm}{{532}{}{{}}{{}}}
\bibcite{Peshier:2008bg}{{533}{}{{}}{{}}}
\bibcite{Weldon:1982aq}{{534}{}{{}}{{}}}
\bibcite{Peshier:2006hi}{{535}{}{{}}{{}}}
\bibcite{Peigne:2008nd}{{536}{}{{}}{{}}}
\bibcite{Uphoff:2010sh}{{537}{}{{}}{{}}}
\bibcite{Uphoff:2011ad}{{538}{}{{}}{{}}}
\bibcite{Uphoff:2013rka}{{539}{}{{}}{{}}}
\bibcite{Uphoff:2014hza}{{540}{}{{}}{{}}}
\bibcite{Xu:2004mz}{{541}{}{{}}{{}}}
\bibcite{Gossiaux:2010yx}{{542}{}{{}}{{}}}
\bibcite{Aichelin:2013mra}{{543}{}{{}}{{}}}
\bibcite{Gunion:1981qs}{{544}{}{{}}{{}}}
\bibcite{Gossiaux:2012cv}{{545}{}{{}}{{}}}
\bibcite{Baier:1996kr}{{546}{}{{}}{{}}}
\bibcite{Abir:2011jb}{{547}{}{{}}{{}}}
\bibcite{Fochler:2013epa}{{548}{}{{}}{{}}}
\bibcite{Fochler:2010wn}{{549}{}{{}}{{}}}
\bibcite{Ding:2012sp}{{550}{}{{}}{{}}}
\bibcite{Banerjee:2011ra}{{551}{}{{}}{{}}}
\bibcite{Kang:2014xsa}{{552}{}{{}}{{}}}
\bibcite{Redmer:1997}{{553}{}{{}}{{}}}
\bibcite{Jeukenne:1976uy}{{554}{}{{}}{{}}}
\bibcite{Brockmann:1990cn}{{555}{}{{}}{{}}}
\bibcite{Mannarelli:2005pz}{{556}{}{{}}{{}}}
\bibcite{Cabrera:2006wh}{{557}{}{{}}{{}}}
\bibcite{Riek:2010fk}{{558}{}{{}}{{}}}
\bibcite{Riek:2010py}{{559}{}{{}}{{}}}
\bibcite{vanHees:2007me}{{560}{}{{}}{{}}}
\bibcite{He:2011qa}{{561}{}{{}}{{}}}
\bibcite{Eichten:1978tg}{{562}{}{{}}{{}}}
\bibcite{Kaczmarek:2007pb}{{563}{}{{}}{{}}}
\bibcite{Huggins:2012dj}{{564}{}{{}}{{}}}
\bibcite{He:2011yi}{{565}{}{{}}{{}}}
\bibcite{Ding:2011hr}{{566}{}{{}}{{}}}
\bibcite{CasalderreySolana:2006rq}{{567}{}{{}}{{}}}
\bibcite{CaronHuot:2009uh}{{568}{}{{}}{{}}}
\bibcite{Banerjee:2012zj}{{569}{}{{}}{{}}}
\bibcite{Francis:2011gc}{{570}{}{{}}{{}}}
\bibcite{CasalderreySolana:2011us}{{571}{}{{}}{{}}}
\bibcite{DeWolfe:2013cua}{{572}{}{{}}{{}}}
\bibcite{Gubser:2006nz}{{573}{}{{}}{{}}}
\bibcite{Son:2009vu}{{574}{}{{}}{{}}}
\bibcite{Gossiaux:2011ea}{{575}{}{{}}{{}}}
\bibcite{Gyulassy:2001nm}{{576}{}{{}}{{}}}
\bibcite{Dainese:2003wq}{{577}{}{{}}{{}}}
\bibcite{deFlorian:2007aj}{{578}{}{{}}{{}}}
\bibcite{Cacciari:2003zu}{{579}{}{{}}{{}}}
\bibcite{Braaten:1994bz}{{580}{}{{}}{{}}}
\bibcite{Kartvelishvili:1977pi}{{581}{}{{}}{{}}}
\bibcite{Djordjevic:2014tka}{{582}{}{{}}{{}}}
\bibcite{Djordjevic:2013pba}{{583}{}{{}}{{}}}
\bibcite{Romatschke:2007mq}{{584}{}{{}}{{}}}
\bibcite{Beraudo:2014iva}{{585}{}{{}}{{}}}
\bibcite{Beraudo:2014boa}{{586}{}{{}}{{}}}
\bibcite{Cao:2013ita}{{587}{}{{}}{{}}}
\bibcite{Song:2007fn}{{588}{}{{}}{{}}}
\bibcite{Song:2007ux}{{589}{}{{}}{{}}}
\bibcite{Qiu:2011hf}{{590}{}{{}}{{}}}
\bibcite{Oh:2009zj}{{591}{}{{}}{{}}}
\bibcite{Werner:2010aa}{{592}{}{{}}{{}}}
\bibcite{Werner:2012xh}{{593}{}{{}}{{}}}
\bibcite{Werner:2013ipa}{{594}{}{{}}{{}}}
\bibcite{Cacciari:2001td}{{595}{}{{}}{{}}}
\bibcite{Nahrgang:2014ila}{{596}{}{{}}{{}}}
\bibcite{Borsanyi:2010bp}{{597}{}{{}}{{}}}
\bibcite{Nahrgang:2014vza}{{598}{}{{}}{{}}}
\bibcite{Xu:2007aa}{{599}{}{{}}{{}}}
\bibcite{Peterson:1982ak}{{600}{}{{}}{{}}}
\bibcite{Uphoff:2012gb}{{601}{}{{}}{{}}}
\bibcite{Kolb:2000sd}{{602}{}{{}}{{}}}
\bibcite{He:2011zx}{{603}{}{{}}{{}}}
\bibcite{Kolb:2002ve}{{604}{}{{}}{{}}}
\bibcite{Pratt:2008qv}{{605}{}{{}}{{}}}
\bibcite{He:2014cla}{{606}{}{{}}{{}}}
\bibcite{Ravagli:2007xx}{{607}{}{{}}{{}}}
\bibcite{Lang:2012cx}{{608}{}{{}}{{}}}
\bibcite{Lang:2013cca}{{609}{}{{}}{{}}}
\bibcite{Lang:2013wya}{{610}{}{{}}{{}}}
\bibcite{Petersen:2008dd}{{611}{}{{}}{{}}}
\bibcite{Bass:1998ca}{{612}{}{{}}{{}}}
\bibcite{Bleicher:1999xi}{{613}{}{{}}{{}}}
\bibcite{Rischke:1995mt}{{614}{}{{}}{{}}}
\bibcite{Rischke:1995ir}{{615}{}{{}}{{}}}
\bibcite{Steinheimer:2007iy}{{616}{}{{}}{{}}}
\bibcite{Cooper:1974mv}{{617}{}{{}}{{}}}
\bibcite{GolamMustafa:1997id}{{618}{}{{}}{{}}}
\bibcite{Gossiaux:2004qw}{{619}{}{{}}{{}}}
\bibcite{vanHees:2004gq}{{620}{}{{}}{{}}}
\bibcite{Moore:2004tg}{{621}{}{{}}{{}}}
\bibcite{vanHees:2005wb}{{622}{}{{}}{{}}}
\bibcite{He:2013zua}{{623}{}{{}}{{}}}
\bibcite{Horowitz:2007su}{{624}{}{{}}{{}}}
\bibcite{Horowitz:2011wm}{{625}{}{{}}{{}}}
\bibcite{Aamodt:2010cz}{{626}{}{{}}{{}}}
\bibcite{Akamatsu:2008ge}{{627}{}{{}}{{}}}
\bibcite{Cao:2011et}{{628}{}{{}}{{}}}
\bibcite{Arsene:2004fa}{{629}{}{{}}{{}}}
\bibcite{Adcox:2004mh}{{630}{}{{}}{{}}}
\bibcite{Back:2004je}{{631}{}{{}}{{}}}
\bibcite{Adams:2005dq}{{632}{}{{}}{{}}}
\bibcite{Chatrchyan:2011eka}{{633}{}{{}}{{}}}
\bibcite{Aamodt:2011vg}{{634}{}{{}}{{}}}
\bibcite{Renk:2006pk}{{635}{}{{}}{{}}}
\bibcite{Cao:2014pka}{{636}{}{{}}{{}}}
\bibcite{Renk:2013xaa}{{637}{}{{}}{{}}}
\bibcite{Colamaria:2014uja}{{638}{}{{}}{{}}}
\bibcite{Wang:2008kha}{{639}{}{{}}{{}}}
\bibcite{Thomas:2014cwa}{{640}{}{{}}{{}}}
\bibcite{Ozvenchuk:2014rpa}{{641}{}{{}}{{}}}
\bibcite{Cao:2014dja}{{642}{}{{}}{{}}}
\bibcite{Zhu:2007ne}{{643}{}{{}}{{}}}
\bibcite{Matsui:1986dk}{{644}{}{{}}{{}}}
\bibcite{Digal:2001ue}{{645}{}{{}}{{}}}
\bibcite{Thews:2000rj}{{646}{}{{}}{{}}}
\bibcite{BraunMunzinger:2000px}{{647}{}{{}}{{}}}
\bibcite{Stachel:2013zma}{{648}{}{{}}{{}}}
\bibcite{Afanasiev:2012dg}{{649}{}{{}}{{}}}
\bibcite{Chatrchyan:2012vq}{{650}{}{{}}{{}}}
\bibcite{Chatrchyan:2012nt}{{651}{}{{}}{{}}}
\bibcite{Aad:2012ew}{{652}{}{{}}{{}}}
\bibcite{Chatrchyan:2014csa}{{653}{}{{}}{{}}}
\bibcite{Zhao:2007hh}{{654}{}{{}}{{}}}
\bibcite{Zhao:2008pp}{{655}{}{{}}{{}}}
\bibcite{Abreu:1998wx}{{656}{}{{}}{{}}}
\bibcite{Abreu:1997ji}{{657}{}{{}}{{}}}
\bibcite{Abreu:1997jh}{{658}{}{{}}{{}}}
\bibcite{Abreu:1999qw}{{659}{}{{}}{{}}}
\bibcite{Abreu:2000ni}{{660}{}{{}}{{}}}
\bibcite{Abreu:2000xe}{{661}{}{{}}{{}}}
\bibcite{Abreu:2001kd}{{662}{}{{}}{{}}}
\bibcite{Alessandro:2004ap}{{663}{}{{}}{{}}}
\bibcite{Alessandro:2006ju}{{664}{}{{}}{{}}}
\bibcite{Arnaldi:2007zz}{{665}{}{{}}{{}}}
\bibcite{Adler:2003rc}{{666}{}{{}}{{}}}
\bibcite{Adare:2006ns}{{667}{}{{}}{{}}}
\bibcite{Adare:2011yf}{{668}{}{{}}{{}}}
\bibcite{Silvestre:2008tw}{{669}{}{{}}{{}}}
\bibcite{Atomssa:2009ek}{{670}{}{{}}{{}}}
\bibcite{Adare:2008sh}{{671}{}{{}}{{}}}
\bibcite{Adare:2014nsa}{{672}{}{{}}{{}}}
\bibcite{daSilva:2014ria}{{673}{}{{}}{{}}}
\bibcite{Adare:2012wf}{{674}{}{{}}{{}}}
\bibcite{Adare:2014hje}{{675}{}{{}}{{}}}
\bibcite{Adamczyk:2013tvk}{{676}{}{{}}{{}}}
\bibcite{Adamczyk:2012pw}{{677}{}{{}}{{}}}
\bibcite{Zha:2014nia}{{678}{}{{}}{{}}}
\bibcite{Abelev:2013ila}{{679}{}{{}}{{}}}
\bibcite{Abelev:2012rv}{{680}{}{{}}{{}}}
\bibcite{ALICE:2013xna}{{681}{}{{}}{{}}}
\bibcite{Arnaldi:2012bg}{{682}{}{{}}{{}}}
\bibcite{Abelev:2014nua}{{683}{}{{}}{{}}}
\bibcite{Aad:2010aa}{{684}{}{{}}{{}}}
\bibcite{CMS:2013dla}{{685}{}{{}}{{}}}
\bibcite{Khachatryan:2014bva}{{686}{}{{}}{{}}}
\bibcite{Chatrchyan:2011pe}{{687}{}{{}}{{}}}
\bibcite{Chatrchyan:2012lxa}{{688}{}{{}}{{}}}
\bibcite{Brambilla:2010vq}{{689}{}{{}}{{}}}
\bibcite{Brambilla:2004wf}{{690}{}{{}}{{}}}
\bibcite{Brambilla:2004jw}{{691}{}{{}}{{}}}
\bibcite{Brambilla:2014jmp}{{692}{}{{}}{{}}}
\bibcite{Asakawa:2000tr}{{693}{}{{}}{{}}}
\bibcite{Rothkopf:2011ef}{{694}{}{{}}{{}}}
\bibcite{Burnier:2013nla}{{695}{}{{}}{{}}}
\bibcite{Kim:2014iga}{{696}{}{{}}{{}}}
\bibcite{Aarts:2007pk}{{697}{}{{}}{{}}}
\bibcite{Kelly:2013cpa}{{698}{}{{}}{{}}}
\bibcite{Antoniazzi:1992af}{{699}{}{{}}{{}}}
\bibcite{Antoniazzi:1992iv}{{700}{}{{}}{{}}}
\bibcite{Karsch:2005nk}{{701}{}{{}}{{}}}
\bibcite{Aarts:2013kaa}{{702}{}{{}}{{}}}
\bibcite{Aarts:2011sm}{{703}{}{{}}{{}}}
\bibcite{Aarts:2010ek}{{704}{}{{}}{{}}}
\bibcite{Aarts:2014cda}{{705}{}{{}}{{}}}
\bibcite{Rakotozafindrabe:2011rw}{{706}{}{{}}{{}}}
\bibcite{RVinprog}{{707}{}{{}}{{}}}
\bibcite{Andronic:2008gu}{{708}{}{{}}{{}}}
\bibcite{BraunMunzinger:2000dv}{{709}{}{{}}{{}}}
\bibcite{BraunMunzinger:2000ep}{{710}{}{{}}{{}}}
\bibcite{BraunMunzinger:2009ih}{{711}{}{{}}{{}}}
\bibcite{Andronic:2006ky}{{712}{}{{}}{{}}}
\bibcite{Andronic:2007bi}{{713}{}{{}}{{}}}
\bibcite{Andronic:2008gm}{{714}{}{{}}{{}}}
\bibcite{Grandchamp:2003uw}{{715}{}{{}}{{}}}
\bibcite{Grandchamp:2005yw}{{716}{}{{}}{{}}}
\bibcite{Grandchamp:2001pf}{{717}{}{{}}{{}}}
\bibcite{Bhanot:1979vb}{{718}{}{{}}{{}}}
\bibcite{Brambilla:2013dpa}{{719}{}{{}}{{}}}
\bibcite{Grandchamp:2002wp}{{720}{}{{}}{{}}}
\bibcite{Song:2012at}{{721}{}{{}}{{}}}
\bibcite{Hamieh:2000tk}{{722}{}{{}}{{}}}
\bibcite{Zhao:2010nk}{{723}{}{{}}{{}}}
\bibcite{Zhao:2010ti}{{724}{}{{}}{{}}}
\bibcite{Schnedermann:1993ws}{{725}{}{{}}{{}}}
\bibcite{Zhao:2008vu}{{726}{}{{}}{{}}}
\bibcite{vanHees:2014ida}{{727}{}{{}}{{}}}
\bibcite{Zhao:2011cv}{{728}{}{{}}{{}}}
\bibcite{Emerick:2011xu}{{729}{}{{}}{{}}}
\bibcite{Yan:2006ve}{{730}{}{{}}{{}}}
\bibcite{Liu:2009nb}{{731}{}{{}}{{}}}
\bibcite{Zhou:2009vz}{{732}{}{{}}{{}}}
\bibcite{Zhou:2014kka}{{733}{}{{}}{{}}}
\bibcite{Attems:2012js}{{734}{}{{}}{{}}}
\bibcite{Berges:2012iw}{{735}{}{{}}{{}}}
\bibcite{Heller:2012je}{{736}{}{{}}{{}}}
\bibcite{vanderSchee:2013pia}{{737}{}{{}}{{}}}
\bibcite{Florkowski:2010cf}{{738}{}{{}}{{}}}
\bibcite{Martinez:2010sc}{{739}{}{{}}{{}}}
\bibcite{Martinez:2012tu}{{740}{}{{}}{{}}}
\bibcite{Bazow:2013ifa}{{741}{}{{}}{{}}}
\bibcite{Dumitru:2007hy}{{742}{}{{}}{{}}}
\bibcite{Dumitru:2009ni}{{743}{}{{}}{{}}}
\bibcite{Burnier:2009yu}{{744}{}{{}}{{}}}
\bibcite{Dumitru:2009fy}{{745}{}{{}}{{}}}
\bibcite{Margotta:2011ta}{{746}{}{{}}{{}}}
\bibcite{Strickland:2011mw}{{747}{}{{}}{{}}}
\bibcite{Strickland:2011aa}{{748}{}{{}}{{}}}
\bibcite{Strickland:2012as}{{749}{}{{}}{{}}}
\bibcite{Schenke:2011tv}{{750}{}{{}}{{}}}
\bibcite{Capella:2000zp}{{751}{}{{}}{{}}}
\bibcite{Capella:2007jv}{{752}{}{{}}{{}}}
\bibcite{Ferreiro:2012rq}{{753}{}{{}}{{}}}
\bibcite{Andronic:2011yq}{{754}{}{{}}{{}}}
\bibcite{Book:2014mia}{{755}{}{{}}{{}}}
\bibcite{Zhao:2012gc}{{756}{}{{}}{{}}}
\bibcite{Liu:2009gx}{{757}{}{{}}{{}}}
\bibcite{Chatrchyan:2012xq}{{758}{}{{}}{{}}}
\bibcite{Du:2015wha}{{759}{}{{}}{{}}}
\bibcite{Andronic:2014sga}{{760}{}{{}}{{}}}
\bibcite{Strickland:2012cq}{{761}{}{{}}{{}}}
\bibcite{Satz:1993pb}{{762}{}{{}}{{}}}
\bibcite{Satz:2013ama}{{763}{}{{}}{{}}}
\bibcite{Adam:2015gsa}{{764}{}{{}}{{}}}
\bibcite{Baur:1998sr}{{765}{}{{}}{{}}}
\bibcite{Baur:2001jj}{{766}{}{{}}{{}}}
\bibcite{Bertulani:2005ru}{{767}{}{{}}{{}}}
\bibcite{Baltz:2007kq}{{768}{}{{}}{{}}}
\bibcite{Fermi:1924tc}{{769}{}{{}}{{}}}
\bibcite{Fermi:1925fq}{{770}{}{{}}{{}}}
\bibcite{vonWeizsacker:1934sx}{{771}{}{{}}{{}}}
\bibcite{Williams:1934ad}{{772}{}{{}}{{}}}
\bibcite{Klein:1999qj}{{773}{}{{}}{{}}}
\bibcite{Abelev:2013qoq}{{774}{}{{}}{{}}}
\bibcite{Afanasiev:2009hy}{{775}{}{{}}{{}}}
\bibcite{Baltz:2002pp}{{776}{}{{}}{{}}}
\bibcite{Strikman:2005ze}{{777}{}{{}}{{}}}
\bibcite{Abreu:2007kv}{{778}{}{{}}{{}}}
\bibcite{Abbas:2013oua}{{779}{}{{}}{{}}}
\bibcite{Abelev:2012ba}{{780}{}{{}}{{}}}
\bibcite{CMS:2014ies}{{781}{}{{}}{{}}}
\bibcite{Aamodt:2008zz}{{782}{}{{}}{{}}}
\bibcite{Chatrchyan:2008aa}{{783}{}{{}}{{}}}
\bibcite{Guzey:2013jaa}{{784}{}{{}}{{}}}
\bibcite{Adeluyi:2012ph}{{785}{}{{}}{{}}}
\bibcite{Broz:2014wka}{{786}{}{{}}{{}}}
\bibcite{Adloff:2002re}{{787}{}{{}}{{}}}
\bibcite{Aaltonen:2009kg}{{788}{}{{}}{{}}}
\bibcite{Aaij:2013jxj}{{789}{}{{}}{{}}}
\bibcite{Lardeux:2013dla}{{790}{}{{}}{{}}}
\bibcite{Joakim2010}{{791}{}{{}}{{}}}
\bibcite{LaureQM2014}{{792}{}{{}}{{}}}
\bibcite{Adeluyi:2013tuu}{{793}{}{{}}{{}}}
\bibcite{Cisek:2012yt}{{794}{}{{}}{{}}}
\bibcite{Klein:2003vd}{{795}{}{{}}{{}}}
\bibcite{Lappi:2010dd}{{796}{}{{}}{{}}}
\bibcite{Lappi:2013am}{{797}{}{{}}{{}}}
\bibcite{Goncalves:2011vf}{{798}{}{{}}{{}}}
\bibcite{Ducati:2013bya}{{799}{}{{}}{{}}}
\bibcite{Rebyakova:2011vf}{{800}{}{{}}{{}}}
\bibcite{Ryskin:1992ui}{{801}{}{{}}{{}}}
\bibcite{Brodsky:1994kf}{{802}{}{{}}{{}}}
\bibcite{Guzey:2013qza}{{803}{}{{}}{{}}}
\bibcite{Martin:2009iq}{{804}{}{{}}{{}}}
\bibcite{Eskola:2008ca}{{805}{}{{}}{{}}}
\bibcite{Hirai:2004wq}{{806}{}{{}}{{}}}
\bibcite{Frankfurt:2011cs}{{807}{}{{}}{{}}}
\bibcite{Martin:2007sb}{{808}{}{{}}{{}}}
\bibcite{Shuvaev:1999ce}{{809}{}{{}}{{}}}
\bibcite{Gribov:1968ie}{{810}{}{{}}{{}}}
\bibcite{Bartels:2003yj}{{811}{}{{}}{{}}}
\bibcite{Kowalski:2003hm}{{812}{}{{}}{{}}}
\bibcite{Nemchik:1994fp}{{813}{}{{}}{{}}}
\bibcite{Nemchik:1996cw}{{814}{}{{}}{{}}}
\bibcite{Iancu:2003ge}{{815}{}{{}}{{}}}
\bibcite{Balitsky:1995ub}{{816}{}{{}}{{}}}
\bibcite{Kovchegov:1999yj}{{817}{}{{}}{{}}}
\bibcite{Kovchegov:1999ua}{{818}{}{{}}{{}}}
\bibcite{Kowalski:2006hc}{{819}{}{{}}{{}}}
\bibcite{Nemchik:2000de}{{820}{}{{}}{{}}}
\bibcite{Deshpande:2005wd}{{821}{}{{}}{{}}}
\bibcite{Dainton:2006wd}{{822}{}{{}}{{}}}
\bibcite{Bordry:2013}{{823}{}{{}}{{}}}
\bibcite{Rossi:2012}{{824}{}{{}}{{}}}
\bibcite{Chatrchyan201230}{{825}{}{{}}{{}}}
\bibcite{Aad20121}{{826}{}{{}}{{}}}
\bibcite{Abelevetal:2014cna}{{827}{}{{}}{{}}}
\bibcite{ALICE_MFT_LoI}{{828}{}{{}}{{}}}
\bibcite{ALICE_ITS_TDR}{{829}{}{{}}{{}}}
\bibcite{ALICE_MFT_TDR}{{830}{}{{}}{{}}}
\bibcite{ALICEUpgrade_TDR}{{831}{}{{}}{{}}}
\bibcite{Andronic:2009sv}{{832}{}{{}}{{}}}
\bibcite{ATLAS:TDR:19}{{833}{}{{}}{{}}}
\bibcite{ATLAS:Btagging}{{834}{}{{}}{{}}}
\bibcite{ATLAS:LoI:Phase2}{{835}{}{{}}{{}}}
\bibcite{ATLAS:LoI:Phase1}{{836}{}{{}}{{}}}
\bibcite{ATLAS:TDR:23}{{837}{}{{}}{{}}}
\bibcite{CMS_L1_Trigger_TDR}{{838}{}{{}}{{}}}
\bibcite{CMS_Pixel_TDR}{{839}{}{{}}{{}}}
\bibcite{CMS_HCAL_TDR}{{840}{}{{}}{{}}}
\bibcite{CMS:2013gga}{{841}{}{{}}{{}}}
\bibcite{CMS:Phase2}{{842}{}{{}}{{}}}
\bibcite{Bediaga:1443882}{{843}{}{{}}{{}}}
\bibcite{CERN-LHCC-2014-016}{{844}{}{{}}{{}}}
\bibcite{Collaboration:1624070}{{845}{}{{}}{{}}}
\bibcite{Collaboration:1647400}{{846}{}{{}}{{}}}
\bibcite{Collaboration:1624074}{{847}{}{{}}{{}}}
\bibcite{Akiba:2015jwa}{{848}{}{{}}{{}}}
\bibcite{RHIC_Projections}{{849}{}{{}}{{}}}
\bibcite{Adare:2015kwa}{{850}{}{{}}{{}}}
\bibcite{Aidala:2012nz}{{851}{}{{}}{{}}}
\bibcite{STAR:2015bur}{{852}{}{{}}{{}}}
\bibcite{STAR:2013bur}{{853}{}{{}}{{}}}
\bibcite{STAR_Decadal}{{854}{}{{}}{{}}}
\bibcite{Aubert:1974js}{{855}{}{{}}{{}}}
\bibcite{Herb:1977ek}{{856}{}{{}}{{}}}
\bibcite{Armstrong:1992ae}{{857}{}{{}}{{}}}
\bibcite{Hoyer:1990us}{{858}{}{{}}{{}}}
\bibcite{Badier:1982ae}{{859}{}{{}}{{}}}
\bibcite{Reimer:2001bt}{{860}{}{{}}{{}}}
\bibcite{Quintans:2011zz}{{861}{}{{}}{{}}}
\bibcite{Sivers:1989cc}{{862}{}{{}}{{}}}
\bibcite{Ali:2013yva}{{863}{}{{}}{{}}}
\bibcite{Friman:2011zz}{{864}{}{{}}{{}}}
\bibcite{Costantini:1993rr}{{865}{}{{}}{{}}}
\bibcite{Uggerhoj:2005xz}{{866}{}{{}}{{}}}
\bibcite{Brodsky:2012vg}{{867}{}{{}}{{}}}
\bibcite{Lansberg:2012kf}{{868}{}{{}}{{}}}
\bibcite{Lansberg:2012wj}{{869}{}{{}}{{}}}
\bibcite{Rakotozafindrabe:2012ei}{{870}{}{{}}{{}}}
\bibcite{FerroLuzzi:2005em}{{871}{}{{}}{{}}}
\bibcite{Arleo:2012dxa}{{872}{}{{}}{{}}}
\bibcite{Kurepin:2011zz}{{873}{}{{}}{{}}}
\providecommand\NAT@force@numbers{}\NAT@force@numbers
