This is BibTeX, Version 0.99d (TeX Live 2014/MacPorts 2014_3)
Capacity: max_strings=35307, hash_size=35307, hash_prime=30011
The top-level auxiliary file: svjourn3-epjc.aux
A level-1 auxiliary file: pp/pp.aux
A level-1 auxiliary file: CNM/CNM.aux
A level-1 auxiliary file: OHF/OHF.aux
A level-1 auxiliary file: QUARKONIA/QUARKONIA.aux
A level-1 auxiliary file: UPGRADE/UPGRADE.aux
A level-1 auxiliary file: DIFFRACTION/DIFFRACTION.aux
The style file: ieeetr.bst
Reallocated field_info (elt_size=4) to 14223 items from 5000.
Database file #1: fullBiblio.bib
Warning--string name "september" is undefined
--line 5317 of file fullBiblio.bib
Warning--I didn't find a database entry for "Fritzsch:1977ay"
Warning--I didn't find a database entry for "Halzen:1977rs"
Warning--I didn't find a database entry for "Amundson:1995em"
Warning--I didn't find a database entry for "Bedjidian:2004gd"
Warning--I didn't find a database entry for "Chang:1979nn"
Warning--I didn't find a database entry for "Baier:1981uk"
Warning--I didn't find a database entry for "Baier:1983va"
Warning--I didn't find a database entry for "Campbell:2007ws"
Warning--I didn't find a database entry for "Artoisenet:2007xi"
Warning--I didn't find a database entry for "Gong:2008sn"
Warning--I didn't find a database entry for "Gong:2008hk"
Warning--I didn't find a database entry for "Artoisenet:2008fc"
Warning--I didn't find a database entry for "Lansberg:2008gk"
Warning--I didn't find a database entry for "ConesadelValle:2011fw"
Warning--I didn't find a database entry for "Brodsky:2009cf"
Warning--I didn't find a database entry for "Lansberg:2010cn"
Warning--I didn't find a database entry for "Ma:2008gq"
Warning--I didn't find a database entry for "Gong:2009kp"
Warning--I didn't find a database entry for "He:2009uf"
Warning--I didn't find a database entry for "Aaron:2010gz"
Warning--I didn't find a database entry for "Barbieri:1976fp"
Warning--I didn't find a database entry for "Bodwin:1992ye"
Warning--I didn't find a database entry for "Adare:2009js"
Warning--I didn't find a database entry for "Adamczyk:2013vjy"
Warning--I didn't find a database entry for "Affolder:2000nn"
Warning--I didn't find a database entry for "Abulencia:2007us"
Warning--I didn't find a database entry for "Abelev:2011md"
Warning--I didn't find a database entry for "Aaij:2013nlm"
Warning--I didn't find a database entry for "Chatrchyan:2013cla"
Warning--I didn't find a database entry for "Aaij:2014qea"
Warning--I didn't find a database entry for "Abelev:2014oea"
Warning--I didn't find a database entry for "kz91"
Warning--I didn't find a database entry for "kst2"
Warning--I didn't find a database entry for "kth-psi"
Warning--I didn't find a database entry for "nontrivial"
Warning--I didn't find a database entry for "psi-lhc"
Warning--I didn't find a database entry for "phenix-last"
Warning--I didn't find a database entry for "cronin"
Warning--I didn't find a database entry for "alice-psi"
Warning--I didn't find a database entry for "hkz"
Warning--I didn't find a database entry for "novel"
Warning--I didn't find a database entry for "Abt2006va"
Warning--I didn't find a database entry for "gyulassy"
Warning--I didn't find a database entry for "bdmps"
Warning--I didn't find a database entry for "thoma"
Warning--I didn't find a database entry for "dk"
Warning--I didn't find a database entry for "asw"
Warning--I didn't find a database entry for "dg"
Warning--I didn't find a database entry for "wang"
Warning--I didn't find a database entry for "whdg"
Warning--I didn't find a database entry for "adil"
Warning--I didn't find a database entry for "vitev"
Warning--I didn't find a database entry for "glauber"
Warning--I didn't find a database entry for "batsouli"
Warning--I didn't find a database entry for "grecoetal"
Warning--I didn't find a database entry for "andronicetal"
Warning--I didn't find a database entry for "PBM"
Warning--I didn't find a database entry for "BailhacheQM2014"
Warning--I didn't find a database entry for "Ding:2014kva"
Warning--I didn't find a database entry for "Lat"
Warning--I didn't find a database entry for "Conf"
Warning--I didn't find a database entry for "Aarts:2014cda"
Warning--I didn't find a database entry for "Aarts:2013kaa"
Warning--I didn't find a database entry for "Asakawa:2000tr"
Warning--I didn't find a database entry for "Rothkopf:2011ef"
Warning--I didn't find a database entry for "Burnier:2013nla"
Warning--I didn't find a database entry for "Kim:2014iga"
Warning--I didn't find a database entry for "Aarts:2007pk"
Warning--I didn't find a database entry for "Kelly:2013cpa"
Warning--I didn't find a database entry for "Aarts:2010ek"
Warning--I didn't find a database entry for "Pederiva:2014qea"
Warning--I didn't find a database entry for "Colangelo:2012jy"
Warning--I didn't find a database entry for "fig:PHENIX_200GeV"
Warning--I didn't find a database entry for "fig:PHENIX_energyscan"
Warning--empty journal in Adare:2013lkk
Warning--empty journal in Adare:2014iwg
Warning--empty journal in Adamczyk:2013poh
Warning--empty journal in Abelev:2014zpa
Warning--empty journal in Abelev:2014hha
Warning--empty journal in Peigne:2014uha
Warning--empty journal in Peigne:2014rka
Warning--empty journal in ALICE:2013spa
Warning--empty journal in Ferreiro:2014bia
Warning--empty journal in Aaij:2014mza
Warning--empty journal in Bjorken:1982tu
Warning--empty journal in Brambilla:2004wf
Warning--empty journal in Zhao:2008vu
Warning--empty journal in vanHees:2014ida
Warning--empty journal in Bazow:2013ifa
Warning--empty institution in CMS-PAS-HIN-12-014
Warning--empty institution in CMS-PAS-HIN-12-001
Warning--empty journal in Abelev:2014nua
Warning--can't use both author and editor fields in Vogt:2009a
Warning--empty author in CMS:2013gga
Warning--empty journal in CMS:2013gga
Warning--empty author in CMS_L1_Trigger_TDR
Warning--empty journal in Aidala:2012nz
You've used 327 entries,
            1876 wiz_defined-function locations,
            2381 strings with 54091 characters,
and the built_in function-call counts, 87401 in all, are:
= -- 9020
> -- 2938
< -- 2
+ -- 1108
- -- 781
* -- 4975
:= -- 11694
add.period$ -- 333
call.type$ -- 327
change.case$ -- 323
chr.to.int$ -- 0
cite$ -- 350
duplicate$ -- 5482
empty$ -- 7866
format.name$ -- 781
if$ -- 22514
int.to.chr$ -- 0
int.to.str$ -- 327
missing$ -- 326
newline$ -- 990
num.names$ -- 325
pop$ -- 963
preamble$ -- 1
purify$ -- 0
quote$ -- 0
skip$ -- 4423
stack$ -- 0
substring$ -- 4473
swap$ -- 2861
text.length$ -- 2
text.prefix$ -- 0
top$ -- 0
type$ -- 0
warning$ -- 23
while$ -- 694
width$ -- 330
write$ -- 3169
(There were 98 warnings)
