%!PS-Adobe-3.0 EPSF-3.0
%%BoundingBox: (atend)
%%LanguageLevel: 2
%%Creator: Grace-5.1.22
%%CreationDate: Mon Mar 25 18:57:03 2013
%%DocumentData: Clean8Bit
%%Orientation: Portrait
%%Title: fig11_lhc2760pbpbraanpart.agr
%%For: ivitev
%%DocumentNeededResources: (atend)
%%EndComments
%%BeginProlog
/m {moveto} def
/l {lineto} def
/s {stroke} def
/n {newpath} def
/c {closepath} def
/RL {rlineto} def
/SLW {setlinewidth} def
/GS {gsave} def
/GR {grestore} def
/SC {setcolor} def
/SGRY {setgray} def
/SRGB {setrgbcolor} def
/SD {setdash} def
/SLC {setlinecap} def
/SLJ {setlinejoin} def
/SCS {setcolorspace} def
/FFSF {findfont setfont} def
/CC {concat} def
/PXL {n m 0 0 RL s} def
/Color0 {1.0000 1.0000 1.0000} def
/Color1 {0.0000 0.0000 0.0000} def
/Color2 {1.0000 0.0000 0.0000} def
/Color3 {0.0000 1.0000 0.0000} def
/Color4 {0.0000 0.0000 1.0000} def
/Color5 {1.0000 1.0000 0.0000} def
/Color6 {0.7373 0.5608 0.5608} def
/Color7 {0.8627 0.8627 0.8627} def
/Color8 {0.5804 0.0000 0.8275} def
/Color9 {0.0000 1.0000 1.0000} def
/Color10 {1.0000 0.0000 1.0000} def
/Color11 {1.0000 0.6471 0.0000} def
/Color12 {0.4471 0.1294 0.7373} def
/Color13 {0.4039 0.0275 0.2824} def
/Color14 {0.2510 0.8784 0.8157} def
/Color15 {0.0000 0.5451 0.0000} def
/Color16 {0.7529 0.7529 0.7529} def
/Color17 {0.5059 0.5059 0.5059} def
/Color18 {0.2588 0.2588 0.2588} def
/PTRN {
 /pat_bits exch def 
 <<
  /PaintType 2
  /PatternType 1 /TilingType 1
  /BBox[0 0 16 16]
  /XStep 16 /YStep 16
  /PaintProc {
   pop
   16 16 true [-1 0 0 -1 16 16] pat_bits imagemask
  }
 >>
 [0.0016 0 0 0.0016 0 0]
 makepattern
} def
/Pattern0 {<0000000000000000000000000000000000000000000000000000000000000000> PTRN} bind def
/Pattern1 {<ffffffffffffffffffffffffffffffffffffffffffffffffffffffffffffffff> PTRN} bind def
/Pattern2 {<eeeeffffbbbbffffeeeeffffbbbbffffeeeeffffbbbbffffeeeeffffbbbbffff> PTRN} bind def
/Pattern3 {<eeeebbbbeeeebbbbeeeebbbbeeeebbbbeeeebbbbeeeebbbbeeeebbbbeeeebbbb> PTRN} bind def
/Pattern4 {<5555aaaa5555aaaa5555aaaa5555aaaa5555aaaa5555aaaa5555aaaa5555aaaa> PTRN} bind def
/Pattern5 {<1111444411114444111144441111444411114444111144441111444411114444> PTRN} bind def
/Pattern6 {<1111000044440000111100004444000011110000444400001111000044440000> PTRN} bind def
/Pattern7 {<1010000000000000010100000000000010100000000000000101000000000000> PTRN} bind def
/Pattern8 {<0000000000000000000000000000000000000000000000000000000000000000> PTRN} bind def
/Pattern9 {<1e1e0f0f8787c3c3e1e1f0f078783c3c1e1e0f0f8787c3c3e1e1f0f078783c3c> PTRN} bind def
/Pattern10 {<7878f0f0e1e1c3c387870f0f1e1e3c3c7878f0f0e1e1c3c387870f0f1e1e3c3c> PTRN} bind def
/Pattern11 {<3333333333333333333333333333333333333333333333333333333333333333> PTRN} bind def
/Pattern12 {<ffffffff00000000ffffffff00000000ffffffff00000000ffffffff00000000> PTRN} bind def
/Pattern13 {<8181424224241818181824244242818181814242242418181818242442428181> PTRN} bind def
/Pattern14 {<8080404020201010080804040202010180804040202010100808040402020101> PTRN} bind def
/Pattern15 {<0101020204040808101020204040808001010202040408081010202040408080> PTRN} bind def
/Pattern16 {<2222222222222222222222222222222222222222222222222222222222222222> PTRN} bind def
/Pattern17 {<0000ffff000000000000ffff000000000000ffff000000000000ffff00000000> PTRN} bind def
/Pattern18 {<2222ffff222222222222ffff222222222222ffff222222222222ffff22222222> PTRN} bind def
/Pattern19 {<ffffffff33333333ffffffff33333333ffffffff33333333ffffffff33333333> PTRN} bind def
/Pattern20 {<0f0f0f0f0f0f0f0ff0f0f0f0f0f0f0f00f0f0f0f0f0f0f0ff0f0f0f0f0f0f0f0> PTRN} bind def
/Pattern21 {<ff00ff00ff00ff00ff00ff00ff00ff0000ff00ff00ff00ff00ff00ff00ff00ff> PTRN} bind def
/Pattern22 {<8001800180018001800180018001ffffffff8001800180018001800180018001> PTRN} bind def
/Pattern23 {<c003c003c003c003c003c003ffffffffffffffffc003c003c003c003c003c003> PTRN} bind def
/Pattern24 {<040404040404ffff404040404040ffff040404040404ffff404040404040ffff> PTRN} bind def
/Pattern25 {<180018001800180018001800ffffffff001800180018001800180018ffffffff> PTRN} bind def
/Pattern26 {<1111b8b87c7c3a3a1111a3a3c7c78b8b1111b8b87c7c3a3a1111a3a3c7c78b8b> PTRN} bind def
/Pattern27 {<101010102828c7c70101010182827c7c101010102828c7c70101010182827c7c> PTRN} bind def
/Pattern28 {<1c1c121211112121c1c12121111112121c1c121211112121c1c1212111111212> PTRN} bind def
/Pattern29 {<3e3e414180808080e3e31414080808083e3e414180808080e3e3141408080808> PTRN} bind def
/Pattern30 {<4848888884848383848488884848383848488888848483838484888848483838> PTRN} bind def
/Pattern31 {<03030404080808080c0c12122121c0c003030404080808080c0c12122121c0c0> PTRN} bind def
/ellipsedict 8 dict def
ellipsedict /mtrx matrix put
/EARC {
 ellipsedict begin
  /endangle exch def
  /startangle exch def
  /yrad exch def
  /xrad exch def
  /y exch def
  /x exch def
  /savematrix mtrx currentmatrix def
  x y translate
  xrad yrad scale
  0 0 1 startangle endangle arc
  savematrix setmatrix
 end
} def
/TL {
  /kcomp exch def
  /linewidth exch def
  /offset exch def
  GS
  0 offset rmoveto
  linewidth SLW
  dup stringwidth exch kcomp add exch RL s
  GR
} def
/KINIT
{
 /kvector exch def
 /kid 0 def
} def
/KPROC
{
 pop pop
 kvector kid get
 0 rmoveto
 /kid 1 kid add def
} def
/DefEncoding [
 /.notdef
 /.notdef
 /.notdef
 /.notdef
 /.notdef
 /.notdef
 /.notdef
 /.notdef
 /.notdef
 /.notdef
 /.notdef
 /.notdef
 /.notdef
 /.notdef
 /.notdef
 /.notdef
 /.notdef
 /.notdef
 /.notdef
 /.notdef
 /.notdef
 /.notdef
 /.notdef
 /.notdef
 /.notdef
 /.notdef
 /.notdef
 /.notdef
 /.notdef
 /.notdef
 /.notdef
 /.notdef
 /space
 /exclam
 /quotedbl
 /numbersign
 /dollar
 /percent
 /ampersand
 /quoteright
 /parenleft
 /parenright
 /asterisk
 /plus
 /comma
 /hyphen
 /period
 /slash
 /zero
 /one
 /two
 /three
 /four
 /five
 /six
 /seven
 /eight
 /nine
 /colon
 /semicolon
 /less
 /equal
 /greater
 /question
 /at
 /A
 /B
 /C
 /D
 /E
 /F
 /G
 /H
 /I
 /J
 /K
 /L
 /M
 /N
 /O
 /P
 /Q
 /R
 /S
 /T
 /U
 /V
 /W
 /X
 /Y
 /Z
 /bracketleft
 /backslash
 /bracketright
 /asciicircum
 /underscore
 /grave
 /a
 /b
 /c
 /d
 /e
 /f
 /g
 /h
 /i
 /j
 /k
 /l
 /m
 /n
 /o
 /p
 /q
 /r
 /s
 /t
 /u
 /v
 /w
 /x
 /y
 /z
 /braceleft
 /bar
 /braceright
 /asciitilde
 /.notdef
 /.notdef
 /.notdef
 /.notdef
 /.notdef
 /.notdef
 /.notdef
 /.notdef
 /.notdef
 /.notdef
 /.notdef
 /.notdef
 /.notdef
 /.notdef
 /.notdef
 /.notdef
 /.notdef
 /.notdef
 /.notdef
 /.notdef
 /.notdef
 /.notdef
 /.notdef
 /.notdef
 /.notdef
 /.notdef
 /.notdef
 /.notdef
 /.notdef
 /.notdef
 /.notdef
 /.notdef
 /.notdef
 /space
 /exclamdown
 /cent
 /sterling
 /currency
 /yen
 /brokenbar
 /section
 /dieresis
 /copyright
 /ordfeminine
 /guillemotleft
 /logicalnot
 /hyphen
 /registered
 /macron
 /degree
 /plusminus
 /twosuperior
 /threesuperior
 /acute
 /mu
 /paragraph
 /periodcentered
 /cedilla
 /onesuperior
 /ordmasculine
 /guillemotright
 /onequarter
 /onehalf
 /threequarters
 /questiondown
 /Agrave
 /Aacute
 /Acircumflex
 /Atilde
 /Adieresis
 /Aring
 /AE
 /Ccedilla
 /Egrave
 /Eacute
 /Ecircumflex
 /Edieresis
 /Igrave
 /Iacute
 /Icircumflex
 /Idieresis
 /Eth
 /Ntilde
 /Ograve
 /Oacute
 /Ocircumflex
 /Otilde
 /Odieresis
 /multiply
 /Oslash
 /Ugrave
 /Uacute
 /Ucircumflex
 /Udieresis
 /Yacute
 /Thorn
 /germandbls
 /agrave
 /aacute
 /acircumflex
 /atilde
 /adieresis
 /aring
 /ae
 /ccedilla
 /egrave
 /eacute
 /ecircumflex
 /edieresis
 /igrave
 /iacute
 /icircumflex
 /idieresis
 /eth
 /ntilde
 /ograve
 /oacute
 /ocircumflex
 /otilde
 /odieresis
 /divide
 /oslash
 /ugrave
 /uacute
 /ucircumflex
 /udieresis
 /yacute
 /thorn
 /ydieresis
] def
%%EndProlog
%%BeginSetup
%%EndSetup
612.00 612.00 scale
[/DeviceRGB] SCS
Color2 SC
[] 0 SD
0.0015 SLW
0 SLC
0 SLJ
n
1.0250 0.2667 m
1.0250 0.2725 l
s
n
1.0185 0.2725 m
1.0315 0.2725 l
s
n
1.0250 0.2667 m
1.0250 0.2608 l
s
n
1.0315 0.2608 m
1.0185 0.2608 l
s
n
0.8000 0.2783 m
0.8000 0.2900 l
s
n
0.7935 0.2900 m
0.8065 0.2900 l
s
n
0.8000 0.2783 m
0.8000 0.2667 l
s
n
0.8065 0.2667 m
0.7935 0.2667 l
s
n
0.6125 0.3658 m
0.6125 0.3833 l
s
n
0.6060 0.3833 m
0.6190 0.3833 l
s
n
0.6125 0.3658 m
0.6125 0.3483 l
s
n
0.6190 0.3483 m
0.6060 0.3483 l
s
n
0.4750 0.4475 m
0.4750 0.4767 l
s
n
0.4685 0.4767 m
0.4815 0.4767 l
s
n
0.4750 0.4475 m
0.4750 0.4183 l
s
n
0.4815 0.4183 m
0.4685 0.4183 l
s
n
0.3625 0.5350 m
0.3625 0.5817 l
s
n
0.3560 0.5817 m
0.3690 0.5817 l
s
n
0.3625 0.5350 m
0.3625 0.4883 l
s
n
0.3690 0.4883 m
0.3560 0.4883 l
s
n
0.2125 0.5058 m
0.2125 0.5642 l
s
n
0.2060 0.5642 m
0.2190 0.5642 l
s
n
0.2125 0.5058 m
0.2125 0.4475 l
s
n
0.2190 0.4475 m
0.2060 0.4475 l
s
n
0.2375 0.5264 m
0.4250 0.4623 l
0.9125 0.3941 l
1.0250 0.3859 l
1.0250 0.1500 l
0.2375 0.1500 l
c
GS
Color0 SRGB
fill
GR
[/Pattern /DeviceRGB] SCS
Color5 Pattern3 SC
fill
[/DeviceRGB] SCS
Color10 SC
[] 0 SD
0.0030 SLW
n
0.2375 0.5264 m
0.4250 0.4623 l
0.9125 0.3941 l
1.0250 0.3859 l
s
n
0.2375 0.4955 m
0.4250 0.4398 l
0.9125 0.3784 l
1.0250 0.3718 l
1.0250 0.1500 l
0.2375 0.1500 l
c
[/DeviceRGB] SCS
Color0 SC
fill
[/DeviceRGB] SCS
Color10 SC
n
0.2375 0.4955 m
0.4250 0.4398 l
0.9125 0.3784 l
1.0250 0.3718 l
s
n
0.2375 0.4867 m
0.4250 0.4165 l
0.9125 0.3499 l
1.0250 0.3433 l
1.0250 0.1500 l
0.2375 0.1500 l
c
GS
Color0 SRGB
fill
GR
[/Pattern /DeviceRGB] SCS
Color5 Pattern3 SC
fill
[/DeviceRGB] SCS
Color9 SC
n
0.2375 0.4867 m
0.4250 0.4165 l
0.9125 0.3499 l
1.0250 0.3433 l
s
n
0.2375 0.4521 m
0.4250 0.3938 l
0.9125 0.3350 l
1.0250 0.3296 l
1.0250 0.1500 l
0.2375 0.1500 l
c
[/DeviceRGB] SCS
Color0 SC
fill
[/DeviceRGB] SCS
Color9 SC
n
0.2375 0.4521 m
0.4250 0.3938 l
0.9125 0.3350 l
1.0250 0.3296 l
s
[/DeviceRGB] SCS
Color7 SC
[0.0210 0.0090 ] 0 SD
0.0030 SLW
n
0.1500 0.7333 m
1.1500 0.7333 l
s
[/DeviceRGB] SCS
Color11 SC
[] 0 SD
0.0015 SLW
n
1.0250 0.2667 m
1.0250 0.2842 l
s
n
1.0150 0.2842 m
1.0350 0.2842 l
s
n
1.0250 0.2667 m
1.0250 0.2492 l
s
n
1.0350 0.2492 m
1.0150 0.2492 l
s
n
0.8000 0.2783 m
0.8000 0.2958 l
s
n
0.7900 0.2958 m
0.8100 0.2958 l
s
n
0.8000 0.2783 m
0.8000 0.2608 l
s
n
0.8100 0.2608 m
0.7900 0.2608 l
s
n
0.6125 0.3658 m
0.6125 0.4008 l
s
n
0.6025 0.4008 m
0.6225 0.4008 l
s
n
0.6125 0.3658 m
0.6125 0.3308 l
s
n
0.6225 0.3308 m
0.6025 0.3308 l
s
n
0.4750 0.4475 m
0.4750 0.5000 l
s
n
0.4650 0.5000 m
0.4850 0.5000 l
s
n
0.4750 0.4475 m
0.4750 0.3950 l
s
n
0.4850 0.3950 m
0.4650 0.3950 l
s
n
0.3625 0.5350 m
0.3625 0.6108 l
s
n
0.3525 0.6108 m
0.3725 0.6108 l
s
n
0.3625 0.5350 m
0.3625 0.4592 l
s
n
0.3725 0.4592 m
0.3525 0.4592 l
s
n
0.2125 0.5058 m
0.2125 0.5758 l
s
n
0.2025 0.5758 m
0.2225 0.5758 l
s
n
0.2125 0.5058 m
0.2125 0.4358 l
s
n
0.2225 0.4358 m
0.2025 0.4358 l
s
n
1.0165 0.2582 m
1.0165 0.2752 l
1.0335 0.2752 l
1.0335 0.2582 l
c
fill
[/DeviceRGB] SCS
Color2 SC
n
1.0165 0.2582 m
1.0165 0.2752 l
1.0335 0.2752 l
1.0335 0.2582 l
1.0165 0.2582 l
c
s
n
0.7915 0.2698 m
0.7915 0.2868 l
0.8085 0.2868 l
0.8085 0.2698 l
c
[/DeviceRGB] SCS
Color11 SC
fill
[/DeviceRGB] SCS
Color2 SC
n
0.7915 0.2698 m
0.7915 0.2868 l
0.8085 0.2868 l
0.8085 0.2698 l
0.7915 0.2698 l
c
s
n
0.6040 0.3573 m
0.6040 0.3743 l
0.6210 0.3743 l
0.6210 0.3573 l
c
[/DeviceRGB] SCS
Color11 SC
fill
[/DeviceRGB] SCS
Color2 SC
n
0.6040 0.3573 m
0.6040 0.3743 l
0.6210 0.3743 l
0.6210 0.3573 l
0.6040 0.3573 l
c
s
n
0.4665 0.4390 m
0.4665 0.4560 l
0.4835 0.4560 l
0.4835 0.4390 l
c
[/DeviceRGB] SCS
Color11 SC
fill
[/DeviceRGB] SCS
Color2 SC
n
0.4665 0.4390 m
0.4665 0.4560 l
0.4835 0.4560 l
0.4835 0.4390 l
0.4665 0.4390 l
c
s
n
0.3540 0.5265 m
0.3540 0.5435 l
0.3710 0.5435 l
0.3710 0.5265 l
c
[/DeviceRGB] SCS
Color11 SC
fill
[/DeviceRGB] SCS
Color2 SC
n
0.3540 0.5265 m
0.3540 0.5435 l
0.3710 0.5435 l
0.3710 0.5265 l
0.3540 0.5265 l
c
s
n
0.2040 0.4973 m
0.2040 0.5143 l
0.2210 0.5143 l
0.2210 0.4973 l
c
[/DeviceRGB] SCS
Color11 SC
fill
[/DeviceRGB] SCS
Color2 SC
n
0.2040 0.4973 m
0.2040 0.5143 l
0.2210 0.5143 l
0.2210 0.4973 l
0.2040 0.4973 l
c
s
[/DeviceRGB] SCS
Color1 SC
n
0.1500 0.1500 m
1.1500 0.1500 l
s
n
0.1500 0.8500 m
1.1500 0.8500 l
s
[] 0 SD
0.0030 SLW
n
0.2750 0.1500 m
0.2750 0.1600 l
s
n
0.2750 0.8500 m
0.2750 0.8400 l
s
n
0.5250 0.1500 m
0.5250 0.1600 l
s
n
0.5250 0.8500 m
0.5250 0.8400 l
s
n
0.7750 0.1500 m
0.7750 0.1600 l
s
n
0.7750 0.8500 m
0.7750 0.8400 l
s
n
1.0250 0.1500 m
1.0250 0.1600 l
s
n
1.0250 0.8500 m
1.0250 0.8400 l
s
n
0.1500 0.1500 m
0.1500 0.1700 l
s
n
0.1500 0.8500 m
0.1500 0.8300 l
s
n
0.4000 0.1500 m
0.4000 0.1700 l
s
n
0.4000 0.8500 m
0.4000 0.8300 l
s
n
0.6500 0.1500 m
0.6500 0.1700 l
s
n
0.6500 0.8500 m
0.6500 0.8300 l
s
n
0.9000 0.1500 m
0.9000 0.1700 l
s
n
0.9000 0.8500 m
0.9000 0.8300 l
s
n
1.1500 0.1500 m
1.1500 0.1700 l
s
n
1.1500 0.8500 m
1.1500 0.8300 l
s
/Times-Roman findfont
dup length dict begin
 {1 index /FID ne {def} {pop pop} ifelse} forall
 /Encoding DefEncoding def
 currentdict
end
/Font0 exch definefont pop
/Font0 FFSF
0.1367 0.1020 m
GS
[0.0560 0.0000 0.0000 0.0560 0 0] CC
(0) show
GR
/Font0 FFSF
0.3586 0.1020 m
GS
[0.0560 0.0000 0.0000 0.0560 0 0] CC
(100) show
GR
/Font0 FFSF
0.6086 0.1020 m
GS
[0.0560 0.0000 0.0000 0.0560 0 0] CC
(200) show
GR
/Font0 FFSF
0.8586 0.1020 m
GS
[0.0560 0.0000 0.0000 0.0560 0 0] CC
(300) show
GR
/Font0 FFSF
1.1086 0.1020 m
GS
[0.0560 0.0000 0.0000 0.0560 0 0] CC
(400) show
GR
/Font0 FFSF
0.5990 0.0539 m
GS
[0.0560 0.0000 0.0000 0.0560 0 0] CC
(N) show
GR
/Font0 FFSF
0.6394 0.0315 m
GS
[0.0396 0.0000 0.0000 0.0396 0 0] CC
(part) show
GR
[] 0 SD
0.0015 SLW
n
0.1500 0.1500 m
0.1500 0.8500 l
s
n
1.1500 0.1500 m
1.1500 0.8500 l
s
[] 0 SD
0.0030 SLW
n
0.1500 0.2083 m
0.1600 0.2083 l
s
n
1.1500 0.2083 m
1.1400 0.2083 l
s
n
0.1500 0.3250 m
0.1600 0.3250 l
s
n
1.1500 0.3250 m
1.1400 0.3250 l
s
n
0.1500 0.4417 m
0.1600 0.4417 l
s
n
1.1500 0.4417 m
1.1400 0.4417 l
s
n
0.1500 0.5583 m
0.1600 0.5583 l
s
n
1.1500 0.5583 m
1.1400 0.5583 l
s
n
0.1500 0.6750 m
0.1600 0.6750 l
s
n
1.1500 0.6750 m
1.1400 0.6750 l
s
n
0.1500 0.7917 m
0.1600 0.7917 l
s
n
1.1500 0.7917 m
1.1400 0.7917 l
s
n
0.1500 0.1500 m
0.1700 0.1500 l
s
n
1.1500 0.1500 m
1.1300 0.1500 l
s
n
0.1500 0.2667 m
0.1700 0.2667 l
s
n
1.1500 0.2667 m
1.1300 0.2667 l
s
n
0.1500 0.3833 m
0.1700 0.3833 l
s
n
1.1500 0.3833 m
1.1300 0.3833 l
s
n
0.1500 0.5000 m
0.1700 0.5000 l
s
n
1.1500 0.5000 m
1.1300 0.5000 l
s
n
0.1500 0.6167 m
0.1700 0.6167 l
s
n
1.1500 0.6167 m
1.1300 0.6167 l
s
n
0.1500 0.7333 m
0.1700 0.7333 l
s
n
1.1500 0.7333 m
1.1300 0.7333 l
s
/Font0 FFSF
0.1133 0.1314 m
GS
[0.0560 0.0000 0.0000 0.0560 0 0] CC
(0) show
GR
/Font0 FFSF
0.0714 0.2480 m
GS
[0.0560 0.0000 0.0000 0.0560 0 0] CC
(0.2) show
GR
/Font0 FFSF
0.0714 0.3647 m
GS
[0.0560 0.0000 0.0000 0.0560 0 0] CC
(0.4) show
GR
/Font0 FFSF
0.0718 0.4812 m
GS
[0.0560 0.0000 0.0000 0.0560 0 0] CC
(0.6) show
GR
/Font0 FFSF
0.0729 0.5980 m
GS
[0.0560 0.0000 0.0000 0.0560 0 0] CC
(0.8) show
GR
/Font0 FFSF
0.1176 0.7143 m
GS
[0.0560 0.0000 0.0000 0.0560 0 0] CC
(1) show
GR
/Font0 FFSF
0.0385 0.3843 m
GS
[0.0000 0.0560 -0.0560 0.0000 0 0] CC
(R) show
GR
/Font0 FFSF
0.0609 0.4216 m
GS
[0.0000 0.0396 -0.0396 0.0000 0 0] CC
(AA) show
GR
/Font0 FFSF
0.0385 0.4788 m
GS
[0.0000 0.0560 -0.0560 0.0000 0 0] CC
(\(N) show
GR
/Font0 FFSF
0.0609 0.5380 m
GS
[0.0000 0.0396 -0.0396 0.0000 0 0] CC
(part) show
GR
/Font0 FFSF
0.0385 0.5996 m
GS
[0.0000 0.0560 -0.0560 0.0000 0 0] CC
(\)) show
GR
n
0.1500 0.1500 m
0.1500 0.8500 l
1.1500 0.8500 l
1.1500 0.1500 l
0.1500 0.1500 l
c
s
n
0.4900 0.9000 m
0.4900 0.7147 l
1.1758 0.7147 l
1.1758 0.9000 l
c
[/DeviceRGB] SCS
Color0 SC
fill
[/DeviceRGB] SCS
Color1 SC
[] 0 SD
0.0015 SLW
n
0.4900 0.9000 m
0.4900 0.7147 l
1.1758 0.7147 l
1.1758 0.9000 l
0.4900 0.9000 l
c
s
/Helvetica findfont
dup length dict begin
 {1 index /FID ne {def} {pop pop} ifelse} forall
 /Encoding DefEncoding def
 currentdict
end
/Font4 exch definefont pop
/Font4 FFSF
0.5615 0.8586 m
GS
[0.0420 0.0000 0.0000 0.0420 0 0] CC
(Collisional J/) show
GR
/Symbol findfont
/Font12 exch definefont pop
/Font12 FFSF
0.7972 0.8586 m
GS
[0.0420 0.0000 0.0000 0.0420 0 0] CC
(y) show
GR
/Font4 FFSF
0.8368 0.8586 m
GS
[0.0420 0.0000 0.0000 0.0420 0 0] CC
(dissociation T) show
GR
/Font4 FFSF
1.0937 0.8418 m
GS
[0.0297 0.0000 0.0000 0.0297 0 0] CC
(f max) show
GR
[/DeviceRGB] SCS
Color10 SC
[] 0 SD
0.0030 SLW
n
0.5015 0.8655 m
0.5415 0.8655 l
s
/Font4 FFSF
[/DeviceRGB] SCS
Color1 SC
0.5615 0.7997 m
GS
[0.0420 0.0000 0.0000 0.0420 0 0] CC
(Collisional J/) show
GR
/Font12 FFSF
0.7972 0.7997 m
GS
[0.0420 0.0000 0.0000 0.0420 0 0] CC
(y) show
GR
/Font4 FFSF
0.8368 0.7997 m
GS
[0.0420 0.0000 0.0000 0.0420 0 0] CC
(dissociation T) show
GR
/Font4 FFSF
1.0937 0.7829 m
GS
[0.0297 0.0000 0.0000 0.0297 0 0] CC
(f min) show
GR
[/DeviceRGB] SCS
Color9 SC
n
0.5015 0.8070 m
0.5415 0.8070 l
s
/Font4 FFSF
[/DeviceRGB] SCS
Color1 SC
0.5615 0.7415 m
GS
[0.0420 0.0000 0.0000 0.0420 0 0] CC
( CMS Prompt J/) show
GR
/Font12 FFSF
0.8580 0.7415 m
GS
[0.0420 0.0000 0.0000 0.0420 0 0] CC
(y) show
GR
/Font4 FFSF
0.8976 0.7415 m
GS
[0.0420 0.0000 0.0000 0.0420 0 0] CC
(p) show
GR
/Font4 FFSF
0.9211 0.7247 m
GS
[0.0297 0.0000 0.0000 0.0297 0 0] CC
(T) show
GR
/Font4 FFSF
0.9395 0.7415 m
GS
[0.0420 0.0000 0.0000 0.0420 0 0] CC
(>6.5GeV) show
GR
n
0.5130 0.7403 m
0.5130 0.7573 l
0.5300 0.7573 l
0.5300 0.7403 l
c
[/DeviceRGB] SCS
Color11 SC
fill
[/DeviceRGB] SCS
Color2 SC
[] 0 SD
0.0015 SLW
n
0.5130 0.7403 m
0.5130 0.7573 l
0.5300 0.7573 l
0.5300 0.7403 l
0.5130 0.7403 l
c
s
n
0.2377 0.2267 m
0.2377 0.2096 l
0.2880 0.2096 l
0.2880 0.2267 l
c
GS
Color0 SRGB
fill
GR
[/Pattern /DeviceRGB] SCS
Color5 Pattern2 SC
fill
[/DeviceRGB] SCS
Color1 SC
n
0.2377 0.2267 m
0.2377 0.2096 l
0.2880 0.2096 l
0.2880 0.2267 l
0.2377 0.2267 l
c
s
/Font0 FFSF
0.0150 0.9000 m
GS
[0.0560 0.0000 0.0000 0.0560 0 0] CC
(\(b\)) show
GR
/Font4 FFSF
0.4316 0.6397 m
GS
[0.0420 0.0000 0.0000 0.0420 0 0] CC
(CNM E-loss + collisional dissociation) show
GR
/Font4 FFSF
0.4324 0.5625 m
GS
[0.0420 0.0000 0.0000 0.0420 0 0] CC
(Pb+Pb, s) show
GR
/Font4 FFSF
0.6041 0.5877 m
GS
[0.0297 0.0000 0.0000 0.0297 0 0] CC
(1/2) show
GR
/Font4 FFSF
0.6457 0.5625 m
GS
[0.0420 0.0000 0.0000 0.0420 0 0] CC
( = 2.76 TeV) show
GR
/Font4 FFSF
0.3199 0.2041 m
GS
[0.0420 0.0000 0.0000 0.0420 0 0] CC
(\(g=1.85, ) show
GR
/Font12 FFSF
0.4869 0.2041 m
GS
[0.0420 0.0000 0.0000 0.0420 0 0] CC
(x) show
GR
/Font4 FFSF
0.5077 0.2041 m
GS
[0.0420 0.0000 0.0000 0.0420 0 0] CC
(=2\) - \(g=2, ) show
GR
/Font12 FFSF
0.7155 0.2041 m
GS
[0.0420 0.0000 0.0000 0.0420 0 0] CC
(x) show
GR
/Font4 FFSF
0.7363 0.2041 m
GS
[0.0420 0.0000 0.0000 0.0420 0 0] CC
(=3\)) show
GR
%%Trailer
%%BoundingBox: -1 13 731 576
%%DocumentNeededResources: font Times-Roman
%%+ font Helvetica
%%+ font Symbol
%%EOF
