%!PS-Adobe-3.0 EPSF-3.0
%%BoundingBox: (atend)
%%LanguageLevel: 2
%%Creator: Grace-5.1.18
%%CreationDate: Wed Oct  7 13:57:40 2009
%%DocumentData: Clean8Bit
%%Orientation: Portrait
%%Title: ElectronQuenchPRD.arg
%%For: ivitev
%%DocumentNeededResources: (atend)
%%EndComments
%%BeginProlog
/m {moveto} def
/l {lineto} def
/s {stroke} def
/n {newpath} def
/c {closepath} def
/RL {rlineto} def
/SLW {setlinewidth} def
/GS {gsave} def
/GR {grestore} def
/SC {setcolor} def
/SGRY {setgray} def
/SRGB {setrgbcolor} def
/SD {setdash} def
/SLC {setlinecap} def
/SLJ {setlinejoin} def
/SCS {setcolorspace} def
/FFSF {findfont setfont} def
/CC {concat} def
/PXL {n m 0 0 RL s} def
/Color0 {1.0000 1.0000 1.0000} def
/Color1 {0.0000 0.0000 0.0000} def
/Color2 {1.0000 0.0000 0.0000} def
/Color3 {0.0000 1.0000 0.0000} def
/Color4 {0.0000 0.0000 1.0000} def
/Color5 {1.0000 1.0000 0.0000} def
/Color6 {0.7373 0.5608 0.5608} def
/Color7 {0.8627 0.8627 0.8627} def
/Color8 {0.5804 0.0000 0.8275} def
/Color9 {0.0000 1.0000 1.0000} def
/Color10 {1.0000 0.0000 1.0000} def
/Color11 {1.0000 0.6471 0.0000} def
/Color12 {0.4471 0.1294 0.7373} def
/Color13 {0.4039 0.0275 0.2824} def
/Color14 {0.2510 0.8784 0.8157} def
/Color15 {0.0000 0.5451 0.0000} def
/Color16 {0.7529 0.7529 0.7529} def
/Color17 {0.5059 0.5059 0.5059} def
/Color18 {0.2588 0.2588 0.2588} def
/PTRN {
 /pat_bits exch def 
 <<
  /PaintType 2
  /PatternType 1 /TilingType 1
  /BBox[0 0 16 16]
  /XStep 16 /YStep 16
  /PaintProc {
   pop
   16 16 true [-1 0 0 -1 16 16] pat_bits imagemask
  }
 >>
 [0.0013 0 0 0.0013 0 0]
 makepattern
} def
/Pattern0 {<0000000000000000000000000000000000000000000000000000000000000000> PTRN} bind def
/Pattern1 {<ffffffffffffffffffffffffffffffffffffffffffffffffffffffffffffffff> PTRN} bind def
/Pattern2 {<eeeeffffbbbbffffeeeeffffbbbbffffeeeeffffbbbbffffeeeeffffbbbbffff> PTRN} bind def
/Pattern3 {<eeeebbbbeeeebbbbeeeebbbbeeeebbbbeeeebbbbeeeebbbbeeeebbbbeeeebbbb> PTRN} bind def
/Pattern4 {<5555aaaa5555aaaa5555aaaa5555aaaa5555aaaa5555aaaa5555aaaa5555aaaa> PTRN} bind def
/Pattern5 {<1111444411114444111144441111444411114444111144441111444411114444> PTRN} bind def
/Pattern6 {<1111000044440000111100004444000011110000444400001111000044440000> PTRN} bind def
/Pattern7 {<1010000000000000010100000000000010100000000000000101000000000000> PTRN} bind def
/Pattern8 {<0000000000000000000000000000000000000000000000000000000000000000> PTRN} bind def
/Pattern9 {<1e1e0f0f8787c3c3e1e1f0f078783c3c1e1e0f0f8787c3c3e1e1f0f078783c3c> PTRN} bind def
/Pattern10 {<7878f0f0e1e1c3c387870f0f1e1e3c3c7878f0f0e1e1c3c387870f0f1e1e3c3c> PTRN} bind def
/Pattern11 {<3333333333333333333333333333333333333333333333333333333333333333> PTRN} bind def
/Pattern12 {<ffffffff00000000ffffffff00000000ffffffff00000000ffffffff00000000> PTRN} bind def
/Pattern13 {<8181424224241818181824244242818181814242242418181818242442428181> PTRN} bind def
/Pattern14 {<8080404020201010080804040202010180804040202010100808040402020101> PTRN} bind def
/Pattern15 {<0101020204040808101020204040808001010202040408081010202040408080> PTRN} bind def
/Pattern16 {<2222222222222222222222222222222222222222222222222222222222222222> PTRN} bind def
/Pattern17 {<0000ffff000000000000ffff000000000000ffff000000000000ffff00000000> PTRN} bind def
/Pattern18 {<2222ffff222222222222ffff222222222222ffff222222222222ffff22222222> PTRN} bind def
/Pattern19 {<ffffffff33333333ffffffff33333333ffffffff33333333ffffffff33333333> PTRN} bind def
/Pattern20 {<0f0f0f0f0f0f0f0ff0f0f0f0f0f0f0f00f0f0f0f0f0f0f0ff0f0f0f0f0f0f0f0> PTRN} bind def
/Pattern21 {<ff00ff00ff00ff00ff00ff00ff00ff0000ff00ff00ff00ff00ff00ff00ff00ff> PTRN} bind def
/Pattern22 {<8001800180018001800180018001ffffffff8001800180018001800180018001> PTRN} bind def
/Pattern23 {<c003c003c003c003c003c003ffffffffffffffffc003c003c003c003c003c003> PTRN} bind def
/Pattern24 {<040404040404ffff404040404040ffff040404040404ffff404040404040ffff> PTRN} bind def
/Pattern25 {<180018001800180018001800ffffffff001800180018001800180018ffffffff> PTRN} bind def
/Pattern26 {<1111b8b87c7c3a3a1111a3a3c7c78b8b1111b8b87c7c3a3a1111a3a3c7c78b8b> PTRN} bind def
/Pattern27 {<101010102828c7c70101010182827c7c101010102828c7c70101010182827c7c> PTRN} bind def
/Pattern28 {<1c1c121211112121c1c12121111112121c1c121211112121c1c1212111111212> PTRN} bind def
/Pattern29 {<3e3e414180808080e3e31414080808083e3e414180808080e3e3141408080808> PTRN} bind def
/Pattern30 {<4848888884848383848488884848383848488888848483838484888848483838> PTRN} bind def
/Pattern31 {<03030404080808080c0c12122121c0c003030404080808080c0c12122121c0c0> PTRN} bind def
/ellipsedict 8 dict def
ellipsedict /mtrx matrix put
/EARC {
 ellipsedict begin
  /endangle exch def
  /startangle exch def
  /yrad exch def
  /xrad exch def
  /y exch def
  /x exch def
  /savematrix mtrx currentmatrix def
  x y translate
  xrad yrad scale
  0 0 1 startangle endangle arc
  savematrix setmatrix
 end
} def
/TL {
  /kcomp exch def
  /linewidth exch def
  /offset exch def
  GS
  0 offset rmoveto
  linewidth SLW
  dup stringwidth exch kcomp add exch RL s
  GR
} def
/KINIT
{
 /kvector exch def
 /kid 0 def
} def
/KPROC
{
 pop pop
 kvector kid get
 0 rmoveto
 /kid 1 kid add def
} def
/DefEncoding [
 /.notdef
 /.notdef
 /.notdef
 /.notdef
 /.notdef
 /.notdef
 /.notdef
 /.notdef
 /.notdef
 /.notdef
 /.notdef
 /.notdef
 /.notdef
 /.notdef
 /.notdef
 /.notdef
 /.notdef
 /.notdef
 /.notdef
 /.notdef
 /.notdef
 /.notdef
 /.notdef
 /.notdef
 /.notdef
 /.notdef
 /.notdef
 /.notdef
 /.notdef
 /.notdef
 /.notdef
 /.notdef
 /space
 /exclam
 /quotedbl
 /numbersign
 /dollar
 /percent
 /ampersand
 /quoteright
 /parenleft
 /parenright
 /asterisk
 /plus
 /comma
 /hyphen
 /period
 /slash
 /zero
 /one
 /two
 /three
 /four
 /five
 /six
 /seven
 /eight
 /nine
 /colon
 /semicolon
 /less
 /equal
 /greater
 /question
 /at
 /A
 /B
 /C
 /D
 /E
 /F
 /G
 /H
 /I
 /J
 /K
 /L
 /M
 /N
 /O
 /P
 /Q
 /R
 /S
 /T
 /U
 /V
 /W
 /X
 /Y
 /Z
 /bracketleft
 /backslash
 /bracketright
 /asciicircum
 /underscore
 /grave
 /a
 /b
 /c
 /d
 /e
 /f
 /g
 /h
 /i
 /j
 /k
 /l
 /m
 /n
 /o
 /p
 /q
 /r
 /s
 /t
 /u
 /v
 /w
 /x
 /y
 /z
 /braceleft
 /bar
 /braceright
 /asciitilde
 /.notdef
 /.notdef
 /.notdef
 /.notdef
 /.notdef
 /.notdef
 /.notdef
 /.notdef
 /.notdef
 /.notdef
 /.notdef
 /.notdef
 /.notdef
 /.notdef
 /.notdef
 /.notdef
 /.notdef
 /.notdef
 /.notdef
 /.notdef
 /.notdef
 /.notdef
 /.notdef
 /.notdef
 /.notdef
 /.notdef
 /.notdef
 /.notdef
 /.notdef
 /.notdef
 /.notdef
 /.notdef
 /.notdef
 /space
 /exclamdown
 /cent
 /sterling
 /currency
 /yen
 /brokenbar
 /section
 /dieresis
 /copyright
 /ordfeminine
 /guillemotleft
 /logicalnot
 /hyphen
 /registered
 /macron
 /degree
 /plusminus
 /twosuperior
 /threesuperior
 /acute
 /mu
 /paragraph
 /periodcentered
 /cedilla
 /onesuperior
 /ordmasculine
 /guillemotright
 /onequarter
 /onehalf
 /threequarters
 /questiondown
 /Agrave
 /Aacute
 /Acircumflex
 /Atilde
 /Adieresis
 /Aring
 /AE
 /Ccedilla
 /Egrave
 /Eacute
 /Ecircumflex
 /Edieresis
 /Igrave
 /Iacute
 /Icircumflex
 /Idieresis
 /Eth
 /Ntilde
 /Ograve
 /Oacute
 /Ocircumflex
 /Otilde
 /Odieresis
 /multiply
 /Oslash
 /Ugrave
 /Uacute
 /Ucircumflex
 /Udieresis
 /Yacute
 /Thorn
 /germandbls
 /agrave
 /aacute
 /acircumflex
 /atilde
 /adieresis
 /aring
 /ae
 /ccedilla
 /egrave
 /eacute
 /ecircumflex
 /edieresis
 /igrave
 /iacute
 /icircumflex
 /idieresis
 /eth
 /ntilde
 /ograve
 /oacute
 /ocircumflex
 /otilde
 /odieresis
 /divide
 /oslash
 /ugrave
 /uacute
 /ucircumflex
 /udieresis
 /yacute
 /thorn
 /ydieresis
] def
%%EndProlog
%%BeginSetup
768.00 768.00 scale
%%EndSetup
[/DeviceRGB] SCS
Color7 SC
[0.0315 0.0135 ] 0 SD
0.0045 SLW
0 SLC
0 SLJ
n
0.1500 0.9447 m
0.9513 0.9447 l
s
n
0.9513 0.5800 m
0.2622 0.5800 l
0.2622 0.8851 l
0.2729 0.8838 l
0.2835 0.8822 l
0.2942 0.8739 l
0.3049 0.8673 l
0.3156 0.8671 l
0.3263 0.8544 l
0.3370 0.8456 l
0.3476 0.8516 l
0.3583 0.8414 l
0.3690 0.8317 l
0.3797 0.8358 l
0.3904 0.8274 l
0.4011 0.8188 l
0.4117 0.8101 l
0.4224 0.8081 l
0.4331 0.8093 l
0.4438 0.8106 l
0.4545 0.8059 l
0.4652 0.8008 l
0.4758 0.7964 l
0.4865 0.7972 l
0.4972 0.7896 l
0.5079 0.7911 l
0.5186 0.7946 l
0.5293 0.7884 l
0.5399 0.7875 l
0.5506 0.7814 l
0.5613 0.7811 l
0.5720 0.7855 l
0.5827 0.7851 l
0.5934 0.7782 l
0.6040 0.7818 l
0.6147 0.7824 l
0.6254 0.7825 l
0.6361 0.7805 l
0.6468 0.7742 l
0.6575 0.7750 l
0.6681 0.7754 l
0.6788 0.7766 l
0.6895 0.7784 l
0.7002 0.7750 l
0.7109 0.7708 l
0.7216 0.7698 l
0.7322 0.7670 l
0.7429 0.7713 l
0.7536 0.7704 l
0.7643 0.7718 l
0.7750 0.7686 l
0.7857 0.7638 l
0.7963 0.7726 l
0.8070 0.7658 l
0.8177 0.7687 l
0.8284 0.7650 l
0.8391 0.7682 l
0.8498 0.7672 l
0.8604 0.7627 l
0.8711 0.7658 l
0.8818 0.7589 l
0.8925 0.7687 l
0.9032 0.7630 l
0.9139 0.7583 l
0.9245 0.7569 l
0.9352 0.7678 l
0.9459 0.7558 l
0.9513 0.7553 l
c
[/DeviceRGB] SCS
Color9 SC
fill
[/DeviceRGB] SCS
Color4 SC
[0.0030 0.0090 0.0210 0.0090 ] 0 SD
0.0030 SLW
n
0.2622 0.8851 m
0.2729 0.8838 l
0.2835 0.8822 l
0.2942 0.8739 l
0.3049 0.8673 l
0.3156 0.8671 l
0.3263 0.8544 l
0.3370 0.8456 l
0.3476 0.8516 l
0.3583 0.8414 l
0.3690 0.8317 l
0.3797 0.8358 l
0.3904 0.8274 l
0.4011 0.8188 l
0.4117 0.8101 l
0.4224 0.8081 l
0.4331 0.8093 l
0.4438 0.8106 l
0.4545 0.8059 l
0.4652 0.8008 l
0.4758 0.7964 l
0.4865 0.7972 l
0.4972 0.7896 l
0.5079 0.7911 l
0.5186 0.7946 l
0.5293 0.7884 l
0.5399 0.7875 l
0.5506 0.7814 l
0.5613 0.7811 l
0.5720 0.7855 l
0.5827 0.7851 l
0.5934 0.7782 l
0.6040 0.7818 l
0.6147 0.7824 l
0.6254 0.7825 l
0.6361 0.7805 l
0.6468 0.7742 l
0.6575 0.7750 l
0.6681 0.7754 l
0.6788 0.7766 l
0.6895 0.7784 l
0.7002 0.7750 l
0.7109 0.7708 l
0.7216 0.7698 l
0.7322 0.7670 l
0.7429 0.7713 l
0.7536 0.7704 l
0.7643 0.7718 l
0.7750 0.7686 l
0.7857 0.7638 l
0.7963 0.7726 l
0.8070 0.7658 l
0.8177 0.7687 l
0.8284 0.7650 l
0.8391 0.7682 l
0.8498 0.7672 l
0.8604 0.7627 l
0.8711 0.7658 l
0.8818 0.7589 l
0.8925 0.7687 l
0.9032 0.7630 l
0.9139 0.7583 l
0.9245 0.7569 l
0.9352 0.7678 l
0.9459 0.7558 l
0.9514 0.7553 l
s
n
0.9513 0.5800 m
0.2622 0.5800 l
0.2622 0.8298 l
0.2729 0.8303 l
0.2835 0.8299 l
0.2942 0.8229 l
0.3049 0.8171 l
0.3156 0.8167 l
0.3263 0.8057 l
0.3370 0.7980 l
0.3476 0.8026 l
0.3583 0.7940 l
0.3690 0.7859 l
0.3797 0.7891 l
0.3904 0.7822 l
0.4011 0.7751 l
0.4117 0.7680 l
0.4224 0.7665 l
0.4331 0.7675 l
0.4438 0.7687 l
0.4545 0.7650 l
0.4652 0.7610 l
0.4758 0.7576 l
0.4865 0.7584 l
0.4972 0.7524 l
0.5079 0.7538 l
0.5186 0.7568 l
0.5293 0.7520 l
0.5399 0.7513 l
0.5506 0.7465 l
0.5613 0.7464 l
0.5720 0.7503 l
0.5827 0.7500 l
0.5934 0.7446 l
0.6040 0.7478 l
0.6147 0.7486 l
0.6254 0.7488 l
0.6361 0.7473 l
0.6468 0.7423 l
0.6575 0.7430 l
0.6681 0.7436 l
0.6788 0.7446 l
0.6895 0.7464 l
0.7002 0.7437 l
0.7109 0.7403 l
0.7216 0.7396 l
0.7322 0.7373 l
0.7429 0.7412 l
0.7536 0.7406 l
0.7643 0.7418 l
0.7750 0.7392 l
0.7857 0.7354 l
0.7963 0.7430 l
0.8070 0.7372 l
0.8177 0.7398 l
0.8284 0.7368 l
0.8391 0.7396 l
0.8498 0.7390 l
0.8604 0.7353 l
0.8711 0.7380 l
0.8818 0.7323 l
0.8925 0.7406 l
0.9032 0.7359 l
0.9139 0.7324 l
0.9245 0.7308 l
0.9352 0.7401 l
0.9459 0.7304 l
0.9513 0.7301 l
c
[/DeviceRGB] SCS
Color0 SC
fill
[/DeviceRGB] SCS
Color4 SC
n
0.2622 0.8298 m
0.2729 0.8303 l
0.2835 0.8299 l
0.2942 0.8229 l
0.3049 0.8171 l
0.3156 0.8167 l
0.3263 0.8057 l
0.3370 0.7980 l
0.3476 0.8026 l
0.3583 0.7940 l
0.3690 0.7859 l
0.3797 0.7891 l
0.3904 0.7822 l
0.4011 0.7751 l
0.4117 0.7680 l
0.4224 0.7665 l
0.4331 0.7675 l
0.4438 0.7687 l
0.4545 0.7650 l
0.4652 0.7610 l
0.4758 0.7576 l
0.4865 0.7584 l
0.4972 0.7524 l
0.5079 0.7538 l
0.5186 0.7568 l
0.5293 0.7520 l
0.5399 0.7513 l
0.5506 0.7465 l
0.5613 0.7464 l
0.5720 0.7503 l
0.5827 0.7500 l
0.5934 0.7446 l
0.6040 0.7478 l
0.6147 0.7486 l
0.6254 0.7488 l
0.6361 0.7473 l
0.6468 0.7423 l
0.6575 0.7430 l
0.6681 0.7436 l
0.6788 0.7446 l
0.6895 0.7464 l
0.7002 0.7437 l
0.7109 0.7403 l
0.7216 0.7396 l
0.7322 0.7373 l
0.7429 0.7412 l
0.7536 0.7406 l
0.7643 0.7418 l
0.7750 0.7392 l
0.7857 0.7354 l
0.7963 0.7430 l
0.8070 0.7372 l
0.8177 0.7398 l
0.8284 0.7368 l
0.8391 0.7396 l
0.8498 0.7390 l
0.8604 0.7353 l
0.8711 0.7380 l
0.8818 0.7323 l
0.8925 0.7406 l
0.9032 0.7359 l
0.9139 0.7324 l
0.9245 0.7308 l
0.9352 0.7401 l
0.9459 0.7304 l
0.9514 0.7301 l
s
n
0.9513 0.5800 m
0.2622 0.5800 l
0.2622 0.7979 l
0.2729 0.8004 l
0.2835 0.8007 l
0.2942 0.7941 l
0.3049 0.7878 l
0.3156 0.7858 l
0.3263 0.7747 l
0.3370 0.7662 l
0.3476 0.7683 l
0.3583 0.7591 l
0.3690 0.7505 l
0.3797 0.7514 l
0.3904 0.7440 l
0.4011 0.7366 l
0.4117 0.7296 l
0.4224 0.7272 l
0.4331 0.7266 l
0.4438 0.7263 l
0.4545 0.7221 l
0.4652 0.7178 l
0.4758 0.7144 l
0.4865 0.7140 l
0.4972 0.7087 l
0.5079 0.7089 l
0.5186 0.7105 l
0.5293 0.7061 l
0.5399 0.7050 l
0.5506 0.7008 l
0.5613 0.7003 l
0.5720 0.7026 l
0.5827 0.7020 l
0.5934 0.6976 l
0.6040 0.6995 l
0.6147 0.6997 l
0.6254 0.6995 l
0.6361 0.6980 l
0.6468 0.6941 l
0.6575 0.6944 l
0.6681 0.6944 l
0.6788 0.6950 l
0.6895 0.6959 l
0.7002 0.6938 l
0.7109 0.6912 l
0.7216 0.6905 l
0.7322 0.6888 l
0.7429 0.6911 l
0.7536 0.6906 l
0.7643 0.6915 l
0.7750 0.6895 l
0.7857 0.6866 l
0.7963 0.6917 l
0.8070 0.6877 l
0.8177 0.6893 l
0.8284 0.6871 l
0.8391 0.6890 l
0.8498 0.6883 l
0.8604 0.6856 l
0.8711 0.6873 l
0.8818 0.6833 l
0.8925 0.6890 l
0.9032 0.6855 l
0.9139 0.6825 l
0.9245 0.6820 l
0.9352 0.6882 l
0.9459 0.6809 l
0.9513 0.6804 l
c
[/DeviceRGB] SCS
Color5 SC
fill
[/DeviceRGB] SCS
Color2 SC
[] 0 SD
0.0030 SLW
n
0.2622 0.7979 m
0.2729 0.8004 l
0.2835 0.8007 l
0.2942 0.7941 l
0.3049 0.7878 l
0.3156 0.7858 l
0.3263 0.7747 l
0.3370 0.7662 l
0.3476 0.7683 l
0.3583 0.7591 l
0.3690 0.7505 l
0.3797 0.7514 l
0.3904 0.7440 l
0.4011 0.7366 l
0.4117 0.7296 l
0.4224 0.7272 l
0.4331 0.7266 l
0.4438 0.7263 l
0.4545 0.7221 l
0.4652 0.7178 l
0.4758 0.7144 l
0.4865 0.7140 l
0.4972 0.7087 l
0.5079 0.7089 l
0.5186 0.7105 l
0.5293 0.7061 l
0.5399 0.7050 l
0.5506 0.7008 l
0.5613 0.7003 l
0.5720 0.7026 l
0.5827 0.7020 l
0.5934 0.6976 l
0.6040 0.6995 l
0.6147 0.6997 l
0.6254 0.6995 l
0.6361 0.6980 l
0.6468 0.6941 l
0.6575 0.6944 l
0.6681 0.6944 l
0.6788 0.6950 l
0.6895 0.6959 l
0.7002 0.6938 l
0.7109 0.6912 l
0.7216 0.6905 l
0.7322 0.6888 l
0.7429 0.6911 l
0.7536 0.6906 l
0.7643 0.6915 l
0.7750 0.6895 l
0.7857 0.6866 l
0.7963 0.6917 l
0.8070 0.6877 l
0.8177 0.6893 l
0.8284 0.6871 l
0.8391 0.6890 l
0.8498 0.6883 l
0.8604 0.6856 l
0.8711 0.6873 l
0.8818 0.6833 l
0.8925 0.6890 l
0.9032 0.6855 l
0.9139 0.6825 l
0.9245 0.6820 l
0.9352 0.6882 l
0.9459 0.6809 l
0.9514 0.6804 l
s
n
0.9513 0.5800 m
0.2622 0.5800 l
0.2622 0.7526 l
0.2729 0.7556 l
0.2835 0.7562 l
0.2942 0.7508 l
0.3049 0.7454 l
0.3156 0.7437 l
0.3263 0.7345 l
0.3370 0.7277 l
0.3476 0.7293 l
0.3583 0.7220 l
0.3690 0.7153 l
0.3797 0.7162 l
0.3904 0.7104 l
0.4011 0.7046 l
0.4117 0.6992 l
0.4224 0.6975 l
0.4331 0.6972 l
0.4438 0.6972 l
0.4545 0.6941 l
0.4652 0.6908 l
0.4758 0.6883 l
0.4865 0.6882 l
0.4972 0.6841 l
0.5079 0.6845 l
0.5186 0.6860 l
0.5293 0.6827 l
0.5399 0.6818 l
0.5506 0.6786 l
0.5613 0.6783 l
0.5720 0.6805 l
0.5827 0.6801 l
0.5934 0.6767 l
0.6040 0.6784 l
0.6147 0.6789 l
0.6254 0.6788 l
0.6361 0.6778 l
0.6468 0.6747 l
0.6575 0.6750 l
0.6681 0.6752 l
0.6788 0.6757 l
0.6895 0.6767 l
0.7002 0.6750 l
0.7109 0.6730 l
0.7216 0.6725 l
0.7322 0.6711 l
0.7429 0.6733 l
0.7536 0.6730 l
0.7643 0.6737 l
0.7750 0.6721 l
0.7857 0.6698 l
0.7963 0.6742 l
0.8070 0.6709 l
0.8177 0.6723 l
0.8284 0.6706 l
0.8391 0.6722 l
0.8498 0.6718 l
0.8604 0.6696 l
0.8711 0.6711 l
0.8818 0.6678 l
0.8925 0.6726 l
0.9032 0.6698 l
0.9139 0.6675 l
0.9245 0.6668 l
0.9352 0.6721 l
0.9459 0.6662 l
0.9513 0.6660 l
c
[/DeviceRGB] SCS
Color0 SC
fill
[/DeviceRGB] SCS
Color2 SC
n
0.2622 0.7526 m
0.2729 0.7556 l
0.2835 0.7562 l
0.2942 0.7508 l
0.3049 0.7454 l
0.3156 0.7437 l
0.3263 0.7345 l
0.3370 0.7277 l
0.3476 0.7293 l
0.3583 0.7220 l
0.3690 0.7153 l
0.3797 0.7162 l
0.3904 0.7104 l
0.4011 0.7046 l
0.4117 0.6992 l
0.4224 0.6975 l
0.4331 0.6972 l
0.4438 0.6972 l
0.4545 0.6941 l
0.4652 0.6908 l
0.4758 0.6883 l
0.4865 0.6882 l
0.4972 0.6841 l
0.5079 0.6845 l
0.5186 0.6860 l
0.5293 0.6827 l
0.5399 0.6818 l
0.5506 0.6786 l
0.5613 0.6783 l
0.5720 0.6805 l
0.5827 0.6801 l
0.5934 0.6767 l
0.6040 0.6784 l
0.6147 0.6789 l
0.6254 0.6788 l
0.6361 0.6778 l
0.6468 0.6747 l
0.6575 0.6750 l
0.6681 0.6752 l
0.6788 0.6757 l
0.6895 0.6767 l
0.7002 0.6750 l
0.7109 0.6730 l
0.7216 0.6725 l
0.7322 0.6711 l
0.7429 0.6733 l
0.7536 0.6730 l
0.7643 0.6737 l
0.7750 0.6721 l
0.7857 0.6698 l
0.7963 0.6742 l
0.8070 0.6709 l
0.8177 0.6723 l
0.8284 0.6706 l
0.8391 0.6722 l
0.8498 0.6718 l
0.8604 0.6696 l
0.8711 0.6711 l
0.8818 0.6678 l
0.8925 0.6726 l
0.9032 0.6698 l
0.9139 0.6675 l
0.9245 0.6668 l
0.9352 0.6721 l
0.9459 0.6662 l
0.9514 0.6660 l
s
[/DeviceRGB] SCS
Color7 SC
[] 0 SD
0.0150 SLW
n
0.2301 1.0341 m
0.2301 1.2001 l
s
n
0.2301 1.0341 m
0.2301 0.8200 l
s
[] 0 SD
0.0015 SLW
n
0.2301 0.8200 m
0.2301 0.8200 l
s
[] 0 SD
0.0150 SLW
n
0.2622 0.8316 m
0.2622 0.9041 l
s
[] 0 SD
0.0015 SLW
n
0.2622 0.9041 m
0.2622 0.9041 l
s
[] 0 SD
0.0150 SLW
n
0.2622 0.8316 m
0.2622 0.7590 l
s
[] 0 SD
0.0015 SLW
n
0.2622 0.7590 m
0.2622 0.7590 l
s
[] 0 SD
0.0150 SLW
n
0.2942 0.7546 m
0.2942 0.7955 l
s
[] 0 SD
0.0015 SLW
n
0.2942 0.7955 m
0.2942 0.7955 l
s
[] 0 SD
0.0150 SLW
n
0.2942 0.7546 m
0.2942 0.7137 l
s
[] 0 SD
0.0015 SLW
n
0.2942 0.7137 m
0.2942 0.7137 l
s
[] 0 SD
0.0150 SLW
n
0.3263 0.7256 m
0.3263 0.7573 l
s
[] 0 SD
0.0015 SLW
n
0.3263 0.7573 m
0.3263 0.7573 l
s
[] 0 SD
0.0150 SLW
n
0.3263 0.7256 m
0.3263 0.6939 l
s
[] 0 SD
0.0015 SLW
n
0.3263 0.6939 m
0.3263 0.6939 l
s
[] 0 SD
0.0150 SLW
n
0.3583 0.7193 m
0.3583 0.7499 l
s
[] 0 SD
0.0015 SLW
n
0.3583 0.7499 m
0.3583 0.7499 l
s
[] 0 SD
0.0150 SLW
n
0.3583 0.7193 m
0.3583 0.6887 l
s
[] 0 SD
0.0015 SLW
n
0.3583 0.6887 m
0.3583 0.6887 l
s
[] 0 SD
0.0150 SLW
n
0.3904 0.6939 m
0.3904 0.7204 l
s
[] 0 SD
0.0015 SLW
n
0.3904 0.7204 m
0.3904 0.7204 l
s
[] 0 SD
0.0150 SLW
n
0.3904 0.6939 m
0.3904 0.6675 l
s
[] 0 SD
0.0015 SLW
n
0.3904 0.6675 m
0.3904 0.6675 l
s
[] 0 SD
0.0150 SLW
n
0.4224 0.6967 m
0.4224 0.7258 l
s
[] 0 SD
0.0015 SLW
n
0.4224 0.7258 m
0.4224 0.7258 l
s
[] 0 SD
0.0150 SLW
n
0.4224 0.6967 m
0.4224 0.6677 l
s
[] 0 SD
0.0015 SLW
n
0.4224 0.6677 m
0.4224 0.6677 l
s
[] 0 SD
0.0150 SLW
n
0.4545 0.6752 m
0.4545 0.7006 l
s
[] 0 SD
0.0015 SLW
n
0.4545 0.7006 m
0.4545 0.7006 l
s
[] 0 SD
0.0150 SLW
n
0.4545 0.6752 m
0.4545 0.6497 l
s
[] 0 SD
0.0015 SLW
n
0.4545 0.6497 m
0.4545 0.6497 l
s
[] 0 SD
0.0150 SLW
n
0.4865 0.6705 m
0.4865 0.6965 l
s
[] 0 SD
0.0015 SLW
n
0.4865 0.6965 m
0.4865 0.6965 l
s
[] 0 SD
0.0150 SLW
n
0.4865 0.6705 m
0.4865 0.6445 l
s
[] 0 SD
0.0015 SLW
n
0.4865 0.6445 m
0.4865 0.6445 l
s
[] 0 SD
0.0150 SLW
n
0.5186 0.6827 m
0.5186 0.7141 l
s
[] 0 SD
0.0015 SLW
n
0.5186 0.7141 m
0.5186 0.7141 l
s
[] 0 SD
0.0150 SLW
n
0.5186 0.6827 m
0.5186 0.6514 l
s
[] 0 SD
0.0015 SLW
n
0.5186 0.6514 m
0.5186 0.6514 l
s
[] 0 SD
0.0150 SLW
n
0.5506 0.6670 m
0.5506 0.6950 l
s
[] 0 SD
0.0015 SLW
n
0.5506 0.6950 m
0.5506 0.6950 l
s
[] 0 SD
0.0150 SLW
n
0.5506 0.6670 m
0.5506 0.6390 l
s
[] 0 SD
0.0015 SLW
n
0.5506 0.6390 m
0.5506 0.6390 l
s
[] 0 SD
0.0150 SLW
n
0.1687 0.9750 m
0.1687 1.1281 l
s
[] 0 SD
0.0015 SLW
n
0.1687 1.1281 m
0.1687 1.1281 l
s
[] 0 SD
0.0150 SLW
n
0.1687 0.9750 m
0.1687 0.8218 l
s
[] 0 SD
0.0015 SLW
n
0.1687 0.8218 m
0.1687 0.8218 l
s
[] 0 SD
0.0150 SLW
n
0.1740 1.0107 m
0.1740 1.1647 l
s
[] 0 SD
0.0015 SLW
n
0.1740 1.1647 m
0.1740 1.1647 l
s
[] 0 SD
0.0150 SLW
n
0.1740 1.0107 m
0.1740 0.8568 l
s
[] 0 SD
0.0015 SLW
n
0.1740 0.8568 m
0.1740 0.8568 l
s
[] 0 SD
0.0150 SLW
n
0.1794 0.9972 m
0.1794 1.1096 l
s
[] 0 SD
0.0015 SLW
n
0.1794 1.1096 m
0.1794 1.1096 l
s
[] 0 SD
0.0150 SLW
n
0.1794 0.9972 m
0.1794 0.8849 l
s
[] 0 SD
0.0015 SLW
n
0.1794 0.8849 m
0.1794 0.8849 l
s
[] 0 SD
0.0150 SLW
n
0.1847 1.0085 m
0.1847 1.1130 l
s
[] 0 SD
0.0015 SLW
n
0.1847 1.1130 m
0.1847 1.1130 l
s
[] 0 SD
0.0150 SLW
n
0.1847 1.0085 m
0.1847 0.9040 l
s
[] 0 SD
0.0015 SLW
n
0.1847 0.9040 m
0.1847 0.9040 l
s
[] 0 SD
0.0150 SLW
n
0.1901 0.9447 m
0.1901 1.0085 l
s
[] 0 SD
0.0015 SLW
n
0.1901 1.0085 m
0.1901 1.0085 l
s
[] 0 SD
0.0150 SLW
n
0.1901 0.9447 m
0.1901 0.8809 l
s
[] 0 SD
0.0015 SLW
n
0.1901 0.8809 m
0.1901 0.8809 l
s
[] 0 SD
0.0150 SLW
n
0.1954 0.9717 m
0.1954 1.0350 l
s
[] 0 SD
0.0015 SLW
n
0.1954 1.0350 m
0.1954 1.0350 l
s
[] 0 SD
0.0150 SLW
n
0.1954 0.9717 m
0.1954 0.9084 l
s
[] 0 SD
0.0015 SLW
n
0.1954 0.9084 m
0.1954 0.9084 l
s
[] 0 SD
0.0150 SLW
n
0.2007 0.9494 m
0.2007 1.0000 l
s
[] 0 SD
0.0015 SLW
n
0.2007 1.0000 m
0.2007 1.0000 l
s
[] 0 SD
0.0150 SLW
n
0.2007 0.9494 m
0.2007 0.8989 l
s
[] 0 SD
0.0015 SLW
n
0.2007 0.8989 m
0.2007 0.8989 l
s
[] 0 SD
0.0150 SLW
n
0.2088 0.9215 m
0.2088 0.9639 l
s
[] 0 SD
0.0015 SLW
n
0.2088 0.9639 m
0.2088 0.9639 l
s
[] 0 SD
0.0150 SLW
n
0.2088 0.9215 m
0.2088 0.8791 l
s
[] 0 SD
0.0015 SLW
n
0.2088 0.8791 m
0.2088 0.8791 l
s
[] 0 SD
0.0150 SLW
n
0.2194 0.9939 m
0.2194 1.0425 l
s
[] 0 SD
0.0015 SLW
n
0.2194 1.0425 m
0.2194 1.0425 l
s
[] 0 SD
0.0150 SLW
n
0.2194 0.9939 m
0.2194 0.9454 l
s
[] 0 SD
0.0015 SLW
n
0.2194 0.9454 m
0.2194 0.9454 l
s
[] 0 SD
0.0150 SLW
n
0.2301 0.9454 m
0.2301 0.9864 l
s
[] 0 SD
0.0015 SLW
n
0.2301 0.9864 m
0.2301 0.9864 l
s
[] 0 SD
0.0150 SLW
n
0.2301 0.9454 m
0.2301 0.9044 l
s
[] 0 SD
0.0015 SLW
n
0.2301 0.9044 m
0.2301 0.9044 l
s
[] 0 SD
0.0150 SLW
n
0.2408 0.8975 m
0.2408 0.9606 l
s
[] 0 SD
0.0015 SLW
n
0.2408 0.9606 m
0.2408 0.9606 l
s
[] 0 SD
0.0150 SLW
n
0.2408 0.8975 m
0.2408 0.8344 l
s
[] 0 SD
0.0015 SLW
n
0.2408 0.8344 m
0.2408 0.8344 l
s
[] 0 SD
0.0150 SLW
n
0.2515 0.8746 m
0.2515 0.9319 l
s
[] 0 SD
0.0015 SLW
n
0.2515 0.9319 m
0.2515 0.9319 l
s
[] 0 SD
0.0150 SLW
n
0.2515 0.8746 m
0.2515 0.8174 l
s
[] 0 SD
0.0015 SLW
n
0.2515 0.8174 m
0.2515 0.8174 l
s
[] 0 SD
0.0150 SLW
n
0.2622 0.8459 m
0.2622 0.8965 l
s
[] 0 SD
0.0015 SLW
n
0.2622 0.8965 m
0.2622 0.8965 l
s
[] 0 SD
0.0150 SLW
n
0.2622 0.8459 m
0.2622 0.7953 l
s
[] 0 SD
0.0015 SLW
n
0.2622 0.7953 m
0.2622 0.7953 l
s
[] 0 SD
0.0150 SLW
n
0.2729 0.8310 m
0.2729 0.8774 l
s
[] 0 SD
0.0015 SLW
n
0.2729 0.8774 m
0.2729 0.8774 l
s
[] 0 SD
0.0150 SLW
n
0.2729 0.8310 m
0.2729 0.7846 l
s
[] 0 SD
0.0015 SLW
n
0.2729 0.7846 m
0.2729 0.7846 l
s
[] 0 SD
0.0150 SLW
n
0.2835 0.8141 m
0.2835 0.8568 l
s
[] 0 SD
0.0015 SLW
n
0.2835 0.8568 m
0.2835 0.8568 l
s
[] 0 SD
0.0150 SLW
n
0.2835 0.8141 m
0.2835 0.7714 l
s
[] 0 SD
0.0015 SLW
n
0.2835 0.7714 m
0.2835 0.7714 l
s
[] 0 SD
0.0150 SLW
n
0.2942 0.8055 m
0.2942 0.8449 l
s
[] 0 SD
0.0015 SLW
n
0.2942 0.8449 m
0.2942 0.8449 l
s
[] 0 SD
0.0150 SLW
n
0.2942 0.8055 m
0.2942 0.7662 l
s
[] 0 SD
0.0015 SLW
n
0.2942 0.7662 m
0.2942 0.7662 l
s
[] 0 SD
0.0150 SLW
n
0.3049 0.7926 m
0.3049 0.8293 l
s
[] 0 SD
0.0015 SLW
n
0.3049 0.8293 m
0.3049 0.8293 l
s
[] 0 SD
0.0150 SLW
n
0.3049 0.7926 m
0.3049 0.7558 l
s
[] 0 SD
0.0015 SLW
n
0.3049 0.7558 m
0.3049 0.7558 l
s
[] 0 SD
0.0150 SLW
n
0.3156 0.7564 m
0.3156 0.7874 l
s
[] 0 SD
0.0015 SLW
n
0.3156 0.7874 m
0.3156 0.7874 l
s
[] 0 SD
0.0150 SLW
n
0.3156 0.7564 m
0.3156 0.7255 l
s
[] 0 SD
0.0015 SLW
n
0.3156 0.7255 m
0.3156 0.7255 l
s
[] 0 SD
0.0150 SLW
n
0.3263 0.7613 m
0.3263 0.7924 l
s
[] 0 SD
0.0015 SLW
n
0.3263 0.7924 m
0.3263 0.7924 l
s
[] 0 SD
0.0150 SLW
n
0.3263 0.7613 m
0.3263 0.7302 l
s
[] 0 SD
0.0015 SLW
n
0.3263 0.7302 m
0.3263 0.7302 l
s
[] 0 SD
0.0150 SLW
n
0.3370 0.7491 m
0.3370 0.7781 l
s
[] 0 SD
0.0015 SLW
n
0.3370 0.7781 m
0.3370 0.7781 l
s
[] 0 SD
0.0150 SLW
n
0.3370 0.7491 m
0.3370 0.7201 l
s
[] 0 SD
0.0015 SLW
n
0.3370 0.7201 m
0.3370 0.7201 l
s
[] 0 SD
0.0150 SLW
n
0.3476 0.7582 m
0.3476 0.7880 l
s
[] 0 SD
0.0015 SLW
n
0.3476 0.7880 m
0.3476 0.7880 l
s
[] 0 SD
0.0150 SLW
n
0.3476 0.7582 m
0.3476 0.7284 l
s
[] 0 SD
0.0015 SLW
n
0.3476 0.7284 m
0.3476 0.7284 l
s
[] 0 SD
0.0150 SLW
n
0.3583 0.7563 m
0.3583 0.7856 l
s
[] 0 SD
0.0015 SLW
n
0.3583 0.7856 m
0.3583 0.7856 l
s
[] 0 SD
0.0150 SLW
n
0.3583 0.7563 m
0.3583 0.7269 l
s
[] 0 SD
0.0015 SLW
n
0.3583 0.7269 m
0.3583 0.7269 l
s
[] 0 SD
0.0150 SLW
n
0.3770 0.7121 m
0.3770 0.7348 l
s
[] 0 SD
0.0015 SLW
n
0.3770 0.7348 m
0.3770 0.7348 l
s
[] 0 SD
0.0150 SLW
n
0.3770 0.7121 m
0.3770 0.6894 l
s
[] 0 SD
0.0015 SLW
n
0.3770 0.6894 m
0.3770 0.6894 l
s
[] 0 SD
0.0150 SLW
n
0.4037 0.6788 m
0.4037 0.6965 l
s
[] 0 SD
0.0015 SLW
n
0.4037 0.6965 m
0.4037 0.6965 l
s
[] 0 SD
0.0150 SLW
n
0.4037 0.6788 m
0.4037 0.6610 l
s
[] 0 SD
0.0015 SLW
n
0.4037 0.6610 m
0.4037 0.6610 l
s
[] 0 SD
0.0150 SLW
n
0.4438 0.6709 m
0.4438 0.6880 l
s
[] 0 SD
0.0015 SLW
n
0.4438 0.6880 m
0.4438 0.6880 l
s
[] 0 SD
0.0150 SLW
n
0.4438 0.6709 m
0.4438 0.6538 l
s
[] 0 SD
0.0015 SLW
n
0.4438 0.6538 m
0.4438 0.6538 l
s
[] 0 SD
0.0150 SLW
n
0.4972 0.6114 m
0.4972 0.6206 l
s
[] 0 SD
0.0015 SLW
n
0.4972 0.6206 m
0.4972 0.6206 l
s
[] 0 SD
0.0150 SLW
n
0.4972 0.6114 m
0.4972 0.6022 l
s
[] 0 SD
0.0015 SLW
n
0.4972 0.6022 m
0.4972 0.6022 l
s
[] 0 SD
0.0150 SLW
n
0.5506 0.7674 m
0.5506 0.7988 l
s
[] 0 SD
0.0015 SLW
n
0.5506 0.7988 m
0.5506 0.7988 l
s
[] 0 SD
0.0150 SLW
n
0.5506 0.7674 m
0.5506 0.7361 l
s
[] 0 SD
0.0015 SLW
n
0.5506 0.7361 m
0.5506 0.7361 l
s
[] 0 SD
0.0150 SLW
n
0.6040 0.7476 m
0.6040 0.7817 l
s
[] 0 SD
0.0015 SLW
n
0.6040 0.7817 m
0.6040 0.7817 l
s
[] 0 SD
0.0150 SLW
n
0.6040 0.7476 m
0.6040 0.7136 l
s
[] 0 SD
0.0015 SLW
n
0.6040 0.7136 m
0.6040 0.7136 l
s
[/DeviceRGB] SCS
Color1 SC
[] 0 SD
0.0030 SLW
n
0.1687 0.9750 m
0.1687 1.1212 l
s
n
0.1687 1.1212 m
0.1687 1.1212 l
s
n
0.1687 0.9750 m
0.1687 0.8288 l
s
n
0.1687 0.8288 m
0.1687 0.8288 l
s
n
0.1740 1.0107 m
0.1740 1.1436 l
s
n
0.1740 1.1436 m
0.1740 1.1436 l
s
n
0.1740 1.0107 m
0.1740 0.8778 l
s
n
0.1740 0.8778 m
0.1740 0.8778 l
s
n
0.1794 0.9972 m
0.1794 1.0977 l
s
n
0.1794 1.0977 m
0.1794 1.0977 l
s
n
0.1794 0.9972 m
0.1794 0.8968 l
s
n
0.1794 0.8968 m
0.1794 0.8968 l
s
n
0.1847 1.0085 m
0.1847 1.1096 l
s
n
0.1847 1.1096 m
0.1847 1.1096 l
s
n
0.1847 1.0085 m
0.1847 0.9075 l
s
n
0.1847 0.9075 m
0.1847 0.9075 l
s
n
0.1901 0.9447 m
0.1901 1.0127 l
s
n
0.1901 1.0127 m
0.1901 1.0127 l
s
n
0.1901 0.9447 m
0.1901 0.8767 l
s
n
0.1901 0.8767 m
0.1901 0.8767 l
s
n
0.1954 0.9717 m
0.1954 1.0467 l
s
n
0.1954 1.0467 m
0.1954 1.0467 l
s
n
0.1954 0.9717 m
0.1954 0.8967 l
s
n
0.1954 0.8967 m
0.1954 0.8967 l
s
n
0.2007 0.9494 m
0.2007 1.0138 l
s
n
0.2007 1.0138 m
0.2007 1.0138 l
s
n
0.2007 0.9494 m
0.2007 0.8851 l
s
n
0.2007 0.8851 m
0.2007 0.8851 l
s
n
0.2088 0.9215 m
0.2088 0.9648 l
s
n
0.2088 0.9648 m
0.2088 0.9648 l
s
n
0.2088 0.9215 m
0.2088 0.8782 l
s
n
0.2088 0.8782 m
0.2088 0.8782 l
s
n
0.2194 0.9939 m
0.2194 1.0656 l
s
n
0.2194 1.0656 m
0.2194 1.0656 l
s
n
0.2194 0.9939 m
0.2194 0.9223 l
s
n
0.2194 0.9223 m
0.2194 0.9223 l
s
n
0.2301 0.9454 m
0.2301 1.0176 l
s
n
0.2301 1.0176 m
0.2301 1.0176 l
s
n
0.2301 0.9454 m
0.2301 0.8733 l
s
n
0.2301 0.8733 m
0.2301 0.8733 l
s
n
0.2408 0.8975 m
0.2408 0.9026 l
s
n
0.2408 0.9026 m
0.2408 0.9026 l
s
n
0.2408 0.8975 m
0.2408 0.8925 l
s
n
0.2408 0.8925 m
0.2408 0.8925 l
s
n
0.2515 0.8746 m
0.2515 0.8798 l
s
n
0.2515 0.8798 m
0.2515 0.8798 l
s
n
0.2515 0.8746 m
0.2515 0.8695 l
s
n
0.2515 0.8695 m
0.2515 0.8695 l
s
n
0.2622 0.8459 m
0.2622 0.8514 l
s
n
0.2622 0.8514 m
0.2622 0.8514 l
s
n
0.2622 0.8459 m
0.2622 0.8404 l
s
n
0.2622 0.8404 m
0.2622 0.8404 l
s
n
0.2729 0.8310 m
0.2729 0.8371 l
s
n
0.2729 0.8371 m
0.2729 0.8371 l
s
n
0.2729 0.8310 m
0.2729 0.8250 l
s
n
0.2729 0.8250 m
0.2729 0.8250 l
s
n
0.2835 0.8141 m
0.2835 0.8208 l
s
n
0.2835 0.8208 m
0.2835 0.8208 l
s
n
0.2835 0.8141 m
0.2835 0.8075 l
s
n
0.2835 0.8075 m
0.2835 0.8075 l
s
n
0.2942 0.8055 m
0.2942 0.8131 l
s
n
0.2942 0.8131 m
0.2942 0.8131 l
s
n
0.2942 0.8055 m
0.2942 0.7980 l
s
n
0.2942 0.7980 m
0.2942 0.7980 l
s
n
0.3049 0.7926 m
0.3049 0.8010 l
s
n
0.3049 0.8010 m
0.3049 0.8010 l
s
n
0.3049 0.7926 m
0.3049 0.7841 l
s
n
0.3049 0.7841 m
0.3049 0.7841 l
s
n
0.3156 0.7564 m
0.3156 0.7657 l
s
n
0.3156 0.7657 m
0.3156 0.7657 l
s
n
0.3156 0.7564 m
0.3156 0.7472 l
s
n
0.3156 0.7472 m
0.3156 0.7472 l
s
n
0.3263 0.7613 m
0.3263 0.7718 l
s
n
0.3263 0.7718 m
0.3263 0.7718 l
s
n
0.3263 0.7613 m
0.3263 0.7507 l
s
n
0.3263 0.7507 m
0.3263 0.7507 l
s
n
0.3370 0.7491 m
0.3370 0.7610 l
s
n
0.3370 0.7610 m
0.3370 0.7610 l
s
n
0.3370 0.7491 m
0.3370 0.7372 l
s
n
0.3370 0.7372 m
0.3370 0.7372 l
s
n
0.3476 0.7582 m
0.3476 0.7718 l
s
n
0.3476 0.7718 m
0.3476 0.7718 l
s
n
0.3476 0.7582 m
0.3476 0.7445 l
s
n
0.3476 0.7445 m
0.3476 0.7445 l
s
n
0.3583 0.7563 m
0.3583 0.7721 l
s
n
0.3583 0.7721 m
0.3583 0.7721 l
s
n
0.3583 0.7563 m
0.3583 0.7404 l
s
n
0.3583 0.7404 m
0.3583 0.7404 l
s
n
0.3770 0.7121 m
0.3770 0.7235 l
s
n
0.3770 0.7235 m
0.3770 0.7235 l
s
n
0.3770 0.7121 m
0.3770 0.7008 l
s
n
0.3770 0.7008 m
0.3770 0.7008 l
s
n
0.4037 0.6788 m
0.4037 0.6931 l
s
n
0.4037 0.6931 m
0.4037 0.6931 l
s
n
0.4037 0.6788 m
0.4037 0.6644 l
s
n
0.4037 0.6644 m
0.4037 0.6644 l
s
n
0.4438 0.6709 m
0.4438 0.6893 l
s
n
0.4438 0.6893 m
0.4438 0.6893 l
s
n
0.4438 0.6709 m
0.4438 0.6526 l
s
n
0.4438 0.6526 m
0.4438 0.6526 l
s
n
0.4972 0.6114 m
0.4972 0.6365 l
s
n
0.4972 0.6365 m
0.4972 0.6365 l
s
n
0.4972 0.6114 m
0.4972 0.5863 l
s
n
0.4972 0.5863 m
0.4972 0.5863 l
s
n
0.5506 0.7674 m
0.5506 0.8435 l
s
n
0.5506 0.8435 m
0.5506 0.8435 l
s
n
0.5506 0.7674 m
0.5506 0.6913 l
s
n
0.5506 0.6913 m
0.5506 0.6913 l
s
n
0.6040 0.7476 m
0.6040 0.8625 l
s
n
0.6040 0.8625 m
0.6040 0.8625 l
s
n
0.6040 0.7476 m
0.6040 0.6327 l
s
n
0.6040 0.6327 m
0.6040 0.6327 l
s
n
0.1687 0.9750 0.0049 0.0049 0 360 EARC c
fill
[] 0 SD
0.0015 SLW
n 0.1687 0.9750 0.0049 0.0049 0 360 EARC s
n
0.1740 1.0107 0.0049 0.0049 0 360 EARC c
fill
n 0.1740 1.0107 0.0049 0.0049 0 360 EARC s
n
0.1794 0.9972 0.0049 0.0049 0 360 EARC c
fill
n 0.1794 0.9972 0.0049 0.0049 0 360 EARC s
n
0.1847 1.0085 0.0049 0.0049 0 360 EARC c
fill
n 0.1847 1.0085 0.0049 0.0049 0 360 EARC s
n
0.1901 0.9447 0.0049 0.0049 0 360 EARC c
fill
n 0.1901 0.9447 0.0049 0.0049 0 360 EARC s
n
0.1954 0.9717 0.0049 0.0049 0 360 EARC c
fill
n 0.1954 0.9717 0.0049 0.0049 0 360 EARC s
n
0.2007 0.9494 0.0049 0.0049 0 360 EARC c
fill
n 0.2007 0.9494 0.0049 0.0049 0 360 EARC s
n
0.2088 0.9215 0.0049 0.0049 0 360 EARC c
fill
n 0.2088 0.9215 0.0049 0.0049 0 360 EARC s
n
0.2194 0.9939 0.0049 0.0049 0 360 EARC c
fill
n 0.2194 0.9939 0.0049 0.0049 0 360 EARC s
n
0.2301 0.9454 0.0049 0.0049 0 360 EARC c
fill
n 0.2301 0.9454 0.0049 0.0049 0 360 EARC s
n
0.2408 0.8975 0.0049 0.0049 0 360 EARC c
fill
n 0.2408 0.8975 0.0049 0.0049 0 360 EARC s
n
0.2515 0.8746 0.0049 0.0049 0 360 EARC c
fill
n 0.2515 0.8746 0.0049 0.0049 0 360 EARC s
n
0.2622 0.8459 0.0049 0.0049 0 360 EARC c
fill
n 0.2622 0.8459 0.0049 0.0049 0 360 EARC s
n
0.2729 0.8310 0.0049 0.0049 0 360 EARC c
fill
n 0.2729 0.8310 0.0049 0.0049 0 360 EARC s
n
0.2835 0.8141 0.0049 0.0049 0 360 EARC c
fill
n 0.2835 0.8141 0.0049 0.0049 0 360 EARC s
n
0.2942 0.8055 0.0049 0.0049 0 360 EARC c
fill
n 0.2942 0.8055 0.0049 0.0049 0 360 EARC s
n
0.3049 0.7926 0.0049 0.0049 0 360 EARC c
fill
n 0.3049 0.7926 0.0049 0.0049 0 360 EARC s
n
0.3156 0.7564 0.0049 0.0049 0 360 EARC c
fill
n 0.3156 0.7564 0.0049 0.0049 0 360 EARC s
n
0.3263 0.7613 0.0049 0.0049 0 360 EARC c
fill
n 0.3263 0.7613 0.0049 0.0049 0 360 EARC s
n
0.3370 0.7491 0.0049 0.0049 0 360 EARC c
fill
n 0.3370 0.7491 0.0049 0.0049 0 360 EARC s
n
0.3476 0.7582 0.0049 0.0049 0 360 EARC c
fill
n 0.3476 0.7582 0.0049 0.0049 0 360 EARC s
n
0.3583 0.7563 0.0049 0.0049 0 360 EARC c
fill
n 0.3583 0.7563 0.0049 0.0049 0 360 EARC s
n
0.3770 0.7121 0.0049 0.0049 0 360 EARC c
fill
n 0.3770 0.7121 0.0049 0.0049 0 360 EARC s
n
0.4037 0.6788 0.0049 0.0049 0 360 EARC c
fill
n 0.4037 0.6788 0.0049 0.0049 0 360 EARC s
n
0.4438 0.6709 0.0049 0.0049 0 360 EARC c
fill
n 0.4438 0.6709 0.0049 0.0049 0 360 EARC s
n
0.4972 0.6114 0.0049 0.0049 0 360 EARC c
fill
n 0.4972 0.6114 0.0049 0.0049 0 360 EARC s
n
0.5506 0.7674 0.0049 0.0049 0 360 EARC c
fill
n 0.5506 0.7674 0.0049 0.0049 0 360 EARC s
n
0.6040 0.7476 0.0049 0.0049 0 360 EARC c
fill
n 0.6040 0.7476 0.0049 0.0049 0 360 EARC s
[] 0 SD
0.0030 SLW
n
0.2301 1.0341 m
0.2301 1.0731 l
s
n
0.2301 1.0731 m
0.2301 1.0731 l
s
n
0.2301 1.0341 m
0.2301 0.9950 l
s
n
0.2301 0.9950 m
0.2301 0.9950 l
s
n
0.2622 0.8316 m
0.2622 0.8511 l
s
n
0.2622 0.8511 m
0.2622 0.8511 l
s
n
0.2622 0.8316 m
0.2622 0.8121 l
s
n
0.2622 0.8121 m
0.2622 0.8121 l
s
n
0.2942 0.7546 m
0.2942 0.7688 l
s
n
0.2942 0.7688 m
0.2942 0.7688 l
s
n
0.2942 0.7546 m
0.2942 0.7405 l
s
n
0.2942 0.7405 m
0.2942 0.7405 l
s
n
0.3263 0.7256 m
0.3263 0.7396 l
s
n
0.3263 0.7396 m
0.3263 0.7396 l
s
n
0.3263 0.7256 m
0.3263 0.7116 l
s
n
0.3263 0.7116 m
0.3263 0.7116 l
s
n
0.3583 0.7193 m
0.3583 0.7375 l
s
n
0.3583 0.7375 m
0.3583 0.7375 l
s
n
0.3583 0.7193 m
0.3583 0.7010 l
s
n
0.3583 0.7010 m
0.3583 0.7010 l
s
n
0.3904 0.6939 m
0.3904 0.7130 l
s
n
0.3904 0.7130 m
0.3904 0.7130 l
s
n
0.3904 0.6939 m
0.3904 0.6748 l
s
n
0.3904 0.6748 m
0.3904 0.6748 l
s
n
0.4224 0.6967 m
0.4224 0.7199 l
s
n
0.4224 0.7199 m
0.4224 0.7199 l
s
n
0.4224 0.6967 m
0.4224 0.6736 l
s
n
0.4224 0.6736 m
0.4224 0.6736 l
s
n
0.4545 0.6752 m
0.4545 0.6998 l
s
n
0.4545 0.6998 m
0.4545 0.6998 l
s
n
0.4545 0.6752 m
0.4545 0.6505 l
s
n
0.4545 0.6505 m
0.4545 0.6505 l
s
n
0.4865 0.6705 m
0.4865 0.6993 l
s
n
0.4865 0.6993 m
0.4865 0.6993 l
s
n
0.4865 0.6705 m
0.4865 0.6417 l
s
n
0.4865 0.6417 m
0.4865 0.6417 l
s
n
0.5186 0.6827 m
0.5186 0.7275 l
s
n
0.5186 0.7275 m
0.5186 0.7275 l
s
n
0.5186 0.6827 m
0.5186 0.6380 l
s
n
0.5186 0.6380 m
0.5186 0.6380 l
s
n
0.5506 0.6670 m
0.5506 0.7200 l
s
n
0.5506 0.7200 m
0.5506 0.7200 l
s
n
0.5506 0.6670 m
0.5506 0.6140 l
s
n
0.5506 0.6140 m
0.5506 0.6140 l
s
n
0.2220 1.0341 m
0.2382 1.0341 l
s
n
0.2301 1.0260 m
0.2301 1.0422 l
s
n
0.2244 1.0283 m
0.2359 1.0398 l
s
n
0.2244 1.0398 m
0.2359 1.0283 l
s
n
0.2541 0.8316 m
0.2703 0.8316 l
s
n
0.2622 0.8235 m
0.2622 0.8397 l
s
n
0.2564 0.8258 m
0.2679 0.8373 l
s
n
0.2564 0.8373 m
0.2679 0.8258 l
s
n
0.2861 0.7546 m
0.3023 0.7546 l
s
n
0.2942 0.7465 m
0.2942 0.7627 l
s
n
0.2885 0.7489 m
0.3000 0.7603 l
s
n
0.2885 0.7603 m
0.3000 0.7489 l
s
n
0.3182 0.7256 m
0.3344 0.7256 l
s
n
0.3263 0.7175 m
0.3263 0.7337 l
s
n
0.3205 0.7199 m
0.3320 0.7314 l
s
n
0.3205 0.7314 m
0.3320 0.7199 l
s
n
0.3502 0.7193 m
0.3664 0.7193 l
s
n
0.3583 0.7112 m
0.3583 0.7274 l
s
n
0.3526 0.7136 m
0.3641 0.7250 l
s
n
0.3526 0.7250 m
0.3641 0.7136 l
s
n
0.3823 0.6939 m
0.3985 0.6939 l
s
n
0.3904 0.6858 m
0.3904 0.7020 l
s
n
0.3846 0.6882 m
0.3961 0.6997 l
s
n
0.3846 0.6997 m
0.3961 0.6882 l
s
n
0.4143 0.6967 m
0.4305 0.6967 l
s
n
0.4224 0.6886 m
0.4224 0.7048 l
s
n
0.4167 0.6910 m
0.4282 0.7025 l
s
n
0.4167 0.7025 m
0.4282 0.6910 l
s
n
0.4464 0.6752 m
0.4626 0.6752 l
s
n
0.4545 0.6671 m
0.4545 0.6833 l
s
n
0.4487 0.6694 m
0.4602 0.6809 l
s
n
0.4487 0.6809 m
0.4602 0.6694 l
s
n
0.4784 0.6705 m
0.4946 0.6705 l
s
n
0.4865 0.6624 m
0.4865 0.6786 l
s
n
0.4808 0.6648 m
0.4923 0.6762 l
s
n
0.4808 0.6762 m
0.4923 0.6648 l
s
n
0.5105 0.6827 m
0.5267 0.6827 l
s
n
0.5186 0.6746 m
0.5186 0.6908 l
s
n
0.5128 0.6770 m
0.5243 0.6885 l
s
n
0.5128 0.6885 m
0.5243 0.6770 l
s
n
0.5425 0.6670 m
0.5587 0.6670 l
s
n
0.5506 0.6589 m
0.5506 0.6751 l
s
n
0.5449 0.6613 m
0.5564 0.6727 l
s
n
0.5449 0.6727 m
0.5564 0.6613 l
s
[/DeviceRGB] SCS
Color4 SC
[0.0030 0.0090 0.0210 0.0090 ] 0 SD
0.0030 SLW
n
0.2622 0.8851 m
0.2729 0.8838 l
0.2835 0.8822 l
0.2942 0.8739 l
0.3049 0.8673 l
0.3156 0.8671 l
0.3263 0.8544 l
0.3370 0.8456 l
0.3476 0.8516 l
0.3583 0.8414 l
0.3690 0.8317 l
0.3797 0.8358 l
0.3904 0.8274 l
0.4011 0.8188 l
0.4117 0.8101 l
0.4224 0.8081 l
0.4331 0.8093 l
0.4438 0.8106 l
0.4545 0.8059 l
0.4652 0.8008 l
0.4758 0.7964 l
0.4865 0.7972 l
0.4972 0.7896 l
0.5079 0.7911 l
0.5186 0.7946 l
0.5293 0.7884 l
0.5399 0.7875 l
0.5506 0.7814 l
0.5613 0.7811 l
0.5720 0.7855 l
0.5827 0.7851 l
0.5934 0.7782 l
0.6040 0.7818 l
0.6147 0.7824 l
0.6254 0.7825 l
0.6361 0.7805 l
0.6468 0.7742 l
0.6575 0.7750 l
0.6681 0.7754 l
0.6788 0.7766 l
0.6895 0.7784 l
0.7002 0.7750 l
0.7109 0.7708 l
0.7216 0.7698 l
0.7322 0.7670 l
0.7429 0.7713 l
0.7536 0.7704 l
0.7643 0.7718 l
0.7750 0.7686 l
0.7857 0.7638 l
0.7963 0.7726 l
0.8070 0.7658 l
0.8177 0.7687 l
0.8284 0.7650 l
0.8391 0.7682 l
0.8498 0.7672 l
0.8604 0.7627 l
0.8711 0.7658 l
0.8818 0.7589 l
0.8925 0.7687 l
0.9032 0.7630 l
0.9139 0.7583 l
0.9245 0.7569 l
0.9352 0.7678 l
0.9459 0.7558 l
0.9514 0.7553 l
s
n
0.2622 0.8298 m
0.2729 0.8303 l
0.2835 0.8299 l
0.2942 0.8229 l
0.3049 0.8171 l
0.3156 0.8167 l
0.3263 0.8057 l
0.3370 0.7980 l
0.3476 0.8026 l
0.3583 0.7940 l
0.3690 0.7859 l
0.3797 0.7891 l
0.3904 0.7822 l
0.4011 0.7751 l
0.4117 0.7680 l
0.4224 0.7665 l
0.4331 0.7675 l
0.4438 0.7687 l
0.4545 0.7650 l
0.4652 0.7610 l
0.4758 0.7576 l
0.4865 0.7584 l
0.4972 0.7524 l
0.5079 0.7538 l
0.5186 0.7568 l
0.5293 0.7520 l
0.5399 0.7513 l
0.5506 0.7465 l
0.5613 0.7464 l
0.5720 0.7503 l
0.5827 0.7500 l
0.5934 0.7446 l
0.6040 0.7478 l
0.6147 0.7486 l
0.6254 0.7488 l
0.6361 0.7473 l
0.6468 0.7423 l
0.6575 0.7430 l
0.6681 0.7436 l
0.6788 0.7446 l
0.6895 0.7464 l
0.7002 0.7437 l
0.7109 0.7403 l
0.7216 0.7396 l
0.7322 0.7373 l
0.7429 0.7412 l
0.7536 0.7406 l
0.7643 0.7418 l
0.7750 0.7392 l
0.7857 0.7354 l
0.7963 0.7430 l
0.8070 0.7372 l
0.8177 0.7398 l
0.8284 0.7368 l
0.8391 0.7396 l
0.8498 0.7390 l
0.8604 0.7353 l
0.8711 0.7380 l
0.8818 0.7323 l
0.8925 0.7406 l
0.9032 0.7359 l
0.9139 0.7324 l
0.9245 0.7308 l
0.9352 0.7401 l
0.9459 0.7304 l
0.9514 0.7301 l
s
[/DeviceRGB] SCS
Color2 SC
[] 0 SD
0.0030 SLW
n
0.2622 0.7979 m
0.2729 0.8004 l
0.2835 0.8007 l
0.2942 0.7941 l
0.3049 0.7878 l
0.3156 0.7858 l
0.3263 0.7747 l
0.3370 0.7662 l
0.3476 0.7683 l
0.3583 0.7591 l
0.3690 0.7505 l
0.3797 0.7514 l
0.3904 0.7440 l
0.4011 0.7366 l
0.4117 0.7296 l
0.4224 0.7272 l
0.4331 0.7266 l
0.4438 0.7263 l
0.4545 0.7221 l
0.4652 0.7178 l
0.4758 0.7144 l
0.4865 0.7140 l
0.4972 0.7087 l
0.5079 0.7089 l
0.5186 0.7105 l
0.5293 0.7061 l
0.5399 0.7050 l
0.5506 0.7008 l
0.5613 0.7003 l
0.5720 0.7026 l
0.5827 0.7020 l
0.5934 0.6976 l
0.6040 0.6995 l
0.6147 0.6997 l
0.6254 0.6995 l
0.6361 0.6980 l
0.6468 0.6941 l
0.6575 0.6944 l
0.6681 0.6944 l
0.6788 0.6950 l
0.6895 0.6959 l
0.7002 0.6938 l
0.7109 0.6912 l
0.7216 0.6905 l
0.7322 0.6888 l
0.7429 0.6911 l
0.7536 0.6906 l
0.7643 0.6915 l
0.7750 0.6895 l
0.7857 0.6866 l
0.7963 0.6917 l
0.8070 0.6877 l
0.8177 0.6893 l
0.8284 0.6871 l
0.8391 0.6890 l
0.8498 0.6883 l
0.8604 0.6856 l
0.8711 0.6873 l
0.8818 0.6833 l
0.8925 0.6890 l
0.9032 0.6855 l
0.9139 0.6825 l
0.9245 0.6820 l
0.9352 0.6882 l
0.9459 0.6809 l
0.9514 0.6804 l
s
n
0.2622 0.7526 m
0.2729 0.7556 l
0.2835 0.7562 l
0.2942 0.7508 l
0.3049 0.7454 l
0.3156 0.7437 l
0.3263 0.7345 l
0.3370 0.7277 l
0.3476 0.7293 l
0.3583 0.7220 l
0.3690 0.7153 l
0.3797 0.7162 l
0.3904 0.7104 l
0.4011 0.7046 l
0.4117 0.6992 l
0.4224 0.6975 l
0.4331 0.6972 l
0.4438 0.6972 l
0.4545 0.6941 l
0.4652 0.6908 l
0.4758 0.6883 l
0.4865 0.6882 l
0.4972 0.6841 l
0.5079 0.6845 l
0.5186 0.6860 l
0.5293 0.6827 l
0.5399 0.6818 l
0.5506 0.6786 l
0.5613 0.6783 l
0.5720 0.6805 l
0.5827 0.6801 l
0.5934 0.6767 l
0.6040 0.6784 l
0.6147 0.6789 l
0.6254 0.6788 l
0.6361 0.6778 l
0.6468 0.6747 l
0.6575 0.6750 l
0.6681 0.6752 l
0.6788 0.6757 l
0.6895 0.6767 l
0.7002 0.6750 l
0.7109 0.6730 l
0.7216 0.6725 l
0.7322 0.6711 l
0.7429 0.6733 l
0.7536 0.6730 l
0.7643 0.6737 l
0.7750 0.6721 l
0.7857 0.6698 l
0.7963 0.6742 l
0.8070 0.6709 l
0.8177 0.6723 l
0.8284 0.6706 l
0.8391 0.6722 l
0.8498 0.6718 l
0.8604 0.6696 l
0.8711 0.6711 l
0.8818 0.6678 l
0.8925 0.6726 l
0.9032 0.6698 l
0.9139 0.6675 l
0.9245 0.6668 l
0.9352 0.6721 l
0.9459 0.6662 l
0.9514 0.6660 l
s
[/DeviceRGB] SCS
Color1 SC
[] 0 SD
0.0015 SLW
n
0.1500 0.5800 m
0.9513 0.5800 l
s
n
0.1500 1.2000 m
0.9513 1.2000 l
s
[] 0 SD
0.0023 SLW
n
0.2835 0.5800 m
0.2835 0.5900 l
s
n
0.2835 1.2000 m
0.2835 1.1900 l
s
n
0.5506 0.5800 m
0.5506 0.5900 l
s
n
0.5506 1.2000 m
0.5506 1.1900 l
s
n
0.8177 0.5800 m
0.8177 0.5900 l
s
n
0.8177 1.2000 m
0.8177 1.1900 l
s
n
0.1500 0.5800 m
0.1500 0.6000 l
s
n
0.1500 1.2000 m
0.1500 1.1800 l
s
n
0.4171 0.5800 m
0.4171 0.6000 l
s
n
0.4171 1.2000 m
0.4171 1.1800 l
s
n
0.6842 0.5800 m
0.6842 0.6000 l
s
n
0.6842 1.2000 m
0.6842 1.1800 l
s
n
0.9513 0.5800 m
0.9513 0.6000 l
s
n
0.9513 1.2000 m
0.9513 1.1800 l
s
/Times-Roman findfont
dup length dict begin
 {1 index /FID ne {def} {pop pop} ifelse} forall
 /Encoding DefEncoding def
 currentdict
end
/Font0 exch definefont pop
/Font0 FFSF
0.1397 0.5409 m
GS
[0.0431 0.0000 0.0000 0.0431 0 0] CC
(0) show
GR
/Font0 FFSF
0.4077 0.5403 m
GS
[0.0431 0.0000 0.0000 0.0431 0 0] CC
(5) show
GR
/Font0 FFSF
0.6631 0.5409 m
GS
[0.0431 0.0000 0.0000 0.0431 0 0] CC
(10) show
GR
/Font0 FFSF
0.9311 0.5403 m
GS
[0.0431 0.0000 0.0000 0.0431 0 0] CC
(15) show
GR
/Helvetica findfont
dup length dict begin
 {1 index /FID ne {def} {pop pop} ifelse} forall
 /Encoding DefEncoding def
 currentdict
end
/Font4 exch definefont pop
/Font4 FFSF
0.4627 0.4972 m
GS
[0.0437 0.0000 0.0000 0.0437 0 0] CC
( p) show
GR
/Font4 FFSF
0.4992 0.4797 m
GS
[0.0309 0.0000 0.0000 0.0309 0 0] CC
(T) show
GR
/Font4 FFSF
0.5180 0.4972 m
GS
[0.0437 0.0000 0.0000 0.0437 0 0] CC
( [GeV]) show
GR
[] 0 SD
0.0015 SLW
n
0.1500 0.5800 m
0.1500 1.2000 l
s
n
0.9513 0.5800 m
0.9513 1.2000 l
s
[] 0 SD
0.0023 SLW
n
0.1500 0.6256 m
0.1600 0.6256 l
s
n
0.9513 0.6256 m
0.9413 0.6256 l
s
n
0.1500 0.7168 m
0.1600 0.7168 l
s
n
0.9513 0.7168 m
0.9413 0.7168 l
s
n
0.1500 0.8079 m
0.1600 0.8079 l
s
n
0.9513 0.8079 m
0.9413 0.8079 l
s
n
0.1500 0.8991 m
0.1600 0.8991 l
s
n
0.9513 0.8991 m
0.9413 0.8991 l
s
n
0.1500 0.9903 m
0.1600 0.9903 l
s
n
0.9513 0.9903 m
0.9413 0.9903 l
s
n
0.1500 1.0815 m
0.1600 1.0815 l
s
n
0.9513 1.0815 m
0.9413 1.0815 l
s
n
0.1500 1.1726 m
0.1600 1.1726 l
s
n
0.9513 1.1726 m
0.9413 1.1726 l
s
n
0.1500 0.5800 m
0.1700 0.5800 l
s
n
0.9513 0.5800 m
0.9313 0.5800 l
s
n
0.1500 0.6712 m
0.1700 0.6712 l
s
n
0.9513 0.6712 m
0.9313 0.6712 l
s
n
0.1500 0.7624 m
0.1700 0.7624 l
s
n
0.9513 0.7624 m
0.9313 0.7624 l
s
n
0.1500 0.8535 m
0.1700 0.8535 l
s
n
0.9513 0.8535 m
0.9313 0.8535 l
s
n
0.1500 0.9447 m
0.1700 0.9447 l
s
n
0.9513 0.9447 m
0.9313 0.9447 l
s
n
0.1500 1.0359 m
0.1700 1.0359 l
s
n
0.9513 1.0359 m
0.9313 1.0359 l
s
n
0.1500 1.1271 m
0.1700 1.1271 l
s
n
0.9513 1.1271 m
0.9313 1.1271 l
s
/Font0 FFSF
0.1194 0.5658 m
GS
[0.0431 0.0000 0.0000 0.0431 0 0] CC
(0) show
GR
/Font0 FFSF
0.0675 0.6566 m
GS
[0.0431 0.0000 0.0000 0.0431 0 0] CC
(0.25) show
GR
/Font0 FFSF
0.0891 0.7478 m
GS
[0.0431 0.0000 0.0000 0.0431 0 0] CC
(0.5) show
GR
/Font0 FFSF
0.0675 0.8390 m
GS
[0.0431 0.0000 0.0000 0.0431 0 0] CC
(0.75) show
GR
/Font0 FFSF
0.1231 0.9302 m
GS
[0.0431 0.0000 0.0000 0.0431 0 0] CC
(1) show
GR
/Font0 FFSF
0.0675 1.0214 m
GS
[0.0431 0.0000 0.0000 0.0431 0 0] CC
(1.25) show
GR
/Font0 FFSF
0.0891 1.1125 m
GS
[0.0431 0.0000 0.0000 0.0431 0 0] CC
(1.5) show
GR
/Font4 FFSF
0.0400 0.8070 m
GS
[0.0000 0.0437 -0.0437 0.0000 0 0] CC
( R) show
GR
/Font4 FFSF
0.0575 0.8508 m
GS
[0.0000 0.0309 -0.0309 0.0000 0 0] CC
(AA) show
GR
/Font4 FFSF
0.0400 0.8920 m
GS
[0.0000 0.0437 -0.0437 0.0000 0 0] CC
( \(p) show
GR
/Font4 FFSF
0.0575 0.9430 m
GS
[0.0000 0.0309 -0.0309 0.0000 0 0] CC
(T) show
GR
/Font4 FFSF
0.0400 0.9617 m
GS
[0.0000 0.0437 -0.0437 0.0000 0 0] CC
(\)) show
GR
n
0.1500 0.5800 m
0.1500 1.2000 l
0.9513 1.2000 l
0.9513 0.5800 l
0.1500 0.5800 l
c
s
n
0.4100 1.1700 m
0.4100 1.0266 l
0.9006 1.0266 l
0.9006 1.1700 l
c
[/DeviceRGB] SCS
Color0 SC
fill
[/DeviceRGB] SCS
Color1 SC
[] 0 SD
0.0015 SLW
n
0.4100 1.1700 m
0.4100 1.0266 l
0.9006 1.0266 l
0.9006 1.1700 l
0.4100 1.1700 l
c
s
/Font4 FFSF
0.4815 1.1410 m
GS
[0.0202 0.0000 0.0000 0.0202 0 0] CC
( PHENIX 0-10% Au+Au, non-photonic e) show
GR
/Font4 FFSF
0.8374 1.1531 m
GS
[0.0143 0.0000 0.0000 0.0143 0 0] CC
(+) show
GR
/Font4 FFSF
0.8459 1.1410 m
GS
[0.0202 0.0000 0.0000 0.0202 0 0] CC
(+e) show
GR
/Font4 FFSF
0.8690 1.1531 m
GS
[0.0143 0.0000 0.0000 0.0143 0 0] CC
(-) show
GR
n
0.4415 1.1483 0.0049 0.0049 0 360 EARC c
fill
n 0.4415 1.1483 0.0049 0.0049 0 360 EARC s
/Font4 FFSF
0.4815 1.1077 m
GS
[0.0202 0.0000 0.0000 0.0202 0 0] CC
( STAR 0-5% Au+Au, non-photonic e) show
GR
/Font4 FFSF
0.8049 1.1198 m
GS
[0.0143 0.0000 0.0000 0.0143 0 0] CC
(+) show
GR
/Font4 FFSF
0.8134 1.1077 m
GS
[0.0202 0.0000 0.0000 0.0202 0 0] CC
(+e) show
GR
/Font4 FFSF
0.8365 1.1198 m
GS
[0.0143 0.0000 0.0000 0.0143 0 0] CC
(-) show
GR
[] 0 SD
0.0030 SLW
n
0.4334 1.1150 m
0.4496 1.1150 l
s
n
0.4415 1.1069 m
0.4415 1.1231 l
s
n
0.4358 1.1093 m
0.4472 1.1207 l
s
n
0.4358 1.1207 m
0.4472 1.1093 l
s
/Font4 FFSF
0.4815 1.0743 m
GS
[0.0202 0.0000 0.0000 0.0202 0 0] CC
( e) show
GR
/Font4 FFSF
0.4984 1.0864 m
GS
[0.0143 0.0000 0.0000 0.0143 0 0] CC
(+) show
GR
/Font4 FFSF
0.5068 1.0743 m
GS
[0.0202 0.0000 0.0000 0.0202 0 0] CC
(+e) show
GR
/Font4 FFSF
0.5299 1.0864 m
GS
[0.0143 0.0000 0.0000 0.0143 0 0] CC
(-) show
GR
/Font4 FFSF
0.5346 1.0743 m
GS
[0.0202 0.0000 0.0000 0.0202 0 0] CC
( from B+D meson decay, central Cu+Cu) show
GR
[/DeviceRGB] SCS
Color4 SC
[0.0030 0.0090 0.0210 0.0090 ] 0 SD
0.0030 SLW
n
0.4215 1.0816 m
0.4615 1.0816 l
s
/Font4 FFSF
[/DeviceRGB] SCS
Color1 SC
0.4815 1.0410 m
GS
[0.0202 0.0000 0.0000 0.0202 0 0] CC
( e) show
GR
/Font4 FFSF
0.4984 1.0531 m
GS
[0.0143 0.0000 0.0000 0.0143 0 0] CC
(+) show
GR
/Font4 FFSF
0.5068 1.0410 m
GS
[0.0202 0.0000 0.0000 0.0202 0 0] CC
(+e) show
GR
/Font4 FFSF
0.5299 1.0531 m
GS
[0.0143 0.0000 0.0000 0.0143 0 0] CC
(-) show
GR
/Font4 FFSF
0.5346 1.0410 m
GS
[0.0202 0.0000 0.0000 0.0202 0 0] CC
( from B+D meson decay, central Au+Au) show
GR
[/DeviceRGB] SCS
Color2 SC
[] 0 SD
0.0030 SLW
n
0.4215 1.0483 m
0.4615 1.0483 l
s
/Symbol findfont
/Font12 exch definefont pop
/Font12 FFSF
[/DeviceRGB] SCS
Color1 SC
0.8087 0.6225 m
GS
[0.0269 0.0000 0.0000 0.0269 0 0] CC
(x) show
GR
/Font4 FFSF
0.8219 0.6225 m
GS
[0.0269 0.0000 0.0000 0.0269 0 0] CC
( = 3-5) show
GR
/Font4 FFSF
0.1872 0.6341 m
GS
[0.0255 0.0000 0.0000 0.0255 0 0] CC
( s) show
GR
/Font4 FFSF
0.2069 0.6494 m
GS
[0.0180 0.0000 0.0000 0.0180 0 0] CC
(1/2) show
GR
/Font4 FFSF
0.2319 0.6341 m
GS
[0.0255 0.0000 0.0000 0.0255 0 0] CC
( = 200 GeV) show
GR
%%Trailer
%%BoundingBox: 5 367 748 929
%%DocumentNeededResources: font Times-Roman
%%+ font Helvetica
%%+ font Symbol
%%EOF
