%!PS-Adobe-1.0
%%Creator: Unified Graphics System
%%Pages: (atend)
%%DocumentFonts: Helvetica
%%BoundingBox:   73  258  422  589
%%EndComments
/Sw{setlinewidth}def
/Sg{setgray}def
/Sd{setdash}def
/P {newpath
    moveto
0 0 rlineto
    stroke}def
/M {moveto}def
/D {lineto}def
/N {newpath}def
/S {stroke}def
/T {/Helvetica findfont
    exch
    scalefont
    setfont}def
/R {rotate}def
/W {show}def
/F {fill}def
/X {gsave}def
/Y {grestore}def
%%EndProlog
%%Page: 1 1
0.12000 0.12000 scale
1 setlinecap
1 setlinejoin
8 Sw
0.00 0.00 0.00 setrgbcolor
[] 0 Sd
N
2007 2278 M
2007 2200 D
S
N
2011 2278 M
2011 2200 D
S
N
2011 2267 M
2018 2275 D
2026 2278 D
2033 2278 D
2044 2275 D
2052 2267 D
2056 2256 D
2056 2248 D
2052 2237 D
2044 2230 D
2033 2226 D
2026 2226 D
2018 2230 D
2011 2237 D
S
N
2033 2278 M
2041 2275 D
2048 2267 D
2052 2256 D
2052 2248 D
2048 2237 D
2041 2230 D
2033 2226 D
S
N
1996 2278 M
2011 2278 D
S
N
1996 2200 M
2022 2200 D
S
N
2094 2234 M
2094 2181 D
S
N
2097 2234 M
2097 2181 D
S
N
2079 2234 M
2077 2219 D
2077 2234 D
2114 2234 D
2114 2219 D
2112 2234 D
S
N
2087 2181 M
2104 2181 D
S
N
2216 2320 M
2208 2312 D
2201 2301 D
2193 2286 D
2189 2267 D
2189 2252 D
2193 2234 D
2201 2219 D
2208 2207 D
2216 2200 D
S
N
2208 2312 M
2201 2297 D
2197 2286 D
2193 2267 D
2193 2252 D
2197 2233 D
2201 2222 D
2208 2207 D
S
N
2291 2293 M
2294 2282 D
2294 2305 D
2291 2293 D
2283 2301 D
2272 2305 D
2264 2305 D
2253 2301 D
2246 2293 D
2242 2286 D
2238 2275 D
2238 2256 D
2242 2245 D
2246 2237 D
2253 2230 D
2264 2226 D
2272 2226 D
2283 2230 D
2291 2237 D
S
N
2264 2305 M
2257 2301 D
2249 2293 D
2246 2286 D
2242 2275 D
2242 2256 D
2246 2245 D
2249 2237 D
2257 2230 D
2264 2226 D
S
N
2291 2256 M
2291 2226 D
S
N
2294 2256 M
2294 2226 D
S
N
2279 2256 M
2306 2256 D
S
N
2328 2256 M
2373 2256 D
2373 2263 D
2369 2271 D
2366 2275 D
2358 2278 D
2347 2278 D
2336 2275 D
2328 2267 D
2324 2256 D
2324 2248 D
2328 2237 D
2336 2230 D
2347 2226 D
2354 2226 D
2366 2230 D
2373 2237 D
S
N
2369 2256 M
2369 2267 D
2366 2275 D
S
N
2347 2278 M
2339 2275 D
2332 2267 D
2328 2256 D
2328 2248 D
2332 2237 D
2339 2230 D
2347 2226 D
S
N
2396 2305 M
2422 2226 D
S
N
2399 2305 M
2422 2237 D
S
N
2448 2305 M
2422 2226 D
S
N
2388 2305 M
2411 2305 D
S
N
2433 2305 M
2456 2305 D
S
N
2471 2320 M
2478 2312 D
2486 2301 D
2493 2286 D
2497 2267 D
2497 2252 D
2493 2233 D
2486 2218 D
2478 2207 D
2471 2200 D
S
N
2478 2312 M
2486 2297 D
2489 2286 D
2493 2267 D
2493 2252 D
2489 2233 D
2486 2222 D
2478 2207 D
S
N
656 2888 M
735 2888 D
S
N
656 2892 M
735 2892 D
S
N
656 2877 M
656 2922 D
660 2933 D
664 2937 D
671 2941 D
679 2941 D
686 2937 D
690 2933 D
694 2922 D
694 2892 D
S
N
656 2922 M
660 2930 D
664 2933 D
671 2937 D
679 2937 D
686 2933 D
690 2930 D
694 2922 D
S
N
735 2877 M
735 2903 D
S
N
694 2911 M
698 2918 D
701 2922 D
728 2933 D
731 2937 D
731 2941 D
728 2945 D
S
N
698 2918 M
705 2922 D
731 2930 D
735 2933 D
735 2941 D
728 2945 D
724 2945 D
S
N
728 2970 M
780 2970 D
S
N
728 2972 M
780 2972 D
S
N
728 2962 M
728 2992 D
730 3000 D
733 3002 D
738 3005 D
745 3005 D
750 3002 D
753 3000 D
755 2992 D
755 2972 D
S
N
728 2992 M
730 2997 D
733 3000 D
738 3002 D
745 3002 D
750 3000 D
753 2997 D
755 2992 D
S
N
780 2962 M
780 2980 D
S
N
728 3025 M
780 3025 D
S
N
728 3027 M
780 3027 D
S
N
753 3027 M
748 3032 D
745 3037 D
745 3042 D
748 3050 D
753 3055 D
760 3057 D
765 3057 D
773 3055 D
778 3050 D
780 3042 D
780 3037 D
778 3032 D
773 3027 D
S
N
745 3042 M
747 3047 D
752 3052 D
760 3055 D
765 3055 D
772 3052 D
777 3047 D
780 3042 D
S
N
727 3017 M
727 3027 D
S
N
727 3077 M
780 3077 D
S
N
727 3080 M
780 3080 D
S
N
727 3070 M
727 3100 D
730 3107 D
732 3110 D
737 3112 D
745 3112 D
750 3110 D
752 3107 D
755 3100 D
755 3080 D
S
N
727 3100 M
730 3105 D
732 3107 D
737 3110 D
745 3110 D
750 3107 D
752 3105 D
755 3100 D
S
N
780 3070 M
780 3087 D
S
N
727 3132 M
780 3132 D
S
N
727 3135 M
780 3135 D
S
N
752 3135 M
747 3140 D
745 3145 D
745 3150 D
747 3157 D
752 3162 D
760 3165 D
765 3165 D
772 3162 D
777 3157 D
780 3150 D
780 3145 D
777 3140 D
772 3135 D
S
N
745 3150 M
747 3155 D
752 3160 D
760 3162 D
765 3162 D
772 3160 D
777 3155 D
780 3150 D
S
N
727 3125 M
727 3135 D
S
N
735 3186 M
731 3182 D
727 3186 D
731 3190 D
739 3190 D
746 3186 D
750 3182 D
S
N
656 3283 M
735 3283 D
S
N
656 3287 M
735 3287 D
S
N
656 3272 M
656 3317 D
660 3328 D
664 3332 D
671 3336 D
679 3336 D
686 3332 D
690 3328 D
694 3317 D
694 3287 D
S
N
656 3317 M
660 3325 D
664 3328 D
671 3332 D
679 3332 D
686 3328 D
690 3325 D
694 3317 D
S
N
735 3272 M
735 3298 D
S
N
694 3306 M
698 3313 D
701 3317 D
728 3328 D
731 3332 D
731 3336 D
728 3340 D
S
N
698 3313 M
705 3317 D
731 3325 D
735 3328 D
735 3336 D
728 3340 D
724 3340 D
S
N
745 3365 M
797 3365 D
S
N
745 3367 M
797 3367 D
S
N
752 3367 M
747 3372 D
745 3377 D
745 3382 D
747 3390 D
752 3395 D
760 3397 D
765 3397 D
772 3395 D
777 3390 D
780 3382 D
780 3377 D
777 3372 D
772 3367 D
S
N
745 3382 M
747 3387 D
752 3392 D
760 3395 D
765 3395 D
772 3392 D
777 3387 D
780 3382 D
S
N
745 3357 M
745 3367 D
S
N
797 3357 M
797 3375 D
S
N
727 3417 M
780 3417 D
S
N
727 3420 M
780 3420 D
S
N
727 3410 M
727 3440 D
730 3447 D
732 3450 D
737 3452 D
745 3452 D
750 3450 D
752 3447 D
755 3440 D
755 3420 D
S
N
727 3440 M
730 3445 D
732 3447 D
737 3450 D
745 3450 D
750 3447 D
752 3445 D
755 3440 D
S
N
780 3410 M
780 3427 D
S
N
727 3472 M
780 3472 D
S
N
727 3475 M
780 3475 D
S
N
752 3475 M
747 3480 D
745 3485 D
745 3490 D
747 3497 D
752 3502 D
760 3505 D
765 3505 D
772 3502 D
777 3497 D
780 3490 D
780 3485 D
777 3480 D
772 3475 D
S
N
745 3490 M
747 3495 D
752 3500 D
760 3502 D
765 3502 D
772 3500 D
777 3495 D
780 3490 D
S
N
727 3465 M
727 3475 D
S
N
641 3548 M
649 3541 D
660 3533 D
675 3526 D
694 3522 D
709 3522 D
727 3526 D
742 3533 D
754 3541 D
761 3548 D
S
N
649 3541 M
664 3533 D
675 3530 D
694 3526 D
709 3526 D
727 3530 D
739 3533 D
754 3541 D
S
N
667 3608 M
735 3608 D
S
N
701 3575 M
701 3642 D
S
N
682 3672 M
735 3695 D
S
N
682 3676 M
727 3695 D
S
N
682 3717 M
735 3695 D
750 3687 D
757 3680 D
761 3672 D
761 3668 D
757 3665 D
754 3668 D
757 3672 D
S
N
682 3665 M
682 3687 D
S
N
682 3702 M
682 3725 D
S
N
641 3740 M
649 3747 D
660 3755 D
675 3762 D
694 3766 D
709 3766 D
727 3762 D
742 3755 D
754 3747 D
761 3740 D
S
N
649 3747 M
664 3755 D
675 3758 D
694 3762 D
709 3762 D
727 3758 D
739 3755 D
754 3747 D
S
N
675 3867 M
727 3890 D
S
N
675 3890 M
727 3867 D
S
N
690 3852 M
712 3905 D
S
N
690 3905 M
712 3852 D
S
N
656 3995 M
735 3995 D
S
N
656 3998 M
735 3998 D
S
N
656 3983 M
656 4028 D
660 4040 D
664 4043 D
671 4047 D
679 4047 D
686 4043 D
690 4040 D
694 4028 D
694 3998 D
S
N
656 4028 M
660 4036 D
664 4040 D
671 4043 D
679 4043 D
686 4040 D
690 4036 D
694 4028 D
S
N
735 3983 M
735 4010 D
S
N
694 4017 M
697 4025 D
701 4028 D
727 4040 D
731 4043 D
731 4047 D
727 4051 D
S
N
697 4025 M
705 4028 D
731 4036 D
735 4040 D
735 4047 D
727 4051 D
724 4051 D
S
N
745 4076 M
797 4076 D
S
N
745 4078 M
797 4078 D
S
N
752 4078 M
747 4083 D
745 4088 D
745 4093 D
747 4101 D
752 4106 D
760 4108 D
765 4108 D
772 4106 D
777 4101 D
780 4093 D
780 4088 D
777 4083 D
772 4078 D
S
N
745 4093 M
747 4098 D
752 4103 D
760 4106 D
765 4106 D
772 4103 D
777 4098 D
780 4093 D
S
N
745 4068 M
745 4078 D
S
N
797 4068 M
797 4086 D
S
N
727 4128 M
780 4128 D
S
N
727 4131 M
780 4131 D
S
N
727 4121 M
727 4151 D
730 4158 D
732 4161 D
737 4163 D
745 4163 D
750 4161 D
752 4158 D
755 4151 D
755 4131 D
S
N
727 4151 M
730 4156 D
732 4158 D
737 4161 D
745 4161 D
750 4158 D
752 4156 D
755 4151 D
S
N
780 4121 M
780 4138 D
S
N
727 4183 M
780 4183 D
S
N
727 4186 M
780 4186 D
S
N
752 4186 M
747 4191 D
745 4196 D
745 4201 D
747 4208 D
752 4213 D
760 4216 D
765 4216 D
772 4213 D
777 4208 D
780 4201 D
780 4196 D
777 4191 D
772 4186 D
S
N
745 4201 M
747 4206 D
752 4211 D
760 4213 D
765 4213 D
772 4211 D
777 4206 D
780 4201 D
S
N
727 4176 M
727 4186 D
S
N
641 4260 M
649 4252 D
660 4245 D
675 4237 D
694 4233 D
709 4233 D
727 4237 D
742 4245 D
754 4252 D
761 4260 D
S
N
649 4252 M
664 4245 D
675 4241 D
694 4237 D
709 4237 D
727 4241 D
739 4245 D
754 4252 D
S
N
701 4286 M
701 4353 D
S
N
682 4383 M
735 4406 D
S
N
682 4387 M
727 4406 D
S
N
682 4428 M
735 4406 D
750 4398 D
757 4391 D
761 4383 D
761 4380 D
757 4376 D
754 4380 D
757 4383 D
S
N
682 4376 M
682 4398 D
S
N
682 4413 M
682 4436 D
S
N
641 4451 M
649 4458 D
660 4466 D
675 4473 D
694 4477 D
709 4477 D
727 4473 D
742 4466 D
754 4458 D
761 4451 D
S
N
649 4458 M
664 4466 D
675 4470 D
694 4473 D
709 4473 D
727 4470 D
739 4466 D
754 4458 D
S
N
1050 4881 M
1050 2481 D
S
N
1050 2481 M
3450 2481 D
S
N
3450 2481 M
3450 4881 D
S
N
3450 4881 M
1050 4881 D
S
N
1050 4195 M
3450 4195 D
S
N
1050 2481 M
1050 2571 D
S
N
1210 2511 M
1210 2481 D
S
N
1370 2481 M
1370 2511 D
S
N
1530 2511 M
1530 2481 D
S
N
1690 2481 M
1690 2511 D
S
N
1850 2571 M
1850 2481 D
S
N
2010 2481 M
2010 2511 D
S
N
2170 2511 M
2170 2481 D
S
N
2330 2481 M
2330 2511 D
S
N
2490 2511 M
2490 2481 D
S
N
2650 2481 M
2650 2571 D
S
N
2810 2511 M
2810 2481 D
S
N
2970 2481 M
2970 2511 D
S
N
3130 2511 M
3130 2481 D
S
N
3290 2481 M
3290 2511 D
S
N
3450 2571 M
3450 2481 D
S
N
1048 2431 M
1040 2429 D
1035 2421 D
1033 2409 D
1033 2402 D
1035 2389 D
1040 2382 D
1048 2379 D
1053 2379 D
1060 2382 D
1065 2389 D
1067 2402 D
1067 2409 D
1065 2421 D
1060 2429 D
1053 2431 D
1048 2431 D
S
N
1048 2431 M
1043 2429 D
1040 2426 D
1038 2421 D
1035 2409 D
1035 2402 D
1038 2389 D
1040 2384 D
1043 2382 D
1048 2379 D
S
N
1053 2379 M
1057 2382 D
1060 2384 D
1062 2389 D
1065 2402 D
1065 2409 D
1062 2421 D
1060 2426 D
1057 2429 D
1053 2431 D
S
N
1815 2421 M
1820 2424 D
1828 2431 D
1828 2379 D
S
N
1825 2429 M
1825 2379 D
S
N
1815 2379 M
1837 2379 D
S
N
1872 2431 M
1865 2429 D
1860 2421 D
1857 2409 D
1857 2402 D
1860 2389 D
1865 2382 D
1872 2379 D
1877 2379 D
1885 2382 D
1890 2389 D
1892 2402 D
1892 2409 D
1890 2421 D
1885 2429 D
1877 2431 D
1872 2431 D
S
N
1872 2431 M
1867 2429 D
1865 2426 D
1862 2421 D
1860 2409 D
1860 2402 D
1862 2389 D
1865 2384 D
1867 2382 D
1872 2379 D
S
N
1877 2379 M
1882 2382 D
1885 2384 D
1887 2389 D
1890 2402 D
1890 2409 D
1887 2421 D
1885 2426 D
1882 2429 D
1877 2431 D
S
N
2610 2421 M
2613 2419 D
2610 2416 D
2608 2419 D
2608 2421 D
2610 2426 D
2613 2429 D
2620 2431 D
2630 2431 D
2637 2429 D
2640 2426 D
2642 2421 D
2642 2416 D
2640 2411 D
2632 2407 D
2620 2402 D
2615 2399 D
2610 2394 D
2608 2387 D
2608 2379 D
S
N
2630 2431 M
2635 2429 D
2637 2426 D
2640 2421 D
2640 2416 D
2637 2411 D
2630 2407 D
2620 2402 D
S
N
2608 2384 M
2610 2387 D
2615 2387 D
2628 2382 D
2635 2382 D
2640 2384 D
2642 2387 D
S
N
2615 2387 M
2628 2379 D
2637 2379 D
2640 2382 D
2642 2387 D
2642 2392 D
S
N
2672 2431 M
2665 2429 D
2660 2421 D
2657 2409 D
2657 2402 D
2660 2389 D
2665 2382 D
2672 2379 D
2677 2379 D
2685 2382 D
2690 2389 D
2692 2402 D
2692 2409 D
2690 2421 D
2685 2429 D
2677 2431 D
2672 2431 D
S
N
2672 2431 M
2667 2429 D
2665 2426 D
2662 2421 D
2660 2409 D
2660 2402 D
2662 2389 D
2665 2384 D
2667 2382 D
2672 2379 D
S
N
2677 2379 M
2682 2382 D
2685 2384 D
2687 2389 D
2690 2402 D
2690 2409 D
2687 2421 D
2685 2426 D
2682 2429 D
2677 2431 D
S
N
3410 2421 M
3413 2419 D
3410 2416 D
3408 2419 D
3408 2421 D
3410 2426 D
3413 2429 D
3420 2431 D
3430 2431 D
3437 2429 D
3440 2424 D
3440 2416 D
3437 2411 D
3430 2409 D
3423 2409 D
S
N
3430 2431 M
3435 2429 D
3437 2424 D
3437 2416 D
3435 2411 D
3430 2409 D
S
N
3430 2409 M
3435 2407 D
3440 2402 D
3442 2397 D
3442 2389 D
3440 2384 D
3437 2382 D
3430 2379 D
3420 2379 D
3413 2382 D
3410 2384 D
3408 2389 D
3408 2392 D
3410 2394 D
3413 2392 D
3410 2389 D
S
N
3437 2404 M
3440 2397 D
3440 2389 D
3437 2384 D
3435 2382 D
3430 2379 D
S
N
3472 2431 M
3465 2429 D
3460 2421 D
3457 2409 D
3457 2402 D
3460 2389 D
3465 2382 D
3472 2379 D
3477 2379 D
3485 2382 D
3490 2389 D
3492 2402 D
3492 2409 D
3490 2421 D
3485 2429 D
3477 2431 D
3472 2431 D
S
N
3472 2431 M
3467 2429 D
3465 2426 D
3462 2421 D
3460 2409 D
3460 2402 D
3462 2389 D
3465 2384 D
3467 2382 D
3472 2379 D
S
N
3477 2379 M
3482 2382 D
3485 2384 D
3487 2389 D
3490 2402 D
3490 2409 D
3487 2421 D
3485 2426 D
3482 2429 D
3477 2431 D
S
N
1050 4791 M
1050 4881 D
S
N
1210 4881 M
1210 4851 D
S
N
1370 4851 M
1370 4881 D
S
N
1530 4881 M
1530 4851 D
S
N
1690 4851 M
1690 4881 D
S
N
1850 4881 M
1850 4791 D
S
N
2010 4851 M
2010 4881 D
S
N
2170 4881 M
2170 4851 D
S
N
2330 4851 M
2330 4881 D
S
N
2490 4881 M
2490 4851 D
S
N
2650 4791 M
2650 4881 D
S
N
2810 4881 M
2810 4851 D
S
N
2970 4851 M
2970 4881 D
S
N
3130 4881 M
3130 4851 D
S
N
3290 4851 M
3290 4881 D
S
N
3450 4881 M
3450 4791 D
S
N
1050 2481 M
1140 2481 D
S
N
1080 2652 M
1050 2652 D
S
N
1050 2824 M
1080 2824 D
S
N
1080 2995 M
1050 2995 D
S
N
1050 3167 M
1080 3167 D
S
N
1140 3338 M
1050 3338 D
S
N
1050 3510 M
1080 3510 D
S
N
1080 3681 M
1050 3681 D
S
N
1050 3852 M
1080 3852 D
S
N
1080 4024 M
1050 4024 D
S
N
1050 4195 M
1140 4195 D
S
N
1080 4367 M
1050 4367 D
S
N
1050 4538 M
1080 4538 D
S
N
1080 4710 M
1050 4710 D
S
N
1050 4881 M
1080 4881 D
S
N
918 2503 M
910 2501 D
905 2493 D
903 2481 D
903 2474 D
905 2461 D
910 2454 D
918 2451 D
923 2451 D
930 2454 D
935 2461 D
937 2474 D
937 2481 D
935 2493 D
930 2501 D
923 2503 D
918 2503 D
S
N
918 2503 M
913 2501 D
910 2498 D
908 2493 D
905 2481 D
905 2474 D
908 2461 D
910 2456 D
913 2454 D
918 2451 D
S
N
923 2451 M
927 2454 D
930 2456 D
932 2461 D
935 2474 D
935 2481 D
932 2493 D
930 2498 D
927 2501 D
923 2503 D
S
N
957 2456 M
955 2454 D
957 2451 D
960 2454 D
957 2456 D
S
N
992 2503 M
985 2501 D
980 2493 D
977 2481 D
977 2474 D
980 2461 D
985 2454 D
992 2451 D
997 2451 D
1005 2454 D
1010 2461 D
1012 2474 D
1012 2481 D
1010 2493 D
1005 2501 D
997 2503 D
992 2503 D
S
N
992 2503 M
987 2501 D
985 2498 D
982 2493 D
980 2481 D
980 2474 D
982 2461 D
985 2456 D
987 2454 D
992 2451 D
S
N
997 2451 M
1002 2454 D
1005 2456 D
1007 2461 D
1010 2474 D
1010 2481 D
1007 2493 D
1005 2498 D
1002 2501 D
997 2503 D
S
N
918 3361 M
910 3358 D
905 3351 D
903 3338 D
903 3331 D
905 3318 D
910 3311 D
918 3308 D
923 3308 D
930 3311 D
935 3318 D
937 3331 D
937 3338 D
935 3351 D
930 3358 D
923 3361 D
918 3361 D
S
N
918 3361 M
913 3358 D
910 3356 D
908 3351 D
905 3338 D
905 3331 D
908 3318 D
910 3313 D
913 3311 D
918 3308 D
S
N
923 3308 M
927 3311 D
930 3313 D
932 3318 D
935 3331 D
935 3338 D
932 3351 D
930 3356 D
927 3358 D
923 3361 D
S
N
957 3313 M
955 3311 D
957 3308 D
960 3311 D
957 3313 D
S
N
982 3361 M
977 3336 D
S
N
977 3336 M
982 3341 D
990 3343 D
997 3343 D
1005 3341 D
1010 3336 D
1012 3328 D
1012 3323 D
1010 3316 D
1005 3311 D
997 3308 D
990 3308 D
982 3311 D
980 3313 D
977 3318 D
977 3321 D
980 3323 D
982 3321 D
980 3318 D
S
N
997 3343 M
1002 3341 D
1007 3336 D
1010 3328 D
1010 3323 D
1007 3316 D
1002 3311 D
997 3308 D
S
N
982 3361 M
1007 3361 D
S
N
982 3358 M
995 3358 D
1007 3361 D
S
N
910 4208 M
915 4210 D
923 4218 D
923 4165 D
S
N
920 4215 M
920 4165 D
S
N
910 4165 M
932 4165 D
S
N
957 4170 M
955 4168 D
957 4165 D
960 4168 D
957 4170 D
S
N
992 4218 M
985 4215 D
980 4208 D
977 4195 D
977 4188 D
980 4175 D
985 4168 D
992 4165 D
997 4165 D
1005 4168 D
1010 4175 D
1012 4188 D
1012 4195 D
1010 4208 D
1005 4215 D
997 4218 D
992 4218 D
S
N
992 4218 M
987 4215 D
985 4213 D
982 4208 D
980 4195 D
980 4188 D
982 4175 D
985 4170 D
987 4168 D
992 4165 D
S
N
997 4165 M
1002 4168 D
1005 4170 D
1007 4175 D
1010 4188 D
1010 4195 D
1007 4208 D
1005 4213 D
1002 4215 D
997 4218 D
S
N
3360 2481 M
3450 2481 D
S
N
3450 2652 M
3420 2652 D
S
N
3420 2824 M
3450 2824 D
S
N
3450 2995 M
3420 2995 D
S
N
3420 3167 M
3450 3167 D
S
N
3450 3338 M
3360 3338 D
S
N
3420 3510 M
3450 3510 D
S
N
3450 3681 M
3420 3681 D
S
N
3420 3852 M
3450 3852 D
S
N
3450 4024 M
3420 4024 D
S
N
3360 4195 M
3450 4195 D
S
N
3450 4367 M
3420 4367 D
S
N
3420 4538 M
3450 4538 D
S
N
3450 4710 M
3420 4710 D
S
N
3420 4881 M
3450 4881 D
S
N
1504 4658 M
1504 4579 D
S
N
1508 4658 M
1508 4579 D
S
N
1530 4635 M
1530 4605 D
S
N
1493 4658 M
1552 4658 D
1552 4635 D
1549 4658 D
S
N
1508 4620 M
1530 4620 D
S
N
1493 4579 M
1552 4579 D
1552 4601 D
1549 4579 D
S
N
1583 4658 M
1583 4579 D
S
N
1586 4658 M
1586 4579 D
S
N
1571 4658 M
1616 4658 D
1627 4654 D
1631 4650 D
1635 4643 D
1635 4631 D
1631 4624 D
1627 4620 D
1616 4616 D
1586 4616 D
S
N
1616 4658 M
1624 4654 D
1627 4650 D
1631 4643 D
1631 4631 D
1627 4624 D
1624 4620 D
1616 4616 D
S
N
1571 4579 M
1598 4579 D
S
N
1706 4646 M
1710 4658 D
1710 4635 D
1706 4646 D
1699 4654 D
1688 4658 D
1676 4658 D
1665 4654 D
1658 4646 D
1658 4639 D
1661 4631 D
1665 4628 D
1673 4624 D
1695 4616 D
1702 4613 D
1710 4605 D
S
N
1657 4639 M
1665 4631 D
1673 4628 D
1695 4620 D
1702 4616 D
1706 4613 D
1710 4605 D
1710 4590 D
1702 4583 D
1691 4579 D
1680 4579 D
1669 4583 D
1661 4590 D
1657 4601 D
1657 4579 D
1661 4590 D
S
N
1755 4658 M
1744 4654 D
1736 4643 D
1733 4624 D
1733 4613 D
1736 4594 D
1744 4583 D
1755 4579 D
1763 4579 D
1774 4583 D
1781 4594 D
1785 4613 D
1785 4624 D
1781 4643 D
1774 4654 D
1763 4658 D
1755 4658 D
S
N
1755 4658 M
1748 4654 D
1744 4650 D
1740 4643 D
1736 4624 D
1736 4613 D
1740 4594 D
1744 4586 D
1748 4583 D
1755 4579 D
S
N
1763 4579 M
1770 4583 D
1774 4586 D
1777 4594 D
1781 4613 D
1781 4624 D
1777 4643 D
1774 4650 D
1770 4654 D
1763 4658 D
S
N
1856 4631 M
1853 4620 D
1845 4613 D
1834 4609 D
1830 4609 D
1819 4613 D
1811 4620 D
1808 4631 D
1808 4635 D
1811 4646 D
1819 4654 D
1830 4658 D
1838 4658 D
1849 4654 D
1856 4646 D
1860 4635 D
1860 4613 D
1856 4598 D
1853 4590 D
1845 4583 D
1834 4579 D
1823 4579 D
1815 4583 D
1811 4590 D
1811 4594 D
1815 4598 D
1819 4594 D
1815 4590 D
S
N
1830 4609 M
1823 4613 D
1815 4620 D
1811 4631 D
1811 4635 D
1815 4646 D
1823 4654 D
1830 4658 D
S
N
1838 4658 M
1845 4654 D
1853 4646 D
1856 4635 D
1856 4613 D
1853 4598 D
1849 4590 D
1841 4583 D
1834 4579 D
S
N
1950 4658 M
1950 4579 D
S
N
1954 4658 M
1999 4586 D
S
N
1954 4650 M
1999 4579 D
S
N
1999 4658 M
1999 4579 D
S
N
1939 4658 M
1954 4658 D
S
N
1988 4658 M
2010 4658 D
S
N
1939 4579 M
1961 4579 D
S
N
2036 4658 M
2036 4579 D
S
N
2040 4658 M
2040 4579 D
S
N
2025 4658 M
2051 4658 D
S
N
2025 4579 M
2081 4579 D
2081 4601 D
2078 4579 D
S
N
2123 4658 M
2111 4654 D
2104 4646 D
2100 4639 D
2096 4624 D
2096 4613 D
2100 4598 D
2104 4590 D
2111 4583 D
2123 4579 D
2130 4579 D
2141 4583 D
2149 4590 D
2153 4598 D
2156 4613 D
2156 4624 D
2153 4639 D
2149 4646 D
2141 4654 D
2130 4658 D
2123 4658 D
S
N
2123 4658 M
2115 4654 D
2108 4646 D
2104 4639 D
2100 4624 D
2100 4613 D
2104 4598 D
2108 4590 D
2115 4583 D
2123 4579 D
S
N
2130 4579 M
2138 4583 D
2145 4590 D
2149 4598 D
2153 4613 D
2153 4624 D
2149 4639 D
2145 4646 D
2138 4654 D
2130 4658 D
S
N
2239 4631 M
2254 4631 D
2276 4586 D
S
N
2250 4631 M
2276 4579 D
2310 4680 D
S
N
2359 4624 M
2363 4631 D
2363 4616 D
2359 4624 D
2355 4628 D
2348 4631 D
2333 4631 D
2325 4628 D
2321 4624 D
2321 4616 D
2325 4613 D
2333 4609 D
2351 4601 D
2359 4598 D
2363 4594 D
S
N
2321 4620 M
2325 4616 D
2333 4613 D
2351 4605 D
2359 4601 D
2363 4598 D
2363 4586 D
2359 4583 D
2351 4579 D
2336 4579 D
2329 4583 D
2325 4586 D
2321 4594 D
2321 4579 D
2325 4586 D
S
N
2314 4680 M
2396 4680 D
S
N
2471 4624 M
2539 4624 D
S
N
2471 4601 M
2539 4601 D
S
N
2629 4643 M
2633 4639 D
2629 4635 D
2625 4639 D
2625 4643 D
2629 4650 D
2633 4654 D
2644 4658 D
2659 4658 D
2670 4654 D
2674 4650 D
2678 4643 D
2678 4635 D
2674 4628 D
2663 4620 D
2644 4613 D
2636 4609 D
2629 4601 D
2625 4590 D
2625 4579 D
S
N
2659 4658 M
2666 4654 D
2670 4650 D
2674 4643 D
2674 4635 D
2670 4628 D
2659 4620 D
2644 4613 D
S
N
2625 4586 M
2629 4590 D
2636 4590 D
2655 4583 D
2666 4583 D
2674 4586 D
2678 4590 D
S
N
2636 4590 M
2655 4579 D
2670 4579 D
2674 4583 D
2678 4590 D
2678 4598 D
S
N
2708 4586 M
2704 4583 D
2708 4579 D
2711 4583 D
2708 4586 D
S
N
2738 4658 M
2738 4635 D
S
N
2738 4643 M
2741 4650 D
2749 4658 D
2756 4658 D
2775 4646 D
2783 4646 D
2786 4650 D
2790 4658 D
S
N
2741 4650 M
2749 4654 D
2756 4654 D
2775 4646 D
S
N
2790 4658 M
2790 4646 D
2786 4635 D
2771 4616 D
2767 4609 D
2764 4598 D
2764 4579 D
S
N
2786 4635 M
2767 4616 D
2764 4609 D
2760 4598 D
2760 4579 D
S
N
2858 4646 M
2854 4643 D
2858 4639 D
2861 4643 D
2861 4646 D
2858 4654 D
2850 4658 D
2839 4658 D
2828 4654 D
2820 4646 D
2816 4639 D
2813 4624 D
2813 4601 D
2816 4590 D
2824 4583 D
2835 4579 D
2843 4579 D
2854 4583 D
2861 4590 D
2865 4601 D
2865 4605 D
2861 4616 D
2854 4624 D
2843 4628 D
2839 4628 D
2828 4624 D
2820 4616 D
2816 4605 D
S
N
2839 4658 M
2831 4654 D
2824 4646 D
2820 4639 D
2816 4624 D
2816 4601 D
2820 4590 D
2828 4583 D
2835 4579 D
S
N
2843 4579 M
2850 4583 D
2858 4590 D
2861 4601 D
2861 4605 D
2858 4616 D
2850 4624 D
2843 4628 D
S
N
2970 4658 M
2970 4579 D
S
N
2974 4658 M
2974 4579 D
S
N
2948 4658 M
2944 4635 D
2944 4658 D
3000 4658 D
3000 4635 D
2996 4658 D
S
N
2959 4579 M
2985 4579 D
S
N
3023 4609 M
3067 4609 D
3067 4616 D
3064 4624 D
3060 4628 D
3053 4631 D
3041 4631 D
3030 4628 D
3023 4620 D
3019 4609 D
3019 4601 D
3023 4590 D
3030 4583 D
3041 4579 D
3049 4579 D
3060 4583 D
3067 4590 D
S
N
3064 4609 M
3064 4620 D
3060 4628 D
S
N
3041 4631 M
3034 4628 D
3026 4620 D
3023 4609 D
3023 4601 D
3026 4590 D
3034 4583 D
3041 4579 D
S
N
3090 4658 M
3116 4579 D
S
N
3094 4658 M
3116 4590 D
S
N
3142 4658 M
3116 4579 D
S
N
3083 4658 M
3105 4658 D
S
N
3127 4658 M
3150 4658 D
S
1.00 0.00 0.00 setrgbcolor
N
1770 3167 M
1290 3167 D
S
0.00 0.00 0.00 setrgbcolor
N
1908 3195 M
1908 3129 D
S
N
1911 3195 M
1911 3129 D
S
N
1899 3195 M
1936 3195 D
1946 3192 D
1949 3189 D
1952 3182 D
1952 3176 D
1949 3170 D
1946 3167 D
1936 3164 D
1911 3164 D
S
N
1936 3195 M
1943 3192 D
1946 3189 D
1949 3182 D
1949 3176 D
1946 3170 D
1943 3167 D
1936 3164 D
S
N
1899 3129 M
1921 3129 D
S
N
1927 3164 M
1933 3160 D
1936 3157 D
1946 3135 D
1949 3132 D
1952 3132 D
1955 3135 D
S
N
1933 3160 M
1936 3154 D
1943 3132 D
1946 3129 D
1952 3129 D
1955 3135 D
1955 3139 D
S
N
1976 3135 M
1976 3092 D
S
N
1978 3135 M
1978 3092 D
S
N
1970 3135 M
1995 3135 D
2001 3133 D
2003 3131 D
2005 3127 D
2005 3121 D
2003 3117 D
2001 3115 D
1995 3112 D
1978 3112 D
S
N
1995 3135 M
1999 3133 D
2001 3131 D
2003 3127 D
2003 3121 D
2001 3117 D
1999 3115 D
1995 3112 D
S
N
1970 3092 M
1984 3092 D
S
N
2022 3135 M
2022 3092 D
S
N
2024 3135 M
2024 3092 D
S
N
2024 3115 M
2028 3119 D
2032 3121 D
2036 3121 D
2043 3119 D
2047 3115 D
2049 3108 D
2049 3104 D
2047 3098 D
2043 3094 D
2036 3092 D
2032 3092 D
2028 3094 D
2024 3098 D
S
N
2036 3121 M
2041 3119 D
2045 3115 D
2047 3108 D
2047 3104 D
2045 3098 D
2041 3094 D
2036 3092 D
S
N
2016 3135 M
2024 3135 D
S
N
2066 3135 M
2066 3092 D
S
N
2068 3135 M
2068 3092 D
S
N
2059 3135 M
2084 3135 D
2091 3133 D
2093 3131 D
2095 3127 D
2095 3121 D
2093 3117 D
2091 3115 D
2084 3112 D
2068 3112 D
S
N
2084 3135 M
2089 3133 D
2091 3131 D
2093 3127 D
2093 3121 D
2091 3117 D
2089 3115 D
2084 3112 D
S
N
2059 3092 M
2074 3092 D
S
N
2112 3135 M
2112 3092 D
S
N
2114 3135 M
2114 3092 D
S
N
2114 3115 M
2118 3119 D
2122 3121 D
2126 3121 D
2132 3119 D
2137 3115 D
2139 3108 D
2139 3104 D
2137 3098 D
2132 3094 D
2126 3092 D
2122 3092 D
2118 3094 D
2114 3098 D
S
N
2126 3121 M
2130 3119 D
2135 3115 D
2137 3108 D
2137 3104 D
2135 3098 D
2130 3094 D
2126 3092 D
S
N
2105 3135 M
2114 3135 D
S
0.00 0.00 1.00 setrgbcolor
1770 2995 P
N
1740 2980 M
1740 3010 D
1755 3025 D
1785 3025 D
1800 3010 D
1800 2980 D
1785 2965 D
1755 2965 D
1740 2980 D
S
1610 2995 P
N
1580 2980 M
1580 3010 D
1595 3025 D
1625 3025 D
1640 3010 D
1640 2980 D
1625 2965 D
1595 2965 D
1580 2980 D
S
1450 2995 P
N
1420 2980 M
1420 3010 D
1435 3025 D
1465 3025 D
1480 3010 D
1480 2980 D
1465 2965 D
1435 2965 D
1420 2980 D
S
1290 2995 P
N
1260 2980 M
1260 3010 D
1275 3025 D
1305 3025 D
1320 3010 D
1320 2980 D
1305 2965 D
1275 2965 D
1260 2980 D
S
0.00 0.00 0.00 setrgbcolor
N
1908 3023 M
1908 2958 D
S
N
1911 3023 M
1911 2958 D
S
N
1899 3023 M
1936 3023 D
1946 3020 D
1949 3017 D
1952 3011 D
1952 3005 D
1949 2998 D
1946 2995 D
1936 2992 D
1911 2992 D
S
N
1936 3023 M
1943 3020 D
1946 3017 D
1949 3011 D
1949 3005 D
1946 2998 D
1943 2995 D
1936 2992 D
S
N
1899 2958 M
1921 2958 D
S
N
1927 2992 M
1933 2989 D
1936 2986 D
1946 2964 D
1949 2961 D
1952 2961 D
1955 2964 D
S
N
1933 2989 M
1936 2983 D
1943 2961 D
1946 2958 D
1952 2958 D
1955 2964 D
1955 2967 D
S
N
1976 2949 M
1976 2906 D
S
N
1978 2949 M
1978 2906 D
S
N
1978 2943 M
1982 2947 D
1986 2949 D
1991 2949 D
1997 2947 D
2001 2943 D
2003 2937 D
2003 2933 D
2001 2926 D
1997 2922 D
1991 2920 D
1986 2920 D
1982 2922 D
1978 2926 D
S
N
1991 2949 M
1995 2947 D
1999 2943 D
2001 2937 D
2001 2933 D
1999 2926 D
1995 2922 D
1991 2920 D
S
N
1970 2949 M
1978 2949 D
S
N
1970 2906 M
1984 2906 D
S
N
2020 2964 M
2020 2920 D
S
N
2022 2964 M
2022 2920 D
S
N
2014 2964 M
2039 2964 D
2045 2962 D
2047 2960 D
2049 2956 D
2049 2949 D
2047 2945 D
2045 2943 D
2039 2941 D
2022 2941 D
S
N
2039 2964 M
2043 2962 D
2045 2960 D
2047 2956 D
2047 2949 D
2045 2945 D
2043 2943 D
2039 2941 D
S
N
2014 2920 M
2028 2920 D
S
N
2066 2964 M
2066 2920 D
S
N
2068 2964 M
2068 2920 D
S
N
2068 2943 M
2072 2947 D
2076 2949 D
2080 2949 D
2087 2947 D
2091 2943 D
2093 2937 D
2093 2933 D
2091 2926 D
2087 2922 D
2080 2920 D
2076 2920 D
2072 2922 D
2068 2926 D
S
N
2080 2949 M
2084 2947 D
2089 2943 D
2091 2937 D
2091 2933 D
2089 2926 D
2084 2922 D
2080 2920 D
S
N
2059 2964 M
2068 2964 D
S
N
2129 3036 M
2123 3030 D
2117 3020 D
2111 3008 D
2107 2992 D
2107 2980 D
2111 2964 D
2117 2951 D
2123 2942 D
2129 2936 D
S
N
2123 3030 M
2117 3017 D
2114 3008 D
2111 2992 D
2111 2980 D
2114 2964 D
2117 2955 D
2123 2942 D
S
N
2179 3014 M
2179 2958 D
S
N
2151 2986 M
2208 2986 D
S
N
2233 3002 M
2251 2958 D
S
N
2236 3002 M
2251 2964 D
S
N
2270 3002 M
2251 2958 D
2245 2945 D
2239 2939 D
2233 2936 D
2230 2936 D
2226 2939 D
2230 2942 D
2233 2939 D
S
N
2226 3002 M
2245 3002 D
S
N
2258 3002 M
2277 3002 D
S
N
2289 3036 M
2295 3030 D
2302 3020 D
2308 3008 D
2311 2992 D
2311 2980 D
2308 2964 D
2302 2951 D
2295 2942 D
2289 2936 D
S
N
2295 3030 M
2302 3017 D
2305 3008 D
2308 2992 D
2308 2980 D
2305 2964 D
2302 2955 D
2295 2942 D
S
N
2345 3008 M
2364 2964 D
S
N
2364 3008 M
2345 2964 D
S
N
2333 2995 M
2377 2976 D
S
N
2377 2995 M
2333 2976 D
S
N
2402 3023 M
2402 2958 D
S
N
2405 3023 M
2405 2958 D
S
N
2392 3023 M
2430 3023 D
2439 3020 D
2442 3017 D
2446 3011 D
2446 3005 D
2442 2998 D
2439 2995 D
2430 2992 D
2405 2992 D
S
N
2430 3023 M
2436 3020 D
2439 3017 D
2442 3011 D
2442 3005 D
2439 2998 D
2436 2995 D
2430 2992 D
S
N
2392 2958 M
2414 2958 D
S
N
2421 2992 M
2427 2989 D
2430 2986 D
2439 2964 D
2442 2961 D
2446 2961 D
2449 2964 D
S
N
2427 2989 M
2430 2983 D
2436 2961 D
2439 2958 D
2446 2958 D
2449 2964 D
2449 2967 D
S
N
2470 2949 M
2470 2906 D
S
N
2472 2949 M
2472 2906 D
S
N
2472 2943 M
2476 2947 D
2480 2949 D
2484 2949 D
2490 2947 D
2495 2943 D
2497 2937 D
2497 2933 D
2495 2926 D
2490 2922 D
2484 2920 D
2480 2920 D
2476 2922 D
2472 2926 D
S
N
2484 2949 M
2488 2947 D
2493 2943 D
2495 2937 D
2495 2933 D
2493 2926 D
2488 2922 D
2484 2920 D
S
N
2463 2949 M
2472 2949 D
S
N
2463 2906 M
2478 2906 D
S
N
2513 2964 M
2513 2920 D
S
N
2516 2964 M
2516 2920 D
S
N
2507 2964 M
2532 2964 D
2539 2962 D
2541 2960 D
2543 2956 D
2543 2949 D
2541 2945 D
2539 2943 D
2532 2941 D
2516 2941 D
S
N
2532 2964 M
2536 2962 D
2539 2960 D
2541 2956 D
2541 2949 D
2539 2945 D
2536 2943 D
2532 2941 D
S
N
2507 2920 M
2522 2920 D
S
N
2559 2964 M
2559 2920 D
S
N
2561 2964 M
2561 2920 D
S
N
2561 2943 M
2566 2947 D
2570 2949 D
2574 2949 D
2580 2947 D
2584 2943 D
2587 2937 D
2587 2933 D
2584 2926 D
2580 2922 D
2574 2920 D
2570 2920 D
2566 2922 D
2561 2926 D
S
N
2574 2949 M
2578 2947 D
2582 2943 D
2584 2937 D
2584 2933 D
2582 2926 D
2578 2922 D
2574 2920 D
S
N
2553 2964 M
2561 2964 D
S
N
2623 3036 M
2617 3030 D
2611 3020 D
2604 3008 D
2601 2992 D
2601 2980 D
2604 2964 D
2611 2951 D
2617 2942 D
2623 2936 D
S
N
2617 3030 M
2611 3017 D
2607 3008 D
2604 2992 D
2604 2980 D
2607 2964 D
2611 2955 D
2617 2942 D
S
N
2645 2986 M
2701 2986 D
S
N
2726 3002 M
2745 2958 D
S
N
2730 3002 M
2745 2964 D
S
N
2764 3002 M
2745 2958 D
2739 2945 D
2733 2939 D
2726 2936 D
2723 2936 D
2720 2939 D
2723 2942 D
2726 2939 D
S
N
2720 3002 M
2739 3002 D
S
N
2751 3002 M
2770 3002 D
S
N
2783 3036 M
2789 3030 D
2795 3020 D
2802 3008 D
2805 2992 D
2805 2980 D
2802 2964 D
2795 2951 D
2789 2942 D
2783 2936 D
S
N
2789 3030 M
2795 3017 D
2798 3008 D
2802 2992 D
2802 2980 D
2798 2964 D
2795 2955 D
2789 2942 D
S
1.00 0.00 1.00 setrgbcolor
[39] 0 Sd
N
1770 2824 M
1290 2824 D
S
0.00 0.00 0.00 setrgbcolor
[] 0 Sd
N
1908 2852 M
1908 2786 D
S
N
1911 2852 M
1911 2786 D
S
N
1899 2852 M
1936 2852 D
1946 2849 D
1949 2846 D
1952 2840 D
1952 2833 D
1949 2827 D
1946 2824 D
1936 2821 D
1911 2821 D
S
N
1936 2852 M
1943 2849 D
1946 2846 D
1949 2840 D
1949 2833 D
1946 2827 D
1943 2824 D
1936 2821 D
S
N
1899 2786 M
1921 2786 D
S
N
1927 2821 M
1933 2818 D
1936 2814 D
1946 2793 D
1949 2789 D
1952 2789 D
1955 2793 D
S
N
1933 2818 M
1936 2811 D
1943 2789 D
1946 2786 D
1952 2786 D
1955 2793 D
1955 2796 D
S
N
1976 2778 M
1976 2734 D
S
N
1978 2778 M
1978 2734 D
S
N
1978 2772 M
1982 2776 D
1986 2778 D
1991 2778 D
1997 2776 D
2001 2772 D
2003 2765 D
2003 2761 D
2001 2755 D
1997 2751 D
1991 2749 D
1986 2749 D
1982 2751 D
1978 2755 D
S
N
1991 2778 M
1995 2776 D
1999 2772 D
2001 2765 D
2001 2761 D
1999 2755 D
1995 2751 D
1991 2749 D
S
N
1970 2778 M
1978 2778 D
S
N
1970 2734 M
1984 2734 D
S
N
2020 2793 M
2020 2749 D
S
N
2022 2793 M
2022 2749 D
S
N
2014 2793 M
2039 2793 D
2045 2790 D
2047 2788 D
2049 2784 D
2049 2778 D
2047 2774 D
2045 2772 D
2039 2770 D
2022 2770 D
S
N
2039 2793 M
2043 2790 D
2045 2788 D
2047 2784 D
2047 2778 D
2045 2774 D
2043 2772 D
2039 2770 D
S
N
2014 2749 M
2028 2749 D
S
N
2066 2793 M
2066 2749 D
S
N
2068 2793 M
2068 2749 D
S
N
2068 2772 M
2072 2776 D
2076 2778 D
2080 2778 D
2087 2776 D
2091 2772 D
2093 2765 D
2093 2761 D
2091 2755 D
2087 2751 D
2080 2749 D
2076 2749 D
2072 2751 D
2068 2755 D
S
N
2080 2778 M
2084 2776 D
2089 2772 D
2091 2765 D
2091 2761 D
2089 2755 D
2084 2751 D
2080 2749 D
S
N
2059 2793 M
2068 2793 D
S
N
2129 2865 M
2123 2858 D
2117 2849 D
2111 2836 D
2107 2821 D
2107 2808 D
2111 2793 D
2117 2780 D
2123 2771 D
2129 2764 D
S
N
2123 2858 M
2117 2846 D
2114 2836 D
2111 2821 D
2111 2808 D
2114 2793 D
2117 2783 D
2123 2771 D
S
N
2179 2843 M
2179 2786 D
S
N
2151 2814 M
2208 2814 D
S
N
2233 2830 M
2251 2786 D
S
N
2236 2830 M
2251 2793 D
S
N
2270 2830 M
2251 2786 D
2245 2774 D
2239 2767 D
2233 2764 D
2230 2764 D
2226 2767 D
2230 2771 D
2233 2767 D
S
N
2226 2830 M
2245 2830 D
S
N
2258 2830 M
2277 2830 D
S
N
2289 2865 M
2295 2858 D
2302 2849 D
2308 2836 D
2311 2821 D
2311 2808 D
2308 2793 D
2302 2780 D
2295 2771 D
2289 2764 D
S
N
2295 2858 M
2302 2846 D
2305 2836 D
2308 2821 D
2308 2808 D
2305 2793 D
2302 2783 D
2295 2771 D
S
1.00 0.00 1.00 setrgbcolor
[30 30 8 30] 0 Sd
N
1290 2652 M
1770 2652 D
S
0.00 0.00 0.00 setrgbcolor
[] 0 Sd
N
1908 2681 M
1908 2615 D
S
N
1911 2681 M
1911 2615 D
S
N
1899 2681 M
1936 2681 D
1946 2677 D
1949 2674 D
1952 2668 D
1952 2662 D
1949 2656 D
1946 2652 D
1936 2649 D
1911 2649 D
S
N
1936 2681 M
1943 2677 D
1946 2674 D
1949 2668 D
1949 2662 D
1946 2656 D
1943 2652 D
1936 2649 D
S
N
1899 2615 M
1921 2615 D
S
N
1927 2649 M
1933 2646 D
1936 2643 D
1946 2621 D
1949 2618 D
1952 2618 D
1955 2621 D
S
N
1933 2646 M
1936 2640 D
1943 2618 D
1946 2615 D
1952 2615 D
1955 2621 D
1955 2624 D
S
N
1976 2607 M
1976 2563 D
S
N
1978 2607 M
1978 2563 D
S
N
1978 2600 M
1982 2604 D
1986 2607 D
1991 2607 D
1997 2604 D
2001 2600 D
2003 2594 D
2003 2590 D
2001 2584 D
1997 2579 D
1991 2577 D
1986 2577 D
1982 2579 D
1978 2584 D
S
N
1991 2607 M
1995 2604 D
1999 2600 D
2001 2594 D
2001 2590 D
1999 2584 D
1995 2579 D
1991 2577 D
S
N
1970 2607 M
1978 2607 D
S
N
1970 2563 M
1984 2563 D
S
N
2020 2621 M
2020 2577 D
S
N
2022 2621 M
2022 2577 D
S
N
2014 2621 M
2039 2621 D
2045 2619 D
2047 2617 D
2049 2613 D
2049 2607 D
2047 2602 D
2045 2600 D
2039 2598 D
2022 2598 D
S
N
2039 2621 M
2043 2619 D
2045 2617 D
2047 2613 D
2047 2607 D
2045 2602 D
2043 2600 D
2039 2598 D
S
N
2014 2577 M
2028 2577 D
S
N
2066 2621 M
2066 2577 D
S
N
2068 2621 M
2068 2577 D
S
N
2068 2600 M
2072 2604 D
2076 2607 D
2080 2607 D
2087 2604 D
2091 2600 D
2093 2594 D
2093 2590 D
2091 2584 D
2087 2579 D
2080 2577 D
2076 2577 D
2072 2579 D
2068 2584 D
S
N
2080 2607 M
2084 2604 D
2089 2600 D
2091 2594 D
2091 2590 D
2089 2584 D
2084 2579 D
2080 2577 D
S
N
2059 2621 M
2068 2621 D
S
N
2129 2693 M
2123 2687 D
2117 2677 D
2111 2665 D
2107 2649 D
2107 2637 D
2111 2621 D
2117 2609 D
2123 2599 D
2129 2593 D
S
N
2123 2687 M
2117 2674 D
2114 2665 D
2111 2649 D
2111 2637 D
2114 2621 D
2117 2612 D
2123 2599 D
S
N
2151 2643 M
2208 2643 D
S
N
2233 2659 M
2251 2615 D
S
N
2236 2659 M
2251 2621 D
S
N
2270 2659 M
2251 2615 D
2245 2602 D
2239 2596 D
2233 2593 D
2230 2593 D
2226 2596 D
2230 2599 D
2233 2596 D
S
N
2226 2659 M
2245 2659 D
S
N
2258 2659 M
2277 2659 D
S
N
2289 2693 M
2295 2687 D
2302 2677 D
2308 2665 D
2311 2649 D
2311 2637 D
2308 2621 D
2302 2609 D
2295 2599 D
2289 2593 D
S
N
2295 2687 M
2302 2674 D
2305 2665 D
2308 2649 D
2308 2637 D
2305 2621 D
2302 2612 D
2295 2599 D
S
0.00 0.00 1.00 setrgbcolor
1090 3407 P
N
1060 3392 M
1060 3422 D
1075 3437 D
1105 3437 D
1120 3422 D
1120 3392 D
1105 3377 D
1075 3377 D
1060 3392 D
S
1170 3703 P
N
1140 3688 M
1140 3718 D
1155 3733 D
1185 3733 D
1200 3718 D
1200 3688 D
1185 3673 D
1155 3673 D
1140 3688 D
S
1250 3990 P
N
1220 3975 M
1220 4005 D
1235 4020 D
1265 4020 D
1280 4005 D
1280 3975 D
1265 3960 D
1235 3960 D
1220 3975 D
S
1330 4068 P
N
1300 4053 M
1300 4083 D
1315 4098 D
1345 4098 D
1360 4083 D
1360 4053 D
1345 4038 D
1315 4038 D
1300 4053 D
S
1410 4143 P
N
1380 4128 M
1380 4158 D
1395 4173 D
1425 4173 D
1440 4158 D
1440 4128 D
1425 4113 D
1395 4113 D
1380 4128 D
S
1490 4162 P
N
1460 4147 M
1460 4177 D
1475 4192 D
1505 4192 D
1520 4177 D
1520 4147 D
1505 4132 D
1475 4132 D
1460 4147 D
S
1570 4224 P
N
1540 4209 M
1540 4239 D
1555 4254 D
1585 4254 D
1600 4239 D
1600 4209 D
1585 4194 D
1555 4194 D
1540 4209 D
S
1650 4227 P
N
1620 4212 M
1620 4242 D
1635 4257 D
1665 4257 D
1680 4242 D
1680 4212 D
1665 4197 D
1635 4197 D
1620 4212 D
S
1730 4234 P
N
1700 4219 M
1700 4249 D
1715 4264 D
1745 4264 D
1760 4249 D
1760 4219 D
1745 4204 D
1715 4204 D
1700 4219 D
S
1810 4225 P
N
1780 4210 M
1780 4240 D
1795 4255 D
1825 4255 D
1840 4240 D
1840 4210 D
1825 4195 D
1795 4195 D
1780 4210 D
S
1890 4229 P
N
1860 4214 M
1860 4244 D
1875 4259 D
1905 4259 D
1920 4244 D
1920 4214 D
1905 4199 D
1875 4199 D
1860 4214 D
S
1970 4244 P
N
1940 4229 M
1940 4259 D
1955 4274 D
1985 4274 D
2000 4259 D
2000 4229 D
1985 4214 D
1955 4214 D
1940 4229 D
S
2050 4214 P
N
2020 4199 M
2020 4229 D
2035 4244 D
2065 4244 D
2080 4229 D
2080 4199 D
2065 4184 D
2035 4184 D
2020 4199 D
S
2130 4235 P
N
2100 4220 M
2100 4250 D
2115 4265 D
2145 4265 D
2160 4250 D
2160 4220 D
2145 4205 D
2115 4205 D
2100 4220 D
S
2210 4171 P
N
2180 4156 M
2180 4186 D
2195 4201 D
2225 4201 D
2240 4186 D
2240 4156 D
2225 4141 D
2195 4141 D
2180 4156 D
S
2290 4188 P
N
2260 4173 M
2260 4203 D
2275 4218 D
2305 4218 D
2320 4203 D
2320 4173 D
2305 4158 D
2275 4158 D
2260 4173 D
S
2370 4147 P
N
2340 4132 M
2340 4162 D
2355 4177 D
2385 4177 D
2400 4162 D
2400 4132 D
2385 4117 D
2355 4117 D
2340 4132 D
S
2450 4149 P
N
2420 4134 M
2420 4164 D
2435 4179 D
2465 4179 D
2480 4164 D
2480 4134 D
2465 4119 D
2435 4119 D
2420 4134 D
S
2530 4137 P
N
2500 4122 M
2500 4152 D
2515 4167 D
2545 4167 D
2560 4152 D
2560 4122 D
2545 4107 D
2515 4107 D
2500 4122 D
S
2610 4201 P
N
2580 4186 M
2580 4216 D
2595 4231 D
2625 4231 D
2640 4216 D
2640 4186 D
2625 4171 D
2595 4171 D
2580 4186 D
S
2690 4137 P
N
2660 4122 M
2660 4152 D
2675 4167 D
2705 4167 D
2720 4152 D
2720 4122 D
2705 4107 D
2675 4107 D
2660 4122 D
S
2770 4152 P
N
2740 4137 M
2740 4167 D
2755 4182 D
2785 4182 D
2800 4167 D
2800 4137 D
2785 4122 D
2755 4122 D
2740 4137 D
S
2850 4138 P
N
2820 4123 M
2820 4153 D
2835 4168 D
2865 4168 D
2880 4153 D
2880 4123 D
2865 4108 D
2835 4108 D
2820 4123 D
S
2930 4082 P
N
2900 4067 M
2900 4097 D
2915 4112 D
2945 4112 D
2960 4097 D
2960 4067 D
2945 4052 D
2915 4052 D
2900 4067 D
S
3010 4107 P
N
2980 4092 M
2980 4122 D
2995 4137 D
3025 4137 D
3040 4122 D
3040 4092 D
3025 4077 D
2995 4077 D
2980 4092 D
S
3090 4125 P
N
3060 4110 M
3060 4140 D
3075 4155 D
3105 4155 D
3120 4140 D
3120 4110 D
3105 4095 D
3075 4095 D
3060 4110 D
S
3170 4064 P
N
3140 4049 M
3140 4079 D
3155 4094 D
3185 4094 D
3200 4079 D
3200 4049 D
3185 4034 D
3155 4034 D
3140 4049 D
S
3250 4116 P
N
3220 4101 M
3220 4131 D
3235 4146 D
3265 4146 D
3280 4131 D
3280 4101 D
3265 4086 D
3235 4086 D
3220 4101 D
S
3330 4030 P
N
3300 4015 M
3300 4045 D
3315 4060 D
3345 4060 D
3360 4045 D
3360 4015 D
3345 4000 D
3315 4000 D
3300 4015 D
S
3410 3981 P
N
3380 3966 M
3380 3996 D
3395 4011 D
3425 4011 D
3440 3996 D
3440 3966 D
3425 3951 D
3395 3951 D
3380 3966 D
S
1.00 0.00 0.00 setrgbcolor
1050 2481 P
N
1050 2481 M
1050 3303 D
1130 3303 D
1130 3726 D
1210 3726 D
1210 3980 D
1290 3980 D
1290 4066 D
1370 4066 D
1370 4136 D
1450 4136 D
1450 4187 D
1530 4187 D
1530 4226 D
1610 4226 D
1610 4228 D
1690 4228 D
1690 4243 D
1770 4243 D
1770 4263 D
1850 4263 D
1850 4243 D
1930 4243 D
1930 4248 D
2010 4248 D
2010 4226 D
2090 4226 D
2090 4211 D
2170 4211 D
2170 4186 D
2250 4186 D
2250 4211 D
2330 4211 D
2330 4200 D
2410 4200 D
2410 4154 D
2490 4154 D
2490 4157 D
2570 4157 D
2570 4166 D
2650 4166 D
2650 4127 D
2730 4127 D
2730 4173 D
2810 4173 D
2810 4141 D
2890 4141 D
2890 4102 D
2970 4102 D
2970 4087 D
3050 4087 D
3050 4069 D
3130 4069 D
3130 4077 D
3210 4077 D
3210 4123 D
3290 4123 D
3290 4050 D
3370 4050 D
3370 4010 D
3450 4010 D
3450 4073 D
3450 4073 D
S
3450 2481 P
1.00 0.00 1.00 setrgbcolor
1050 2481 P
[39] 0 Sd
N
1050 2481 M
1050 3504 D
1130 3504 D
1130 3752 D
1210 3752 D
1210 3909 D
1290 3909 D
1290 3953 D
1370 3953 D
1370 4000 D
1450 4000 D
1450 4011 D
1530 4011 D
1530 4048 D
1610 4048 D
1610 4048 D
1690 4048 D
1690 4077 D
1770 4077 D
1770 4090 D
1850 4090 D
1850 4075 D
1930 4075 D
1930 4113 D
2010 4113 D
2010 4087 D
2090 4087 D
2090 4142 D
2170 4142 D
2170 4107 D
2250 4107 D
2250 4129 D
2330 4129 D
2330 4107 D
2410 4107 D
2410 4109 D
2490 4109 D
2490 4110 D
2570 4110 D
2570 4173 D
2650 4173 D
2650 4155 D
2730 4155 D
2730 4161 D
2810 4161 D
2810 4166 D
2890 4166 D
2890 4163 D
2970 4163 D
2970 4141 D
3050 4141 D
3050 4202 D
3130 4202 D
3130 4153 D
3210 4153 D
3210 4204 D
3290 4204 D
3290 4143 D
3370 4143 D
3370 4139 D
3450 4139 D
3450 4270 D
3450 4270 D
S
[] 0 Sd
3450 2481 P
1050 2481 P
[30 30 8 30] 0 Sd
N
1050 2481 M
1050 4033 D
1130 4033 D
1130 4128 D
1210 4128 D
1210 4292 D
1290 4292 D
1290 4329 D
1370 4329 D
1370 4357 D
1450 4357 D
1450 4365 D
1530 4365 D
1530 4388 D
1610 4388 D
1610 4391 D
1690 4391 D
1690 4364 D
1770 4364 D
1770 4340 D
1850 4340 D
1850 4360 D
1930 4360 D
1930 4333 D
2010 4333 D
2010 4331 D
2090 4331 D
2090 4291 D
2170 4291 D
2170 4262 D
2250 4262 D
2250 4257 D
2330 4257 D
2330 4237 D
2410 4237 D
2410 4238 D
2490 4238 D
2490 4224 D
2570 4224 D
2570 4223 D
2650 4223 D
2650 4176 D
2730 4176 D
2730 4186 D
2810 4186 D
2810 4166 D
2890 4166 D
2890 4113 D
2970 4113 D
2970 4160 D
3050 4160 D
3050 4119 D
3130 4119 D
3130 4104 D
3210 4104 D
3210 4108 D
3290 4108 D
3290 4079 D
3370 4079 D
3370 4033 D
3450 4033 D
3450 4142 D
3450 4142 D
S
[] 0 Sd
3450 2481 P
showpage
%%Trailer
%%Pages: 1
%%BoundingBox: 73 258 422 589
