%!PS-Adobe-2.0 EPSF-2.0
%%BoundingBox:  0 0 567 550
%%Title: ./enercanvfull_08052015.eps: Comparison of different energies
%%Creator: ROOT Version 5.34/30
%%CreationDate: Fri May  8 15:08:54 2015
%%EndComments
%%BeginProlog
80 dict begin
/s {stroke} def /l {lineto} def /m {moveto} def /t {translate} def
/r {rotate} def /rl {roll}  def /R {repeat} def
/d {rlineto} def /rm {rmoveto} def /gr {grestore} def /f {eofill} def
/c {setrgbcolor} def /black {0 setgray} def /sd {setdash} def
/cl {closepath} def /sf {scalefont setfont} def /lw {setlinewidth} def
/box {m dup 0 exch d exch 0 d 0 exch neg d cl} def
/NC{systemdict begin initclip end}def/C{NC box clip newpath}def
/bl {box s} def /bf {gsave box gsave f grestore 1 lw [] 0 sd s grestore} def /Y { 0 exch d} def /X { 0 d} def 
/K {{pop pop 0 moveto} exch kshow} bind def
/ita {/ang 15 def gsave [1 0 ang dup sin exch cos div 1 0 0] concat} def 
/mp {newpath /y exch def /x exch def} def
/side {[w .77 mul w .23 mul] .385 w mul sd w 0 l currentpoint t -144 r} def
/mr {mp x y w2 0 360 arc} def /m24 {mr s} def /m20 {mr f} def
/mb {mp x y w2 add m w2 neg 0 d 0 w neg d w 0 d 0 w d cl} def
/mt {mp x y w2 add m w2 neg w neg d w 0 d cl} def
/m21 {mb f} def /m25 {mb s} def /m22 {mt f} def /m26{mt s} def
/m23 {mp x y w2 sub m w2 w d w neg 0 d cl f} def
/m27 {mp x y w2 add m w3 neg w2 neg d w3 w2 neg d w3 w2 d cl s} def
/m28 {mp x w2 sub y w2 sub w3 add m w3 0 d  0 w3 neg d w3 0 d 0 w3 d w3 0 d  0 w3 d w3 neg 0 d 0 w3 d w3 neg 0 d 0 w3 neg d w3 neg 0 d cl s } def
/m29 {mp gsave x w2 sub y w2 add w3 sub m currentpoint t 4 {side} repeat cl fill gr} def
/m30 {mp gsave x w2 sub y w2 add w3 sub m currentpoint t 4 {side} repeat cl s gr} def
/m31 {mp x y w2 sub m 0 w d x w2 sub y m w 0 d x w2 sub y w2 add m w w neg d x w2 sub y w2 sub m w w d s} def
/m32 {mp x y w2 sub m w2 w d w neg 0 d cl s} def
/m33 {mp x y w2 add m w3 neg w2 neg d w3 w2 neg d w3 w2 d cl f} def
/m34 {mp x w2 sub y w2 sub w3 add m w3 0 d  0 w3 neg d w3 0 d 0 w3 d w3 0 d  0 w3 d w3 neg 0 d 0 w3 d w3 neg 0 d 0 w3 neg d w3 neg 0 d cl f } def
/m2 {mp x y w2 sub m 0 w d x w2 sub y m w 0 d s} def
/m5 {mp x w2 sub y w2 sub m w w d x w2 sub y w2 add m w w neg d s} def
/reEncode {exch findfont dup length dict begin {1 index /FID eq  {pop pop} {def} ifelse } forall /Encoding exch def currentdict end dup /FontName get exch definefont pop } def [/Times-Bold /Times-Italic /Times-BoldItalic /Helvetica /Helvetica-Oblique
 /Helvetica-Bold /Helvetica-BoldOblique /Courier /Courier-Oblique /Courier-Bold /Courier-BoldOblique /Times-Roman /AvantGarde-Book /AvantGarde-BookOblique /AvantGarde-Demi /AvantGarde-DemiOblique /Bookman-Demi /Bookman-DemiItalic /Bookman-Light
 /Bookman-LightItalic /Helvetica-Narrow /Helvetica-Narrow-Bold /Helvetica-Narrow-BoldOblique /Helvetica-Narrow-Oblique /NewCenturySchlbk-Roman /NewCenturySchlbk-Bold /NewCenturySchlbk-BoldItalic /NewCenturySchlbk-Italic /Palatino-Bold
 /Palatino-BoldItalic /Palatino-Italic /Palatino-Roman ] {ISOLatin1Encoding reEncode } forall
%%EndProlog
%%BeginSetup
%%EndSetup
newpath  gsave  .25 .25 scale  gsave  0 0 t black[  ] 0 sd 3 lw 1 1 1 c 2268 2199 0 0 bf black 1 1 1 c 1824 1825 273 242 bf black 1824 1825 273 242 bl 273 242 m 1824 X s
 gsave  2268 2199 0 0 C 1743.52 25.64 t 0 r /Helvetica findfont 122.502 sf 0 0 m ( \(GeV\)) show NC gr 
 gsave  2268 2199 0 0 C 1686.54 25.64 t 0 r /Helvetica findfont 122.502 sf 0 0 m (s) show NC gr  6 lw 1647 94 m 11 -71 d s 3 lw 1658 23 m 14 102 d s 1672 125 m 72 X s 314 268 m -26 Y s 347 268 m -26 Y s 377 268 m -26 Y s 403 268 m -26 Y s 426 295 m
 -53 Y s
 gsave  2268 2199 0 0 C 425.868 129.761 t 0 r  -45 0 t /Helvetica findfont 82.6178 sf 0 0 m (10) show NC gr  578 268 m -26 Y s 667 268 m -26 Y s 731 268 m -26 Y s 780 268 m -26 Y s 820 268 m -26 Y s 854 268 m -26 Y s 883 268 m -26 Y s 909 268 m -26 Y
 s 932 295 m -53 Y s
 gsave  2268 2199 0 0 C 960.076 168.085 t 0 r /Helvetica findfont 54.1289 sf 0 0 m (2) show NC gr 
 gsave  2268 2199 0 0 C 871.76 131.049 t 0 r /Helvetica findfont 82.6178 sf 0 0 m (10) show NC gr  1084 268 m -26 Y s 1174 268 m -26 Y s 1237 268 m -26 Y s 1286 268 m -26 Y s 1326 268 m -26 Y s 1360 268 m -26 Y s 1389 268 m -26 Y s 1415 268 m -26 Y s
 1438 295 m -53 Y s
 gsave  2268 2199 0 0 C 1464.33 170.933 t 0 r /Helvetica findfont 54.1289 sf 0 0 m (3) show NC gr 
 gsave  2268 2199 0 0 C 1376.01 131.049 t 0 r /Helvetica findfont 82.6178 sf 0 0 m (10) show NC gr  1591 268 m -26 Y s 1680 268 m -26 Y s 1743 268 m -26 Y s 1792 268 m -26 Y s 1832 268 m -26 Y s 1866 268 m -26 Y s 1895 268 m -26 Y s 1921 268 m -26 Y
 s 1944 295 m -53 Y s
 gsave  2268 2199 0 0 C 1971.43 168.085 t 0 r /Helvetica findfont 54.1289 sf 0 0 m (4) show NC gr 
 gsave  2268 2199 0 0 C 1883.12 131.049 t 0 r /Helvetica findfont 82.6178 sf 0 0 m (10) show NC gr  2097 268 m -26 Y s 273 2067 m 1824 X s 314 2041 m 26 Y s 347 2041 m 26 Y s 377 2041 m 26 Y s 403 2041 m 26 Y s 426 2014 m 53 Y s 578 2041 m 26 Y s 667
 2041 m 26 Y s 731 2041 m 26 Y s 780 2041 m 26 Y s 820 2041 m 26 Y s 854 2041 m 26 Y s 883 2041 m 26 Y s 909 2041 m 26 Y s 932 2014 m 53 Y s 1084 2041 m 26 Y s 1174 2041 m 26 Y s 1237 2041 m 26 Y s 1286 2041 m 26 Y s 1326 2041 m 26 Y s 1360 2041 m 26
 Y s 1389 2041 m 26 Y s 1415 2041 m 26 Y s 1438 2014 m 53 Y s 1591 2041 m 26 Y s 1680 2041 m 26 Y s 1743 2041 m 26 Y s 1792 2041 m 26 Y s 1832 2041 m 26 Y s 1866 2041 m 26 Y s 1895 2041 m 26 Y s 1921 2041 m 26 Y s 1944 2014 m 53 Y s 2097 2041 m 26 Y
 s 273 242 m 1825 Y s
 gsave  2268 2199 0 0 C 102.56 1968.58 t 90 r /Helvetica findfont 122.502 sf 0 0 m (b\)) show NC gr 
 gsave  2268 2199 0 0 C 102.56 1897.36 t 90 r /Symbol findfont 122.502 sf 0 0 m (m) show NC gr 
 gsave  2268 2199 0 0 C 102.56 1826.14 t 90 r /Helvetica findfont 122.502 sf 0 0 m ( \() show NC gr 
 gsave  2268 2199 0 0 C 148.142 1786.25 t 90 r /Helvetica findfont 82.6178 sf 0 0 m (c) show NC gr  6 lw 97 1786 m 40 Y s
 gsave  2268 2199 0 0 C 148.142 1746.37 t 90 r /Helvetica findfont 82.6178 sf 0 0 m (c) show NC gr 
 gsave  2268 2199 0 0 C 102.56 1672.3 t 90 r /Symbol findfont 122.502 sf 0 0 m (s) show NC gr  3 lw 302 280 m -29 X s 302 313 m -29 X s 302 341 m -29 X s 302 365 m -29 X s 330 387 m -57 X s
 gsave  2268 2199 0 0 C 254.898 353.187 t 0 r  -91 0 t /Helvetica findfont 82.6178 sf 0 0 m (10) show NC gr  302 533 m -29 X s 302 618 m -29 X s 302 678 m -29 X s 302 725 m -29 X s 302 763 m -29 X s 302 796 m -29 X s 302 824 m -29 X s 302 848 m -29 X
 s 330 871 m -57 X s
 gsave  2268 2199 0 0 C 225.062 868.911 t 0 r /Helvetica findfont 54.1289 sf 0 0 m (2) show NC gr 
 gsave  2268 2199 0 0 C 136.747 834.725 t 0 r /Helvetica findfont 82.6178 sf 0 0 m (10) show NC gr  302 1016 m -29 X s 302 1101 m -29 X s 302 1161 m -29 X s 302 1208 m -29 X s 302 1247 m -29 X s 302 1279 m -29 X s 302 1307 m -29 X s 302 1332 m -29 X
 s 330 1354 m -57 X s
 gsave  2268 2199 0 0 C 225.062 1356.07 t 0 r /Helvetica findfont 54.1289 sf 0 0 m (3) show NC gr 
 gsave  2268 2199 0 0 C 136.747 1319.04 t 0 r /Helvetica findfont 82.6178 sf 0 0 m (10) show NC gr  302 1499 m -29 X s 302 1584 m -29 X s 302 1645 m -29 X s 302 1691 m -29 X s 302 1730 m -29 X s 302 1762 m -29 X s 302 1790 m -29 X s 302 1815 m -29 X
 s 330 1837 m -57 X s
 gsave  2268 2199 0 0 C 225.062 1834.69 t 0 r /Helvetica findfont 54.1289 sf 0 0 m (4) show NC gr 
 gsave  2268 2199 0 0 C 136.747 1800.5 t 0 r /Helvetica findfont 82.6178 sf 0 0 m (10) show NC gr  302 1982 m -29 X s 302 2067 m -29 X s 2097 242 m 1825 Y s 2069 280 m 28 X s 2069 313 m 28 X s 2069 341 m 28 X s 2069 365 m 28 X s 2040 387 m 57 X s
 2069 533 m 28 X s 2069 618 m 28 X s 2069 678 m 28 X s 2069 725 m 28 X s 2069 763 m 28 X s 2069 796 m 28 X s 2069 824 m 28 X s 2069 848 m 28 X s 2040 871 m 57 X s 2069 1016 m 28 X s 2069 1101 m 28 X s 2069 1161 m 28 X s 2069 1208 m 28 X s 2069 1247 m
 28 X s 2069 1279 m 28 X s 2069 1307 m 28 X s 2069 1332 m 28 X s 2040 1354 m 57 X s 2069 1499 m 28 X s 2069 1584 m 28 X s 2069 1645 m 28 X s 2069 1691 m 28 X s 2069 1730 m 28 X s 2069 1762 m 28 X s 2069 1790 m 28 X s 2069 1815 m 28 X s 2040 1837 m 57
 X s 2069 1982 m 28 X s 2069 2067 m 28 X s 1 1 1 c 738 918 373 1060 bf black
 gsave  2268 2199 0 0 C 555.534 1923 t 0 r /Helvetica findfont 45.5822 sf 0 0 m (ALICE \(total unc.\)) show NC gr  1 0 0 c 6 lw 401 1940 m 129 X s 3 lw /w 46 def /w2 {w 2 div} def /w3 {w 3 div} def 465 1940 m20 6 lw black
 gsave  2268 2199 0 0 C 555.534 1848.93 t 0 r /Helvetica findfont 45.5822 sf 0 0 m (ALICE extr. unc.) show NC gr  3 lw 401 1837 m 129 X 53 Y -129 X cl s 6 lw 0.6 0 0 c 401 1890 m 129 X s 401 1837 m 129 X s 530 1837 m 53 Y s 401 1837 m 53 Y s black
 gsave  2268 2199 0 0 C 555.534 1772.01 t 0 r /Helvetica findfont 45.5822 sf 0 0 m (LHCb \(total unc.\)) show NC gr  0 0.2 0.8 c 401 1787 m 129 X s 3 lw /w 39 def /w2 {w 2 div} def /w3 {w 3 div} def 465 1787 m22 6 lw black
 gsave  2268 2199 0 0 C 555.534 1695.09 t 0 r /Helvetica findfont 45.5822 sf 0 0 m (PHENIX) show NC gr  0 0.6 0 c 3 lw /w 46 def /w2 {w 2 div} def /w3 {w 3 div} def 465 1710 m22 6 lw black
 gsave  2268 2199 0 0 C 555.534 1618.17 t 0 r /Helvetica findfont 45.5822 sf 0 0 m (STAR) show NC gr  0.8 0 0.8 c 3 lw 465 1634 m29 6 lw black
 gsave  2268 2199 0 0 C 555.534 1541.25 t 0 r /Helvetica findfont 45.5822 sf 0 0 m (HERA\255B \(pA\)) show NC gr  0 0 1 c 3 lw 465 1557 m25 6 lw black
 gsave  2268 2199 0 0 C 555.534 1464.33 t 0 r /Helvetica findfont 45.5822 sf 0 0 m (E653 \(pA\)) show NC gr  0 0 1 c 3 lw 465 1481 m21 6 lw black
 gsave  2268 2199 0 0 C 555.534 1387.41 t 0 r /Helvetica findfont 45.5822 sf 0 0 m (E743 \(pA\)) show NC gr  0 0 1 c 3 lw 465 1405 m32 6 lw black
 gsave  2268 2199 0 0 C 555.534 1313.34 t 0 r /Helvetica findfont 45.5822 sf 0 0 m (NA27 \(pA\)) show NC gr  0 0 1 c 3 lw 465 1328 m23 6 lw black
 gsave  2268 2199 0 0 C 555.534 1236.42 t 0 r /Helvetica findfont 45.5822 sf 0 0 m (NA16 \(pA\)) show NC gr  0 0 1 c 3 lw 465 1252 m33 6 lw black
 gsave  2268 2199 0 0 C 555.534 1159.5 t 0 r /Helvetica findfont 45.5822 sf 0 0 m (E769 \(pA\)) show NC gr  0 0 1 c 3 lw 465 1175 m27 6 lw black
 gsave  2268 2199 0 0 C 555.534 1082.58 t 0 r /Helvetica findfont 45.5822 sf 0 0 m (NLO \(MNR\)) show NC gr  401 1099 m 129 X s 595 242 m 22 52 d s 617 294 m 39 88 d 42 90 d 36 72 d 39 75 d 40 69 d 41 68 d 37 57 d 41 58 d 33 43 d 43 48 d 76 80 d 57
 55 d 63 56 d 82 70 d 77 62 d 75 58 d 121 89 d 102 72 d 152 102 d 53 34 d 78 50 d 74 47 d s[ 20 20] 0 sd 515 302 m 30 88 d 33 90 d 27 69 d 29 69 d 30 67 d 31 65 d 37 70 d 31 55 d 39 63 d 48 71 d 51 72 d 31 40 d 37 44 d 43 47 d 72 70 d 49 42 d 153 114
 d 152 119 d 125 90 d 98 67 d 152 100 d 53 33 d 78 49 d 74 45 d s 726 242 m 17 44 d s 743 286 m 30 69 d 37 84 d 33 69 d 33 63 d 32 57 d 24 40 d 25 38 d 32 42 d 35 42 d 60 67 d 53 57 d 61 60 d 88 79 d 71 62 d 81 63 d 77 55 d 66 43 d 68 40 d 12 7 d 61
 29 d 91 40 d 53 24 d 78 33 d 74 32 d s 0 0 1 c[  ] 0 sd 596 434 m 10 Y s 590 444 m 12 X s 596 388 m -15 Y s 590 373 m 12 X s black 0 0 1 c 3 lw 596 411 m27 6 lw 636 540 m 67 Y s 630 607 m 12 X s 636 495 m -51 Y s 630 444 m 12 X s black 0 0 1 c 3 lw
 636 518 m33 6 lw black 0 0 1 c 3 lw 647 512 m23 6 lw 720 634 m 27 Y s 715 661 m 11 X s 720 588 m -36 Y s 715 552 m 11 X s black 0 0 1 c 3 lw 720 611 m32 6 lw 724 739 m 26 Y s 719 765 m 11 X s 724 694 m -41 Y s 719 653 m 11 X s black 0 0 1 c 3 lw 724
 717 m21 6 lw 739 755 m 10 Y s 734 765 m 11 X s 739 709 m -16 Y s 734 693 m 11 X s black 0 0 1 c 3 lw 739 732 m25 6 lw 0 0.6 0 c 1084 1251 m 43 Y s 1079 1294 m 11 X s 1084 1206 m -73 Y s 1079 1133 m 11 X s black 0 0.6 0 c 3 lw 1084 1229 m22 6 lw 1 0
 0 c 1866 1825 m 77 Y s 1860 1902 m 12 X s 1866 1779 m -50 Y s 1860 1729 m 12 X s black 1 0 0 c 3 lw 1866 1802 m20 6 lw 1661 1707 m 37 Y s 1656 1744 m 11 X s 1661 1662 m -60 Y s 1656 1602 m 11 X s black 1 0 0 c 3 lw 1661 1685 m20 6 lw 0.8 0 0.8 c
 1084 1317 m 55 Y s 1079 1372 m 11 X s 1084 1295 m -116 Y s 1079 1179 m 11 X s black 0.8 0 0.8 c 3 lw 1084 1306 m29 6 lw 0 0.2 0.8 c 1881 1780 m 1 Y s 1875 1781 m 12 X s 1881 1745 m -3 Y s 1875 1742 m 12 X s black 0 0.2 0.8 c 3 lw /w 39 def /w2 {w 2
 div} def /w3 {w 3 div} def 1881 1762 m22 6 lw 0.6 0 0 c black 0.6 0 0 c 19 105 1856 1795 bl black 0.6 0 0 c black 0.6 0 0 c 24 109 1649 1666 bl black
 gr  gr showpage
end
%%EOF
