\relax 
\providecommand\hyper@newdestlabel[2]{}
\citation{Adam:2015gsa}
\citation{Baur:1998sr,Baur:2001jj,Bertulani:2005ru,Baltz:2007kq}
\citation{Fermi:1924tc,Fermi:1925fq}
\citation{vonWeizsacker:1934sx}
\citation{Williams:1934ad}
\citation{Baur:2001jj}
\@writefile{toc}{\contentsline {section}{\numberline {6}Quarkonium photoproduction in nucleus-nucleus collisions}{138}{section.6}}
\newlabel{sec:UPC}{{6}{138}{Quarkonium photoproduction in nucleus-nucleus collisions}{section.6}{}}
\@writefile{toc}{\contentsline {subsection}{\numberline {6.1}The flux of photons from lead ions at the LHC}{138}{subsection.6.1}}
\newlabel{UPCsec:photons}{{6.1}{138}{The flux of photons from lead ions at the LHC}{subsection.6.1}{}}
\newlabel{UPCeq:FluxPerArea}{{63}{138}{The flux of photons from lead ions at the LHC}{equation.6.63}{}}
\citation{Klein:1999qj}
\citation{Abelev:2013qoq}
\@writefile{lof}{\contentsline {figure}{\numberline {99}{\ignorespaces Photon flux for positive and negative values of the rapidity $y$ for the case of $\ensuremath  {\mathrm  {J}/\psi }\xspace  $ coherent photoproduction and an energy of the lead-ion beam of 2.76\nobreakspace  {}GeV per nucleon. Positive rapidities correspond to the direction of the lead-ion. The left panel shows the UPC case given by Eq.\nobreakspace  {}(\ref  {UPCeq:FluxHS}), while the right panel shows the integration of Eq.\nobreakspace  {}(\ref  {UPCeq:FluxPerArea}) for the impact parameters corresponding to the 70--90 \% centrality class in hadronic {Pb--Pb}\xspace  collisions. }}{139}{figure.99}}
\newlabel{UPCfig:FluxHS}{{99}{139}{Photon flux for positive and negative values of the rapidity $y$ for the case of $\jpsi $ coherent photoproduction and an energy of the lead-ion beam of 2.76~GeV per nucleon. Positive rapidities correspond to the direction of the lead-ion. The left panel shows the UPC case given by \eq {UPCeq:FluxHS}, while the right panel shows the integration of \eq {UPCeq:FluxPerArea} for the impact parameters corresponding to the 70--90 \% centrality class in hadronic \PbPb collisions}{figure.99}{}}
\newlabel{UPCeq:FluxHS}{{64}{139}{The flux of photons from lead ions at the LHC}{equation.6.64}{}}
\@writefile{toc}{\contentsline {subsection}{\numberline {6.2}Measurements of photonuclear production of charmonium during the Run\nobreakspace  {}1\xspace  at the LHC}{139}{subsection.6.2}}
\newlabel{UPCsec:exp}{{6.2}{139}{Measurements of photonuclear production of charmonium during the \RunOne at the LHC}{subsection.6.2}{}}
\citation{Afanasiev:2009hy}
\@writefile{lof}{\contentsline {figure}{\numberline {100}{\ignorespaces Event displays of coherent photonuclear production of $\ensuremath  {\mathrm  {J}/\psi }\xspace  \to \mu ^+\mu ^-$ (left) and $\ensuremath  {\psi \text  {(2S)}}\xspace  \to \ensuremath  {\mathrm  {J}/\psi }\xspace  \pi ^+\pi ^- \to \mu ^+\mu ^-\pi ^+\pi ^-$ (right) in UPC as measured with the CMS and ALICE detectors respectively.}}{140}{figure.100}}
\newlabel{UPCfig:ED}{{100}{140}{Event displays of coherent photonuclear production of $\jpsi \to \mu ^+\mu ^-$ (left) and $\psiP \to \jpsi \pi ^+\pi ^- \to \mu ^+\mu ^-\pi ^+\pi ^-$ (right) in UPC as measured with the CMS and ALICE detectors respectively}{figure.100}{}}
\newlabel{UPCeq:SigPbPb}{{67}{140}{Measurements of photonuclear production of charmonium during the \RunOne at the LHC}{equation.6.67}{}}
\newlabel{eq:W2my}{{68}{140}{Measurements of photonuclear production of charmonium during the \RunOne at the LHC}{equation.6.68}{}}
\@writefile{toc}{\contentsline {subsubsection}{\numberline {6.2.1}Photonuclear production of $\ensuremath  {\mathrm  {J}/\psi }\xspace  $ at RHIC}{140}{subsubsection.6.2.1}}
\citation{Abbas:2013oua}
\citation{Abelev:2012ba}
\citation{CMS:2014ies}
\citation{Aamodt:2008zz}
\citation{Abelev:2012ba}
\citation{Abbas:2013oua}
\citation{Chatrchyan:2008aa}
\citation{CMS:2014ies}
\citation{Broz:2014wka}
\citation{Broz:2014wka}
\citation{Adloff:2002re}
\citation{Aaltonen:2009kg}
\citation{Aaij:2013jxj}
\citation{CMS:2014ies}
\citation{Broz:2014wka}
\citation{CMS:2014ies}
\citation{Broz:2014wka}
\citation{Abelev:2012ba}
\citation{Abbas:2013oua}
\citation{Abbas:2013oua}
\citation{Abbas:2013oua}
\@writefile{toc}{\contentsline {subsubsection}{\numberline {6.2.2}Coherent production of $\ensuremath  {\mathrm  {J}/\psi }\xspace  $ in {Pb--Pb}\xspace  UPC at the LHC}{141}{subsubsection.6.2.2}}
\@writefile{toc}{\contentsline {subsubsection}{\numberline {6.2.3}Coherent production of $\ensuremath  {\psi \text  {(2S)}}\xspace  $ in {Pb--Pb}\xspace  UPC at the LHC}{141}{subsubsection.6.2.3}}
\@writefile{toc}{\contentsline {subsubsection}{\numberline {6.2.4}Incoherent production of \ensuremath  {\mathrm  {J}/\psi }\xspace  in {Pb--Pb}\xspace  UPC at the LHC}{141}{subsubsection.6.2.4}}
\citation{Lardeux:2013dla}
\citation{Joakim2010}
\citation{LaureQM2014}
\citation{Adeluyi:2012ph}
\citation{Adeluyi:2013tuu}
\citation{Cisek:2012yt}
\citation{Klein:1999qj,Baltz:2002pp,Klein:2003vd}
\citation{Lappi:2010dd,Lappi:2013am}
\citation{Goncalves:2011vf}
\citation{Ducati:2013bya}
\citation{Rebyakova:2011vf}
\@writefile{lot}{\contentsline {table}{\numberline {17}{\ignorespaces Summary of published measurements of photonuclear production of charmonium in {Pb--Pb}\xspace  UPC at $\sqrt  {s_{\rm  NN}} = 2.76$\ensuremath  {\text  {\nobreakspace  {}TeV}}\xspace  at the LHC (the preliminary results on $\ensuremath  {\mathrm  {J}/\psi }\xspace  $ from CMS\nobreakspace  {}\cite  {CMS:2014ies} and \ensuremath  {\psi \text  {(2S)}}\xspace  from ALICE\nobreakspace  {}\cite  {Broz:2014wka} are not included).}}{142}{table.17}}
\newlabel{UPCtab:xs}{{17}{142}{Summary of published measurements of photonuclear production of charmonium in \PbPb UPC at $\sqrt {s_{\rm NN}} = 2.76$\TeV at the LHC (the preliminary results on $\jpsi $ from CMS~\cite {CMS:2014ies} and \psiP from ALICE~\cite {Broz:2014wka} are not included)}{table.17}{}}
\@writefile{toc}{\contentsline {subsubsection}{\numberline {6.2.5}Coherent photonuclear production of $\ensuremath  {\mathrm  {J}/\psi }\xspace  $ in coincidence with a hadronic {Pb--Pb}\xspace  collision at the LHC}{142}{subsubsection.6.2.5}}
\newlabel{sec:lowptexcess}{{6.2.5}{142}{Coherent photonuclear production of $\jpsi $ in coincidence with a hadronic \PbPb collision at the LHC}{subsubsection.6.2.5}{}}
\@writefile{toc}{\contentsline {subsection}{\numberline {6.3}Models for photonuclear production of charmonium}{142}{subsection.6.3}}
\newlabel{UPCsec:theory}{{6.3}{142}{Models for photonuclear production of charmonium}{subsection.6.3}{}}
\@writefile{toc}{\contentsline {subsubsection}{\numberline {6.3.1}Models based on vector dominance}{142}{subsubsection.6.3.1}}
\citation{Ryskin:1992ui,Brodsky:1994kf}
\citation{Guzey:2013qza}
\citation{Martin:2009iq}
\citation{Eskola:2008ca}
\citation{Eskola:2009uj}
\citation{Hirai:2004wq}
\citation{Frankfurt:2011cs}
\citation{Martin:2007sb}
\newlabel{UPCeq:Fwd}{{70}{143}{Models based on vector dominance}{equation.6.70}{}}
\@writefile{toc}{\contentsline {subsubsection}{\numberline {6.3.2}Models based on LO pQCD}{143}{subsubsection.6.3.2}}
\newlabel{UPCeq:LOpQCD}{{76}{143}{Models based on LO pQCD}{equation.6.76}{}}
\citation{Shuvaev:1999ce}
\citation{Gribov:1968ie}
\citation{Bartels:2003yj}
\citation{Kowalski:2003hm}
\citation{Nemchik:1994fp,Nemchik:1996cw}
\citation{Iancu:2003ge}
\citation{Balitsky:1995ub,Kovchegov:1999yj,Kovchegov:1999ua}
\citation{Kowalski:2003hm,Kowalski:2006hc}
\@writefile{lof}{\contentsline {figure}{\numberline {101}{\ignorespaces Lowest order diagram for the photoproduction of charmonium within the colour dipole model.}}{144}{figure.101}}
\newlabel{UPCfig:CDM}{{101}{144}{Lowest order diagram for the photoproduction of charmonium within the colour dipole model}{figure.101}{}}
\@writefile{toc}{\contentsline {subsubsection}{\numberline {6.3.3}Models based on the colour dipole approach}{144}{subsubsection.6.3.3}}
\citation{Abbas:2013oua}
\citation{Abbas:2013oua}
\citation{Guzey:2013qza}
\citation{Guzey:2013qza}
\citation{Broz:2014wka}
\@writefile{lof}{\contentsline {figure}{\numberline {102}{\ignorespaces Cross section for coherent (left) and incoherent (right) photonuclear production of $\ensuremath  {\mathrm  {J}/\psi }\xspace  $ as measured by ALICE\nobreakspace  {}\cite  {Abbas:2013oua} compared to theoretical predictions.}}{145}{figure.102}}
\newlabel{UPCfig:ALICEresults}{{102}{145}{Cross section for coherent (left) and incoherent (right) photonuclear production of $\jpsi $ as measured by ALICE~\cite {Abbas:2013oua} compared to theoretical predictions}{figure.102}{}}
\@writefile{toc}{\contentsline {subsection}{\numberline {6.4}Photonuclear production of charmonium: comparing models to measurements}{145}{subsection.6.4}}
\newlabel{UPCsec:comp}{{6.4}{145}{Photonuclear production of charmonium: comparing models to measurements}{subsection.6.4}{}}
\citation{Joakim2010}
\citation{Deshpande:2005wd,Dainton:2006wd}
\@writefile{toc}{\contentsline {subsection}{\numberline {6.5}Summary and outlook}{146}{subsection.6.5}}
\newlabel{UPCsec:outlook}{{6.5}{146}{Summary and outlook}{subsection.6.5}{}}
\@setckpt{DIFFRACTION_Merged}{
\setcounter{page}{147}
\setcounter{equation}{79}
\setcounter{enumi}{9}
\setcounter{enumii}{0}
\setcounter{enumiii}{0}
\setcounter{enumiv}{0}
\setcounter{footnote}{27}
\setcounter{mpfootnote}{0}
\setcounter{part}{0}
\setcounter{section}{6}
\setcounter{subsection}{5}
\setcounter{subsubsection}{0}
\setcounter{paragraph}{0}
\setcounter{subparagraph}{0}
\setcounter{figure}{102}
\setcounter{table}{17}
\setcounter{tnote}{0}
\setcounter{fnote}{1}
\setcounter{cnote}{1}
\setcounter{ead}{1}
\setcounter{author}{0}
\setcounter{affn}{42}
\setcounter{NAT@ctr}{0}
\setcounter{parentequation}{0}
\setcounter{Item}{13}
\setcounter{Hfootnote}{26}
\setcounter{bookmark@seq@number}{94}
\setcounter{r@tfl@t}{0}
\setcounter{subfigure}{0}
\setcounter{lofdepth}{1}
\setcounter{subtable}{0}
\setcounter{lotdepth}{1}
\setcounter{linenumber}{1}
\setcounter{LN@truepage}{146}
\setcounter{section@level}{2}
}
