\relax 
\providecommand\hyper@newdestlabel[2]{}
\citation{Mueller:1985zz,Mangano:1992qq}
\citation{Banfi:2007gu}
\citation{Gyulassy:1990ye,Baier:1996sk}
\citation{Thoma:1990fm,Braaten:1991jj,Braaten:1991we}
\citation{Herzog:2006gh,Gubser:2006bz}
\citation{Dokshitzer:2001zm}
\citation{Armesto:2003jh,Djordjevic:2003zk,Zhang:2003wk,Wicks:2007am}
\citation{Adil:2006ra,Sharma:2009hn}
\citation{BraunMunzinger:2007tn}
\citation{Zhang:2007dm}
\citation{Thoma:1990fm,Braaten:1991jj,Braaten:1991we}
\citation{Baier:1996sk}
\citation{Batsouli:2002qf,Greco:2003vf}
\citation{Greco:2003vf,Andronic:2003zv}
\@writefile{toc}{\contentsline {section}{\numberline {4}Open heavy flavour in nucleus--nucleus collisions}{70}{section.4}}
\newlabel{OHF}{{4}{70}{Open heavy flavour in nucleus--nucleus collisions}{section.4}{}}
\newlabel{eq:Raa}{{28}{70}{Open heavy flavour in nucleus--nucleus collisions}{equation.4.28}{}}
\citation{Rapp:2009my}
\citation{Adare:2014rly}
\citation{Adcox:2002cg}
\citation{Adare:2010de,Adare:2006nq,Adler:2005xv,Adler:2004ta}
\citation{Adare:2010ud}
\citation{Adare:2013yxp}
\citation{Adare:2012px}
\citation{Adamczyk:2014uip}
\citation{Abelev:2006db}
\citation{Adamczyk:2014yew}
\citation{ALICE:2012ab}
\citation{Abelev:2014ipa,Abelev:2013lca}
\citation{Abelev:2012qh}
\citation{Adam:2015rba}
\citation{Chatrchyan:2013exa}
\citation{Chatrchyan:2012np}
\citation{Agakishiev:2011mr,Aggarwal:2010xp}
\citation{Adare:2006hc,Adler:2005xv}
\citation{Abelev:2012xe}
\citation{ATLAS:2012ama}
\@writefile{toc}{\contentsline {subsection}{\numberline {4.1}Experimental overview: production and nuclear modification factor measurements}{71}{subsection.4.1}}
\newlabel{sec:OHFRAA}{{4.1}{71}{Experimental overview: production and nuclear modification factor measurements}{subsection.4.1}{}}
\@writefile{toc}{\contentsline {subsubsection}{\numberline {4.1.1}Inclusive measurements with leptons}{71}{subsubsection.4.1.1}}
\newlabel{sec:HFelectrons}{{4.1.1}{71}{Inclusive measurements with leptons}{subsubsection.4.1.1}{}}
\@writefile{lot}{\contentsline {table}{\numberline {9}{\ignorespaces Open heavy flavour published measurements in {Au--Au}\xspace  and {Cu--Cu}\xspace  collisions at RHIC. The nucleon--nucleon energy in the centre-of-mass system (\ensuremath  {\sqrt  {s_{\mathrm  {\scriptscriptstyle NN}}}}\xspace  ), the covered kinematic ranges and the observables are indicated.}}{72}{table.9}}
\newlabel{tab:ohf_expSummary_RHIC}{{9}{72}{Open heavy flavour published measurements in \AuAu and \CuCu collisions at RHIC. The nucleon--nucleon energy in the centre-of-mass system (\snn ), the covered kinematic ranges and the observables are indicated}{table.9}{}}
\citation{Adare:2012yxa}
\citation{Adare:2013yxp}
\citation{Adare:2010de}
\citation{Adare:2006nq}
\citation{Adare:2012yxa}
\citation{Adare:2013yxp}
\citation{Adare:2010de}
\citation{Adare:2006nq}
\citation{Adare:2014rly}
\citation{Adare:2013yxp}
\citation{Adare:2012px}
\citation{Adare:2014rly}
\citation{Adare:2013yxp}
\citation{Adare:2012px}
\citation{Abelev:2012qh}
\citation{Abelev:2012qh}
\citation{Abelev:2006db}
\citation{Adare:2010de,Adare:2006nq,Adler:2005xv}
\citation{Mustafa:2012jh,Adare:2014rly}
\citation{Adare:2006nq}
\citation{Adare:2012px}
\citation{Abelev:2012qh}
\citation{Sakai:2013ata}
\citation{Perepelitsa:2012cza}
\@writefile{lot}{\contentsline {table}{\numberline {10}{\ignorespaces Open heavy flavour published measurements in {Pb--Pb}\xspace  collisions at LHC. The nucleon--nucleon energy in the centre-of-mass system (\ensuremath  {\sqrt  {s_{\mathrm  {\scriptscriptstyle NN}}}}\xspace  ), the covered kinematic ranges and the observables are indicated.}}{73}{table.10}}
\newlabel{tab:ohf_expSummary_LHC}{{10}{73}{Open heavy flavour published measurements in \pb collisions at LHC. The nucleon--nucleon energy in the centre-of-mass system (\snn ), the covered kinematic ranges and the observables are indicated}{table.10}{}}
\citation{Adamczyk:2014uip}
\citation{ALICE:2012ab}
\citation{Abelev:2014hha}
\citation{Adamczyk:2014uip}
\citation{ALICE:2012ab}
\citation{Abelev:2014hha}
\citation{Adamczyk:2012af,Abelev:2012vra,ALICE:2011aa}
\citation{Abelev:2012vra}
\citation{Adamczyk:2014uip}
\citation{Ye:2014eia}
\@writefile{lof}{\contentsline {figure}{\numberline {50}{\ignorespaces Left: The transverse momentum dependence of the nuclear modification factors of heavy-flavour decay electrons at mid-rapidity in central {d--Au}\xspace  \nobreakspace  {}\cite  {Adare:2012yxa}, {Cu--Cu}\xspace  \nobreakspace  {}\cite  {Adare:2013yxp} and {Au--Au}\xspace  collisions\nobreakspace  {}\cite  {Adare:2010de} at $\ensuremath  {\sqrt  {s_{\mathrm  {\scriptscriptstyle NN}}}}\xspace  = 200$\ensuremath  {\text  {\nobreakspace  {}GeV}}\xspace  . Right: \ensuremath  {R_{\mathrm  {AA}}}\xspace  of heavy-flavour decay electrons at mid-rapidity with \ensuremath  {p_{\mathrm  {T}}}\xspace  above 0.3 and 3\ensuremath  {\text  {\nobreakspace  {}GeV}/c}\xspace  and of $\pi ^0$ with $\ensuremath  {p_{\mathrm  {T}}}\xspace  > 4$\ensuremath  {\text  {\nobreakspace  {}GeV}/c}\xspace  as function of number of participants $\ensuremath  {\mathrm  {N_{part}}}\xspace  $\nobreakspace  {}\cite  {Adare:2006nq}. }}{74}{figure.50}}
\newlabel{Fig:11}{{50}{74}{Left: The transverse momentum dependence of the nuclear modification factors of heavy-flavour decay electrons at mid-rapidity in central \dAu ~\cite {Adare:2012yxa}, \CuCu ~\cite {Adare:2013yxp} and \AuAu collisions~\cite {Adare:2010de} at $\snn = 200$\GeV . Right: \raa of heavy-flavour decay electrons at mid-rapidity with \pt above 0.3 and 3\GeVc and of $\pi ^0$ with $\pt > 4$\GeVc as function of number of participants $\Npart $~\cite {Adare:2006nq}}{figure.50}{}}
\@writefile{lof}{\contentsline {figure}{\numberline {51}{\ignorespaces Left: \ensuremath  {R_{\mathrm  {AA}}}\xspace  of heavy-flavour decay electrons at mid-rapidity measured in {Au--Au}\xspace  collisions at $\ensuremath  {\sqrt  {s_{\mathrm  {\scriptscriptstyle NN}}}}\xspace  = 62.4$\ensuremath  {\text  {\nobreakspace  {}GeV}}\xspace  as a function of \ensuremath  {p_{\mathrm  {T}}}\xspace  in the 20\% most central collisions\nobreakspace  {}\cite  {Adare:2014rly}. Right: \ensuremath  {R_{\mathrm  {AA}}}\xspace  of heavy-flavour decay electrons at mid-rapidity\nobreakspace  {}\cite  {Adare:2013yxp} and muons at forward rapidity\nobreakspace  {}\cite  {Adare:2012px} for the most central {Cu--Cu}\xspace  collisions at $\ensuremath  {\sqrt  {s_{\mathrm  {\scriptscriptstyle NN}}}}\xspace  = 200$\ensuremath  {\text  {\nobreakspace  {}GeV}}\xspace  .}}{74}{figure.51}}
\newlabel{Fig:12}{{51}{74}{Left: \raa of heavy-flavour decay electrons at mid-rapidity measured in \AuAu collisions at $\snn = 62.4$\GeV as a function of \pt in the 20\% most central collisions~\cite {Adare:2014rly}. Right: \raa of heavy-flavour decay electrons at mid-rapidity~\cite {Adare:2013yxp} and muons at forward rapidity~\cite {Adare:2012px} for the most central \CuCu collisions at $\snn = 200$\GeV }{figure.51}{}}
\@writefile{toc}{\contentsline {subsubsection}{\numberline {4.1.2}{\rm  D} meson measurements}{74}{subsubsection.4.1.2}}
\newlabel{sec:Dmeson}{{4.1.2}{74}{{\rm D} meson measurements}{subsubsection.4.1.2}{}}
\citation{ALICE:2012ab}
\citation{Grelli:2012yv}
\citation{Innocenti:2012ds}
\citation{Kuznetsova:2008gr,He:2012df}
\@writefile{lof}{\contentsline {figure}{\numberline {52}{\ignorespaces Nuclear modification factor \ensuremath  {R_{\mathrm  {AA}}}\xspace  of heavy-flavour decay muons with $2.5<y<4$ measured in {Pb--Pb}\xspace  collisions at $\ensuremath  {\sqrt  {s_{\mathrm  {\scriptscriptstyle NN}}}}\xspace  $ = 2.76\ensuremath  {\text  {\nobreakspace  {}TeV}}\xspace  as a function of \ensuremath  {p_{\mathrm  {T}}}\xspace  in the 10\% most central collisions (left panel) and as a function of the mean number of participating nucleons \ensuremath  {\left \delimiter "426830A \ensuremath  {\mathrm  {N_{part}}}\xspace   \right \delimiter "526930B } (right panel)\nobreakspace  {}\cite  {Abelev:2012qh}. }}{75}{figure.52}}
\newlabel{Fig:13}{{52}{75}{Nuclear modification factor \raa of heavy-flavour decay muons with $2.5<y<4$ measured in \pb collisions at $\snn $ = 2.76\TeV as a function of \pt in the 10\% most central collisions (left panel) and as a function of the mean number of participating nucleons \av {\Npart } (right panel)~\cite {Abelev:2012qh}}{figure.52}{}}
\@writefile{lof}{\contentsline {figure}{\numberline {53}{\ignorespaces Left: Transverse momentum (\ensuremath  {p_{\mathrm  {T}}}\xspace  ) dependence of the nuclear modification factor \ensuremath  {R_{\mathrm  {AA}}}\xspace  of \ensuremath  {\mathrm  {D}^{0}}\xspace  mesons in the 10\% most central {Au--Au}\xspace  collisions at $\ensuremath  {\sqrt  {s_{\mathrm  {\scriptscriptstyle NN}}}}\xspace  = 200$\ensuremath  {\text  {\nobreakspace  {}GeV}}\xspace  \nobreakspace  {}\cite  {Adamczyk:2014uip}. Right: \ensuremath  {R_{\mathrm  {AA}}}\xspace  of prompt D mesons (averaged) versus \ensuremath  {p_{\mathrm  {T}}}\xspace  for the 0--20\% (red discs) and 40--80\% (green circles) centrality classes in {Pb--Pb}\xspace  collisions at $\ensuremath  {\sqrt  {s_{\mathrm  {\scriptscriptstyle NN}}}}\xspace  = 2.76$\ensuremath  {\text  {\nobreakspace  {}TeV}}\xspace  \nobreakspace  {}\cite  {ALICE:2012ab} and minimum-bias {p--Pb}\xspace  collisions at $\ensuremath  {\sqrt  {s_{\mathrm  {\scriptscriptstyle NN}}}}\xspace  = 5.02$\ensuremath  {\text  {\nobreakspace  {}TeV}}\xspace  (black squares)\nobreakspace  {}\cite  {Abelev:2014hha}.}}{75}{figure.53}}
\newlabel{Fig:22}{{53}{75}{Left: Transverse momentum (\pt ) dependence of the nuclear modification factor \raa of \Dzero mesons in the 10\% most central \AuAu collisions at $\snn = 200$\GeV ~\cite {Adamczyk:2014uip}. Right: \raa of prompt D mesons (averaged) versus \pt for the 0--20\% (red discs) and 40--80\% (green circles) centrality classes in \pb collisions at $\snn = 2.76$\TeV ~\cite {ALICE:2012ab} and minimum-bias \pPb collisions at $\snn = 5.02$\TeV (black squares)~\cite {Abelev:2014hha}}{figure.53}{}}
\citation{Abelev:2014hha}
\citation{Chatrchyan:2012np}
\citation{Adam:2015rba}
\citation{Chatrchyan:2013exa}
\citation{Chatrchyan:2012np}
\citation{Adam:2015rba}
\citation{Chatrchyan:2013exa}
\citation{Abelev:2012sca,Abelev:2014hla}
\citation{Festanti:2014foa}
\citation{Aggarwal:2010xp,Abelev:2014hla,Mischke:2008af}
\citation{Chatrchyan:2012np}
\citation{CMS:2012wba}
\citation{Adam:2015rba}
\@writefile{lof}{\contentsline {figure}{\numberline {54}{\ignorespaces Non-prompt and \ensuremath  {b}\xspace  -jet \ensuremath  {R_{\mathrm  {AA}}}\xspace  from {Pb--Pb}\xspace  collisions}}{76}{figure.54}}
\newlabel{fig:bottomPbPbmeas}{{54}{76}{Non-prompt and \bquark -jet \raa from \pb collisions}{figure.54}{}}
\@writefile{toc}{\contentsline {subsubsection}{\numberline {4.1.3}Beauty production measurements}{76}{subsubsection.4.1.3}}
\newlabel{sec:OHFbeauty}{{4.1.3}{76}{Beauty production measurements}{subsubsection.4.1.3}{}}
\citation{Huang:2013vaa}
\citation{Chatrchyan:2012np}
\citation{CMS:2012rba}
\citation{Banfi:2007gu}
\citation{ALICE:2012ab}
\citation{Chatrchyan:2012np}
\citation{ALICE:2012ab}
\citation{Chatrchyan:2012np}
\citation{ALICE:2012ab}
\citation{Chatrchyan:2012np}
\citation{Bruna:2014pfa}
\citation{CMS:2012wba}
\citation{Poskanzer:1998yz}
\citation{Adler:2002pu}
\citation{Bilandzic:2010jr}
\@writefile{toc}{\contentsline {subsubsection}{\numberline {4.1.4}Comparison of \ensuremath  {R_{\mathrm  {AA}}}\xspace   for charm, beauty and light flavour hadrons}{77}{subsubsection.4.1.4}}
\citation{Adare:2010de}
\citation{Adare:2014rly}
\citation{Adare:2010de}
\citation{Adare:2014rly}
\citation{Adamczyk:2014yew}
\citation{Adamczyk:2014yew}
\citation{Adare:2010de,Adare:2014rly}
\citation{Adare:2010de}
\citation{Adare:2010de}
\citation{Adare:2014rly}
\@writefile{lof}{\contentsline {figure}{\numberline {55}{\ignorespaces \ensuremath  {R_{\mathrm  {AA}}}\xspace  of D mesons, charged hadrons\nobreakspace  {}\cite  {ALICE:2012ab} and non-prompt \ensuremath  {\mathrm  {J}/\psi }\xspace  \nobreakspace  {}\cite  {Chatrchyan:2012np} in {Pb--Pb}\xspace  collisions at $\ensuremath  {\sqrt  {s_{\mathrm  {\scriptscriptstyle NN}}}}\xspace  =2.76\ensuremath  {\text  {\nobreakspace  {}TeV}}\xspace  $ in the 0--20\% centrality class.}}{78}{figure.55}}
\newlabel{fig:RAA_LHC_D_charged_npJpsi}{{55}{78}{\raa of D mesons, charged hadrons~\cite {ALICE:2012ab} and non-prompt \jpsi ~\cite {Chatrchyan:2012np} in \pb collisions at $\snn =2.76\TeV $ in the 0--20\% centrality class}{figure.55}{}}
\@writefile{toc}{\contentsline {subsection}{\numberline {4.2}Experimental overview: azimuthal anisotropy measurements}{78}{subsection.4.2}}
\newlabel{sec:OHFv2}{{4.2}{78}{Experimental overview: azimuthal anisotropy measurements}{subsection.4.2}{}}
\@writefile{toc}{\contentsline {subsubsection}{\numberline {4.2.1}Inclusive measurements with electrons}{78}{subsubsection.4.2.1}}
\newlabel{sec:v2leptons}{{4.2.1}{78}{Inclusive measurements with electrons}{subsubsection.4.2.1}{}}
\citation{Adamczyk:2014yew}
\citation{Adamczyk:2014yew}
\citation{Bailhache:2014fia}
\citation{Abelev:2013lca,Abelev:2014ipa}
\citation{Abelev:2013lca,Abelev:2014ipa}
\citation{Abelev:2013lca,Abelev:2014ipa}
\citation{Abelev:2013lca,Abelev:2014ipa}
\citation{Abelev:2013lca,Abelev:2014ipa}
\@writefile{lof}{\contentsline {figure}{\numberline {56}{\ignorespaces Heavy-flavour decay electron \ensuremath  {v_{2}}\xspace  measured by the PHENIX Collaboration in {Au--Au}\xspace  collisions at RHIC. Left: measurement in minimum-bias collisions as a function of \ensuremath  {p_{\mathrm  {T}}}\xspace  at $\ensuremath  {\sqrt  {s_{\mathrm  {\scriptscriptstyle NN}}}}\xspace  = 200$\ensuremath  {\text  {\nobreakspace  {}GeV}}\xspace  \nobreakspace  {}\cite  {Adare:2010de}. Right: measurements at $\ensuremath  {\sqrt  {s_{\mathrm  {\scriptscriptstyle NN}}}}\xspace  =62.4$\nobreakspace  {}and\nobreakspace  {}200\ensuremath  {\text  {\nobreakspace  {}GeV}}\xspace  in the 20--40\% centrality class for the interval $1.3<\ensuremath  {p_{\mathrm  {T}}}\xspace  <2.5$\ensuremath  {\text  {\nobreakspace  {}GeV}/c}\xspace  , compared with the $\pi ^0$ \ensuremath  {v_{2}}\xspace  \nobreakspace  {}\cite  {Adare:2014rly}.}}{79}{figure.56}}
\newlabel{fig:HFePHENIX}{{56}{79}{Heavy-flavour decay electron \vtwo measured by the PHENIX Collaboration in \AuAu collisions at RHIC. Left: measurement in minimum-bias collisions as a function of \pt at $\snn = 200$\GeV ~\cite {Adare:2010de}. Right: measurements at $\snn =62.4$~and~200\GeV in the 20--40\% centrality class for the interval $1.3<\pt <2.5$\GeVc , compared with the $\pi ^0$ \vtwo ~\cite {Adare:2014rly}}{figure.56}{}}
\@writefile{lof}{\contentsline {figure}{\numberline {57}{\ignorespaces Heavy-flavour decay electron \ensuremath  {v_{2}}\xspace  measured by the STAR Collaboration in {Au--Au}\xspace  collisions (0--60\% centrality class) at centre-of-mass energies 39, 62.4 and 200\ensuremath  {\text  {\nobreakspace  {}GeV}}\xspace  \nobreakspace  {}\cite  {Adamczyk:2014yew}.}}{79}{figure.57}}
\newlabel{fig:HFeSTAR}{{57}{79}{Heavy-flavour decay electron \vtwo measured by the STAR Collaboration in \AuAu collisions (0--60\% centrality class) at centre-of-mass energies 39, 62.4 and 200\GeV ~\cite {Adamczyk:2014yew}}{figure.57}{}}
\citation{Abelev:2013lca}
\@writefile{lof}{\contentsline {figure}{\numberline {58}{\ignorespaces D meson elliptic flow measured by the ALICE Collaboration in {Pb--Pb}\xspace  collisions at $\ensuremath  {\sqrt  {s_{\mathrm  {\scriptscriptstyle NN}}}}\xspace  =2.76$\ensuremath  {\text  {\nobreakspace  {}TeV}}\xspace  \nobreakspace  {}\cite  {Abelev:2013lca,Abelev:2014ipa}. Left: average of the \ensuremath  {v_{2}}\xspace  values for $\ensuremath  {\mathrm  {D}^{0}}\xspace  $, $\ensuremath  {\mathrm  {D}^{+}}\xspace  $ and $\ensuremath  {\mathrm  {D}^{*+}}\xspace  $ mesons in the centrality class 30--50\% as a function of \ensuremath  {p_{\mathrm  {T}}}\xspace  , compared with the \ensuremath  {v_{2}}\xspace  of charged particles. Right: centrality dependence of the $\ensuremath  {\mathrm  {D}^{0}}\xspace  $ meson \ensuremath  {v_{2}}\xspace  for three \ensuremath  {p_{\mathrm  {T}}}\xspace  intervals.}}{80}{figure.58}}
\newlabel{fig:DmesALICE}{{58}{80}{D meson elliptic flow measured by the ALICE Collaboration in \pb collisions at $\snn =2.76$\TeV ~\cite {Abelev:2013lca,Abelev:2014ipa}. Left: average of the \vtwo values for $\Dzero $, $\Dplus $ and $\Dstarplus $ mesons in the centrality class 30--50\% as a function of \pt , compared with the \vtwo of charged particles. Right: centrality dependence of the $\Dzero $ meson \vtwo for three \pt intervals}{figure.58}{}}
\@writefile{lof}{\contentsline {figure}{\numberline {59}{\ignorespaces D meson \ensuremath  {R_{\mathrm  {AA}}}\xspace  in the direction of the event plane and in the direction orthogonal to the event plane, measured by the ALICE Collaboration in {Pb--Pb}\xspace  collisions (centrality class 30--50\%) at $\ensuremath  {\sqrt  {s_{\mathrm  {\scriptscriptstyle NN}}}}\xspace  =2.76$\ensuremath  {\text  {\nobreakspace  {}TeV}}\xspace  \nobreakspace  {}\cite  {Abelev:2013lca,Abelev:2014ipa}. }}{80}{figure.59}}
\newlabel{fig:DmesRaavsEPALICE}{{59}{80}{D meson \raa in the direction of the event plane and in the direction orthogonal to the event plane, measured by the ALICE Collaboration in \pb collisions (centrality class 30--50\%) at $\snn =2.76$\TeV ~\cite {Abelev:2013lca,Abelev:2014ipa}}{figure.59}{}}
\@writefile{toc}{\contentsline {subsubsection}{\numberline {4.2.2}{\rm  D} meson measurements}{80}{subsubsection.4.2.2}}
\newlabel{sec:v2Dmesons}{{4.2.2}{80}{{\rm D} meson measurements}{subsubsection.4.2.2}{}}
\citation{Abelev:2014ipa}
\citation{Armesto:2003jh,Zhang:2003wk,Djordjevic:2003zk}
\citation{balescu1975equil}
\citation{Rapp:2009my}
\citation{risken1989fp}
\@writefile{toc}{\contentsline {subsection}{\numberline {4.3}Theoretical overview: heavy flavour interactions in the medium}{81}{subsection.4.3}}
\newlabel{sec:OHFmodelsInt}{{4.3}{81}{Theoretical overview: heavy flavour interactions in the medium}{subsection.4.3}{}}
\citation{Alberico:2013bza,Alberico:2011zy}
\citation{Alberico:2013bza,Alberico:2011zy}
\citation{Beraudo:2009pe}
\citation{Ito:1951}
\citation{Ito:1951}
\citation{Ito:1951}
\@writefile{toc}{\contentsline {subsubsection}{\numberline {4.3.1}pQCD energy loss in a dynamical QCD medium}{82}{subsubsection.4.3.1}}
\newlabel{sec:pQCDEloss}{{4.3.1}{82}{pQCD energy loss in a dynamical QCD medium}{subsubsection.4.3.1}{}}
\newlabel{eq:lange_r_d}{{29}{82}{pQCD energy loss in a dynamical QCD medium}{equation.4.29}{}}
\newlabel{eq:friction}{{31}{82}{pQCD energy loss in a dynamical QCD medium}{equation.4.31}{}}
\citation{Djordjevic:2009cr,Djordjevic:2008iz}
\citation{Djordjevic:2006tw}
\citation{Djordjevic:2011dd}
\citation{Djordjevic:2013xoa}
\citation{Kapusta:2006pm,bellac2000thermal}
\citation{Djordjevic:2006tw,Djordjevic:2009cr}
\citation{Djordjevic:2006tw}
\citation{Djordjevic:2009cr}
\citation{Djordjevic:2008iz}
\@writefile{lof}{\contentsline {figure}{\numberline {60}{\ignorespaces The charm (left panel) and beauty (right panel) friction coefficients in a Quark Gluon Plasma at a temperature $T = 400$\ensuremath  {\text  {\nobreakspace  {}MeV}}\xspace  . Continuous curves refer to the results of the Einstein relation $\eta _D=\kappa _{\rm  L}/2ET$, while dashed curves include the discretisation correction in Eq.\nobreakspace  {}(\ref  {eq:friction}) within the Ito scheme\nobreakspace  {}\cite  {Ito:1951}. The sensitivity of the results to the intermediate cut-off $|t|*$ separating hard and soft collisions is also displayed.}}{83}{figure.60}}
\newlabel{fig:friction}{{60}{83}{The charm (left panel) and beauty (right panel) friction coefficients in a Quark Gluon Plasma at a temperature $T = 400$\MeV . Continuous curves refer to the results of the Einstein relation $\eta _D=\kappa _{\rm L}/2ET$, while dashed curves include the discretisation correction in \eq {eq:friction} within the Ito scheme~\cite {Ito:1951}. The sensitivity of the results to the intermediate cut-off $|t|*$ separating hard and soft collisions is also displayed}{figure.60}{}}
\newlabel{DeltaEDyn}{{33}{83}{pQCD energy loss in a dynamical QCD medium}{equation.4.33}{}}
\citation{Gyulassy:2000er,Djordjevic:2003zk}
\citation{Djordjevic:2009cr,Djordjevic:2008iz}
\citation{Wicks:2005gt,Wicks:2007am}
\citation{Maezawa:2010vj,Maezawa:2008kh,Nakamura:2003pu,Hart:2000ha,Bak:2007fk}
\citation{Djordjevic:2011dd}
\citation{Huang:2013vaa}
\citation{Vitev:2007ve}
\citation{Neufeld:2011yh,Neufeld:2014yaa}
\@writefile{lof}{\contentsline {figure}{\numberline {61}{\ignorespaces Fractional energy loss (Eq.\nobreakspace  {}(\ref  {DeltaEDyn})) evaluated for collisional and radiative processes and for charm and beauty quarks, at $T=304\nobreakspace  {}{\rm  MeV}$.}}{84}{figure.61}}
\newlabel{fig:eloss_djordjevic}{{61}{84}{Fractional energy loss (\eq {DeltaEDyn}) evaluated for collisional and radiative processes and for charm and beauty quarks, at $T=304~{\rm MeV}$}{figure.61}{}}
\newlabel{fractionbjet}{{34}{84}{pQCD energy loss in a dynamical QCD medium}{equation.4.34}{}}
\citation{Huang:2015mva}
\citation{Gossiaux:2008jv,Gossiaux:2009mk,Nahrgang:2013saa}
\citation{Combridge:1978kx,Svetitsky:1987gq}
\citation{Dokshitzer:1995qm,Peshier:2008bg}
\citation{Weldon:1982aq}
\citation{Braaten:1991jj,Braaten:1991we}
\citation{Peshier:2006hi}
\citation{Peigne:2008nd}
\citation{Uphoff:2010sh,Uphoff:2011ad,Uphoff:2013rka,Uphoff:2014hza}
\citation{Xu:2004mz}
\citation{Gossiaux:2010yx,Aichelin:2013mra}
\citation{Gunion:1981qs}
\citation{Aichelin:2013mra}
\citation{Gossiaux:2012cv}
\citation{Baier:1996kr}
\citation{Nahrgang:2013saa}
\newlabel{incl}{{35}{85}{pQCD energy loss in a dynamical QCD medium}{equation.4.35}{}}
\@writefile{toc}{\contentsline {subsubsection}{\numberline {4.3.2}A pQCD-inspired running $\alpha _s$ energy loss model in MC$@_s$HQ and BAMPS}{85}{subsubsection.4.3.2}}
\newlabel{sec:mcatshq}{{4.3.2}{85}{A pQCD-inspired running \texorpdfstring {$\alpha _s$}{alpha\_s} energy loss model in \texorpdfstring {MC$@_s$HQ}{MC@sHQ} and BAMPS}{subsubsection.4.3.2}{}}
\newlabel{alpha_s_continued}{{36}{85}{A pQCD-inspired running \texorpdfstring {$\alpha _s$}{alpha\_s} energy loss model in \texorpdfstring {MC$@_s$HQ}{MC@sHQ} and BAMPS}{equation.4.36}{}}
\newlabel{eq:OHF_gossiaux_pg}{{37}{85}{A pQCD-inspired running \texorpdfstring {$\alpha _s$}{alpha\_s} energy loss model in \texorpdfstring {MC$@_s$HQ}{MC@sHQ} and BAMPS}{equation.4.37}{}}
\citation{Abir:2011jb,Fochler:2013epa}
\citation{Fochler:2010wn}
\citation{Ding:2012sp,Banerjee:2011ra}
\citation{Ding:2012sp,Banerjee:2011ra}
\citation{Ding:2012sp,Banerjee:2011ra}
\citation{Adil:2006ra,Sharma:2009hn}
\citation{Sharma:2012dy}
\citation{Kang:2014xsa}
\@writefile{lof}{\contentsline {figure}{\numberline {62}{\ignorespaces Macroscopic properties for both elastic and elastic plus LPM-radiative model. On the left panel, the diffusion coefficient $2\pi T D_s$ is plotted vs $T/T_c$ and compared to the l-QCD calculations of\nobreakspace  {}\cite  {Ding:2012sp,Banerjee:2011ra}. On the right panel, the average momentum loss per unit of time is plotted vs heavy-quark momentum both for \ensuremath  {c}\xspace  and \ensuremath  {b}\xspace  quarks.}}{86}{figure.62}}
\newlabel{fig:gossiaux_properties}{{62}{86}{Macroscopic properties for both elastic and elastic plus LPM-radiative model. On the left panel, the diffusion coefficient $2\pi T D_s$ is plotted vs $T/T_c$ and compared to the l-QCD calculations of~\cite {Ding:2012sp,Banerjee:2011ra}. On the right panel, the average momentum loss per unit of time is plotted vs heavy-quark momentum both for \cquark and \bquark quarks}{figure.62}{}}
\@writefile{toc}{\contentsline {subsubsection}{\numberline {4.3.3}Collisional dissociation of heavy mesons and quarkonia in the QGP}{86}{subsubsection.4.3.3}}
\newlabel{sec:sharmaVitev_dissociation}{{4.3.3}{86}{Collisional dissociation of heavy mesons and quarkonia in the QGP}{subsubsection.4.3.3}{}}
\citation{Sharma:2009hn,Sharma:2012dy}
\citation{Sharma:2012dy}
\citation{Redmer:1997}
\citation{Jeukenne:1976uy,Brockmann:1990cn}
\citation{Mannarelli:2005pz,Cabrera:2006wh,Riek:2010fk}
\citation{Riek:2010fk}
\citation{Riek:2010py}
\citation{vanHees:2007me,He:2011qa}
\citation{Eichten:1978tg}
\citation{Riek:2010fk}
\citation{Rapp:2009my}
\citation{Kaczmarek:2007pb}
\citation{Riek:2010py}
\newlabel{convent1}{{39}{87}{Collisional dissociation of heavy mesons and quarkonia in the QGP}{equation.4.39}{}}
\newlabel{rateq1}{{40}{87}{Collisional dissociation of heavy mesons and quarkonia in the QGP}{equation.4.40}{}}
\newlabel{rateq2}{{41}{87}{Collisional dissociation of heavy mesons and quarkonia in the QGP}{equation.4.40}{}}
\@writefile{toc}{\contentsline {subsubsection}{\numberline {4.3.4}$T$-Matrix approach to heavy-quark interactions in the QGP}{87}{subsubsection.4.3.4}}
\newlabel{sec:Tmatrix}{{4.3.4}{87}{\texorpdfstring {$T$}{T}-Matrix approach to heavy-quark interactions in the QGP}{subsubsection.4.3.4}{}}
\citation{Riek:2010fk}
\citation{Huggins:2012dj}
\citation{Huggins:2012dj}
\citation{Riek:2010fk}
\citation{Huggins:2012dj}
\citation{Huggins:2012dj}
\citation{He:2011yi}
\citation{He:2011yi,He:2012df}
\citation{Riek:2010fk}
\citation{He:2011yi}
\citation{Ding:2011hr,Banerjee:2011ra}
\citation{He:2012df}
\citation{Riek:2010fk}
\citation{He:2011yi}
\citation{Ding:2011hr,Banerjee:2011ra}
\citation{He:2012df}
\citation{CasalderreySolana:2006rq}
\@writefile{lof}{\contentsline {figure}{\numberline {63}{\ignorespaces Left: Charm-quark friction coefficient, $A_c$, as a function of momentum in the QGP from non-pertubative $T$-matrix scattering amplitudes off thermal light and strange quarks\nobreakspace  {}\cite  {Riek:2010fk}, as well as gluons\nobreakspace  {}\cite  {Huggins:2012dj}; the curves correspond to temperatures $T$=1.2, 1.5 and 2\tmspace  +\thinmuskip {.1667em}$T_{\rm  c}$ (bottom to top); Right: Same as left panel but for bottom quarks. Figures are taken from\nobreakspace  {}Ref.\nobreakspace  {}\cite  {Huggins:2012dj}. }}{88}{figure.63}}
\newlabel{fig_A}{{63}{88}{Left: Charm-quark friction coefficient, $A_c$, as a function of momentum in the QGP from non-pertubative $T$-matrix scattering amplitudes off thermal light and strange quarks~\cite {Riek:2010fk}, as well as gluons~\cite {Huggins:2012dj}; the curves correspond to temperatures $T$=1.2, 1.5 and 2\,$T_{\rm c}$ (bottom to top); Right: Same as left panel but for bottom quarks. Figures are taken from~\ci {Huggins:2012dj}}{figure.63}{}}
\@writefile{toc}{\contentsline {subsubsection}{\numberline {4.3.5}Lattice-QCD}{88}{subsubsection.4.3.5}}
\newlabel{sec:lQCDeloss}{{4.3.5}{88}{Lattice-QCD}{subsubsection.4.3.5}{}}
\newlabel{sec:interaction}{{4.3.5}{88}{Lattice-QCD}{subsubsection.4.3.5}{}}
\citation{CaronHuot:2009uh}
\@writefile{lof}{\contentsline {figure}{\numberline {64}{\ignorespaces  Spatial heavy-flavour diffusion coefficient (defined via the relaxation rate at zero momentum) for the $T$-matrix approach in the QGP using the $U$ (lower red band) or $F$ potential (upper green band)\nobreakspace  {}\cite  {Riek:2010fk}, or pQCD with $\alpha _s$=0.4 (dash-dotted line), in hadronic matter (dashed line)\nobreakspace  {}\cite  {He:2011yi}, and from quenched lattice QCD\nobreakspace  {}\cite  {Ding:2011hr,Banerjee:2011ra} (data points); figure taken from\nobreakspace  {}\cite  {He:2012df}.}}{89}{figure.64}}
\newlabel{fig_Ds}{{64}{89}{Spatial heavy-flavour diffusion coefficient (defined via the relaxation rate at zero momentum) for the $T$-matrix approach in the QGP using the $U$ (lower red band) or $F$ potential (upper green band)~\cite {Riek:2010fk}, or pQCD with $\alpha _s$=0.4 (dash-dotted line), in hadronic matter (dashed line)~\cite {He:2011yi}, and from quenched lattice QCD~\cite {Ding:2011hr,Banerjee:2011ra} (data points); figure taken from~\cite {He:2012df}}{figure.64}{}}
\newlabel{eq:ber1}{{45}{89}{Lattice-QCD}{equation.4.45}{}}
\newlabel{eq:kappa}{{46}{89}{Lattice-QCD}{equation.4.46}{}}
\citation{Banerjee:2012zj,Francis:2011gc}
\citation{Francis:2011gc}
\citation{Alberico:2013bza}
\citation{CasalderreySolana:2011us,DeWolfe:2013cua}
\citation{CasalderreySolana:2011us,DeWolfe:2013cua}
\citation{Herzog:2006gh,Gubser:2006bz}
\@writefile{toc}{\contentsline {subsubsection}{\numberline {4.3.6}Heavy-flavour interaction with medium in AdS/CFT}{90}{subsubsection.4.3.6}}
\newlabel{sec:AdSCFTmodel}{{4.3.6}{90}{Heavy-flavour interaction with medium in AdS/CFT}{subsubsection.4.3.6}{}}
\newlabel{horowitz:e:adsdrag}{{51}{90}{Heavy-flavour interaction with medium in AdS/CFT}{equation.4.51}{}}
\citation{Gubser:2006nz,Son:2009vu}
\citation{Gubser:2006nz}
\citation{DeWolfe:2013cua}
\citation{Gossiaux:2011ea}
\citation{Vitev:2006bi}
\citation{Sharma:2009hn}
\citation{Cacciari:2012ny}
\citation{Gyulassy:2001nm}
\citation{Wicks:2005gt,Dainese:2003wq}
\citation{deFlorian:2007aj}
\citation{Cacciari:2003zu,Braaten:1994bz,Kartvelishvili:1977pi}
\citation{Cacciari:2012ny}
\citation{Djordjevic:2014tka}
\citation{Djordjevic:2013xoa,Djordjevic:2013pba,Djordjevic:2014tka}
\citation{Alberico:2013bza}
\citation{Frixione:2007nw,Alioli:2010xd}
\citation{Sjostrand:2006za}
\citation{Eskola:2009uj}
\citation{Alberico:2011zy}
\citation{Cacciari:2005rk}
\citation{Romatschke:2007mq}
\citation{Alberico:2013bza}
\@writefile{lof}{\contentsline {figure}{\numberline {65}{\ignorespaces Schema for the heavy quark drag calculation\nobreakspace  {}\cite  {DeWolfe:2013cua}.}}{91}{figure.65}}
\newlabel{horowitz:f:setup}{{65}{91}{Schema for the heavy quark drag calculation~\cite {DeWolfe:2013cua}}{figure.65}{}}
\newlabel{horowitz:e:adsdiffusion}{{52}{91}{Heavy-flavour interaction with medium in AdS/CFT}{equation.4.52}{}}
\@writefile{toc}{\contentsline {subsection}{\numberline {4.4}Theoretical overview: medium modelling and medium-induced modification of heavy-flavour production}{91}{subsection.4.4}}
\newlabel{sec:OHFmodelsMed}{{4.4}{91}{Theoretical overview: medium modelling and medium-induced modification of heavy-flavour production}{subsection.4.4}{}}
\@writefile{toc}{\contentsline {subsubsection}{\numberline {4.4.1}pQCD energy loss in a static fireball (Djordjevic \emph  {et al.}\xspace  )}{91}{subsubsection.4.4.1}}
\citation{Alberico:2013bza,Alberico:2011zy}
\citation{Beraudo:2014iva,Beraudo:2014boa}
\citation{Beraudo:2014iva,Beraudo:2014boa}
\citation{Cao:2013ita}
\citation{Cao:2013ita}
\citation{Zhang:2003wk}
\citation{Song:2007fn,Song:2007ux,Qiu:2011hf}
\citation{Sjostrand:2006za}
\citation{Oh:2009zj}
\citation{Werner:2010aa,Werner:2010ny,Werner:2012xh,Werner:2013ipa}
\citation{Cacciari:1998it,Cacciari:2001td,Cacciari:2012ny}
\citation{Frixione:2003ei,Frixione:2002ik}
\citation{Nahrgang:2014ila}
\citation{Eskola:2009uj}
\citation{Borsanyi:2010bp}
\citation{Gossiaux:2009mk}
\citation{Nahrgang:2013saa}
\citation{Nahrgang:2014vza}
\@writefile{toc}{\contentsline {subsubsection}{\numberline {4.4.2}pQCD embedded in viscous hydro (POWLANG and Duke)}{92}{subsubsection.4.4.2}}
\newlabel{sec:pQCD_hydro}{{4.4.2}{92}{pQCD embedded in viscous hydro (POWLANG and Duke)}{equation.4.53}{}}
\@writefile{toc}{\contentsline {subsubsection}{\numberline {4.4.3}pQCD-inspired energy loss with running $\alpha _s$ in a fluid-dynamical medium and in Boltzmann transport}{92}{subsubsection.4.4.3}}
\citation{Xu:2004mz,Xu:2007aa}
\citation{Frixione:2002ik,Frixione:2003ei}
\citation{Peterson:1982ak}
\citation{Uphoff:2012gb}
\citation{Uphoff:2012gb}
\citation{Uphoff:2014hza}
\citation{Riek:2010fk,He:2011yi}
\citation{He:2011qa}
\citation{Kolb:2000sd}
\citation{He:2011zx}
\citation{Kolb:2002ve}
\citation{Pratt:2008qv}
\citation{He:2011zx}
\citation{He:2014cla}
\citation{Cacciari:2001td}
\citation{Ravagli:2007xx}
\@writefile{toc}{\contentsline {subsubsection}{\numberline {4.4.4}Non-perturbative $T$-matrix approach in a fluid-dynamic model (TAMU) and in UrQMD transport}{93}{subsubsection.4.4.4}}
\citation{Lang:2012cx,Lang:2013cca,Lang:2013wya}
\citation{Petersen:2008dd}
\citation{Bass:1998ca,Bleicher:1999xi}
\citation{Rischke:1995mt,Rischke:1995ir,Steinheimer:2007iy}
\citation{Cooper:1974mv}
\citation{Svetitsky:1987gq,GolamMustafa:1997id,Gossiaux:2004qw,vanHees:2004gq,Moore:2004tg,vanHees:2005wb,vanHees:2007me,He:2013zua}
\citation{vanHees:2004gq}
\citation{Combridge:1978kx}
\citation{vanHees:2005wb,vanHees:2007me}
\citation{Peterson:1982ak}
\citation{Horowitz:2007su,Horowitz:2011wm}
\citation{Cacciari:2012ny}
\@writefile{toc}{\contentsline {subsubsection}{\numberline {4.4.5}lattice-QCD embedded in viscous fluid dynamics (POWLANG)}{94}{subsubsection.4.4.5}}
\newlabel{sec:POWLANG}{{4.4.5}{94}{lattice-QCD embedded in viscous fluid dynamics (POWLANG)}{subsubsection.4.4.5}{}}
\@writefile{toc}{\contentsline {subsubsection}{\numberline {4.4.6}AdS/CFT calculations in a static fireball}{94}{subsubsection.4.4.6}}
\citation{Gubser:2006nz}
\citation{Abelev:2006db,Adare:2010de}
\citation{Wicks:2005gt}
\citation{Aamodt:2010cz}
\citation{Moore:2004tg,Akamatsu:2008ge}
\citation{ALICE:2012ab,Abelev:2013lca}
\@writefile{toc}{\contentsline {subsection}{\numberline {4.5}Comparative overview of model features and comparison with data}{95}{subsection.4.5}}
\newlabel{sec:modelcomparison}{{4.5}{95}{Comparative overview of model features and comparison with data}{subsection.4.5}{}}
\citation{Adamczyk:2014uip}
\citation{Grelli:2012yv}
\citation{Adare:2010de}
\citation{Abelev:2006db}
\citation{Abelev:2012qh}
\citation{ALICE:2012ab}
\citation{Chatrchyan:2012np}
\citation{Bruna:2014pfa}
\citation{CMS:2012wba}
\citation{Huang:2013vaa}
\citation{Djordjevic:2009cr,Djordjevic:2008iz,Djordjevic:2006tw,Djordjevic:2011dd,Djordjevic:2013xoa}
\citation{Wicks:2005gt,Wicks:2007am}
\citation{Adil:2006ra,Sharma:2009hn}
\citation{Horowitz:2007su,Horowitz:2011wm}
\citation{Beraudo:2014iva,Beraudo:2014boa,Alberico:2013bza,Alberico:2011zy,Beraudo:2009pe}
\citation{Gossiaux:2008jv,Gossiaux:2009mk,Nahrgang:2013saa}
\citation{Uphoff:2010sh,Uphoff:2011ad,Uphoff:2013rka,Uphoff:2014hza}
\citation{He:2011yi,He:2012df,He:2014cla}
\citation{Lang:2012cx,Lang:2013cca,Lang:2013wya}
\citation{Cao:2011et,Cao:2013ita}
\@writefile{lot}{\contentsline {table}{\numberline {11}{\ignorespaces Comparative overview of the models for heavy-quark energy loss or transport in the medium described in the previous sections.}}{98}{table.11}}
\newlabel{tab:HFmodels}{{11}{98}{Comparative overview of the models for heavy-quark energy loss or transport in the medium described in the previous sections}{table.11}{}}
\citation{ALICE:2012ab}
\citation{Abelev:2013lca}
\citation{ALICE:2012ab}
\citation{Abelev:2013lca}
\citation{Adamczyk:2014uip}
\citation{Adamczyk:2014uip}
\citation{Abelev:2006db}
\citation{Adare:2010de}
\citation{Adare:2010de}
\citation{Abelev:2006db}
\citation{Adare:2010de}
\citation{Adare:2010de}
\citation{Abelev:2012qh}
\citation{Abelev:2012qh}
\citation{ALICE:2012ab}
\citation{Chatrchyan:2012np}
\citation{ALICE:2012ab}
\citation{Chatrchyan:2012np}
\citation{Chatrchyan:2012np}
\citation{Chatrchyan:2012np}
\citation{Chatrchyan:2013exa}
\citation{Chatrchyan:2013exa}
\@writefile{lof}{\contentsline {figure}{\numberline {66}{\ignorespaces Left: nuclear modification factor as a function of transverse momentum of averaged prompt D mesons in the 0--20\% most central {Pb--Pb}\xspace  collisions at \ensuremath  {\sqrt  {s_{\mathrm  {\scriptscriptstyle NN}}}}\xspace  =2.76\nobreakspace  {}TeV\nobreakspace  {}\cite  {ALICE:2012ab} (the filled box at $\ensuremath  {R_{\mathrm  {AA}}}\xspace  =1$ is the systematic uncertainty on the normalisation). Right: \ensuremath  {v_{2}}\xspace  as a function of transverse momentum of D mesons in the 30--50\% centrality {Pb--Pb}\xspace  collisions at \ensuremath  {\sqrt  {s_{\mathrm  {\scriptscriptstyle NN}}}}\xspace  =2.76\nobreakspace  {}TeV\nobreakspace  {}\cite  {Abelev:2013lca} (the filled boxes are the systematic uncertainties on the feed-down subtraction). The results are obtained as an average of the \ensuremath  {\mathrm  {D}^{0}}\xspace  , \ensuremath  {\mathrm  {D}^{+}}\xspace  and \ensuremath  {\mathrm  {D}^{*+}}\xspace  measurements. The results are compared to model calculations implementing collisional energy loss (top panels), collisional and radiative energy loss (middle panels) and to models which cannot be ascribed to the previous categories (bottom panels).}}{99}{figure.66}}
\newlabel{fig:DmesonALICEcompTheo}{{66}{99}{Left: nuclear modification factor as a function of transverse momentum of averaged prompt D mesons in the 0--20\% most central \pb collisions at \snn =2.76~TeV~\cite {ALICE:2012ab} (the filled box at $\raa =1$ is the systematic uncertainty on the normalisation). Right: \vtwo as a function of transverse momentum of D mesons in the 30--50\% centrality \pb collisions at \snn =2.76~TeV~\cite {Abelev:2013lca} (the filled boxes are the systematic uncertainties on the feed-down subtraction). The results are obtained as an average of the \Dzero , \Dplus and \Dstarplus measurements. The results are compared to model calculations implementing collisional energy loss (top panels), collisional and radiative energy loss (middle panels) and to models which cannot be ascribed to the previous categories (bottom panels)}{figure.66}{}}
\@writefile{lof}{\contentsline {figure}{\numberline {67}{\ignorespaces Nuclear modification factor as a function of transverse momentum of \ensuremath  {\mathrm  {D}^{0}}\xspace  mesons in the 0--10\% most central {Au--Au}\xspace  collisions at \ensuremath  {\sqrt  {s_{\mathrm  {\scriptscriptstyle NN}}}}\xspace  =200\nobreakspace  {}GeV\nobreakspace  {}\cite  {Adamczyk:2014uip}. The filled boxes at $\ensuremath  {R_{\mathrm  {AA}}}\xspace  =1$ are, from left to right, the systematic uncertainties on the normalisation of {Au--Au}\xspace  and \ensuremath  {\rm  pp}\xspace  data. The results are compared to model calculations implementing collisional energy loss (top left), collisional and radiative energy loss (top right) and to models which cannot be ascribed to the previous categories (bottom left).}}{100}{figure.67}}
\newlabel{fig:DzeroSTARcompTheo}{{67}{100}{Nuclear modification factor as a function of transverse momentum of \Dzero mesons in the 0--10\% most central \AuAu collisions at \snn =200~GeV~\cite {Adamczyk:2014uip}. The filled boxes at $\raa =1$ are, from left to right, the systematic uncertainties on the normalisation of \AuAu and \pp data. The results are compared to model calculations implementing collisional energy loss (top left), collisional and radiative energy loss (top right) and to models which cannot be ascribed to the previous categories (bottom left)}{figure.67}{}}
\@writefile{lof}{\contentsline {figure}{\numberline {68}{\ignorespaces Left: nuclear modification factor as a function of transverse momentum of heavy flavour electrons in the 0--5\%\nobreakspace  {}\cite  {Abelev:2006db} and 0--10\%\nobreakspace  {}\cite  {Adare:2010de} most central {Au--Au}\xspace  collisions at \ensuremath  {\sqrt  {s_{\mathrm  {\scriptscriptstyle NN}}}}\xspace  =200\nobreakspace  {}GeV. The dashed band (filled box) at $\ensuremath  {R_{\mathrm  {AA}}}\xspace  =1$ is the normalisation uncertainty for STAR (PHENIX) data. Right: \ensuremath  {v_{2}}\xspace  as a function of transverse momentum of heavy flavour electrons in {Au--Au}\xspace  collisions at \ensuremath  {\sqrt  {s_{\mathrm  {\scriptscriptstyle NN}}}}\xspace  =200\nobreakspace  {}GeV\nobreakspace  {}\cite  {Adare:2010de}. The results are compared to model calculations implementing collisional energy loss (top panels) and collisional and radiative energy loss (bottom panels).}}{101}{figure.68}}
\newlabel{fig:hfeRHICcompTheo}{{68}{101}{Left: nuclear modification factor as a function of transverse momentum of heavy flavour electrons in the 0--5\%~\cite {Abelev:2006db} and 0--10\%~\cite {Adare:2010de} most central \AuAu collisions at \snn =200~GeV. The dashed band (filled box) at $\raa =1$ is the normalisation uncertainty for STAR (PHENIX) data. Right: \vtwo as a function of transverse momentum of heavy flavour electrons in \AuAu collisions at \snn =200~GeV~\cite {Adare:2010de}. The results are compared to model calculations implementing collisional energy loss (top panels) and collisional and radiative energy loss (bottom panels)}{figure.68}{}}
\@writefile{lof}{\contentsline {figure}{\numberline {69}{\ignorespaces Nuclear modification factor as a function of transverse momentum of heavy flavour muons with $2.5<y<4$ measured in the 0--10\% most central {Pb--Pb}\xspace  collisions at \ensuremath  {\sqrt  {s_{\mathrm  {\scriptscriptstyle NN}}}}\xspace  =2.76\nobreakspace  {}TeV\nobreakspace  {}\cite  {Abelev:2012qh}. The filled box at $\ensuremath  {R_{\mathrm  {AA}}}\xspace  =1$ is the systematic uncertainty on the normalisation. The results are compared to model calculations implementing collisional energy loss (left) and collisional and radiative energy loss (right).}}{101}{figure.69}}
\newlabel{fig:hfmuALICEcompTheo}{{69}{101}{Nuclear modification factor as a function of transverse momentum of heavy flavour muons with $2.5<y<4$ measured in the 0--10\% most central \pb collisions at \snn =2.76~TeV~\cite {Abelev:2012qh}. The filled box at $\raa =1$ is the systematic uncertainty on the normalisation. The results are compared to model calculations implementing collisional energy loss (left) and collisional and radiative energy loss (right)}{figure.69}{}}
\@writefile{lof}{\contentsline {figure}{\numberline {70}{\ignorespaces Nuclear modification factor as a function of the number of participants of averaged prompt D mesons\nobreakspace  {}\cite  {ALICE:2012ab} and non-prompt \ensuremath  {\mathrm  {J}/\psi }\xspace  \nobreakspace  {}\cite  {Chatrchyan:2012np} measured in {Pb--Pb}\xspace  collisions at \ensuremath  {\sqrt  {s_{\mathrm  {\scriptscriptstyle NN}}}}\xspace  =2.76\nobreakspace  {}TeV compared to model calculations implementing collisional (left) and collisional and radiative energy loss (right). The filled box at $\ensuremath  {R_{\mathrm  {AA}}}\xspace  =1$ is the systematic uncertainty on the normalisation of non-prompt \ensuremath  {\mathrm  {J}/\psi }\xspace  data. Note that: a) model predictions refer to ALICE and CMS preliminary data, in a slightly different \ensuremath  {p_{\mathrm  {T}}}\xspace  and rapidity range; b) the point at low \ensuremath  {\mathrm  {N_{part}}}\xspace  for the non-prompt \ensuremath  {\mathrm  {J}/\psi }\xspace  \ensuremath  {R_{\mathrm  {AA}}}\xspace  refers to a very large centrality interval (20--100\%).}}{102}{figure.70}}
\newlabel{fig:DnonPromptJpsicompTheo}{{70}{102}{Nuclear modification factor as a function of the number of participants of averaged prompt D mesons~\cite {ALICE:2012ab} and non-prompt \jpsi ~\cite {Chatrchyan:2012np} measured in \pb collisions at \snn =2.76~TeV compared to model calculations implementing collisional (left) and collisional and radiative energy loss (right). The filled box at $\raa =1$ is the systematic uncertainty on the normalisation of non-prompt \jpsi data. Note that: a) model predictions refer to ALICE and CMS preliminary data, in a slightly different \pt and rapidity range; b) the point at low \Npart for the non-prompt \jpsi \raa refers to a very large centrality interval (20--100\%)}{figure.70}{}}
\@writefile{lof}{\contentsline {figure}{\numberline {71}{\ignorespaces Quark mass dependence of energy loss. The nuclear modification factor of non-prompt \ensuremath  {\mathrm  {J}/\psi }\xspace  \nobreakspace  {}\cite  {Chatrchyan:2012np} measured in {Pb--Pb}\xspace  collisions at \ensuremath  {\sqrt  {s_{\mathrm  {\scriptscriptstyle NN}}}}\xspace  =2.76\nobreakspace  {}TeV is compared to model calculations obtained in the same way as in Figure\nobreakspace  {}\ref  {fig:DnonPromptJpsicompTheo} and assuming that the \ensuremath  {b}\xspace  quark has the mass of the \ensuremath  {c}\xspace  quark.}}{102}{figure.71}}
\newlabel{fig:nonPromptJpsiMassEffect}{{71}{102}{Quark mass dependence of energy loss. The nuclear modification factor of non-prompt \jpsi ~\cite {Chatrchyan:2012np} measured in \pb collisions at \snn =2.76~TeV is compared to model calculations obtained in the same way as in \fig {fig:DnonPromptJpsicompTheo} and assuming that the \bquark quark has the mass of the \cquark quark}{figure.71}{}}
\@writefile{lof}{\contentsline {figure}{\numberline {72}{\ignorespaces Nuclear modification factor as a function of transverse momentum of \ensuremath  {b}\xspace  -jets measured in {Pb--Pb}\xspace  collisions at \ensuremath  {\sqrt  {s_{\mathrm  {\scriptscriptstyle NN}}}}\xspace  =2.76\nobreakspace  {}TeV\nobreakspace  {}\cite  {Chatrchyan:2013exa} compared to model calculations. For each value of $g^{\rm  med}$, the upper curve is the calculation with the $b$-quark mass and the lower curve is the massless case. The filled box at $\ensuremath  {R_{\mathrm  {AA}}}\xspace  =1$ is the systematic uncertainty on the normalisation.}}{102}{figure.72}}
\newlabel{fig:bJetsCMScompTheo}{{72}{102}{Nuclear modification factor as a function of transverse momentum of \bquark -jets measured in \pb collisions at \snn =2.76~TeV~\cite {Chatrchyan:2013exa} compared to model calculations. For each value of $g^{\rm med}$, the upper curve is the calculation with the $b$-quark mass and the lower curve is the massless case. The filled box at $\raa =1$ is the systematic uncertainty on the normalisation}{figure.72}{}}
\citation{Arsene:2004fa,Adcox:2004mh,Back:2004je,Adams:2005dq,Chatrchyan:2011eka,Aamodt:2011vg}
\citation{Renk:2006pk}
\citation{Nahrgang:2013saa,Cao:2014pka,Uphoff:2013rka,Renk:2013xaa,Lang:2013wya,Beraudo:2014boa}
\citation{Adare:2010ud}
\citation{Colamaria:2014uja}
\citation{Adare:2010ud}
\citation{Colamaria:2014uja}
\citation{Nahrgang:2013saa}
\citation{Nahrgang:2013saa}
\citation{Adare:2010ud,Wang:2008kha,Thomas:2014cwa}
\citation{Nahrgang:2013saa,Cao:2014pka,Uphoff:2013rka,Renk:2013xaa,Lang:2013wya,Beraudo:2014boa}
\citation{He:2012df,Ozvenchuk:2014rpa,Cao:2014dja}
\citation{Nahrgang:2013saa}
\citation{Zhu:2007ne}
\@writefile{toc}{\contentsline {subsection}{\numberline {4.6}Heavy-flavour correlations in heavy-ion collisions: status and prospects}{103}{subsection.4.6}}
\newlabel{sec:OHFcorr}{{4.6}{103}{Heavy-flavour correlations in heavy-ion collisions: status and prospects}{subsection.4.6}{}}
\@writefile{lof}{\contentsline {figure}{\numberline {73}{\ignorespaces Left: ratio of yields in the away-side region ($2.51<\phi <\pi $) to those in the shoulder region ($1.25<\phi <2.51$) in \ensuremath  {\rm  pp}\xspace  and {Au--Au}\xspace  collisions from PHENIX\nobreakspace  {}\cite  {Adare:2010ud}. Right: relative uncertainty on the away-side yield in D--h correlations as a function of the charged hadron \ensuremath  {p_{\mathrm  {T}}}\xspace  for three ranges of D meson transverse momenta, with the ALICE and LHC upgrades\nobreakspace  {}\cite  {Colamaria:2014uja}.}}{104}{figure.73}}
\newlabel{HFcorrPb}{{73}{104}{Left: ratio of yields in the away-side region ($2.51<\phi <\pi $) to those in the shoulder region ($1.25<\phi <2.51$) in \pp and \AuAu collisions from PHENIX~\cite {Adare:2010ud}. Right: relative uncertainty on the away-side yield in D--h correlations as a function of the charged hadron \pt for three ranges of D meson transverse momenta, with the ALICE and LHC upgrades~\cite {Colamaria:2014uja}}{figure.73}{}}
\@writefile{lof}{\contentsline {figure}{\numberline {74}{\ignorespaces Perpendicular momentum of charm quarks acquired in a QGP medium at $T=400$\ensuremath  {\text  {\nobreakspace  {}MeV}}\xspace  as a function of the initial momentum $p_{||}^{\rm  ini}$ (left). Angular correlations of $\mathrm  {D\overline  {D}}$ pairs in {Pb--Pb}\xspace  collisions at LHC without (centre) and with (right) a lower momentum cut\nobreakspace  {}\cite  {Nahrgang:2013saa}.}}{104}{figure.74}}
\newlabel{fig:correlation}{{74}{104}{Perpendicular momentum of charm quarks acquired in a QGP medium at $T=400$\MeV as a function of the initial momentum $p_{||}^{\rm ini}$ (left). Angular correlations of $\mathrm {D\overline {D}}$ pairs in \pb collisions at LHC without (centre) and with (right) a lower momentum cut~\cite {Nahrgang:2013saa}}{figure.74}{}}
\@writefile{toc}{\contentsline {subsection}{\numberline {4.7}Summary and outlook}{105}{subsection.4.7}}
\newlabel{sec:OHFconclusion}{{4.7}{105}{Summary and outlook}{subsection.4.7}{}}
\@setckpt{OHF_Merged}{
\setcounter{page}{107}
\setcounter{equation}{53}
\setcounter{enumi}{9}
\setcounter{enumii}{0}
\setcounter{enumiii}{0}
\setcounter{enumiv}{0}
\setcounter{footnote}{22}
\setcounter{mpfootnote}{0}
\setcounter{part}{0}
\setcounter{section}{4}
\setcounter{subsection}{7}
\setcounter{subsubsection}{0}
\setcounter{paragraph}{0}
\setcounter{subparagraph}{0}
\setcounter{figure}{74}
\setcounter{table}{11}
\setcounter{tnote}{0}
\setcounter{fnote}{1}
\setcounter{cnote}{1}
\setcounter{ead}{1}
\setcounter{author}{0}
\setcounter{affn}{42}
\setcounter{NAT@ctr}{0}
\setcounter{parentequation}{0}
\setcounter{Item}{13}
\setcounter{Hfootnote}{21}
\setcounter{bookmark@seq@number}{58}
\setcounter{r@tfl@t}{0}
\setcounter{subfigure}{0}
\setcounter{lofdepth}{1}
\setcounter{subtable}{0}
\setcounter{lotdepth}{1}
\setcounter{linenumber}{1}
\setcounter{LN@truepage}{106}
\setcounter{section@level}{2}
}
