This is BibTeX, Version 0.99d (TeX Live 2014/MacPorts 2014_6)
Capacity: max_strings=35307, hash_size=35307, hash_prime=30011
The top-level auxiliary file: Rev1054_Merged2Nov2015.aux
Reallocated cite_list (elt_size=4) to 1500 items from 750.
Reallocated type_list (elt_size=4) to 1500 items from 750.
Reallocated entry_exists (elt_size=4) to 1500 items from 750.
Reallocated cite_info (elt_size=4) to 1500 items from 750.
The style file: utphys.bst
Reallocated field_info (elt_size=4) to 32360 items from 5000.
Database file #1: fullBiblio.bib
Reallocated str_pool (elt_size=1) to 130000 items from 65000.
Reallocated str_pool (elt_size=1) to 195000 items from 130000.
Warning--I didn't find a database entry for "Lemoigne:1982jc"
Warning--empty author in LHCb:2010lga
Warning--empty pages in LHCb:2010lga
Warning--empty pages in Bartalini:2010su
Warning--empty pages in Nelson_inprog
Warning--empty pages in Kopeliovich_inprog
Warning--empty author in ALICE:2013spa
Warning--empty pages in ALICE:2013spa
Warning--empty author in LHCb:08082014sca
Warning--empty pages in LHCb:08082014sca
Warning--empty author in CMS:2014tfa
Warning--empty pages in CMS:2014tfa
Warning--empty author in CMS:2014tca
Warning--empty pages in CMS:2014tca
Warning--empty pages in Arnaldi:2014kta
Warning--empty pages in RVogtinprogress
Warning--empty pages in Adare:2014rly
Warning--empty pages in Adamczyk:2014yew
Warning--empty author in ATLAS:2012ama
Warning--empty pages in ATLAS:2012ama
Warning--empty author in CMS:2012wba
Warning--empty institution in CMS:2012wba
Warning--empty institution in CMS:2012rba
Warning--empty author in CMS:2013dla
Warning--empty institution in CMS:2013dla
Warning--empty author in CMS:2014ies
Warning--empty pages in CMS:2014ies
Warning--empty pages in Bordry:2013
Warning--empty pages in Rossi:2012
Warning--empty pages in ALICE_MFT_LoI
Warning--empty pages in ALICE_MFT_TDR
Warning--empty pages in ALICEUpgrade_TDR
Warning--empty pages in ATLAS:TDR:19
Warning--empty author in ATLAS:Btagging
Warning--empty pages in ATLAS:Btagging
Warning--empty author in ATLAS:LoI:Phase2
Warning--empty pages in ATLAS:LoI:Phase2
Warning--empty author in ATLAS:LoI:Phase1
Warning--empty pages in ATLAS:LoI:Phase1
Warning--empty pages in ATLAS:TDR:23
Warning--empty author in CMS_L1_Trigger_TDR
Warning--empty pages in CMS_L1_Trigger_TDR
Warning--empty author in CMS_Pixel_TDR
Warning--empty pages in CMS_Pixel_TDR
Warning--empty author in CMS_HCAL_TDR
Warning--empty pages in CMS_HCAL_TDR
Warning--empty author in CMS:2013gga
Warning--empty pages in CMS:2013gga
Warning--empty pages in CMS:Phase2
Warning--empty author in Bediaga:1443882
Warning--empty author in CERN-LHCC-2014-016
Warning--empty author in Collaboration:1624070
Warning--empty author in Collaboration:1647400
Warning--empty author in Collaboration:1624074
Warning--empty institution in STAR:2015bur
Warning--empty institution in STAR:2013bur
Warning--empty pages in Arleo:2012dxa
You've used 854 entries,
            2328 wiz_defined-function locations,
            7172 strings with 184996 characters,
and the built_in function-call counts, 289049 in all, are:
= -- 30563
> -- 8099
< -- 8
+ -- 3029
- -- 2175
* -- 29344
:= -- 32575
add.period$ -- 1692
call.type$ -- 854
change.case$ -- 875
chr.to.int$ -- 0
cite$ -- 910
duplicate$ -- 16109
empty$ -- 27738
format.name$ -- 2175
if$ -- 76151
int.to.chr$ -- 0
int.to.str$ -- 854
missing$ -- 3290
newline$ -- 4202
num.names$ -- 832
pop$ -- 3747
preamble$ -- 1
purify$ -- 0
quote$ -- 0
skip$ -- 11948
stack$ -- 0
substring$ -- 12879
swap$ -- 8418
text.length$ -- 8
text.prefix$ -- 0
top$ -- 0
type$ -- 0
warning$ -- 56
while$ -- 1876
width$ -- 857
write$ -- 7784
(There were 57 warnings)
