\relax 
\providecommand\hyper@newdestlabel[2]{}
\citation{Bordry:2013}
\citation{Rossi:2012}
\citation{Chatrchyan201230,Aad20121}
\citation{Abelevetal:2014cna,ALICE_MFT_LoI}
\citation{ALICE_ITS_TDR}
\citation{ALICE_MFT_TDR}
\citation{ALICEUpgrade_TDR}
\citation{ALICE_ITS_TDR}
\citation{ALICE_MFT_TDR}
\@writefile{toc}{\contentsline {section}{\numberline {7}Upgrade programmes and planned experiments}{147}{section.7}}
\newlabel{sec:upgrade}{{7}{147}{Upgrade programmes and planned experiments}{section.7}{}}
\newlabel{sec:upgrade}{{7}{147}{Upgrade programmes and planned experiments}{section.7}{}}
\@writefile{toc}{\contentsline {subsection}{\numberline {7.1}Introduction}{147}{subsection.7.1}}
\@writefile{toc}{\contentsline {subsection}{\numberline {7.2}Collider experiments}{147}{subsection.7.2}}
\@writefile{toc}{\contentsline {subsubsection}{\numberline {7.2.1}The LHC upgrade programme}{147}{subsubsection.7.2.1}}
\@writefile{toc}{\contentsline {paragraph}{The ALICE experiment}{147}{section*.26}}
\citation{ALICE_ITS_TDR}
\citation{ALICE_ITS_TDR}
\citation{ALICE_ITS_TDR}
\citation{Abelevetal:2014cna}
\citation{ALICE_MFT_LoI}
\citation{Andronic:2009sv,Zhao:2011cv}
\citation{Abelevetal:2014cna}
\citation{ALICE_MFT_LoI}
\citation{Andronic:2009sv,Zhao:2011cv}
\@writefile{lof}{\contentsline {figure}{\numberline {103}{\ignorespaces Estimated performance of open heavy flavour nuclear modification factor (left) and elliptic flow (right) with the ALICE upgrade. The \ensuremath  {p_{\mathrm  {T}}}\xspace  dependence of the two observables is assumed based on current measurements and model predictions\nobreakspace  {}\cite {ALICE_ITS_TDR}.}}{148}{figure.103}}
\newlabel{fig:ALICE_Beauty_v2}{{103}{148}{Estimated performance of open heavy flavour nuclear modification factor (left) and elliptic flow (right) with the ALICE upgrade. The \pt dependence of the two observables is assumed based on current measurements and model predictions~\protect \cite {ALICE_ITS_TDR}}{figure.103}{}}
\citation{ATLAS:TDR:19}
\citation{ATLAS:Btagging}
\citation{ATLAS:LoI:Phase2}
\citation{ATLAS:LoI:Phase1,ATLAS:TDR:23}
\@writefile{lof}{\contentsline {figure}{\numberline {104}{\ignorespaces Left: estimated statistical uncertainties of \ensuremath  {v_{2}}\xspace  measurement of \ensuremath  {\mathrm  {J}/\psi }\xspace  with the ALICE upgrade\nobreakspace  {}\cite  {Abelevetal:2014cna}. Right: estimated performance of the measurement of ratio of the nuclear modification factor of \ensuremath  {\psi \text  {(2S)}}\xspace  and \ensuremath  {\mathrm  {J}/\psi }\xspace  \nobreakspace  {}\cite {ALICE_MFT_LoI} compared to two charmonium production model calculations\nobreakspace  {}\cite {Andronic:2009sv,Zhao:2011cv}.}}{149}{figure.104}}
\newlabel{fig:ALICE_Jpsi_v2}{{104}{149}{Left: estimated statistical uncertainties of \vtwo measurement of \jpsi with the ALICE upgrade~\cite {Abelevetal:2014cna}. Right: estimated performance of the measurement of ratio of the nuclear modification factor of \psiP and \jpsi ~\protect \cite {ALICE_MFT_LoI} compared to two charmonium production model calculations~\protect \cite {Andronic:2009sv,Zhao:2011cv}}{figure.104}{}}
\@writefile{toc}{\contentsline {paragraph}{The ATLAS experiment}{149}{section*.27}}
\citation{CMS_L1_Trigger_TDR,CMS_Pixel_TDR,CMS_HCAL_TDR}
\citation{CMS:2013gga}
\citation{CMS:2013gga}
\citation{CMS:2013gga}
\citation{CMS:Phase2}
\citation{CMS:2013gga}
\citation{Bediaga:1443882}
\citation{CERN-LHCC-2014-016}
\citation{Collaboration:1624070}
\citation{Collaboration:1647400}
\citation{Collaboration:1624074}
\@writefile{lof}{\contentsline {figure}{\numberline {105}{\ignorespaces Estimated performance of the measurement in CMS of the doubly-tagged $b$-jet asymmetry $A_J$ distribution in $|\eta | < 2$\nobreakspace  {}\cite  {CMS:2013gga}.}}{150}{figure.105}}
\newlabel{fig:CMS_bJets}{{105}{150}{Estimated performance of the measurement in CMS of the doubly-tagged $b$-jet asymmetry $A_J$ distribution in $|\eta | < 2$~\cite {CMS:2013gga}}{figure.105}{}}
\@writefile{toc}{\contentsline {paragraph}{The CMS experiment}{150}{section*.28}}
\citation{Akiba:2015jwa}
\citation{RHIC_Projections}
\citation{Adare:2015kwa}
\citation{Aidala:2012nz}
\citation{Aidala:2012nz}
\@writefile{lof}{\contentsline {figure}{\numberline {106}{\ignorespaces Estimated performance (quoted are the statistical uncertainties) of the measurement of the \ensuremath  {\Upsilon }\xspace  states \ensuremath  {R_{\mathrm  {AA}}}\xspace  using sPHENIX in {Au--Au}\xspace  collisions at \ensuremath  {\sqrt  {s_{\mathrm  {\scriptscriptstyle NN}}}}\xspace  \nobreakspace  {}=\nobreakspace  {}200\nobreakspace  {}\ensuremath  {\text  {\nobreakspace  {}GeV}}\xspace  \nobreakspace  {}\cite {Aidala:2012nz}.}}{151}{figure.106}}
\newlabel{fig:sPHENIX_RAA_UPSILON}{{106}{151}{Estimated performance (quoted are the statistical uncertainties) of the measurement of the \ups states \raa using sPHENIX in \AuAu collisions at \snn ~=~200~\GeV ~\protect \cite {Aidala:2012nz}}{figure.106}{}}
\@writefile{toc}{\contentsline {paragraph}{The LHCb experiment}{151}{section*.29}}
\@writefile{toc}{\contentsline {subsubsection}{\numberline {7.2.2}The RHIC programme}{151}{subsubsection.7.2.2}}
\@writefile{toc}{\contentsline {paragraph}{The sPHENIX project}{151}{section*.30}}
\citation{Aidala:2012nz}
\citation{STAR:2015bur}
\citation{STAR:2013bur,STAR:2015bur}
\citation{STAR:2013bur,STAR:2015bur}
\citation{STAR_Decadal}
\citation{Akiba:2015jwa}
\@writefile{lof}{\contentsline {figure}{\numberline {107}{\ignorespaces Estimated performance (quoted are the statistical uncertainties) of the STAR measurement of the $\mathrm  {D}^0$ meson elliptic flow (left panel) and the \ensuremath  {\Upsilon }\xspace  states \ensuremath  {R_{\mathrm  {AA}}}\xspace  (left panel) in {Au--Au}\xspace  collisions at \ensuremath  {\sqrt  {s_{\mathrm  {\scriptscriptstyle NN}}}}\xspace  \nobreakspace  {}=\nobreakspace  {}200\nobreakspace  {}\ensuremath  {\text  {\nobreakspace  {}GeV}}\xspace  \nobreakspace  {}\cite {STAR:2013bur,STAR:2015bur}.}}{152}{figure.107}}
\newlabel{fig:STAR_perf}{{107}{152}{Estimated performance (quoted are the statistical uncertainties) of the STAR measurement of the $\mathrm {D}^0$ meson elliptic flow (left panel) and the \ups states \raa (left panel) in \AuAu collisions at \snn ~=~200~\GeV ~\protect \cite {STAR:2013bur,STAR:2015bur}}{figure.107}{}}
\@writefile{toc}{\contentsline {paragraph}{STAR experiment}{152}{section*.31}}
\citation{Aubert:1974js}
\citation{Herb:1977ek}
\citation{Armstrong:1992ae}
\citation{Abreu:2000ni}
\citation{Hoyer:1990us}
\citation{Badier:1982ae}
\citation{Reimer:2001bt}
\citation{Quintans:2011zz}
\citation{Sivers:1989cc}
\citation{Ali:2013yva}
\citation{Friman:2011zz}
\citation{Costantini:1993rr}
\citation{Uggerhoj:2005xz}
\citation{Brodsky:2012vg,Lansberg:2012kf,Lansberg:2012wj,Rakotozafindrabe:2012ei}
\@writefile{toc}{\contentsline {subsection}{\numberline {7.3}The fixed target experiments}{153}{subsection.7.3}}
\@writefile{toc}{\contentsline {subsubsection}{\numberline {7.3.1}Low energy projects at SPS, Fermilab and FAIR}{153}{subsubsection.7.3.1}}
\@writefile{toc}{\contentsline {subsubsection}{\numberline {7.3.2}Plans for fixed-target experiments using the LHC beams}{153}{subsubsection.7.3.2}}
\citation{FerroLuzzi:2005em}
\citation{Brodsky:2012vg,Lansberg:2012kf}
\citation{Arleo:2012dxa}
\citation{Kurepin:2011zz}
\@writefile{lot}{\contentsline {table}{\numberline {18}{\ignorespaces Expected yields (assuming no nuclear effects) and luminosities obtained for a 7 (2.76) TeV proton (Pb) beam extracted by means of bent crystal (upper part) and obtained with an internal gas target (lower part).}}{154}{table.18}}
\newlabel{tab:lumi-after}{{7.3.2}{154}{Plans for fixed-target experiments using the LHC beams}{table.18}{}}
\@writefile{toc}{\contentsline {paragraph}{SMOG -- the first step}{154}{section*.32}}
\@writefile{toc}{\contentsline {paragraph}{A Fixed-Target ExpeRiment at the LHC, AFTER@LHC}{154}{section*.33}}
\@setckpt{UPGRADE_Merged}{
\setcounter{page}{156}
\setcounter{equation}{79}
\setcounter{enumi}{9}
\setcounter{enumii}{0}
\setcounter{enumiii}{0}
\setcounter{enumiv}{0}
\setcounter{footnote}{29}
\setcounter{mpfootnote}{0}
\setcounter{part}{0}
\setcounter{section}{7}
\setcounter{subsection}{3}
\setcounter{subsubsection}{2}
\setcounter{paragraph}{0}
\setcounter{subparagraph}{0}
\setcounter{figure}{107}
\setcounter{table}{18}
\setcounter{tnote}{0}
\setcounter{fnote}{1}
\setcounter{cnote}{1}
\setcounter{ead}{1}
\setcounter{author}{0}
\setcounter{affn}{42}
\setcounter{NAT@ctr}{0}
\setcounter{parentequation}{0}
\setcounter{Item}{13}
\setcounter{Hfootnote}{28}
\setcounter{bookmark@seq@number}{102}
\setcounter{r@tfl@t}{0}
\setcounter{subfigure}{0}
\setcounter{lofdepth}{1}
\setcounter{subtable}{0}
\setcounter{lotdepth}{1}
\setcounter{linenumber}{1}
\setcounter{LN@truepage}{155}
\setcounter{section@level}{4}
}
