%!PS-Adobe-2.0 EPSF-2.0
%%BoundingBox:  0 0 567 550
%%Title: pPbWithModels.eps: CS
%%Creator: ROOT Version 5.34/11
%%CreationDate: Mon Sep 29 18:25:29 2014
%%EndComments
%%BeginProlog
80 dict begin
/s {stroke} def /l {lineto} def /m {moveto} def /t {translate} def
/r {rotate} def /rl {roll}  def /R {repeat} def
/d {rlineto} def /rm {rmoveto} def /gr {grestore} def /f {eofill} def
/c {setrgbcolor} def /black {0 setgray} def /sd {setdash} def
/cl {closepath} def /sf {scalefont setfont} def /lw {setlinewidth} def
/box {m dup 0 exch d exch 0 d 0 exch neg d cl} def
/NC{systemdict begin initclip end}def/C{NC box clip newpath}def
/bl {box s} def /bf {box f} def /Y { 0 exch d} def /X { 0 d} def 
/K {{pop pop 0 moveto} exch kshow} bind def
/ita {/ang 15 def gsave [1 0 ang dup sin exch cos div 1 0 0] concat} def 
/mp {newpath /y exch def /x exch def} def
/side {[w .77 mul w .23 mul] .385 w mul sd w 0 l currentpoint t -144 r} def
/mr {mp x y w2 0 360 arc} def /m24 {mr s} def /m20 {mr f} def
/mb {mp x y w2 add m w2 neg 0 d 0 w neg d w 0 d 0 w d cl} def
/mt {mp x y w2 add m w2 neg w neg d w 0 d cl} def
/m21 {mb f} def /m25 {mb s} def /m22 {mt f} def /m26{mt s} def
/m23 {mp x y w2 sub m w2 w d w neg 0 d cl f} def
/m27 {mp x y w2 add m w3 neg w2 neg d w3 w2 neg d w3 w2 d cl s} def
/m28 {mp x w2 sub y w2 sub w3 add m w3 0 d  0 w3 neg d w3 0 d 0 w3 d w3 0 d  0 w3 d w3 neg 0 d 0 w3 d w3 neg 0 d 0 w3 neg d w3 neg 0 d cl s } def
/m29 {mp gsave x w2 sub y w2 add w3 sub m currentpoint t 4 {side} repeat cl fill gr} def
/m30 {mp gsave x w2 sub y w2 add w3 sub m currentpoint t 4 {side} repeat cl s gr} def
/m31 {mp x y w2 sub m 0 w d x w2 sub y m w 0 d x w2 sub y w2 add m w w neg d x w2 sub y w2 sub m w w d s} def
/m32 {mp x y w2 sub m w2 w d w neg 0 d cl s} def
/m33 {mp x y w2 add m w3 neg w2 neg d w3 w2 neg d w3 w2 d cl f} def
/m34 {mp x w2 sub y w2 sub w3 add m w3 0 d  0 w3 neg d w3 0 d 0 w3 d w3 0 d  0 w3 d w3 neg 0 d 0 w3 d w3 neg 0 d 0 w3 neg d w3 neg 0 d cl f } def
/m2 {mp x y w2 sub m 0 w d x w2 sub y m w 0 d s} def
/m5 {mp x w2 sub y w2 sub m w w d x w2 sub y w2 add m w w neg d s} def
/reEncode {exch findfont dup length dict begin {1 index /FID eq  {pop pop} {def} ifelse } forall /Encoding exch def currentdict end dup /FontName get exch definefont pop } def [/Times-Bold /Times-Italic /Times-BoldItalic /Helvetica /Helvetica-Oblique
 /Helvetica-Bold /Helvetica-BoldOblique /Courier /Courier-Oblique /Courier-Bold /Courier-BoldOblique /Times-Roman /AvantGarde-Book /AvantGarde-BookOblique /AvantGarde-Demi /AvantGarde-DemiOblique /Bookman-Demi /Bookman-DemiItalic /Bookman-Light
 /Bookman-LightItalic /Helvetica-Narrow /Helvetica-Narrow-Bold /Helvetica-Narrow-BoldOblique /Helvetica-Narrow-Oblique /NewCenturySchlbk-Roman /NewCenturySchlbk-Bold /NewCenturySchlbk-BoldItalic /NewCenturySchlbk-Italic /Palatino-Bold
 /Palatino-BoldItalic /Palatino-Italic /Palatino-Roman ] {ISOLatin1Encoding reEncode } forall
%%EndProlog
%%BeginSetup
%%EndSetup
newpath  gsave  .25 .25 scale  gsave  0 0 t black[  ] 0 sd 3 lw 1 1 1 c 2268 2199 0 0 bf black 1 1 1 c 1814 1825 340 264 bf black 1814 1825 340 264 bl 340 264 m 1814 X s
 gsave  2268 2199 0 0 C 2125.27 74.0711 t 0 r /Helvetica findfont 102.56 sf 0 0 m (\)) show NC gr 
 gsave  2268 2199 0 0 C 2068.29 74.0711 t 0 r /Helvetica-Oblique findfont 102.56 sf 0 0 m (c) show NC gr 
 gsave  2268 2199 0 0 C 1769.16 74.0711 t 0 r /Helvetica findfont 102.56 sf 0 0 m ( \(GeV/) show NC gr 
 gsave  2268 2199 0 0 C 1726.43 22.7911 t 0 r /Helvetica findfont 68.3734 sf 0 0 m (T) show NC gr 
 gsave  2268 2199 0 0 C 1663.75 74.0711 t 0 r /Helvetica-Oblique findfont 102.56 sf 0 0 m (p) show NC gr  340 317 m -53 Y s 405 290 m -26 Y s 470 290 m -26 Y s 535 290 m -26 Y s 599 290 m -26 Y s 664 317 m -53 Y s 729 290 m -26 Y s 794 290 m -26 Y s
 859 290 m -26 Y s 923 290 m -26 Y s 988 317 m -53 Y s 1053 290 m -26 Y s 1118 290 m -26 Y s 1183 290 m -26 Y s 1247 290 m -26 Y s 1312 317 m -53 Y s 1377 290 m -26 Y s 1442 290 m -26 Y s 1506 290 m -26 Y s 1571 290 m -26 Y s 1636 317 m -53 Y s 1701
 290 m -26 Y s 1766 290 m -26 Y s 1830 290 m -26 Y s 1895 290 m -26 Y s 1960 317 m -53 Y s 1960 317 m -53 Y s 2025 290 m -26 Y s 2090 290 m -26 Y s
 gsave  2268 2199 0 0 C 316.227 185.178 t 0 r /Helvetica findfont 82.6178 sf 0 0 m (0) show NC gr 
 gsave  2268 2199 0 0 C 641 185.178 t 0 r /Helvetica findfont 82.6178 sf 0 0 m (5) show NC gr 
 gsave  2268 2199 0 0 C 940.134 185.178 t 0 r /Helvetica findfont 82.6178 sf 0 0 m (10) show NC gr 
 gsave  2268 2199 0 0 C 1264.91 185.178 t 0 r /Helvetica findfont 82.6178 sf 0 0 m (15) show NC gr 
 gsave  2268 2199 0 0 C 1589.68 185.178 t 0 r /Helvetica findfont 82.6178 sf 0 0 m (20) show NC gr 
 gsave  2268 2199 0 0 C 1914.45 185.178 t 0 r /Helvetica findfont 82.6178 sf 0 0 m (25) show NC gr  340 2089 m 1814 X s 340 2037 m 52 Y s 405 2063 m 26 Y s 470 2063 m 26 Y s 535 2063 m 26 Y s 599 2063 m 26 Y s 664 2037 m 52 Y s 729 2063 m 26 Y s 794
 2063 m 26 Y s 859 2063 m 26 Y s 923 2063 m 26 Y s 988 2037 m 52 Y s 1053 2063 m 26 Y s 1118 2063 m 26 Y s 1183 2063 m 26 Y s 1247 2063 m 26 Y s 1312 2037 m 52 Y s 1377 2063 m 26 Y s 1442 2063 m 26 Y s 1506 2063 m 26 Y s 1571 2063 m 26 Y s 1636 2037
 m 52 Y s 1701 2063 m 26 Y s 1766 2063 m 26 Y s 1830 2063 m 26 Y s 1895 2063 m 26 Y s 1960 2037 m 52 Y s 1960 2037 m 52 Y s 2025 2063 m 26 Y s 2090 2063 m 26 Y s 340 264 m 1825 Y s
 gsave  2268 2199 0 0 C 148.142 1968.58 t 90 r /Helvetica findfont 68.3734 sf 0 0 m (pPb) show NC gr 
 gsave  2268 2199 0 0 C 119.653 1888.81 t 90 r /Helvetica-Oblique findfont 102.56 sf 0 0 m (R) show NC gr  397 264 m -57 X s 368 315 m -28 X s 368 365 m -28 X s 368 416 m -28 X s 397 467 m -57 X s 368 518 m -28 X s 368 568 m -28 X s 368 619 m -28 X s
 397 670 m -57 X s 368 721 m -28 X s 368 771 m -28 X s 368 822 m -28 X s 397 873 m -57 X s 368 923 m -28 X s 368 974 m -28 X s 368 1025 m -28 X s 397 1076 m -57 X s 368 1126 m -28 X s 368 1177 m -28 X s 368 1228 m -28 X s 397 1279 m -57 X s 368 1329
 m -28 X s 368 1380 m -28 X s 368 1431 m -28 X s 397 1482 m -57 X s 368 1532 m -28 X s 368 1583 m -28 X s 368 1634 m -28 X s 397 1685 m -57 X s 368 1735 m -28 X s 368 1786 m -28 X s 368 1837 m -28 X s 397 1887 m -57 X s 397 1887 m -57 X s 368 1938 m
 -28 X s 368 1989 m -28 X s 368 2040 m -28 X s
 gsave  2268 2199 0 0 C 284.889 233.609 t 0 r /Helvetica findfont 82.6178 sf 0 0 m (0) show NC gr 
 gsave  2268 2199 0 0 C 213.667 435.88 t 0 r /Helvetica findfont 82.6178 sf 0 0 m (0.2) show NC gr 
 gsave  2268 2199 0 0 C 213.667 641 t 0 r /Helvetica findfont 82.6178 sf 0 0 m (0.4) show NC gr 
 gsave  2268 2199 0 0 C 213.667 843.271 t 0 r /Helvetica findfont 82.6178 sf 0 0 m (0.6) show NC gr 
 gsave  2268 2199 0 0 C 213.667 1045.54 t 0 r /Helvetica findfont 82.6178 sf 0 0 m (0.8) show NC gr 
 gsave  2268 2199 0 0 C 296.285 1247.81 t 0 r /Helvetica findfont 82.6178 sf 0 0 m (1) show NC gr 
 gsave  2268 2199 0 0 C 213.667 1452.93 t 0 r /Helvetica findfont 82.6178 sf 0 0 m (1.2) show NC gr 
 gsave  2268 2199 0 0 C 213.667 1655.21 t 0 r /Helvetica findfont 82.6178 sf 0 0 m (1.4) show NC gr 
 gsave  2268 2199 0 0 C 213.667 1857.48 t 0 r /Helvetica findfont 82.6178 sf 0 0 m (1.6) show NC gr  2154 264 m 1825 Y s 2098 264 m 56 X s 2126 315 m 28 X s 2126 365 m 28 X s 2126 416 m 28 X s 2098 467 m 56 X s 2126 518 m 28 X s 2126 568 m 28 X s
 2126 619 m 28 X s 2098 670 m 56 X s 2126 721 m 28 X s 2126 771 m 28 X s 2126 822 m 28 X s 2098 873 m 56 X s 2126 923 m 28 X s 2126 974 m 28 X s 2126 1025 m 28 X s 2098 1076 m 56 X s 2126 1126 m 28 X s 2126 1177 m 28 X s 2126 1228 m 28 X s 2098 1279
 m 56 X s 2126 1329 m 28 X s 2126 1380 m 28 X s 2126 1431 m 28 X s 2098 1482 m 56 X s 2126 1532 m 28 X s 2126 1583 m 28 X s 2126 1634 m 28 X s 2098 1685 m 56 X s 2126 1735 m 28 X s 2126 1786 m 28 X s 2126 1837 m 28 X s 2098 1887 m 56 X s 2098 1887 m
 56 X s 2126 1938 m 28 X s 2126 1989 m 28 X s 2126 2040 m 28 X s 6 lw 1 1 1 c black 437 907 m 96 Y s 437 1025 m 96 Y s 405 1014 m 21 X s 449 1014 m 21 X s 3 lw /w 27 def /w2 {w 2 div} def /w3 {w 3 div} def 437 1014 m21 6 lw 502 1169 m 65 Y s 502 1257
 m 64 Y s 470 1245 m 21 X s 514 1245 m 21 X s 3 lw 502 1245 m21 6 lw 567 1251 m 48 Y s 567 1322 m 48 Y s 535 1310 m 21 X s 578 1310 m 21 X s 3 lw 567 1310 m21 6 lw 632 1292 m 47 Y s 632 1361 m 47 Y s 599 1350 m 21 X s 643 1350 m 21 X s 3 lw 632 1350
 m21 6 lw 697 1347 m 60 Y s 697 1430 m 59 Y s 664 1418 m 21 X s 708 1418 m 21 X s 3 lw 697 1418 m21 6 lw 761 1222 m 63 Y s 761 1308 m 63 Y s 729 1296 m 21 X s 773 1296 m 21 X s 3 lw 761 1296 m21 6 lw 826 1241 m 90 Y s 826 1354 m 89 Y s 794 1342 m 21
 X s 838 1342 m 21 X s 3 lw 826 1342 m21 6 lw 988 1225 m 54 Y s 988 1302 m 53 Y s 859 1290 m 118 X s 1000 1290 m 118 X s 3 lw 988 1290 m21 6 lw 1247 1048 m 118 Y s 1247 1189 m 118 Y s 1118 1178 m 118 X s 1259 1178 m 118 X s 3 lw 1247 1178 m21 6 lw
 1636 1050 m 133 Y s 1636 1206 m 133 Y s 1377 1194 m 248 X s 1647 1194 m 248 X s 3 lw 1636 1194 m21 6 lw 39 407 418 813 bl 39 373 483 1048 bl 38 374 548 1115 bl 39 360 612 1165 bl 39 380 677 1224 bl 39 331 742 1128 bl 39 356 807 1162 bl 39 333 969
 1122 bl 39 316 1228 1018 bl 39 520 1617 904 bl 0 0 1 c[ 20 20] 0 sd black 0 0 1 c 347 715 m 1 Y 1 1 d 1 1 d 1 1 d 1 1 d 2 2 d 1 2 d 2 3 d 1 3 d 2 3 d 2 4 d 3 4 d 3 6 d 3 6 d 3 7 d 4 8 d 4 10 d 5 10 d 5 13 d 5 14 d 7 17 d 7 19 d 8 21 d 9 24 d 10 27 d
 11 30 d 12 32 d 14 34 d 12 29 d 3 7 d 11 24 d 6 12 d 11 20 d 8 15 d 11 17 d 10 15 d 12 15 d 12 13 d 13 13 d 13 12 d 15 11 d 14 9 d 18 9 d 15 6 d 17 6 d 19 5 d 32 7 d 9 2 d 45 6 d 50 6 d 56 4 d 62 2 d 70 3 d 77 1 d 86 1 d 77 2 d 19 1 d 57 4 d 50 4 d
 119 12 d 133 12 d s black 0 0 1 c 347 758 m 1 Y 1 1 d 1 X 1 2 d 1 1 d 2 1 d 1 2 d 2 2 d 1 3 d 2 3 d 2 3 d 3 4 d 3 5 d 3 5 d 3 6 d 4 7 d 4 9 d 5 9 d 5 11 d 5 12 d 7 14 d 7 17 d 8 18 d 9 21 d 10 23 d 11 26 d 12 28 d 14 31 d 15 32 d 12 24 d 5 9 d 11 20
 d 8 13 d 11 16 d 10 15 d 12 14 d 12 13 d 12 13 d 14 12 d 14 11 d 15 9 d 18 10 d 15 6 d 21 9 d 15 5 d 25 7 d 16 3 d 26 5 d 19 2 d 50 6 d 56 5 d 62 4 d 70 2 d 77 2 d 86 4 d 96 3 d 107 1 d 119 -1 d 133 -1 d s 0 0.6 0 c[ 20 12 4 12] 0 sd 12 lw black 0
 0.6 0 c 405 931 m 6 10 d 2 Y 6 11 d 1 1 d 6 15 d 7 16 d 6 17 d 7 18 d 6 19 d 7 19 d 6 20 d 7 21 d 6 19 d 7 19 d 6 18 d 7 17 d 6 17 d 7 15 d 6 14 d 6 11 d 1 2 d 6 11 d 7 10 d 6 8 d 7 7 d 6 6 d 6 5 d 7 4 d 6 3 d 7 3 d 6 2 d 7 1 d 6 1 d 7 1 d 6 1 d 26
 X 7 -1 d 6 X 7 -1 d 6 -1 d 7 X 6 -1 d 7 -1 d 6 -1 d 7 -1 d 6 -1 d 6 -1 d 7 X 6 -1 d 7 -1 d 6 -1 d 7 -1 d 6 X 7 -1 d 6 -1 d 7 X 6 -1 d 7 -1 d 6 X 7 -1 d 6 -1 d 7 X 6 -1 d 7 -1 d 6 X 7 -1 d 6 X 7 -1 d 6 X 7 -1 d 6 X 6 -1 d 13 X 7 -1 d 6 X 7 -1 d 13 X
 6 -1 d 13 X 7 -1 d 13 X 6 -1 d 13 X 7 -1 d 13 X 6 -1 d 13 X 7 -1 d 12 X 7 -1 d 13 X 6 -1 d 20 X 6 -1 d 20 X 6 -1 d 20 X 6 -1 d 26 X 7 -1 d 32 X 6 -1 d 33 X 6 -1 d 33 X 6 -1 d 33 X 6 -1 d 45 X 7 -1 d 52 X 6 -1 d 52 X 7 -1 d 64 X 7 -1 d 84 X 7 -1 d
 110 X 6 -1 d 104 X 6 -1 d 72 X s 1 0 0 c[  ] 0 sd 6 lw 1 1 1 c black 1 0 0 c 373 1112 m 10 -2 d 12 X 12 -1 d 11 1 d 11 1 d 8 1 d 10 1 d 11 3 d 12 3 d 15 5 d 17 6 d 11 4 d 12 6 d 31 15 d 11 5 d 21 9 d 21 10 d 12 5 d 11 4 d 11 4 d 12 4 d 14 3 d 17 3 d
 21 4 d 48 8 d 6 1 d 43 8 d 43 7 d 48 8 d 42 6 d 51 7 d 38 4 d 44 5 d 39 3 d 51 4 d 52 4 d 100 6 d 63 4 d 64 3 d 65 2 d 70 2 d 59 2 d 65 1 d 132 X 61 -1 d 69 -1 d s[ 80 20] 0 sd 1 1 1 c black 1 0 0 c 373 1225 m 29 6 d 30 5 d 5 1 d 65 11 d 17 3 d 39 8
 d 9 2 d 35 6 d 15 3 d 15 2 d 12 2 d 14 1 d 16 1 d 73 3 d 14 X 29 2 d 32 3 d 63 6 d 45 4 d 27 2 d 26 1 d 5 1 d 324 6 d 64 2 d 64 2 d 65 3 d 70 4 d 59 3 d 65 4 d 65 5 d 67 4 d 62 5 d 67 6 d s 1 1 1 c black 1 0 0 c 373 983 m 9 -3 d 9 -2 d 9 -1 d 9 X 10
 1 d 8 2 d 10 2 d 7 3 d 8 4 d 8 5 d 13 9 d 22 17 d 7 5 d 19 13 d 24 18 d 12 8 d 10 6 d 11 5 d 15 8 d 24 10 d 15 6 d 21 8 d 19 6 d 24 8 d 65 19 d 53 14 d 44 12 d 44 10 d 37 9 d 39 7 d 10 2 d 32 6 d 35 5 d 44 5 d 47 4 d 166 13 d 99 8 d 85 6 d 87 5 d 87
 4 d 97 4 d 83 3 d 87 1 d 23 1 d s black[  ] 0 sd 3 lw 33 103 2083 1227 bf[ 4 8] 0 sd 340 1279 m 1814 X s
 gsave  2268 2199 0 0 C 1168.04 1857.48 t 0 r /Helvetica findfont 45.5822 sf 0 0 m (*+) show NC gr 
 gsave  2268 2199 0 0 C 1079.73 1820.44 t 0 r /Helvetica findfont 71.2222 sf 0 0 m (, D) show NC gr 
 gsave  2268 2199 0 0 C 1054.09 1857.48 t 0 r /Helvetica findfont 45.5822 sf 0 0 m (+) show NC gr 
 gsave  2268 2199 0 0 C 965.774 1820.44 t 0 r /Helvetica findfont 71.2222 sf 0 0 m (, D) show NC gr 
 gsave  2268 2199 0 0 C 940.134 1857.48 t 0 r /Helvetica findfont 45.5822 sf 0 0 m (0) show NC gr 
 gsave  2268 2199 0 0 C 606.814 1820.44 t 0 r /Helvetica findfont 71.2222 sf 0 0 m (Average D) show NC gr [  ] 0 sd 6 lw 457 1842 m 124 X s 3 lw 519 1842 m21 6 lw
 gsave  2268 2199 0 0 C 931.587 1737.82 t 0 r /Helvetica findfont 71.2222 sf 0 0 m (<0.04) show NC gr 
 gsave  2268 2199 0 0 C 848.969 1706.49 t 0 r /Helvetica findfont 45.5822 sf 0 0 m (cms) show NC gr 
 gsave  2268 2199 0 0 C 806.236 1737.82 t 0 r /Helvetica-Oblique findfont 71.2222 sf 0 0 m (y) show NC gr 
 gsave  2268 2199 0 0 C 603.965 1737.82 t 0 r /Helvetica findfont 71.2222 sf 0 0 m (\2550.96<) show NC gr 
 gsave  2268 2199 0 0 C 606.814 581.174 t 0 r /Helvetica findfont 65.5245 sf 0 0 m (SAT \(Fujii\255Watanabe\)) show NC gr  0 0 1 c[ 20 20] 0 sd 457 605 m 124 X s black
 gsave  2268 2199 0 0 C 606.814 472.916 t 0 r /Helvetica findfont 65.5245 sf 0 0 m (pQCD NLO \(MNR\) with CTEQ6M+EPS09 PDF) show NC gr  1 0 0 c[  ] 0 sd 457 495 m 124 X s black
 gsave  2268 2199 0 0 C 1250.66 361.809 t 0 r /Helvetica findfont 65.5245 sf 0 0 m ( ) show NC gr 
 gsave  2268 2199 0 0 C 1225.02 327.622 t 0 r /Helvetica findfont 42.7334 sf 0 0 m () show NC gr 
 gsave  2268 2199 0 0 C 606.814 361.809 t 0 r /Helvetica findfont 65.5245 sf 0 0 m (ELOSS (Vitev et al.)) show NC gr  0 0.6 0 c[ 20 12 4 12] 0 sd 12 lw 457 385 m 124 X s 1 0 0 c[ 80 20] 0 sd 6 lw 457 518 m 125 X s 457 472 m 125 X s black
 gsave  2268 2199 0 0 C 430.182 1960.04 t 0 r /Helvetica findfont 74.0711 sf 0 0 m (ALICE) show NC gr 
 gsave  2268 2199 0 0 C 1680.85 1960.04 t 0 r /Helvetica findfont 74.0711 sf 0 0 m (=5.02 TeV) show NC gr 
 gsave  2268 2199 0 0 C 1612.47 1937.25 t 0 r /Helvetica findfont 48.4311 sf 0 0 m (NN) show NC gr 
 gsave  2268 2199 0 0 C 1572.59 1960.04 t 0 r /Helvetica-Oblique findfont 74.0711 sf 0 0 m (s) show NC gr [  ] 0 sd 1541 2003 m 12 -66 d s 0 lw 1553 1937 m 11 86 d s 1564 2023 m 117 X s
 gsave  2268 2199 0 0 C 1336.13 1960.04 t 0 r /Helvetica findfont 74.0711 sf 0 0 m (p\255Pb, ) show NC gr 
 gr  gr showpage
end
%%EOF
