%!PS-Adobe-2.0 EPSF-2.0
%%BoundingBox:  0 0 567 543
%%Title: : RAB vs pt, plot all
%%Creator: ROOT Version 5.34/21
%%CreationDate: Mon Oct  6 01:56:18 2014
%%EndComments
%%BeginProlog
80 dict begin
/s {stroke} def /l {lineto} def /m {moveto} def /t {translate} def
/r {rotate} def /rl {roll}  def /R {repeat} def
/d {rlineto} def /rm {rmoveto} def /gr {grestore} def /f {eofill} def
/c {setrgbcolor} def /black {0 setgray} def /sd {setdash} def
/cl {closepath} def /sf {scalefont setfont} def /lw {setlinewidth} def
/box {m dup 0 exch d exch 0 d 0 exch neg d cl} def
/NC{systemdict begin initclip end}def/C{NC box clip newpath}def
/bl {box s} def /bf {box f} def /Y { 0 exch d} def /X { 0 d} def 
/K {{pop pop 0 moveto} exch kshow} bind def
/ita {/ang 15 def gsave [1 0 ang dup sin exch cos div 1 0 0] concat} def 
/mp {newpath /y exch def /x exch def} def
/side {[w .77 mul w .23 mul] .385 w mul sd w 0 l currentpoint t -144 r} def
/mr {mp x y w2 0 360 arc} def /m24 {mr s} def /m20 {mr f} def
/mb {mp x y w2 add m w2 neg 0 d 0 w neg d w 0 d 0 w d cl} def
/mt {mp x y w2 add m w2 neg w neg d w 0 d cl} def
/m21 {mb f} def /m25 {mb s} def /m22 {mt f} def /m26{mt s} def
/m23 {mp x y w2 sub m w2 w d w neg 0 d cl f} def
/m27 {mp x y w2 add m w3 neg w2 neg d w3 w2 neg d w3 w2 d cl s} def
/m28 {mp x w2 sub y w2 sub w3 add m w3 0 d  0 w3 neg d w3 0 d 0 w3 d w3 0 d  0 w3 d w3 neg 0 d 0 w3 d w3 neg 0 d 0 w3 neg d w3 neg 0 d cl s } def
/m29 {mp gsave x w2 sub y w2 add w3 sub m currentpoint t 4 {side} repeat cl fill gr} def
/m30 {mp gsave x w2 sub y w2 add w3 sub m currentpoint t 4 {side} repeat cl s gr} def
/m31 {mp x y w2 sub m 0 w d x w2 sub y m w 0 d x w2 sub y w2 add m w w neg d x w2 sub y w2 sub m w w d s} def
/m32 {mp x y w2 sub m w2 w d w neg 0 d cl s} def
/m33 {mp x y w2 add m w3 neg w2 neg d w3 w2 neg d w3 w2 d cl f} def
/m34 {mp x w2 sub y w2 sub w3 add m w3 0 d  0 w3 neg d w3 0 d 0 w3 d w3 0 d  0 w3 d w3 neg 0 d 0 w3 d w3 neg 0 d 0 w3 neg d w3 neg 0 d cl f } def
/m2 {mp x y w2 sub m 0 w d x w2 sub y m w 0 d s} def
/m5 {mp x w2 sub y w2 sub m w w d x w2 sub y w2 add m w w neg d s} def
/reEncode {exch findfont dup length dict begin {1 index /FID eq  {pop pop} {def} ifelse } forall /Encoding exch def currentdict end dup /FontName get exch definefont pop } def [/Times-Bold /Times-Italic /Times-BoldItalic /Helvetica /Helvetica-Oblique
 /Helvetica-Bold /Helvetica-BoldOblique /Courier /Courier-Oblique /Courier-Bold /Courier-BoldOblique /Times-Roman /AvantGarde-Book /AvantGarde-BookOblique /AvantGarde-Demi /AvantGarde-DemiOblique /Bookman-Demi /Bookman-DemiItalic /Bookman-Light
 /Bookman-LightItalic /Helvetica-Narrow /Helvetica-Narrow-Bold /Helvetica-Narrow-BoldOblique /Helvetica-Narrow-Oblique /NewCenturySchlbk-Roman /NewCenturySchlbk-Bold /NewCenturySchlbk-BoldItalic /NewCenturySchlbk-Italic /Palatino-Bold
 /Palatino-BoldItalic /Palatino-Italic /Palatino-Roman ] {ISOLatin1Encoding reEncode } forall
%%EndProlog
%%BeginSetup
%%EndSetup
newpath  gsave  .25 .25 scale  gsave  0 0 t black[  ] 0 sd 6 lw 0.999 0.999 0.999 c 2268 2172 0 0 bf black 3 lw 0.999 0.999 0.999 c 1951 1880 259 217 bf black 1951 1880 259 217 bl 0.999 0.999 0.999 c 1951 1880 259 217 bf black 1951 1880 259 217 bl 6
 lw 259 217 m 1951 X s
 gsave  2268 2172 0 0 C 2159.73 45.6866 t 0 r /Helvetica findfont 99.6798 sf 0 0 m (y) show NC gr  259 273 m -56 Y s 298 245 m -28 Y s 337 245 m -28 Y s 376 245 m -28 Y s 415 245 m -28 Y s 454 273 m -56 Y s 493 245 m -28 Y s 532 245 m -28 Y s 571 245
 m -28 Y s 610 245 m -28 Y s 649 273 m -56 Y s 688 245 m -28 Y s 727 245 m -28 Y s 766 245 m -28 Y s 805 245 m -28 Y s 844 273 m -56 Y s 883 245 m -28 Y s 922 245 m -28 Y s 961 245 m -28 Y s 1000 245 m -28 Y s 1039 273 m -56 Y s 1078 245 m -28 Y s
 1117 245 m -28 Y s 1156 245 m -28 Y s 1195 245 m -28 Y s 1234 273 m -56 Y s 1273 245 m -28 Y s 1312 245 m -28 Y s 1351 245 m -28 Y s 1390 245 m -28 Y s 1429 273 m -56 Y s 1468 245 m -28 Y s 1507 245 m -28 Y s 1546 245 m -28 Y s 1585 245 m -28 Y s
 1624 273 m -56 Y s 1663 245 m -28 Y s 1702 245 m -28 Y s 1741 245 m -28 Y s 1780 245 m -28 Y s 1819 273 m -56 Y s 1858 245 m -28 Y s 1897 245 m -28 Y s 1936 245 m -28 Y s 1975 245 m -28 Y s 2014 273 m -56 Y s 2053 245 m -28 Y s 2093 245 m -28 Y s
 2132 245 m -28 Y s 2171 245 m -28 Y s 2210 273 m -56 Y s
 gsave  2268 2172 0 0 C 220.126 120.446 t 0 r /Helvetica findfont 91.3732 sf 0 0 m (\2555) show NC gr 
 gsave  2268 2172 0 0 C 415.333 120.446 t 0 r /Helvetica findfont 91.3732 sf 0 0 m (\2554) show NC gr 
 gsave  2268 2172 0 0 C 610.539 120.446 t 0 r /Helvetica findfont 91.3732 sf 0 0 m (\2553) show NC gr 
 gsave  2268 2172 0 0 C 805.745 120.446 t 0 r /Helvetica findfont 91.3732 sf 0 0 m (\2552) show NC gr 
 gsave  2268 2172 0 0 C 1000.95 120.446 t 0 r /Helvetica findfont 91.3732 sf 0 0 m (\2551) show NC gr 
 gsave  2268 2172 0 0 C 1208.62 120.446 t 0 r /Helvetica findfont 91.3732 sf 0 0 m (0) show NC gr 
 gsave  2268 2172 0 0 C 1403.82 120.446 t 0 r /Helvetica findfont 91.3732 sf 0 0 m (1) show NC gr 
 gsave  2268 2172 0 0 C 1599.03 120.446 t 0 r /Helvetica findfont 91.3732 sf 0 0 m (2) show NC gr 
 gsave  2268 2172 0 0 C 1794.24 120.446 t 0 r /Helvetica findfont 91.3732 sf 0 0 m (3) show NC gr 
 gsave  2268 2172 0 0 C 1989.44 120.446 t 0 r /Helvetica findfont 91.3732 sf 0 0 m (4) show NC gr 
 gsave  2268 2172 0 0 C 2184.65 120.446 t 0 r /Helvetica findfont 91.3732 sf 0 0 m (5) show NC gr  259 2097 m 1951 X s 259 2041 m 56 Y s 298 2069 m 28 Y s 337 2069 m 28 Y s 376 2069 m 28 Y s 415 2069 m 28 Y s 454 2041 m 56 Y s 493 2069 m 28 Y s 532
 2069 m 28 Y s 571 2069 m 28 Y s 610 2069 m 28 Y s 649 2041 m 56 Y s 688 2069 m 28 Y s 727 2069 m 28 Y s 766 2069 m 28 Y s 805 2069 m 28 Y s 844 2041 m 56 Y s 883 2069 m 28 Y s 922 2069 m 28 Y s 961 2069 m 28 Y s 1000 2069 m 28 Y s 1039 2041 m 56 Y s
 1078 2069 m 28 Y s 1117 2069 m 28 Y s 1156 2069 m 28 Y s 1195 2069 m 28 Y s 1234 2041 m 56 Y s 1273 2069 m 28 Y s 1312 2069 m 28 Y s 1351 2069 m 28 Y s 1390 2069 m 28 Y s 1429 2041 m 56 Y s 1468 2069 m 28 Y s 1507 2069 m 28 Y s 1546 2069 m 28 Y s
 1585 2069 m 28 Y s 1624 2041 m 56 Y s 1663 2069 m 28 Y s 1702 2069 m 28 Y s 1741 2069 m 28 Y s 1780 2069 m 28 Y s 1819 2041 m 56 Y s 1858 2069 m 28 Y s 1897 2069 m 28 Y s 1936 2069 m 28 Y s 1975 2069 m 28 Y s 2014 2041 m 56 Y s 2053 2069 m 28 Y s
 2093 2069 m 28 Y s 2132 2069 m 28 Y s 2171 2069 m 28 Y s 2210 2041 m 56 Y s 259 217 m 1880 Y s
 gsave  2268 2172 0 0 C 99.6798 917.885 t 90 r /Helvetica findfont 99.6798 sf 0 0 m (Nuclear modification factor) show NC gr  317 217 m -58 X s 288 264 m -29 X s 288 311 m -29 X s 288 358 m -29 X s 317 405 m -58 X s 288 452 m -29 X s 288 499 m -29 X
 s 288 546 m -29 X s 317 593 m -58 X s 288 640 m -29 X s 288 687 m -29 X s 288 734 m -29 X s 317 781 m -58 X s 288 828 m -29 X s 288 875 m -29 X s 288 922 m -29 X s 317 969 m -58 X s 288 1016 m -29 X s 288 1063 m -29 X s 288 1110 m -29 X s 317 1157 m
 -58 X s 288 1204 m -29 X s 288 1251 m -29 X s 288 1298 m -29 X s 317 1345 m -58 X s 288 1392 m -29 X s 288 1439 m -29 X s 288 1486 m -29 X s 317 1533 m -58 X s 288 1580 m -29 X s 288 1627 m -29 X s 288 1674 m -29 X s 317 1721 m -58 X s 288 1768 m
 -29 X s 288 1815 m -29 X s 288 1862 m -29 X s 317 1909 m -58 X s 288 1956 m -29 X s 288 2003 m -29 X s 288 2050 m -29 X s 317 2097 m -58 X s
 gsave  2268 2172 0 0 C 186.9 186.9 t 0 r /Helvetica findfont 91.3732 sf 0 0 m (0) show NC gr 
 gsave  2268 2172 0 0 C 112.14 373.799 t 0 r /Helvetica findfont 91.3732 sf 0 0 m (0.2) show NC gr 
 gsave  2268 2172 0 0 C 112.14 560.699 t 0 r /Helvetica findfont 91.3732 sf 0 0 m (0.4) show NC gr 
 gsave  2268 2172 0 0 C 112.14 751.752 t 0 r /Helvetica findfont 91.3732 sf 0 0 m (0.6) show NC gr 
 gsave  2268 2172 0 0 C 112.14 938.652 t 0 r /Helvetica findfont 91.3732 sf 0 0 m (0.8) show NC gr 
 gsave  2268 2172 0 0 C 186.9 1125.55 t 0 r /Helvetica findfont 91.3732 sf 0 0 m (1) show NC gr 
 gsave  2268 2172 0 0 C 112.14 1312.45 t 0 r /Helvetica findfont 91.3732 sf 0 0 m (1.2) show NC gr 
 gsave  2268 2172 0 0 C 112.14 1503.5 t 0 r /Helvetica findfont 91.3732 sf 0 0 m (1.4) show NC gr 
 gsave  2268 2172 0 0 C 112.14 1690.4 t 0 r /Helvetica findfont 91.3732 sf 0 0 m (1.6) show NC gr 
 gsave  2268 2172 0 0 C 112.14 1877.3 t 0 r /Helvetica findfont 91.3732 sf 0 0 m (1.8) show NC gr 
 gsave  2268 2172 0 0 C 186.9 2064.2 t 0 r /Helvetica findfont 91.3732 sf 0 0 m (2) show NC gr  2210 217 m 1880 Y s 2151 217 m 59 X s 2180 264 m 30 X s 2180 311 m 30 X s 2180 358 m 30 X s 2151 405 m 59 X s 2180 452 m 30 X s 2180 499 m 30 X s 2180 546
 m 30 X s 2151 593 m 59 X s 2180 640 m 30 X s 2180 687 m 30 X s 2180 734 m 30 X s 2151 781 m 59 X s 2180 828 m 30 X s 2180 875 m 30 X s 2180 922 m 30 X s 2151 969 m 59 X s 2180 1016 m 30 X s 2180 1063 m 30 X s 2180 1110 m 30 X s 2151 1157 m 59 X s
 2180 1204 m 30 X s 2180 1251 m 30 X s 2180 1298 m 30 X s 2151 1345 m 59 X s 2180 1392 m 30 X s 2180 1439 m 30 X s 2180 1486 m 30 X s 2151 1533 m 59 X s 2180 1580 m 30 X s 2180 1627 m 30 X s 2180 1674 m 30 X s 2151 1721 m 59 X s 2180 1768 m 30 X s
 2180 1815 m 30 X s 2180 1862 m 30 X s 2151 1909 m 59 X s 2180 1956 m 30 X s 2180 2003 m 30 X s 2180 2050 m 30 X s 2151 2097 m 59 X s[ 12 12] 0 sd 259 1157 m 1951 X s 0.6 0.6 0.6 c[  ] 0 sd 3 lw 1 lw << /PatternType 1 /PaintType 2 /TilingType 1 /BBox
 [ 0 0 100 100 ] /XStep 98 /YStep 4 /PaintProc { begin gsave [1] 0 sd 2 4 m 99 4 l s 1 3 m 98 3 l s 2 2 m 99 2 l s 1 1 m 98 1 l s gr end } >> [ 4.0 0 0 4.0 0 0 ] makepattern /P01 exch def /cs {[/Pattern /DeviceRGB] setcolorspace} def /FA {f
 [/DeviceRGB] setcolorspace} def cs 0.6 0.6 0.6 P01 setcolor 580 1063 m 39 X 151 Y -39 X FA 6 lw 0.6 0.6 0.6 c 3 lw cs 0.6 0.6 0.6 P01 setcolor 1849 932 m 39 X 131 Y -39 X FA 6 lw 0.6 0.6 0.6 c black 58 131 571 1073 bl 58 75 1839 960 bl 583 1138 m
 -129 X s 454 1130 m 17 Y s 617 1138 m 129 X s 746 1130 m 17 Y s 600 1155 m 40 Y s 592 1195 m 16 X s 600 1122 m -40 Y s 592 1082 m 16 X s 1852 997 m -130 X s 1722 989 m 17 Y s 1885 997 m 129 X s 2014 989 m 17 Y s 1868 1014 m 2 Y s 1860 1016 m 16 X s
 1868 981 m -2 Y s 1860 979 m 16 X s 3 lw /w 33 def /w2 {w 2 div} def /w3 {w 3 div} def 600 1138 1868 997 2 { m20} R 6 lw
 gsave  2268 2172 0 0 C 1208.62 1885.61 t 0 r /Helvetica findfont 99.6798 sf 0 0 m ( = 5.02 TeV) show NC gr 
 gsave  2268 2172 0 0 C 1121.4 1856.54 t 0 r /Helvetica findfont 66.4532 sf 0 0 m (NN) show NC gr 
 gsave  2268 2172 0 0 C 1071.56 1885.61 t 0 r /Helvetica findfont 99.6798 sf 0 0 m (s) show NC gr  1030 1940 m 17 -83 d s 0 lw 1047 1857 m 12 112 d s 1059 1969 m 150 X s
 gsave  2268 2172 0 0 C 444.406 1885.61 t 0 r /Helvetica findfont 99.6798 sf 0 0 m (LHCb, p\255Pb, ) show NC gr  1 1 1 c 3 lw 453 183 428 1657 bf black
 gsave  2268 2172 0 0 C 1308.3 1740.24 t 0 r /Helvetica-Oblique findfont 83.0665 sf 0 0 m (c) show NC gr 
 gsave  2268 2172 0 0 C 992.645 1740.24 t 0 r /Helvetica findfont 83.0665 sf 0 0 m (<14 GeV/) show NC gr 
 gsave  2268 2172 0 0 C 963.572 1698.71 t 0 r /Helvetica findfont 53.9932 sf 0 0 m (T) show NC gr 
 gsave  2268 2172 0 0 C 922.039 1740.24 t 0 r /Helvetica-Oblique findfont 83.0665 sf 0 0 m (p) show NC gr 
 gsave  2268 2172 0 0 C 647.919 1740.24 t 0 r /Helvetica findfont 83.0665 sf 0 0 m ( from b, ) show NC gr 
 gsave  2268 2172 0 0 C 598.079 1740.24 t 0 r /Symbol findfont 83.0665 sf 0 0 m (y) show NC gr 
 gsave  2268 2172 0 0 C 539.932 1740.24 t 0 r /Helvetica findfont 83.0665 sf 0 0 m (J/) show NC gr  6 lw 445 1749 m 79 X s 484 1694 m 109 Y s 3 lw 484 1749 m20 6 lw
 gr  gr showpage
end
%%EOF
