%!PS-Adobe-2.0 EPSF-2.0
%%BoundingBox:  0 0 567 543
%%Title: /Users/conesa/work/papers/saporefiles/myfigs/nonpromptJpsi_RfbVspt_LHCb.eps: RAB vs pt, plot all
%%Creator: ROOT Version 5.34/25
%%CreationDate: Mon Feb 23 14:57:38 2015
%%EndComments
%%BeginProlog
80 dict begin
/s {stroke} def /l {lineto} def /m {moveto} def /t {translate} def
/r {rotate} def /rl {roll}  def /R {repeat} def
/d {rlineto} def /rm {rmoveto} def /gr {grestore} def /f {eofill} def
/c {setrgbcolor} def /black {0 setgray} def /sd {setdash} def
/cl {closepath} def /sf {scalefont setfont} def /lw {setlinewidth} def
/box {m dup 0 exch d exch 0 d 0 exch neg d cl} def
/NC{systemdict begin initclip end}def/C{NC box clip newpath}def
/bl {box s} def /bf {box f} def /Y { 0 exch d} def /X { 0 d} def 
/K {{pop pop 0 moveto} exch kshow} bind def
/ita {/ang 15 def gsave [1 0 ang dup sin exch cos div 1 0 0] concat} def 
/mp {newpath /y exch def /x exch def} def
/side {[w .77 mul w .23 mul] .385 w mul sd w 0 l currentpoint t -144 r} def
/mr {mp x y w2 0 360 arc} def /m24 {mr s} def /m20 {mr f} def
/mb {mp x y w2 add m w2 neg 0 d 0 w neg d w 0 d 0 w d cl} def
/mt {mp x y w2 add m w2 neg w neg d w 0 d cl} def
/m21 {mb f} def /m25 {mb s} def /m22 {mt f} def /m26{mt s} def
/m23 {mp x y w2 sub m w2 w d w neg 0 d cl f} def
/m27 {mp x y w2 add m w3 neg w2 neg d w3 w2 neg d w3 w2 d cl s} def
/m28 {mp x w2 sub y w2 sub w3 add m w3 0 d  0 w3 neg d w3 0 d 0 w3 d w3 0 d  0 w3 d w3 neg 0 d 0 w3 d w3 neg 0 d 0 w3 neg d w3 neg 0 d cl s } def
/m29 {mp gsave x w2 sub y w2 add w3 sub m currentpoint t 4 {side} repeat cl fill gr} def
/m30 {mp gsave x w2 sub y w2 add w3 sub m currentpoint t 4 {side} repeat cl s gr} def
/m31 {mp x y w2 sub m 0 w d x w2 sub y m w 0 d x w2 sub y w2 add m w w neg d x w2 sub y w2 sub m w w d s} def
/m32 {mp x y w2 sub m w2 w d w neg 0 d cl s} def
/m33 {mp x y w2 add m w3 neg w2 neg d w3 w2 neg d w3 w2 d cl f} def
/m34 {mp x w2 sub y w2 sub w3 add m w3 0 d  0 w3 neg d w3 0 d 0 w3 d w3 0 d  0 w3 d w3 neg 0 d 0 w3 d w3 neg 0 d 0 w3 neg d w3 neg 0 d cl f } def
/m2 {mp x y w2 sub m 0 w d x w2 sub y m w 0 d s} def
/m5 {mp x w2 sub y w2 sub m w w d x w2 sub y w2 add m w w neg d s} def
/reEncode {exch findfont dup length dict begin {1 index /FID eq  {pop pop} {def} ifelse } forall /Encoding exch def currentdict end dup /FontName get exch definefont pop } def [/Times-Bold /Times-Italic /Times-BoldItalic /Helvetica /Helvetica-Oblique
 /Helvetica-Bold /Helvetica-BoldOblique /Courier /Courier-Oblique /Courier-Bold /Courier-BoldOblique /Times-Roman /AvantGarde-Book /AvantGarde-BookOblique /AvantGarde-Demi /AvantGarde-DemiOblique /Bookman-Demi /Bookman-DemiItalic /Bookman-Light
 /Bookman-LightItalic /Helvetica-Narrow /Helvetica-Narrow-Bold /Helvetica-Narrow-BoldOblique /Helvetica-Narrow-Oblique /NewCenturySchlbk-Roman /NewCenturySchlbk-Bold /NewCenturySchlbk-BoldItalic /NewCenturySchlbk-Italic /Palatino-Bold
 /Palatino-BoldItalic /Palatino-Italic /Palatino-Roman ] {ISOLatin1Encoding reEncode } forall
%%EndProlog
%%BeginSetup
%%EndSetup
newpath  gsave  .25 .25 scale  gsave  0 0 t black[  ] 0 sd 6 lw 0.999 0.999 0.999 c 2268 2172 0 0 bf black 3 lw 0.999 0.999 0.999 c 1951 1880 259 217 bf black 1951 1880 259 217 bl 0.999 0.999 0.999 c 1951 1880 259 217 bf black 1951 1880 259 217 bl 6
 lw 259 217 m 1951 X s
 gsave  2268 2172 0 0 C 2180.5 49.8399 t 0 r /Helvetica findfont 99.6798 sf 0 0 m (\)) show NC gr 
 gsave  2268 2172 0 0 C 2122.35 49.8399 t 0 r /Helvetica-Oblique findfont 99.6798 sf 0 0 m (c) show NC gr 
 gsave  2268 2172 0 0 C 1831.62 49.8399 t 0 r /Helvetica findfont 99.6798 sf 0 0 m ( \(GeV/) show NC gr 
 gsave  2268 2172 0 0 C 1790.08 -4.15333 t 0 r /Helvetica findfont 66.4532 sf 0 0 m (T) show NC gr 
 gsave  2268 2172 0 0 C 1727.78 49.8399 t 0 r /Helvetica-Oblique findfont 99.6798 sf 0 0 m (p) show NC gr  259 273 m -56 Y s 324 245 m -28 Y s 389 245 m -28 Y s 454 245 m -28 Y s 519 273 m -56 Y s 584 245 m -28 Y s 649 245 m -28 Y s 714 245 m -28 Y s
 779 273 m -56 Y s 844 245 m -28 Y s 909 245 m -28 Y s 974 245 m -28 Y s 1039 273 m -56 Y s 1104 245 m -28 Y s 1169 245 m -28 Y s 1234 245 m -28 Y s 1299 273 m -56 Y s 1364 245 m -28 Y s 1429 245 m -28 Y s 1494 245 m -28 Y s 1559 273 m -56 Y s 1624
 245 m -28 Y s 1689 245 m -28 Y s 1754 245 m -28 Y s 1819 273 m -56 Y s 1884 245 m -28 Y s 1949 245 m -28 Y s 2014 245 m -28 Y s 2079 273 m -56 Y s 2079 273 m -56 Y s 2145 245 m -28 Y s 2210 245 m -28 Y s
 gsave  2268 2172 0 0 C 232.586 120.446 t 0 r /Helvetica findfont 91.3732 sf 0 0 m (0) show NC gr 
 gsave  2268 2172 0 0 C 490.093 120.446 t 0 r /Helvetica findfont 91.3732 sf 0 0 m (2) show NC gr 
 gsave  2268 2172 0 0 C 751.752 120.446 t 0 r /Helvetica findfont 91.3732 sf 0 0 m (4) show NC gr 
 gsave  2268 2172 0 0 C 1013.41 120.446 t 0 r /Helvetica findfont 91.3732 sf 0 0 m (6) show NC gr 
 gsave  2268 2172 0 0 C 1270.92 120.446 t 0 r /Helvetica findfont 91.3732 sf 0 0 m (8) show NC gr 
 gsave  2268 2172 0 0 C 1507.66 120.446 t 0 r /Helvetica findfont 91.3732 sf 0 0 m (10) show NC gr 
 gsave  2268 2172 0 0 C 1769.32 120.446 t 0 r /Helvetica findfont 91.3732 sf 0 0 m (12) show NC gr 
 gsave  2268 2172 0 0 C 2026.82 120.446 t 0 r /Helvetica findfont 91.3732 sf 0 0 m (14) show NC gr  259 2097 m 1951 X s 259 2041 m 56 Y s 324 2069 m 28 Y s 389 2069 m 28 Y s 454 2069 m 28 Y s 519 2041 m 56 Y s 584 2069 m 28 Y s 649 2069 m 28 Y s 714
 2069 m 28 Y s 779 2041 m 56 Y s 844 2069 m 28 Y s 909 2069 m 28 Y s 974 2069 m 28 Y s 1039 2041 m 56 Y s 1104 2069 m 28 Y s 1169 2069 m 28 Y s 1234 2069 m 28 Y s 1299 2041 m 56 Y s 1364 2069 m 28 Y s 1429 2069 m 28 Y s 1494 2069 m 28 Y s 1559 2041 m
 56 Y s 1624 2069 m 28 Y s 1689 2069 m 28 Y s 1754 2069 m 28 Y s 1819 2041 m 56 Y s 1884 2069 m 28 Y s 1949 2069 m 28 Y s 2014 2069 m 28 Y s 2079 2041 m 56 Y s 2079 2041 m 56 Y s 2145 2069 m 28 Y s 2210 2069 m 28 Y s 259 217 m 1880 Y s
 gsave  2268 2172 0 0 C 103.833 946.959 t 90 r /Helvetica findfont 99.6798 sf 0 0 m (Forward to backward ratio) show NC gr  317 217 m -58 X s 288 264 m -29 X s 288 311 m -29 X s 288 358 m -29 X s 317 405 m -58 X s 288 452 m -29 X s 288 499 m -29 X s
 288 546 m -29 X s 317 593 m -58 X s 288 640 m -29 X s 288 687 m -29 X s 288 734 m -29 X s 317 781 m -58 X s 288 828 m -29 X s 288 875 m -29 X s 288 922 m -29 X s 317 969 m -58 X s 288 1016 m -29 X s 288 1063 m -29 X s 288 1110 m -29 X s 317 1157 m
 -58 X s 288 1204 m -29 X s 288 1251 m -29 X s 288 1298 m -29 X s 317 1345 m -58 X s 288 1392 m -29 X s 288 1439 m -29 X s 288 1486 m -29 X s 317 1533 m -58 X s 288 1580 m -29 X s 288 1627 m -29 X s 288 1674 m -29 X s 317 1721 m -58 X s 288 1768 m
 -29 X s 288 1815 m -29 X s 288 1862 m -29 X s 317 1909 m -58 X s 288 1956 m -29 X s 288 2003 m -29 X s 288 2050 m -29 X s 317 2097 m -58 X s
 gsave  2268 2172 0 0 C 182.746 186.9 t 0 r /Helvetica findfont 91.3732 sf 0 0 m (0) show NC gr 
 gsave  2268 2172 0 0 C 107.987 373.799 t 0 r /Helvetica findfont 91.3732 sf 0 0 m (0.2) show NC gr 
 gsave  2268 2172 0 0 C 107.987 560.699 t 0 r /Helvetica findfont 91.3732 sf 0 0 m (0.4) show NC gr 
 gsave  2268 2172 0 0 C 107.987 751.752 t 0 r /Helvetica findfont 91.3732 sf 0 0 m (0.6) show NC gr 
 gsave  2268 2172 0 0 C 107.987 938.652 t 0 r /Helvetica findfont 91.3732 sf 0 0 m (0.8) show NC gr 
 gsave  2268 2172 0 0 C 199.36 1121.4 t 0 r /Helvetica findfont 91.3732 sf 0 0 m (1) show NC gr 
 gsave  2268 2172 0 0 C 107.987 1308.3 t 0 r /Helvetica findfont 91.3732 sf 0 0 m (1.2) show NC gr 
 gsave  2268 2172 0 0 C 107.987 1499.35 t 0 r /Helvetica findfont 91.3732 sf 0 0 m (1.4) show NC gr 
 gsave  2268 2172 0 0 C 107.987 1690.4 t 0 r /Helvetica findfont 91.3732 sf 0 0 m (1.6) show NC gr 
 gsave  2268 2172 0 0 C 107.987 1877.3 t 0 r /Helvetica findfont 91.3732 sf 0 0 m (1.8) show NC gr 
 gsave  2268 2172 0 0 C 182.746 2060.05 t 0 r /Helvetica findfont 91.3732 sf 0 0 m (2) show NC gr  2210 217 m 1880 Y s 2151 217 m 59 X s 2180 264 m 30 X s 2180 311 m 30 X s 2180 358 m 30 X s 2151 405 m 59 X s 2180 452 m 30 X s 2180 499 m 30 X s 2180
 546 m 30 X s 2151 593 m 59 X s 2180 640 m 30 X s 2180 687 m 30 X s 2180 734 m 30 X s 2151 781 m 59 X s 2180 828 m 30 X s 2180 875 m 30 X s 2180 922 m 30 X s 2151 969 m 59 X s 2180 1016 m 30 X s 2180 1063 m 30 X s 2180 1110 m 30 X s 2151 1157 m 59 X
 s 2180 1204 m 30 X s 2180 1251 m 30 X s 2180 1298 m 30 X s 2151 1345 m 59 X s 2180 1392 m 30 X s 2180 1439 m 30 X s 2180 1486 m 30 X s 2151 1533 m 59 X s 2180 1580 m 30 X s 2180 1627 m 30 X s 2180 1674 m 30 X s 2151 1721 m 59 X s 2180 1768 m 30 X s
 2180 1815 m 30 X s 2180 1862 m 30 X s 2151 1909 m 59 X s 2180 1956 m 30 X s 2180 2003 m 30 X s 2180 2050 m 30 X s 2151 2097 m 59 X s[ 12 12] 0 sd 259 1157 m 1951 X s 0.6 0.6 0.6 c[  ] 0 sd 0.2 0.2 0.2 c 3 lw 1 lw << /PatternType 1 /PaintType 2
 /TilingType 1 /BBox [ 0 0 98 4 ] /XStep 98 /YStep 4 /PaintProc { begin gsave [1] 0 sd 2 4 m 99 4 l s 1 3 m 98 3 l s 2 2 m 99 2 l s 1 1 m 98 1 l s gr end } >> [ 4.0 0 0 4.0 0 0 ] makepattern /P01 exch def /cs {[/Pattern /DeviceRGB] setcolorspace} def
 /FA {f [/DeviceRGB] setcolorspace} def cs 0.2 0.2 0.2 P01 setcolor 2144 1114 m 65 X 90 Y -65 X FA 6 lw 0.6 0.6 0.6 c 0.2 0.2 0.2 c black 39 94 304 960 bl 39 282 434 988 bl 39 263 564 885 bl 39 207 694 1016 bl 39 226 824 941 bl 39 76 954 903 bl 39
 263 1084 941 bl 39 169 1247 1148 bl 39 75 1702 875 bl 307 1007 m -48 X s 259 999 m 16 Y s 340 1007 m 49 X s 389 999 m 16 Y s 324 1023 m 153 Y s 315 1176 m 17 X s 324 990 m -152 Y s 315 838 m 17 X s 437 1129 m -48 X s 389 1121 m 16 Y s 470 1129 m 49
 X s 519 1121 m 16 Y s 454 1146 m 124 Y s 445 1270 m 17 X s 454 1112 m -124 Y s 445 988 m 17 X s 567 1016 m -48 X s 519 1008 m 17 Y s 600 1016 m 49 X s 649 1008 m 17 Y s 584 1033 m 96 Y s 575 1129 m 17 X s 584 1000 m -97 Y s 575 903 m 17 X s 697 1120
 m -48 X s 649 1111 m 17 Y s 730 1120 m 49 X s 779 1111 m 17 Y s 714 1136 m 115 Y s 705 1251 m 17 X s 714 1103 m -115 Y s 705 988 m 17 X s 827 1054 m -48 X s 779 1046 m 16 Y s 860 1054 m 49 X s 909 1046 m 16 Y s 844 1070 m 134 Y s 836 1204 m 16 X s
 844 1037 m -134 Y s 836 903 m 16 X s 957 941 m -48 X s 909 933 m 16 Y s 991 941 m 48 X s 1039 933 m 16 Y s 974 958 m 133 Y s 966 1091 m 16 X s 974 924 m -133 Y s 966 791 m 16 X s 1087 1073 m -48 X s 1039 1064 m 17 Y s 1121 1073 m 48 X s 1169 1064 m
 17 Y s 1104 1089 m 190 Y s 1096 1279 m 16 X s 1104 1056 m -190 Y s 1096 866 m 16 X s 1250 1232 m -48 X s 1202 1224 m 17 Y s 1283 1232 m 49 X s 1332 1224 m 17 Y s 1267 1249 m 237 Y s 1258 1486 m 17 X s 1267 1216 m -237 Y s 1258 979 m 17 X s 1705 913
 m -341 X s 1364 905 m 16 Y s 1738 913 m 341 X s 2079 905 m 16 Y s 1722 929 m 162 Y s 1714 1091 m 16 X s 1722 896 m -162 Y s 1714 734 m 16 X s 3 lw /w 33 def /w2 {w 2 div} def /w3 {w 3 div} def 324 1007 454 1129 584 1016 714 1120 844 1054 974 941
 1104 1073 1267 1232 1722 913 9 { m20} R 6 lw
 gsave  2268 2172 0 0 C 1221.08 1910.53 t 0 r /Helvetica findfont 99.6798 sf 0 0 m ( = 5.02 TeV) show NC gr 
 gsave  2268 2172 0 0 C 1129.7 1877.3 t 0 r /Helvetica findfont 66.4532 sf 0 0 m (NN) show NC gr 
 gsave  2268 2172 0 0 C 1079.86 1910.53 t 0 r /Helvetica findfont 99.6798 sf 0 0 m (s) show NC gr  1038 1965 m 13 -88 d s 0 lw 1051 1877 m 16 117 d s 1067 1994 m 154 X s
 gsave  2268 2172 0 0 C 452.713 1910.53 t 0 r /Helvetica findfont 99.6798 sf 0 0 m (LHCb, p\255Pb, ) show NC gr  1 1 1 c 3 lw 452 224 449 1670 bf black
 gsave  2268 2172 0 0 C 1225.23 1756.86 t 0 r /Helvetica findfont 83.0665 sf 0 0 m (|<4.0) show NC gr 
 gsave  2268 2172 0 0 C 1175.39 1756.86 t 0 r /Helvetica-Oblique findfont 83.0665 sf 0 0 m (y) show NC gr 
 gsave  2268 2172 0 0 C 689.452 1756.86 t 0 r /Helvetica findfont 83.0665 sf 0 0 m ( from b, 2.5<|) show NC gr 
 gsave  2268 2172 0 0 C 627.152 1756.86 t 0 r /Symbol findfont 83.0665 sf 0 0 m (y) show NC gr 
 gsave  2268 2172 0 0 C 560.699 1756.86 t 0 r /Helvetica findfont 83.0665 sf 0 0 m (J/) show NC gr  6 lw 466 1782 m 79 X s 505 1714 m 135 Y s 3 lw 505 1782 m20 6 lw
 gr  gr showpage
end
%%EOF
