%!PS-Adobe-1.0
%%Creator: Unified Graphics System
%%Pages: (atend)
%%DocumentFonts: Helvetica
%%BoundingBox:   73  258  422  591
%%EndComments
/Sw{setlinewidth}def
/Sg{setgray}def
/Sd{setdash}def
/P {newpath
    moveto
0 0 rlineto
    stroke}def
/M {moveto}def
/D {lineto}def
/N {newpath}def
/S {stroke}def
/T {/Helvetica findfont
    exch
    scalefont
    setfont}def
/R {rotate}def
/W {show}def
/F {fill}def
/X {gsave}def
/Y {grestore}def
%%EndProlog
%%Page: 1 1
0.12000 0.12000 scale
1 setlinecap
1 setlinejoin
8 Sw
0.00 0.00 0.00 setrgbcolor
[] 0 Sd
N
2007 2278 M
2007 2200 D
S
N
2011 2278 M
2011 2200 D
S
N
2011 2267 M
2018 2275 D
2026 2278 D
2033 2278 D
2044 2275 D
2052 2267 D
2056 2256 D
2056 2248 D
2052 2237 D
2044 2230 D
2033 2226 D
2026 2226 D
2018 2230 D
2011 2237 D
S
N
2033 2278 M
2041 2275 D
2048 2267 D
2052 2256 D
2052 2248 D
2048 2237 D
2041 2230 D
2033 2226 D
S
N
1996 2278 M
2011 2278 D
S
N
1996 2200 M
2022 2200 D
S
N
2094 2234 M
2094 2181 D
S
N
2097 2234 M
2097 2181 D
S
N
2079 2234 M
2077 2219 D
2077 2234 D
2114 2234 D
2114 2219 D
2112 2234 D
S
N
2087 2181 M
2104 2181 D
S
N
2216 2320 M
2208 2312 D
2201 2301 D
2193 2286 D
2189 2267 D
2189 2252 D
2193 2234 D
2201 2219 D
2208 2207 D
2216 2200 D
S
N
2208 2312 M
2201 2297 D
2197 2286 D
2193 2267 D
2193 2252 D
2197 2233 D
2201 2222 D
2208 2207 D
S
N
2291 2293 M
2294 2282 D
2294 2305 D
2291 2293 D
2283 2301 D
2272 2305 D
2264 2305 D
2253 2301 D
2246 2293 D
2242 2286 D
2238 2275 D
2238 2256 D
2242 2245 D
2246 2237 D
2253 2230 D
2264 2226 D
2272 2226 D
2283 2230 D
2291 2237 D
S
N
2264 2305 M
2257 2301 D
2249 2293 D
2246 2286 D
2242 2275 D
2242 2256 D
2246 2245 D
2249 2237 D
2257 2230 D
2264 2226 D
S
N
2291 2256 M
2291 2226 D
S
N
2294 2256 M
2294 2226 D
S
N
2279 2256 M
2306 2256 D
S
N
2328 2256 M
2373 2256 D
2373 2263 D
2369 2271 D
2366 2275 D
2358 2278 D
2347 2278 D
2336 2275 D
2328 2267 D
2324 2256 D
2324 2248 D
2328 2237 D
2336 2230 D
2347 2226 D
2354 2226 D
2366 2230 D
2373 2237 D
S
N
2369 2256 M
2369 2267 D
2366 2275 D
S
N
2347 2278 M
2339 2275 D
2332 2267 D
2328 2256 D
2328 2248 D
2332 2237 D
2339 2230 D
2347 2226 D
S
N
2396 2305 M
2422 2226 D
S
N
2399 2305 M
2422 2237 D
S
N
2448 2305 M
2422 2226 D
S
N
2388 2305 M
2411 2305 D
S
N
2433 2305 M
2456 2305 D
S
N
2471 2320 M
2478 2312 D
2486 2301 D
2493 2286 D
2497 2267 D
2497 2252 D
2493 2233 D
2486 2218 D
2478 2207 D
2471 2200 D
S
N
2478 2312 M
2486 2297 D
2489 2286 D
2493 2267 D
2493 2252 D
2489 2233 D
2486 2222 D
2478 2207 D
S
N
656 3463 M
735 3463 D
S
N
656 3467 M
735 3467 D
S
N
656 3452 M
656 3497 D
660 3508 D
664 3512 D
671 3515 D
679 3515 D
686 3512 D
690 3508 D
694 3497 D
694 3467 D
S
N
656 3497 M
660 3504 D
664 3508 D
671 3512 D
679 3512 D
686 3508 D
690 3504 D
694 3497 D
S
N
735 3452 M
735 3478 D
S
N
694 3485 M
698 3493 D
701 3497 D
728 3508 D
731 3512 D
731 3515 D
728 3519 D
S
N
698 3493 M
705 3497 D
731 3504 D
735 3508 D
735 3515 D
728 3519 D
724 3519 D
S
N
745 3544 M
798 3544 D
S
N
745 3547 M
798 3547 D
S
N
753 3547 M
748 3552 D
745 3557 D
745 3562 D
748 3569 D
753 3574 D
760 3577 D
765 3577 D
773 3574 D
778 3569 D
780 3562 D
780 3557 D
778 3552 D
773 3547 D
S
N
745 3562 M
748 3567 D
753 3572 D
760 3574 D
765 3574 D
773 3572 D
778 3567 D
780 3562 D
S
N
745 3537 M
745 3547 D
S
N
798 3537 M
798 3554 D
S
N
728 3597 M
780 3597 D
S
N
728 3599 M
780 3599 D
S
N
728 3589 M
728 3619 D
730 3627 D
733 3629 D
738 3632 D
745 3632 D
750 3629 D
753 3627 D
755 3619 D
755 3599 D
S
N
728 3619 M
730 3624 D
733 3627 D
738 3629 D
745 3629 D
750 3627 D
752 3624 D
755 3619 D
S
N
780 3589 M
780 3607 D
S
N
727 3652 M
780 3652 D
S
N
727 3654 M
780 3654 D
S
N
752 3654 M
747 3659 D
745 3664 D
745 3669 D
747 3677 D
752 3682 D
760 3684 D
765 3684 D
772 3682 D
777 3677 D
780 3669 D
780 3664 D
777 3659 D
772 3654 D
S
N
745 3669 M
747 3674 D
752 3679 D
760 3682 D
765 3682 D
772 3679 D
777 3674 D
780 3669 D
S
N
727 3644 M
727 3654 D
S
N
641 3728 M
649 3720 D
660 3713 D
675 3705 D
694 3702 D
709 3702 D
727 3705 D
742 3713 D
754 3720 D
761 3728 D
S
N
649 3720 M
664 3713 D
675 3709 D
694 3705 D
709 3705 D
727 3709 D
739 3713 D
754 3720 D
S
N
682 3758 M
761 3758 D
S
N
682 3762 M
761 3762 D
S
N
694 3762 M
686 3769 D
682 3777 D
682 3784 D
686 3795 D
694 3803 D
705 3807 D
712 3807 D
724 3803 D
731 3795 D
735 3784 D
735 3777 D
731 3769 D
724 3762 D
S
N
682 3784 M
686 3792 D
694 3799 D
705 3803 D
712 3803 D
724 3799 D
731 3792 D
735 3784 D
S
N
682 3747 M
682 3762 D
S
N
761 3747 M
761 3773 D
S
N
727 3845 M
780 3845 D
S
N
727 3848 M
780 3848 D
S
N
727 3830 M
742 3828 D
727 3828 D
727 3865 D
742 3865 D
727 3863 D
S
N
780 3838 M
780 3855 D
S
N
641 3877 M
649 3884 D
660 3892 D
675 3899 D
694 3903 D
709 3903 D
727 3899 D
742 3892 D
754 3884 D
761 3877 D
S
N
649 3884 M
664 3892 D
675 3895 D
694 3899 D
709 3899 D
727 3895 D
739 3892 D
754 3884 D
S
N
1050 4881 M
1050 2481 D
S
N
1050 2481 M
3450 2481 D
S
N
3450 2481 M
3450 4881 D
S
N
3450 4881 M
1050 4881 D
S
N
1050 4195 M
3450 4195 D
S
N
1050 2481 M
1050 2571 D
S
N
1170 2511 M
1170 2481 D
S
N
1290 2481 M
1290 2511 D
S
N
1410 2511 M
1410 2481 D
S
N
1530 2481 M
1530 2511 D
S
N
1650 2571 M
1650 2481 D
S
N
1770 2481 M
1770 2511 D
S
N
1890 2511 M
1890 2481 D
S
N
2010 2481 M
2010 2511 D
S
N
2130 2511 M
2130 2481 D
S
N
2250 2481 M
2250 2571 D
S
N
2370 2511 M
2370 2481 D
S
N
2490 2481 M
2490 2511 D
S
N
2610 2511 M
2610 2481 D
S
N
2730 2481 M
2730 2511 D
S
N
2850 2571 M
2850 2481 D
S
N
2970 2481 M
2970 2511 D
S
N
3090 2511 M
3090 2481 D
S
N
3210 2481 M
3210 2511 D
S
N
3330 2511 M
3330 2481 D
S
N
3450 2481 M
3450 2571 D
S
N
1048 2431 M
1040 2429 D
1035 2421 D
1033 2409 D
1033 2402 D
1035 2389 D
1040 2382 D
1048 2379 D
1053 2379 D
1060 2382 D
1065 2389 D
1067 2402 D
1067 2409 D
1065 2421 D
1060 2429 D
1053 2431 D
1048 2431 D
S
N
1048 2431 M
1043 2429 D
1040 2426 D
1038 2421 D
1035 2409 D
1035 2402 D
1038 2389 D
1040 2384 D
1043 2382 D
1048 2379 D
S
N
1053 2379 M
1057 2382 D
1060 2384 D
1062 2389 D
1065 2402 D
1065 2409 D
1062 2421 D
1060 2426 D
1057 2429 D
1053 2431 D
S
N
1638 2431 M
1633 2407 D
S
N
1633 2407 M
1638 2411 D
1645 2414 D
1653 2414 D
1660 2411 D
1665 2407 D
1667 2399 D
1667 2394 D
1665 2387 D
1660 2382 D
1653 2379 D
1645 2379 D
1638 2382 D
1635 2384 D
1633 2389 D
1633 2392 D
1635 2394 D
1638 2392 D
1635 2389 D
S
N
1653 2414 M
1657 2411 D
1662 2407 D
1665 2399 D
1665 2394 D
1662 2387 D
1657 2382 D
1653 2379 D
S
N
1638 2431 M
1662 2431 D
S
N
1638 2429 M
1650 2429 D
1662 2431 D
S
N
2215 2421 M
2220 2424 D
2228 2431 D
2228 2379 D
S
N
2225 2429 M
2225 2379 D
S
N
2215 2379 M
2237 2379 D
S
N
2272 2431 M
2265 2429 D
2260 2421 D
2257 2409 D
2257 2402 D
2260 2389 D
2265 2382 D
2272 2379 D
2277 2379 D
2285 2382 D
2290 2389 D
2292 2402 D
2292 2409 D
2290 2421 D
2285 2429 D
2277 2431 D
2272 2431 D
S
N
2272 2431 M
2267 2429 D
2265 2426 D
2262 2421 D
2260 2409 D
2260 2402 D
2262 2389 D
2265 2384 D
2267 2382 D
2272 2379 D
S
N
2277 2379 M
2282 2382 D
2285 2384 D
2287 2389 D
2290 2402 D
2290 2409 D
2287 2421 D
2285 2426 D
2282 2429 D
2277 2431 D
S
N
2815 2421 M
2820 2424 D
2828 2431 D
2828 2379 D
S
N
2825 2429 M
2825 2379 D
S
N
2815 2379 M
2837 2379 D
S
N
2862 2431 M
2857 2407 D
S
N
2857 2407 M
2862 2411 D
2870 2414 D
2877 2414 D
2885 2411 D
2890 2407 D
2892 2399 D
2892 2394 D
2890 2387 D
2885 2382 D
2877 2379 D
2870 2379 D
2862 2382 D
2860 2384 D
2857 2389 D
2857 2392 D
2860 2394 D
2862 2392 D
2860 2389 D
S
N
2877 2414 M
2882 2411 D
2887 2407 D
2890 2399 D
2890 2394 D
2887 2387 D
2882 2382 D
2877 2379 D
S
N
2862 2431 M
2887 2431 D
S
N
2862 2429 M
2875 2429 D
2887 2431 D
S
N
3410 2421 M
3413 2419 D
3410 2416 D
3408 2419 D
3408 2421 D
3410 2426 D
3413 2429 D
3420 2431 D
3430 2431 D
3437 2429 D
3440 2426 D
3442 2421 D
3442 2416 D
3440 2411 D
3432 2407 D
3420 2402 D
3415 2399 D
3410 2394 D
3408 2387 D
3408 2379 D
S
N
3430 2431 M
3435 2429 D
3437 2426 D
3440 2421 D
3440 2416 D
3437 2411 D
3430 2407 D
3420 2402 D
S
N
3408 2384 M
3410 2387 D
3415 2387 D
3428 2382 D
3435 2382 D
3440 2384 D
3442 2387 D
S
N
3415 2387 M
3428 2379 D
3437 2379 D
3440 2382 D
3442 2387 D
3442 2392 D
S
N
3472 2431 M
3465 2429 D
3460 2421 D
3457 2409 D
3457 2402 D
3460 2389 D
3465 2382 D
3472 2379 D
3477 2379 D
3485 2382 D
3490 2389 D
3492 2402 D
3492 2409 D
3490 2421 D
3485 2429 D
3477 2431 D
3472 2431 D
S
N
3472 2431 M
3467 2429 D
3465 2426 D
3462 2421 D
3460 2409 D
3460 2402 D
3462 2389 D
3465 2384 D
3467 2382 D
3472 2379 D
S
N
3477 2379 M
3482 2382 D
3485 2384 D
3487 2389 D
3490 2402 D
3490 2409 D
3487 2421 D
3485 2426 D
3482 2429 D
3477 2431 D
S
N
1050 4791 M
1050 4881 D
S
N
1170 4881 M
1170 4851 D
S
N
1290 4851 M
1290 4881 D
S
N
1410 4881 M
1410 4851 D
S
N
1530 4851 M
1530 4881 D
S
N
1650 4881 M
1650 4791 D
S
N
1770 4851 M
1770 4881 D
S
N
1890 4881 M
1890 4851 D
S
N
2010 4851 M
2010 4881 D
S
N
2130 4881 M
2130 4851 D
S
N
2250 4791 M
2250 4881 D
S
N
2370 4881 M
2370 4851 D
S
N
2490 4851 M
2490 4881 D
S
N
2610 4881 M
2610 4851 D
S
N
2730 4851 M
2730 4881 D
S
N
2850 4881 M
2850 4791 D
S
N
2970 4851 M
2970 4881 D
S
N
3090 4881 M
3090 4851 D
S
N
3210 4851 M
3210 4881 D
S
N
3330 4881 M
3330 4851 D
S
N
3450 4791 M
3450 4881 D
S
N
1050 2481 M
1140 2481 D
S
N
1080 2652 M
1050 2652 D
S
N
1050 2824 M
1140 2824 D
S
N
1080 2995 M
1050 2995 D
S
N
1050 3167 M
1140 3167 D
S
N
1080 3338 M
1050 3338 D
S
N
1050 3510 M
1140 3510 D
S
N
1080 3681 M
1050 3681 D
S
N
1050 3852 M
1140 3852 D
S
N
1080 4024 M
1050 4024 D
S
N
1050 4195 M
1140 4195 D
S
N
1080 4367 M
1050 4367 D
S
N
1050 4538 M
1140 4538 D
S
N
1080 4710 M
1050 4710 D
S
N
1050 4881 M
1140 4881 D
S
N
918 2503 M
910 2501 D
905 2493 D
903 2481 D
903 2474 D
905 2461 D
910 2454 D
918 2451 D
923 2451 D
930 2454 D
935 2461 D
937 2474 D
937 2481 D
935 2493 D
930 2501 D
923 2503 D
918 2503 D
S
N
918 2503 M
913 2501 D
910 2498 D
908 2493 D
905 2481 D
905 2474 D
908 2461 D
910 2456 D
913 2454 D
918 2451 D
S
N
923 2451 M
927 2454 D
930 2456 D
932 2461 D
935 2474 D
935 2481 D
932 2493 D
930 2498 D
927 2501 D
923 2503 D
S
N
957 2456 M
955 2454 D
957 2451 D
960 2454 D
957 2456 D
S
N
992 2503 M
985 2501 D
980 2493 D
977 2481 D
977 2474 D
980 2461 D
985 2454 D
992 2451 D
997 2451 D
1005 2454 D
1010 2461 D
1012 2474 D
1012 2481 D
1010 2493 D
1005 2501 D
997 2503 D
992 2503 D
S
N
992 2503 M
987 2501 D
985 2498 D
982 2493 D
980 2481 D
980 2474 D
982 2461 D
985 2456 D
987 2454 D
992 2451 D
S
N
997 2451 M
1002 2454 D
1005 2456 D
1007 2461 D
1010 2474 D
1010 2481 D
1007 2493 D
1005 2498 D
1002 2501 D
997 2503 D
S
N
918 2846 M
910 2844 D
905 2836 D
903 2824 D
903 2816 D
905 2804 D
910 2796 D
918 2794 D
923 2794 D
930 2796 D
935 2804 D
937 2816 D
937 2824 D
935 2836 D
930 2844 D
923 2846 D
918 2846 D
S
N
918 2846 M
913 2844 D
910 2841 D
908 2836 D
905 2824 D
905 2816 D
908 2804 D
910 2799 D
913 2796 D
918 2794 D
S
N
923 2794 M
927 2796 D
930 2799 D
932 2804 D
935 2816 D
935 2824 D
932 2836 D
930 2841 D
927 2844 D
923 2846 D
S
N
957 2799 M
955 2796 D
957 2794 D
960 2796 D
957 2799 D
S
N
980 2836 M
982 2834 D
980 2831 D
977 2834 D
977 2836 D
980 2841 D
982 2844 D
990 2846 D
1000 2846 D
1007 2844 D
1010 2841 D
1012 2836 D
1012 2831 D
1010 2826 D
1002 2821 D
990 2816 D
985 2814 D
980 2809 D
977 2801 D
977 2794 D
S
N
1000 2846 M
1005 2844 D
1007 2841 D
1010 2836 D
1010 2831 D
1007 2826 D
1000 2821 D
990 2816 D
S
N
977 2799 M
980 2801 D
985 2801 D
997 2796 D
1005 2796 D
1010 2799 D
1012 2801 D
S
N
985 2801 M
997 2794 D
1007 2794 D
1010 2796 D
1012 2801 D
1012 2806 D
S
N
918 3189 M
910 3187 D
905 3179 D
903 3167 D
903 3159 D
905 3147 D
910 3139 D
918 3137 D
923 3137 D
930 3139 D
935 3147 D
937 3159 D
937 3167 D
935 3179 D
930 3187 D
923 3189 D
918 3189 D
S
N
918 3189 M
913 3187 D
910 3184 D
908 3179 D
905 3167 D
905 3159 D
908 3147 D
910 3142 D
913 3139 D
918 3137 D
S
N
923 3137 M
927 3139 D
930 3142 D
932 3147 D
935 3159 D
935 3167 D
932 3179 D
930 3184 D
927 3187 D
923 3189 D
S
N
957 3142 M
955 3139 D
957 3137 D
960 3139 D
957 3142 D
S
N
1000 3184 M
1000 3137 D
S
N
1002 3189 M
1002 3137 D
S
N
1002 3189 M
975 3152 D
1015 3152 D
S
N
992 3137 M
1010 3137 D
S
N
918 3532 M
910 3530 D
905 3522 D
903 3510 D
903 3502 D
905 3490 D
910 3482 D
918 3480 D
923 3480 D
930 3482 D
935 3490 D
937 3502 D
937 3510 D
935 3522 D
930 3530 D
923 3532 D
918 3532 D
S
N
918 3532 M
913 3530 D
910 3527 D
908 3522 D
905 3510 D
905 3502 D
908 3490 D
910 3485 D
913 3482 D
918 3480 D
S
N
923 3480 M
927 3482 D
930 3485 D
932 3490 D
935 3502 D
935 3510 D
932 3522 D
930 3527 D
927 3530 D
923 3532 D
S
N
957 3485 M
955 3482 D
957 3480 D
960 3482 D
957 3485 D
S
N
1007 3525 M
1005 3522 D
1007 3520 D
1010 3522 D
1010 3525 D
1007 3530 D
1002 3532 D
995 3532 D
987 3530 D
982 3525 D
980 3520 D
977 3510 D
977 3495 D
980 3487 D
985 3482 D
992 3480 D
997 3480 D
1005 3482 D
1010 3487 D
1012 3495 D
1012 3497 D
1010 3505 D
1005 3510 D
997 3512 D
995 3512 D
987 3510 D
982 3505 D
980 3497 D
S
N
995 3532 M
990 3530 D
985 3525 D
982 3520 D
980 3510 D
980 3495 D
982 3487 D
987 3482 D
992 3480 D
S
N
997 3480 M
1002 3482 D
1007 3487 D
1010 3495 D
1010 3497 D
1007 3505 D
1002 3510 D
997 3512 D
S
N
918 3875 M
910 3872 D
905 3865 D
903 3852 D
903 3845 D
905 3832 D
910 3825 D
918 3823 D
923 3823 D
930 3825 D
935 3832 D
937 3845 D
937 3852 D
935 3865 D
930 3872 D
923 3875 D
918 3875 D
S
N
918 3875 M
913 3872 D
910 3870 D
908 3865 D
905 3852 D
905 3845 D
908 3832 D
910 3827 D
913 3825 D
918 3823 D
S
N
923 3823 M
927 3825 D
930 3827 D
932 3832 D
935 3845 D
935 3852 D
932 3865 D
930 3870 D
927 3872 D
923 3875 D
S
N
957 3827 M
955 3825 D
957 3823 D
960 3825 D
957 3827 D
S
N
990 3875 M
982 3872 D
980 3867 D
980 3860 D
982 3855 D
990 3852 D
1000 3852 D
1007 3855 D
1010 3860 D
1010 3867 D
1007 3872 D
1000 3875 D
990 3875 D
S
N
990 3875 M
985 3872 D
982 3867 D
982 3860 D
985 3855 D
990 3852 D
S
N
1000 3852 M
1005 3855 D
1007 3860 D
1007 3867 D
1005 3872 D
1000 3875 D
S
N
990 3852 M
982 3850 D
980 3847 D
977 3842 D
977 3832 D
980 3827 D
982 3825 D
990 3823 D
1000 3823 D
1007 3825 D
1010 3827 D
1012 3832 D
1012 3842 D
1010 3847 D
1007 3850 D
1000 3852 D
S
N
990 3852 M
985 3850 D
982 3847 D
980 3842 D
980 3832 D
982 3827 D
985 3825 D
990 3823 D
S
N
1000 3823 M
1005 3825 D
1007 3827 D
1010 3832 D
1010 3842 D
1007 3847 D
1005 3850 D
1000 3852 D
S
N
910 4208 M
915 4210 D
923 4218 D
923 4165 D
S
N
920 4215 M
920 4165 D
S
N
910 4165 M
932 4165 D
S
N
957 4170 M
955 4168 D
957 4165 D
960 4168 D
957 4170 D
S
N
992 4218 M
985 4215 D
980 4208 D
977 4195 D
977 4188 D
980 4175 D
985 4168 D
992 4165 D
997 4165 D
1005 4168 D
1010 4175 D
1012 4188 D
1012 4195 D
1010 4208 D
1005 4215 D
997 4218 D
992 4218 D
S
N
992 4218 M
987 4215 D
985 4213 D
982 4208 D
980 4195 D
980 4188 D
982 4175 D
985 4170 D
987 4168 D
992 4165 D
S
N
997 4165 M
1002 4168 D
1005 4170 D
1007 4175 D
1010 4188 D
1010 4195 D
1007 4208 D
1005 4213 D
1002 4215 D
997 4218 D
S
N
910 4551 M
915 4553 D
923 4561 D
923 4508 D
S
N
920 4558 M
920 4508 D
S
N
910 4508 M
932 4508 D
S
N
957 4513 M
955 4511 D
957 4508 D
960 4511 D
957 4513 D
S
N
980 4551 M
982 4548 D
980 4546 D
977 4548 D
977 4551 D
980 4556 D
982 4558 D
990 4561 D
1000 4561 D
1007 4558 D
1010 4556 D
1012 4551 D
1012 4546 D
1010 4541 D
1002 4536 D
990 4531 D
985 4528 D
980 4523 D
977 4516 D
977 4508 D
S
N
1000 4561 M
1005 4558 D
1007 4556 D
1010 4551 D
1010 4546 D
1007 4541 D
1000 4536 D
990 4531 D
S
N
977 4513 M
980 4516 D
985 4516 D
997 4511 D
1005 4511 D
1010 4513 D
1012 4516 D
S
N
985 4516 M
997 4508 D
1007 4508 D
1010 4511 D
1012 4516 D
1012 4521 D
S
N
910 4893 M
915 4896 D
923 4903 D
923 4851 D
S
N
920 4901 M
920 4851 D
S
N
910 4851 M
932 4851 D
S
N
957 4856 M
955 4854 D
957 4851 D
960 4854 D
957 4856 D
S
N
1000 4898 M
1000 4851 D
S
N
1002 4903 M
1002 4851 D
S
N
1002 4903 M
975 4866 D
1015 4866 D
S
N
992 4851 M
1010 4851 D
S
N
3360 2481 M
3450 2481 D
S
N
3450 2652 M
3420 2652 D
S
N
3360 2824 M
3450 2824 D
S
N
3450 2995 M
3420 2995 D
S
N
3360 3167 M
3450 3167 D
S
N
3450 3338 M
3420 3338 D
S
N
3360 3510 M
3450 3510 D
S
N
3450 3681 M
3420 3681 D
S
N
3360 3852 M
3450 3852 D
S
N
3450 4024 M
3420 4024 D
S
N
3360 4195 M
3450 4195 D
S
N
3450 4367 M
3420 4367 D
S
N
3360 4538 M
3450 4538 D
S
N
3450 4710 M
3420 4710 D
S
N
3360 4881 M
3450 4881 D
S
N
1860 3528 M
1864 3525 D
1860 3521 D
1856 3525 D
1856 3528 D
1860 3536 D
1864 3540 D
1875 3543 D
1890 3543 D
1901 3540 D
1905 3536 D
1909 3528 D
1909 3521 D
1905 3513 D
1894 3506 D
1875 3498 D
1868 3495 D
1860 3487 D
1856 3476 D
1856 3465 D
S
N
1890 3543 M
1898 3540 D
1901 3536 D
1905 3528 D
1905 3521 D
1901 3513 D
1890 3506 D
1875 3498 D
S
N
1856 3472 M
1860 3476 D
1868 3476 D
1886 3468 D
1898 3468 D
1905 3472 D
1909 3476 D
S
N
1868 3476 M
1886 3465 D
1901 3465 D
1905 3468 D
1909 3476 D
1909 3483 D
S
N
1939 3472 M
1935 3468 D
1939 3465 D
1942 3468 D
1939 3472 D
S
N
1976 3543 M
1969 3506 D
S
N
1969 3506 M
1976 3513 D
1987 3517 D
1999 3517 D
2010 3513 D
2017 3506 D
2021 3495 D
2021 3487 D
2017 3476 D
2010 3468 D
1999 3465 D
1987 3465 D
1976 3468 D
1973 3472 D
1969 3480 D
1969 3483 D
1973 3487 D
1976 3483 D
1973 3480 D
S
N
1999 3517 M
2006 3513 D
2014 3506 D
2018 3495 D
2018 3487 D
2014 3476 D
2006 3468 D
1999 3465 D
S
N
1976 3543 M
2014 3543 D
S
N
1976 3540 M
1995 3540 D
2014 3543 D
S
N
2168 3532 M
2108 3498 D
2168 3465 D
S
N
2258 3517 M
2280 3465 D
S
N
2261 3517 M
2280 3472 D
S
N
2303 3517 M
2280 3465 D
2273 3450 D
2265 3442 D
2258 3438 D
2254 3438 D
2250 3442 D
2254 3446 D
2258 3442 D
S
N
2250 3517 M
2273 3517 D
S
N
2288 3517 M
2310 3517 D
S
N
2449 3532 M
2389 3498 D
2449 3465 D
S
N
2569 3536 M
2569 3465 D
S
N
2573 3543 M
2573 3465 D
S
N
2573 3543 M
2531 3487 D
2591 3487 D
S
N
2558 3465 M
2584 3465 D
S
N
1828 4563 M
1828 4576 D
1834 4588 D
1840 4594 D
1853 4594 D
1859 4588 D
1865 4576 D
1871 4551 D
1871 4463 D
S
N
1828 4576 M
1840 4588 D
1853 4588 D
1865 4576 D
S
N
1921 4563 M
1921 4576 D
1915 4588 D
1909 4594 D
1896 4594 D
1890 4588 D
1884 4576 D
1878 4551 D
1878 4463 D
S
N
1921 4576 M
1909 4588 D
1896 4588 D
1884 4576 D
S
N
1853 4463 M
1896 4463 D
S
1.00 0.00 0.00 setrgbcolor
N
1050 2481 M
1290 2481 D
1290 4051 D
1410 4051 D
1410 4074 D
1530 4074 D
1530 4098 D
1650 4098 D
1650 4098 D
1770 4098 D
1770 4126 D
1890 4126 D
1890 4116 D
2010 4116 D
2010 4159 D
2130 4159 D
2130 4122 D
2250 4122 D
2250 4143 D
2370 4143 D
2370 4147 D
2490 4147 D
2490 4168 D
2610 4168 D
2610 4141 D
2730 4141 D
2730 4180 D
2850 4180 D
2850 4136 D
2970 4136 D
2970 4150 D
3090 4150 D
3090 4186 D
3210 4186 D
3210 4172 D
3330 4172 D
3330 4167 D
3450 4167 D
3450 4162 D
3450 4162 D
S
3450 2481 P
[39] 0 Sd
N
1050 2481 M
1290 2481 D
1290 4153 D
1410 4153 D
1410 4183 D
1530 4183 D
1530 4192 D
1650 4192 D
1650 4172 D
1770 4172 D
1770 4200 D
1890 4200 D
1890 4221 D
2010 4221 D
2010 4197 D
2130 4197 D
2130 4183 D
2250 4183 D
2250 4239 D
2370 4239 D
2370 4213 D
2490 4213 D
2490 4212 D
2610 4212 D
2610 4248 D
2730 4248 D
2730 4205 D
2850 4205 D
2850 4194 D
2970 4194 D
2970 4230 D
3090 4230 D
3090 4221 D
3210 4221 D
3210 4223 D
3330 4223 D
3330 4270 D
3450 4270 D
3450 4242 D
3450 4242 D
S
[] 0 Sd
3450 2481 P
[39] 0 Sd
N
1050 2481 M
1290 2481 D
1290 3930 D
1410 3930 D
1410 3981 D
1530 3981 D
1530 3998 D
1650 3998 D
1650 4001 D
1770 4001 D
1770 4068 D
1890 4068 D
1890 4040 D
2010 4040 D
2010 4065 D
2130 4065 D
2130 4054 D
2250 4054 D
2250 4080 D
2370 4080 D
2370 4086 D
2490 4086 D
2490 4105 D
2610 4105 D
2610 4083 D
2730 4083 D
2730 4085 D
2850 4085 D
2850 4100 D
2970 4100 D
2970 4073 D
3090 4073 D
3090 4135 D
3210 4135 D
3210 4112 D
3330 4112 D
3330 4140 D
3450 4140 D
3450 4101 D
3450 4101 D
S
[] 0 Sd
3450 2481 P
showpage
%%Trailer
%%Pages: 1
%%BoundingBox: 73 258 422 591
