%!PS-Adobe-1.0
%%Creator: Unified Graphics System
%%Pages: (atend)
%%DocumentFonts: Helvetica
%%BoundingBox:   73  260  421  589
%%EndComments
/Sw{setlinewidth}def
/Sg{setgray}def
/Sd{setdash}def
/P {newpath
    moveto
0 0 rlineto
    stroke}def
/M {moveto}def
/D {lineto}def
/N {newpath}def
/S {stroke}def
/T {/Helvetica findfont
    exch
    scalefont
    setfont}def
/R {rotate}def
/W {show}def
/F {fill}def
/X {gsave}def
/Y {grestore}def
%%EndProlog
%%Page: 1 1
0.12000 0.12000 scale
1 setlinecap
1 setlinejoin
8 Sw
0.00 0.00 0.00 setrgbcolor
[] 0 Sd
N
2229 2278 M
2252 2226 D
S
N
2233 2278 M
2252 2233 D
S
N
2274 2278 M
2252 2226 D
2244 2211 D
2237 2203 D
2229 2200 D
2226 2200 D
2222 2203 D
2226 2207 D
2229 2203 D
S
N
2222 2278 M
2244 2278 D
S
N
2259 2278 M
2282 2278 D
S
N
656 2888 M
735 2888 D
S
N
656 2892 M
735 2892 D
S
N
656 2877 M
656 2922 D
660 2933 D
664 2937 D
671 2941 D
679 2941 D
686 2937 D
690 2933 D
694 2922 D
694 2892 D
S
N
656 2922 M
660 2930 D
664 2933 D
671 2937 D
679 2937 D
686 2933 D
690 2930 D
694 2922 D
S
N
735 2877 M
735 2903 D
S
N
694 2911 M
698 2918 D
701 2922 D
728 2933 D
731 2937 D
731 2941 D
728 2945 D
S
N
698 2918 M
705 2922 D
731 2930 D
735 2933 D
735 2941 D
728 2945 D
724 2945 D
S
N
728 2970 M
780 2970 D
S
N
728 2972 M
780 2972 D
S
N
728 2962 M
728 2992 D
730 3000 D
733 3002 D
738 3005 D
745 3005 D
750 3002 D
753 3000 D
755 2992 D
755 2972 D
S
N
728 2992 M
730 2997 D
733 3000 D
738 3002 D
745 3002 D
750 3000 D
753 2997 D
755 2992 D
S
N
780 2962 M
780 2980 D
S
N
728 3025 M
780 3025 D
S
N
728 3027 M
780 3027 D
S
N
753 3027 M
748 3032 D
745 3037 D
745 3042 D
748 3050 D
753 3055 D
760 3057 D
765 3057 D
773 3055 D
778 3050 D
780 3042 D
780 3037 D
778 3032 D
773 3027 D
S
N
745 3042 M
747 3047 D
752 3052 D
760 3055 D
765 3055 D
772 3052 D
777 3047 D
780 3042 D
S
N
727 3017 M
727 3027 D
S
N
727 3077 M
780 3077 D
S
N
727 3080 M
780 3080 D
S
N
727 3070 M
727 3100 D
730 3107 D
732 3110 D
737 3112 D
745 3112 D
750 3110 D
752 3107 D
755 3100 D
755 3080 D
S
N
727 3100 M
730 3105 D
732 3107 D
737 3110 D
745 3110 D
750 3107 D
752 3105 D
755 3100 D
S
N
780 3070 M
780 3087 D
S
N
727 3132 M
780 3132 D
S
N
727 3135 M
780 3135 D
S
N
752 3135 M
747 3140 D
745 3145 D
745 3150 D
747 3157 D
752 3162 D
760 3165 D
765 3165 D
772 3162 D
777 3157 D
780 3150 D
780 3145 D
777 3140 D
772 3135 D
S
N
745 3150 M
747 3155 D
752 3160 D
760 3162 D
765 3162 D
772 3160 D
777 3155 D
780 3150 D
S
N
727 3125 M
727 3135 D
S
N
735 3186 M
731 3182 D
727 3186 D
731 3190 D
739 3190 D
746 3186 D
750 3182 D
S
N
656 3283 M
735 3283 D
S
N
656 3287 M
735 3287 D
S
N
656 3272 M
656 3317 D
660 3328 D
664 3332 D
671 3336 D
679 3336 D
686 3332 D
690 3328 D
694 3317 D
694 3287 D
S
N
656 3317 M
660 3325 D
664 3328 D
671 3332 D
679 3332 D
686 3328 D
690 3325 D
694 3317 D
S
N
735 3272 M
735 3298 D
S
N
694 3306 M
698 3313 D
701 3317 D
728 3328 D
731 3332 D
731 3336 D
728 3340 D
S
N
698 3313 M
705 3317 D
731 3325 D
735 3328 D
735 3336 D
728 3340 D
724 3340 D
S
N
745 3365 M
797 3365 D
S
N
745 3367 M
797 3367 D
S
N
752 3367 M
747 3372 D
745 3377 D
745 3382 D
747 3390 D
752 3395 D
760 3397 D
765 3397 D
772 3395 D
777 3390 D
780 3382 D
780 3377 D
777 3372 D
772 3367 D
S
N
745 3382 M
747 3387 D
752 3392 D
760 3395 D
765 3395 D
772 3392 D
777 3387 D
780 3382 D
S
N
745 3357 M
745 3367 D
S
N
797 3357 M
797 3375 D
S
N
727 3417 M
780 3417 D
S
N
727 3420 M
780 3420 D
S
N
727 3410 M
727 3440 D
730 3447 D
732 3450 D
737 3452 D
745 3452 D
750 3450 D
752 3447 D
755 3440 D
755 3420 D
S
N
727 3440 M
730 3445 D
732 3447 D
737 3450 D
745 3450 D
750 3447 D
752 3445 D
755 3440 D
S
N
780 3410 M
780 3427 D
S
N
727 3472 M
780 3472 D
S
N
727 3475 M
780 3475 D
S
N
752 3475 M
747 3480 D
745 3485 D
745 3490 D
747 3497 D
752 3502 D
760 3505 D
765 3505 D
772 3502 D
777 3497 D
780 3490 D
780 3485 D
777 3480 D
772 3475 D
S
N
745 3490 M
747 3495 D
752 3500 D
760 3502 D
765 3502 D
772 3500 D
777 3495 D
780 3490 D
S
N
727 3465 M
727 3475 D
S
N
641 3548 M
649 3541 D
660 3533 D
675 3526 D
694 3522 D
709 3522 D
727 3526 D
742 3533 D
754 3541 D
761 3548 D
S
N
649 3541 M
664 3533 D
675 3530 D
694 3526 D
709 3526 D
727 3530 D
739 3533 D
754 3541 D
S
N
667 3608 M
735 3608 D
S
N
701 3575 M
701 3642 D
S
N
682 3672 M
735 3695 D
S
N
682 3676 M
727 3695 D
S
N
682 3717 M
735 3695 D
750 3687 D
757 3680 D
761 3672 D
761 3668 D
757 3665 D
754 3668 D
757 3672 D
S
N
682 3665 M
682 3687 D
S
N
682 3702 M
682 3725 D
S
N
641 3740 M
649 3747 D
660 3755 D
675 3762 D
694 3766 D
709 3766 D
727 3762 D
742 3755 D
754 3747 D
761 3740 D
S
N
649 3747 M
664 3755 D
675 3758 D
694 3762 D
709 3762 D
727 3758 D
739 3755 D
754 3747 D
S
N
675 3867 M
727 3890 D
S
N
675 3890 M
727 3867 D
S
N
690 3852 M
712 3905 D
S
N
690 3905 M
712 3852 D
S
N
656 3995 M
735 3995 D
S
N
656 3998 M
735 3998 D
S
N
656 3983 M
656 4028 D
660 4040 D
664 4043 D
671 4047 D
679 4047 D
686 4043 D
690 4040 D
694 4028 D
694 3998 D
S
N
656 4028 M
660 4036 D
664 4040 D
671 4043 D
679 4043 D
686 4040 D
690 4036 D
694 4028 D
S
N
735 3983 M
735 4010 D
S
N
694 4017 M
697 4025 D
701 4028 D
727 4040 D
731 4043 D
731 4047 D
727 4051 D
S
N
697 4025 M
705 4028 D
731 4036 D
735 4040 D
735 4047 D
727 4051 D
724 4051 D
S
N
745 4076 M
797 4076 D
S
N
745 4078 M
797 4078 D
S
N
752 4078 M
747 4083 D
745 4088 D
745 4093 D
747 4101 D
752 4106 D
760 4108 D
765 4108 D
772 4106 D
777 4101 D
780 4093 D
780 4088 D
777 4083 D
772 4078 D
S
N
745 4093 M
747 4098 D
752 4103 D
760 4106 D
765 4106 D
772 4103 D
777 4098 D
780 4093 D
S
N
745 4068 M
745 4078 D
S
N
797 4068 M
797 4086 D
S
N
727 4128 M
780 4128 D
S
N
727 4131 M
780 4131 D
S
N
727 4121 M
727 4151 D
730 4158 D
732 4161 D
737 4163 D
745 4163 D
750 4161 D
752 4158 D
755 4151 D
755 4131 D
S
N
727 4151 M
730 4156 D
732 4158 D
737 4161 D
745 4161 D
750 4158 D
752 4156 D
755 4151 D
S
N
780 4121 M
780 4138 D
S
N
727 4183 M
780 4183 D
S
N
727 4186 M
780 4186 D
S
N
752 4186 M
747 4191 D
745 4196 D
745 4201 D
747 4208 D
752 4213 D
760 4216 D
765 4216 D
772 4213 D
777 4208 D
780 4201 D
780 4196 D
777 4191 D
772 4186 D
S
N
745 4201 M
747 4206 D
752 4211 D
760 4213 D
765 4213 D
772 4211 D
777 4206 D
780 4201 D
S
N
727 4176 M
727 4186 D
S
N
641 4260 M
649 4252 D
660 4245 D
675 4237 D
694 4233 D
709 4233 D
727 4237 D
742 4245 D
754 4252 D
761 4260 D
S
N
649 4252 M
664 4245 D
675 4241 D
694 4237 D
709 4237 D
727 4241 D
739 4245 D
754 4252 D
S
N
701 4286 M
701 4353 D
S
N
682 4383 M
735 4406 D
S
N
682 4387 M
727 4406 D
S
N
682 4428 M
735 4406 D
750 4398 D
757 4391 D
761 4383 D
761 4380 D
757 4376 D
754 4380 D
757 4383 D
S
N
682 4376 M
682 4398 D
S
N
682 4413 M
682 4436 D
S
N
641 4451 M
649 4458 D
660 4466 D
675 4473 D
694 4477 D
709 4477 D
727 4473 D
742 4466 D
754 4458 D
761 4451 D
S
N
649 4458 M
664 4466 D
675 4470 D
694 4473 D
709 4473 D
727 4470 D
739 4466 D
754 4458 D
S
N
1050 4881 M
1050 2481 D
S
N
1050 2481 M
3450 2481 D
S
N
3450 2481 M
3450 4881 D
S
N
3450 4881 M
1050 4881 D
S
N
1050 4195 M
3450 4195 D
S
N
1050 2481 M
1050 2511 D
S
N
1150 2511 M
1150 2481 D
S
N
1250 2481 M
1250 2571 D
S
N
1350 2511 M
1350 2481 D
S
N
1450 2481 M
1450 2511 D
S
N
1550 2511 M
1550 2481 D
S
N
1650 2481 M
1650 2511 D
S
N
1750 2571 M
1750 2481 D
S
N
1850 2481 M
1850 2511 D
S
N
1950 2511 M
1950 2481 D
S
N
2050 2481 M
2050 2511 D
S
N
2150 2511 M
2150 2481 D
S
N
2250 2481 M
2250 2571 D
S
N
2350 2511 M
2350 2481 D
S
N
2450 2481 M
2450 2511 D
S
N
2550 2511 M
2550 2481 D
S
N
2650 2481 M
2650 2511 D
S
N
2750 2571 M
2750 2481 D
S
N
2850 2481 M
2850 2511 D
S
N
2950 2511 M
2950 2481 D
S
N
3050 2481 M
3050 2511 D
S
N
3150 2511 M
3150 2481 D
S
N
3250 2481 M
3250 2571 D
S
N
3350 2511 M
3350 2481 D
S
N
3450 2481 M
3450 2511 D
S
N
1165 2402 M
1210 2402 D
S
N
1232 2431 M
1227 2407 D
S
N
1227 2407 M
1232 2411 D
1240 2414 D
1247 2414 D
1255 2411 D
1260 2407 D
1262 2399 D
1262 2394 D
1260 2387 D
1255 2382 D
1247 2379 D
1240 2379 D
1232 2382 D
1230 2384 D
1227 2389 D
1227 2392 D
1230 2394 D
1232 2392 D
1230 2389 D
S
N
1247 2414 M
1252 2411 D
1257 2407 D
1260 2399 D
1260 2394 D
1257 2387 D
1252 2382 D
1247 2379 D
S
N
1232 2431 M
1257 2431 D
S
N
1232 2429 M
1245 2429 D
1257 2431 D
S
N
1282 2384 M
1280 2382 D
1282 2379 D
1285 2382 D
1282 2384 D
S
N
1317 2431 M
1310 2429 D
1305 2421 D
1302 2409 D
1302 2402 D
1305 2389 D
1310 2382 D
1317 2379 D
1322 2379 D
1330 2382 D
1335 2389 D
1337 2402 D
1337 2409 D
1335 2421 D
1330 2429 D
1322 2431 D
1317 2431 D
S
N
1317 2431 M
1312 2429 D
1310 2426 D
1307 2421 D
1305 2409 D
1305 2402 D
1307 2389 D
1310 2384 D
1312 2382 D
1317 2379 D
S
N
1322 2379 M
1327 2382 D
1330 2384 D
1332 2389 D
1335 2402 D
1335 2409 D
1332 2421 D
1330 2426 D
1327 2429 D
1322 2431 D
S
N
1665 2402 M
1710 2402 D
S
N
1730 2421 M
1732 2419 D
1730 2416 D
1727 2419 D
1727 2421 D
1730 2426 D
1732 2429 D
1740 2431 D
1750 2431 D
1757 2429 D
1760 2426 D
1762 2421 D
1762 2416 D
1760 2411 D
1752 2407 D
1740 2402 D
1735 2399 D
1730 2394 D
1727 2387 D
1727 2379 D
S
N
1750 2431 M
1755 2429 D
1757 2426 D
1760 2421 D
1760 2416 D
1757 2411 D
1750 2407 D
1740 2402 D
S
N
1727 2384 M
1730 2387 D
1735 2387 D
1747 2382 D
1755 2382 D
1760 2384 D
1762 2387 D
S
N
1735 2387 M
1747 2379 D
1757 2379 D
1760 2382 D
1762 2387 D
1762 2392 D
S
N
1782 2384 M
1780 2382 D
1782 2379 D
1785 2382 D
1782 2384 D
S
N
1807 2431 M
1802 2407 D
S
N
1802 2407 M
1807 2411 D
1815 2414 D
1822 2414 D
1830 2411 D
1835 2407 D
1837 2399 D
1837 2394 D
1835 2387 D
1830 2382 D
1822 2379 D
1815 2379 D
1807 2382 D
1805 2384 D
1802 2389 D
1802 2392 D
1805 2394 D
1807 2392 D
1805 2389 D
S
N
1822 2414 M
1827 2411 D
1832 2407 D
1835 2399 D
1835 2394 D
1832 2387 D
1827 2382 D
1822 2379 D
S
N
1807 2431 M
1832 2431 D
S
N
1807 2429 M
1820 2429 D
1832 2431 D
S
N
2210 2431 M
2203 2429 D
2198 2421 D
2195 2409 D
2195 2402 D
2198 2389 D
2203 2382 D
2210 2379 D
2215 2379 D
2222 2382 D
2227 2389 D
2230 2402 D
2230 2409 D
2227 2421 D
2222 2429 D
2215 2431 D
2210 2431 D
S
N
2210 2431 M
2205 2429 D
2203 2426 D
2200 2421 D
2198 2409 D
2198 2402 D
2200 2389 D
2203 2384 D
2205 2382 D
2210 2379 D
S
N
2215 2379 M
2220 2382 D
2222 2384 D
2225 2389 D
2227 2402 D
2227 2409 D
2225 2421 D
2222 2426 D
2220 2429 D
2215 2431 D
S
N
2250 2384 M
2247 2382 D
2250 2379 D
2252 2382 D
2250 2384 D
S
N
2285 2431 M
2277 2429 D
2272 2421 D
2270 2409 D
2270 2402 D
2272 2389 D
2277 2382 D
2285 2379 D
2290 2379 D
2297 2382 D
2302 2389 D
2305 2402 D
2305 2409 D
2302 2421 D
2297 2429 D
2290 2431 D
2285 2431 D
S
N
2285 2431 M
2280 2429 D
2277 2426 D
2275 2421 D
2272 2409 D
2272 2402 D
2275 2389 D
2277 2384 D
2280 2382 D
2285 2379 D
S
N
2290 2379 M
2295 2382 D
2297 2384 D
2300 2389 D
2302 2402 D
2302 2409 D
2300 2421 D
2297 2426 D
2295 2429 D
2290 2431 D
S
N
2698 2421 M
2700 2419 D
2698 2416 D
2695 2419 D
2695 2421 D
2698 2426 D
2700 2429 D
2708 2431 D
2718 2431 D
2725 2429 D
2727 2426 D
2730 2421 D
2730 2416 D
2727 2411 D
2720 2407 D
2708 2402 D
2703 2399 D
2698 2394 D
2695 2387 D
2695 2379 D
S
N
2718 2431 M
2722 2429 D
2725 2426 D
2727 2421 D
2727 2416 D
2725 2411 D
2718 2407 D
2708 2402 D
S
N
2695 2384 M
2698 2387 D
2703 2387 D
2715 2382 D
2722 2382 D
2727 2384 D
2730 2387 D
S
N
2703 2387 M
2715 2379 D
2725 2379 D
2727 2382 D
2730 2387 D
2730 2392 D
S
N
2750 2384 M
2747 2382 D
2750 2379 D
2752 2382 D
2750 2384 D
S
N
2775 2431 M
2770 2407 D
S
N
2770 2407 M
2775 2411 D
2782 2414 D
2790 2414 D
2797 2411 D
2802 2407 D
2805 2399 D
2805 2394 D
2802 2387 D
2797 2382 D
2790 2379 D
2782 2379 D
2775 2382 D
2772 2384 D
2770 2389 D
2770 2392 D
2772 2394 D
2775 2392 D
2772 2389 D
S
N
2790 2414 M
2795 2411 D
2800 2407 D
2802 2399 D
2802 2394 D
2800 2387 D
2795 2382 D
2790 2379 D
S
N
2775 2431 M
2800 2431 D
S
N
2775 2429 M
2787 2429 D
2800 2431 D
S
N
3200 2431 M
3195 2407 D
S
N
3195 2407 M
3200 2411 D
3208 2414 D
3215 2414 D
3222 2411 D
3227 2407 D
3230 2399 D
3230 2394 D
3227 2387 D
3222 2382 D
3215 2379 D
3208 2379 D
3200 2382 D
3198 2384 D
3195 2389 D
3195 2392 D
3198 2394 D
3200 2392 D
3198 2389 D
S
N
3215 2414 M
3220 2411 D
3225 2407 D
3227 2399 D
3227 2394 D
3225 2387 D
3220 2382 D
3215 2379 D
S
N
3200 2431 M
3225 2431 D
S
N
3200 2429 M
3213 2429 D
3225 2431 D
S
N
3250 2384 M
3247 2382 D
3250 2379 D
3252 2382 D
3250 2384 D
S
N
3285 2431 M
3277 2429 D
3272 2421 D
3270 2409 D
3270 2402 D
3272 2389 D
3277 2382 D
3285 2379 D
3290 2379 D
3297 2382 D
3302 2389 D
3305 2402 D
3305 2409 D
3302 2421 D
3297 2429 D
3290 2431 D
3285 2431 D
S
N
3285 2431 M
3280 2429 D
3277 2426 D
3275 2421 D
3272 2409 D
3272 2402 D
3275 2389 D
3277 2384 D
3280 2382 D
3285 2379 D
S
N
3290 2379 M
3295 2382 D
3297 2384 D
3300 2389 D
3302 2402 D
3302 2409 D
3300 2421 D
3297 2426 D
3295 2429 D
3290 2431 D
S
N
1050 4851 M
1050 4881 D
S
N
1150 4881 M
1150 4851 D
S
N
1250 4791 M
1250 4881 D
S
N
1350 4881 M
1350 4851 D
S
N
1450 4851 M
1450 4881 D
S
N
1550 4881 M
1550 4851 D
S
N
1650 4851 M
1650 4881 D
S
N
1750 4881 M
1750 4791 D
S
N
1850 4851 M
1850 4881 D
S
N
1950 4881 M
1950 4851 D
S
N
2050 4851 M
2050 4881 D
S
N
2150 4881 M
2150 4851 D
S
N
2250 4791 M
2250 4881 D
S
N
2350 4881 M
2350 4851 D
S
N
2450 4851 M
2450 4881 D
S
N
2550 4881 M
2550 4851 D
S
N
2650 4851 M
2650 4881 D
S
N
2750 4881 M
2750 4791 D
S
N
2850 4851 M
2850 4881 D
S
N
2950 4881 M
2950 4851 D
S
N
3050 4851 M
3050 4881 D
S
N
3150 4881 M
3150 4851 D
S
N
3250 4791 M
3250 4881 D
S
N
3350 4881 M
3350 4851 D
S
N
3450 4851 M
3450 4881 D
S
N
1050 2481 M
1140 2481 D
S
N
1080 2652 M
1050 2652 D
S
N
1050 2824 M
1080 2824 D
S
N
1080 2995 M
1050 2995 D
S
N
1050 3167 M
1080 3167 D
S
N
1140 3338 M
1050 3338 D
S
N
1050 3510 M
1080 3510 D
S
N
1080 3681 M
1050 3681 D
S
N
1050 3852 M
1080 3852 D
S
N
1080 4024 M
1050 4024 D
S
N
1050 4195 M
1140 4195 D
S
N
1080 4367 M
1050 4367 D
S
N
1050 4538 M
1080 4538 D
S
N
1080 4710 M
1050 4710 D
S
N
1050 4881 M
1080 4881 D
S
N
918 2503 M
910 2501 D
905 2493 D
903 2481 D
903 2474 D
905 2461 D
910 2454 D
918 2451 D
923 2451 D
930 2454 D
935 2461 D
937 2474 D
937 2481 D
935 2493 D
930 2501 D
923 2503 D
918 2503 D
S
N
918 2503 M
913 2501 D
910 2498 D
908 2493 D
905 2481 D
905 2474 D
908 2461 D
910 2456 D
913 2454 D
918 2451 D
S
N
923 2451 M
927 2454 D
930 2456 D
932 2461 D
935 2474 D
935 2481 D
932 2493 D
930 2498 D
927 2501 D
923 2503 D
S
N
957 2456 M
955 2454 D
957 2451 D
960 2454 D
957 2456 D
S
N
992 2503 M
985 2501 D
980 2493 D
977 2481 D
977 2474 D
980 2461 D
985 2454 D
992 2451 D
997 2451 D
1005 2454 D
1010 2461 D
1012 2474 D
1012 2481 D
1010 2493 D
1005 2501 D
997 2503 D
992 2503 D
S
N
992 2503 M
987 2501 D
985 2498 D
982 2493 D
980 2481 D
980 2474 D
982 2461 D
985 2456 D
987 2454 D
992 2451 D
S
N
997 2451 M
1002 2454 D
1005 2456 D
1007 2461 D
1010 2474 D
1010 2481 D
1007 2493 D
1005 2498 D
1002 2501 D
997 2503 D
S
N
918 3361 M
910 3358 D
905 3351 D
903 3338 D
903 3331 D
905 3318 D
910 3311 D
918 3308 D
923 3308 D
930 3311 D
935 3318 D
937 3331 D
937 3338 D
935 3351 D
930 3358 D
923 3361 D
918 3361 D
S
N
918 3361 M
913 3358 D
910 3356 D
908 3351 D
905 3338 D
905 3331 D
908 3318 D
910 3313 D
913 3311 D
918 3308 D
S
N
923 3308 M
927 3311 D
930 3313 D
932 3318 D
935 3331 D
935 3338 D
932 3351 D
930 3356 D
927 3358 D
923 3361 D
S
N
957 3313 M
955 3311 D
957 3308 D
960 3311 D
957 3313 D
S
N
982 3361 M
977 3336 D
S
N
977 3336 M
982 3341 D
990 3343 D
997 3343 D
1005 3341 D
1010 3336 D
1012 3328 D
1012 3323 D
1010 3316 D
1005 3311 D
997 3308 D
990 3308 D
982 3311 D
980 3313 D
977 3318 D
977 3321 D
980 3323 D
982 3321 D
980 3318 D
S
N
997 3343 M
1002 3341 D
1007 3336 D
1010 3328 D
1010 3323 D
1007 3316 D
1002 3311 D
997 3308 D
S
N
982 3361 M
1007 3361 D
S
N
982 3358 M
995 3358 D
1007 3361 D
S
N
910 4208 M
915 4210 D
923 4218 D
923 4165 D
S
N
920 4215 M
920 4165 D
S
N
910 4165 M
932 4165 D
S
N
957 4170 M
955 4168 D
957 4165 D
960 4168 D
957 4170 D
S
N
992 4218 M
985 4215 D
980 4208 D
977 4195 D
977 4188 D
980 4175 D
985 4168 D
992 4165 D
997 4165 D
1005 4168 D
1010 4175 D
1012 4188 D
1012 4195 D
1010 4208 D
1005 4215 D
997 4218 D
992 4218 D
S
N
992 4218 M
987 4215 D
985 4213 D
982 4208 D
980 4195 D
980 4188 D
982 4175 D
985 4170 D
987 4168 D
992 4165 D
S
N
997 4165 M
1002 4168 D
1005 4170 D
1007 4175 D
1010 4188 D
1010 4195 D
1007 4208 D
1005 4213 D
1002 4215 D
997 4218 D
S
N
3360 2481 M
3450 2481 D
S
N
3450 2652 M
3420 2652 D
S
N
3420 2824 M
3450 2824 D
S
N
3450 2995 M
3420 2995 D
S
N
3420 3167 M
3450 3167 D
S
N
3450 3338 M
3360 3338 D
S
N
3420 3510 M
3450 3510 D
S
N
3450 3681 M
3420 3681 D
S
N
3420 3852 M
3450 3852 D
S
N
3450 4024 M
3420 4024 D
S
N
3360 4195 M
3450 4195 D
S
N
3450 4367 M
3420 4367 D
S
N
3420 4538 M
3450 4538 D
S
N
3450 4710 M
3420 4710 D
S
N
3420 4881 M
3450 4881 D
S
N
1524 4658 M
1524 4579 D
S
N
1527 4658 M
1527 4579 D
S
N
1550 4635 M
1550 4605 D
S
N
1512 4658 M
1572 4658 D
1572 4635 D
1569 4658 D
S
N
1527 4620 M
1550 4620 D
S
N
1512 4579 M
1572 4579 D
1572 4601 D
1569 4579 D
S
N
1602 4658 M
1602 4579 D
S
N
1606 4658 M
1606 4579 D
S
N
1591 4658 M
1636 4658 D
1647 4654 D
1651 4650 D
1655 4643 D
1655 4631 D
1651 4624 D
1647 4620 D
1636 4616 D
1606 4616 D
S
N
1636 4658 M
1644 4654 D
1647 4650 D
1651 4643 D
1651 4631 D
1647 4624 D
1644 4620 D
1636 4616 D
S
N
1591 4579 M
1617 4579 D
S
N
1726 4646 M
1730 4658 D
1730 4635 D
1726 4646 D
1719 4654 D
1707 4658 D
1696 4658 D
1685 4654 D
1677 4646 D
1677 4639 D
1681 4631 D
1685 4628 D
1692 4624 D
1715 4616 D
1722 4613 D
1730 4605 D
S
N
1677 4639 M
1685 4631 D
1692 4628 D
1715 4620 D
1722 4616 D
1726 4613 D
1730 4605 D
1730 4590 D
1722 4583 D
1711 4579 D
1700 4579 D
1689 4583 D
1681 4590 D
1677 4601 D
1677 4579 D
1681 4590 D
S
N
1775 4658 M
1764 4654 D
1756 4643 D
1752 4624 D
1752 4613 D
1756 4594 D
1764 4583 D
1775 4579 D
1782 4579 D
1794 4583 D
1801 4594 D
1805 4613 D
1805 4624 D
1801 4643 D
1794 4654 D
1782 4658 D
1775 4658 D
S
N
1775 4658 M
1767 4654 D
1764 4650 D
1760 4643 D
1756 4624 D
1756 4613 D
1760 4594 D
1764 4586 D
1767 4583 D
1775 4579 D
S
N
1782 4579 M
1790 4583 D
1794 4586 D
1797 4594 D
1801 4613 D
1801 4624 D
1797 4643 D
1794 4650 D
1790 4654 D
1782 4658 D
S
N
1876 4631 M
1873 4620 D
1865 4613 D
1854 4609 D
1850 4609 D
1839 4613 D
1831 4620 D
1828 4631 D
1828 4635 D
1831 4646 D
1839 4654 D
1850 4658 D
1858 4658 D
1869 4654 D
1876 4646 D
1880 4635 D
1880 4613 D
1876 4598 D
1873 4590 D
1865 4583 D
1854 4579 D
1843 4579 D
1835 4583 D
1831 4590 D
1831 4594 D
1835 4598 D
1839 4594 D
1835 4590 D
S
N
1850 4609 M
1843 4613 D
1835 4620 D
1831 4631 D
1831 4635 D
1835 4646 D
1843 4654 D
1850 4658 D
S
N
1858 4658 M
1865 4654 D
1873 4646 D
1876 4635 D
1876 4613 D
1873 4598 D
1869 4590 D
1861 4583 D
1854 4579 D
S
N
1970 4658 M
1970 4579 D
S
N
1974 4658 M
1974 4579 D
S
N
1959 4658 M
1985 4658 D
S
N
1959 4579 M
2015 4579 D
2015 4601 D
2011 4579 D
S
N
2056 4658 M
2045 4654 D
2038 4646 D
2034 4639 D
2030 4624 D
2030 4613 D
2034 4598 D
2038 4590 D
2045 4583 D
2056 4579 D
2064 4579 D
2075 4583 D
2083 4590 D
2086 4598 D
2090 4613 D
2090 4624 D
2086 4639 D
2083 4646 D
2075 4654 D
2064 4658 D
2056 4658 D
S
N
2056 4658 M
2049 4654 D
2041 4646 D
2038 4639 D
2034 4624 D
2034 4613 D
2038 4598 D
2041 4590 D
2049 4583 D
2056 4579 D
S
N
2064 4579 M
2071 4583 D
2079 4590 D
2083 4598 D
2086 4613 D
2086 4624 D
2083 4639 D
2079 4646 D
2071 4654 D
2064 4658 D
S
N
2173 4631 M
2188 4631 D
2210 4586 D
S
N
2184 4631 M
2210 4579 D
2244 4680 D
S
N
2293 4624 M
2296 4631 D
2296 4616 D
2293 4624 D
2289 4628 D
2281 4631 D
2266 4631 D
2259 4628 D
2255 4624 D
2255 4616 D
2259 4613 D
2266 4609 D
2285 4601 D
2293 4598 D
2296 4594 D
S
N
2255 4620 M
2259 4616 D
2266 4613 D
2285 4605 D
2293 4601 D
2296 4598 D
2296 4586 D
2293 4583 D
2285 4579 D
2270 4579 D
2263 4583 D
2259 4586 D
2255 4594 D
2255 4579 D
2259 4586 D
S
N
2248 4680 M
2330 4680 D
S
N
2405 4624 M
2473 4624 D
S
N
2405 4601 M
2473 4601 D
S
N
2563 4643 M
2566 4639 D
2563 4635 D
2559 4639 D
2559 4643 D
2563 4650 D
2566 4654 D
2578 4658 D
2593 4658 D
2604 4654 D
2608 4650 D
2611 4643 D
2611 4635 D
2608 4628 D
2596 4620 D
2578 4613 D
2570 4609 D
2563 4601 D
2559 4590 D
2559 4579 D
S
N
2593 4658 M
2600 4654 D
2604 4650 D
2608 4643 D
2608 4635 D
2604 4628 D
2593 4620 D
2578 4613 D
S
N
2559 4586 M
2563 4590 D
2570 4590 D
2589 4583 D
2600 4583 D
2608 4586 D
2611 4590 D
S
N
2570 4590 M
2589 4579 D
2604 4579 D
2608 4583 D
2611 4590 D
2611 4598 D
S
N
2641 4586 M
2638 4583 D
2641 4579 D
2645 4583 D
2641 4586 D
S
N
2671 4658 M
2671 4635 D
S
N
2671 4643 M
2675 4650 D
2683 4658 D
2690 4658 D
2709 4646 D
2716 4646 D
2720 4650 D
2724 4658 D
S
N
2675 4650 M
2683 4654 D
2690 4654 D
2709 4646 D
S
N
2724 4658 M
2724 4646 D
2720 4635 D
2705 4616 D
2701 4609 D
2698 4598 D
2698 4579 D
S
N
2720 4635 M
2701 4616 D
2698 4609 D
2694 4598 D
2694 4579 D
S
N
2791 4646 M
2788 4643 D
2791 4639 D
2795 4643 D
2795 4646 D
2791 4654 D
2784 4658 D
2773 4658 D
2761 4654 D
2754 4646 D
2750 4639 D
2746 4624 D
2746 4601 D
2750 4590 D
2758 4583 D
2769 4579 D
2776 4579 D
2788 4583 D
2795 4590 D
2799 4601 D
2799 4605 D
2795 4616 D
2788 4624 D
2776 4628 D
2773 4628 D
2761 4624 D
2754 4616 D
2750 4605 D
S
N
2773 4658 M
2765 4654 D
2758 4646 D
2754 4639 D
2750 4624 D
2750 4601 D
2754 4590 D
2761 4583 D
2769 4579 D
S
N
2776 4579 M
2784 4583 D
2791 4590 D
2795 4601 D
2795 4605 D
2791 4616 D
2784 4624 D
2776 4628 D
S
N
2904 4658 M
2904 4579 D
S
N
2908 4658 M
2908 4579 D
S
N
2881 4658 M
2878 4635 D
2878 4658 D
2934 4658 D
2934 4635 D
2930 4658 D
S
N
2893 4579 M
2919 4579 D
S
N
2956 4609 M
3001 4609 D
3001 4616 D
2998 4624 D
2994 4628 D
2986 4631 D
2975 4631 D
2964 4628 D
2956 4620 D
2953 4609 D
2953 4601 D
2956 4590 D
2964 4583 D
2975 4579 D
2983 4579 D
2994 4583 D
3001 4590 D
S
N
2998 4609 M
2998 4620 D
2994 4628 D
S
N
2975 4631 M
2968 4628 D
2960 4620 D
2956 4609 D
2956 4601 D
2960 4590 D
2968 4583 D
2975 4579 D
S
N
3024 4658 M
3050 4579 D
S
N
3028 4658 M
3050 4590 D
S
N
3076 4658 M
3050 4579 D
S
N
3016 4658 M
3039 4658 D
S
N
3061 4658 M
3084 4658 D
S
1.00 0.00 0.00 setrgbcolor
N
1250 3167 M
1650 3167 D
S
0.00 0.00 0.00 setrgbcolor
N
1828 3195 M
1828 3129 D
S
N
1831 3195 M
1831 3129 D
S
N
1819 3195 M
1856 3195 D
1866 3192 D
1869 3189 D
1872 3182 D
1872 3176 D
1869 3170 D
1866 3167 D
1856 3164 D
1831 3164 D
S
N
1856 3195 M
1863 3192 D
1866 3189 D
1869 3182 D
1869 3176 D
1866 3170 D
1863 3167 D
1856 3164 D
S
N
1819 3129 M
1841 3129 D
S
N
1847 3164 M
1853 3160 D
1856 3157 D
1866 3135 D
1869 3132 D
1872 3132 D
1875 3135 D
S
N
1853 3160 M
1856 3154 D
1863 3132 D
1866 3129 D
1872 3129 D
1875 3135 D
1875 3139 D
S
N
1896 3135 M
1896 3092 D
S
N
1898 3135 M
1898 3092 D
S
N
1890 3135 M
1915 3135 D
1921 3133 D
1923 3131 D
1925 3127 D
1925 3121 D
1923 3117 D
1921 3115 D
1915 3112 D
1898 3112 D
S
N
1915 3135 M
1919 3133 D
1921 3131 D
1923 3127 D
1923 3121 D
1921 3117 D
1919 3115 D
1915 3112 D
S
N
1890 3092 M
1904 3092 D
S
N
1942 3135 M
1942 3092 D
S
N
1944 3135 M
1944 3092 D
S
N
1944 3115 M
1948 3119 D
1952 3121 D
1956 3121 D
1963 3119 D
1967 3115 D
1969 3108 D
1969 3104 D
1967 3098 D
1963 3094 D
1956 3092 D
1952 3092 D
1948 3094 D
1944 3098 D
S
N
1956 3121 M
1961 3119 D
1965 3115 D
1967 3108 D
1967 3104 D
1965 3098 D
1961 3094 D
1956 3092 D
S
N
1936 3135 M
1944 3135 D
S
N
1986 3135 M
1986 3092 D
S
N
1988 3135 M
1988 3092 D
S
N
1979 3135 M
2004 3135 D
2011 3133 D
2013 3131 D
2015 3127 D
2015 3121 D
2013 3117 D
2011 3115 D
2004 3112 D
1988 3112 D
S
N
2004 3135 M
2009 3133 D
2011 3131 D
2013 3127 D
2013 3121 D
2011 3117 D
2009 3115 D
2004 3112 D
S
N
1979 3092 M
1994 3092 D
S
N
2032 3135 M
2032 3092 D
S
N
2034 3135 M
2034 3092 D
S
N
2034 3115 M
2038 3119 D
2042 3121 D
2046 3121 D
2052 3119 D
2057 3115 D
2059 3108 D
2059 3104 D
2057 3098 D
2052 3094 D
2046 3092 D
2042 3092 D
2038 3094 D
2034 3098 D
S
N
2046 3121 M
2050 3119 D
2055 3115 D
2057 3108 D
2057 3104 D
2055 3098 D
2050 3094 D
2046 3092 D
S
N
2025 3135 M
2034 3135 D
S
0.00 0.00 1.00 setrgbcolor
1250 2995 P
N
1220 2980 M
1220 3010 D
1235 3025 D
1265 3025 D
1280 3010 D
1280 2980 D
1265 2965 D
1235 2965 D
1220 2980 D
S
1450 2995 P
N
1420 2980 M
1420 3010 D
1435 3025 D
1465 3025 D
1480 3010 D
1480 2980 D
1465 2965 D
1435 2965 D
1420 2980 D
S
1650 2995 P
N
1620 2980 M
1620 3010 D
1635 3025 D
1665 3025 D
1680 3010 D
1680 2980 D
1665 2965 D
1635 2965 D
1620 2980 D
S
0.00 0.00 0.00 setrgbcolor
N
1828 3023 M
1828 2958 D
S
N
1831 3023 M
1831 2958 D
S
N
1819 3023 M
1856 3023 D
1866 3020 D
1869 3017 D
1872 3011 D
1872 3005 D
1869 2998 D
1866 2995 D
1856 2992 D
1831 2992 D
S
N
1856 3023 M
1863 3020 D
1866 3017 D
1869 3011 D
1869 3005 D
1866 2998 D
1863 2995 D
1856 2992 D
S
N
1819 2958 M
1841 2958 D
S
N
1847 2992 M
1853 2989 D
1856 2986 D
1866 2964 D
1869 2961 D
1872 2961 D
1875 2964 D
S
N
1853 2989 M
1856 2983 D
1863 2961 D
1866 2958 D
1872 2958 D
1875 2964 D
1875 2967 D
S
N
1896 2949 M
1896 2906 D
S
N
1898 2949 M
1898 2906 D
S
N
1898 2943 M
1902 2947 D
1906 2949 D
1911 2949 D
1917 2947 D
1921 2943 D
1923 2937 D
1923 2933 D
1921 2926 D
1917 2922 D
1911 2920 D
1906 2920 D
1902 2922 D
1898 2926 D
S
N
1911 2949 M
1915 2947 D
1919 2943 D
1921 2937 D
1921 2933 D
1919 2926 D
1915 2922 D
1911 2920 D
S
N
1890 2949 M
1898 2949 D
S
N
1890 2906 M
1904 2906 D
S
N
1940 2964 M
1940 2920 D
S
N
1942 2964 M
1942 2920 D
S
N
1933 2964 M
1959 2964 D
1965 2962 D
1967 2960 D
1969 2956 D
1969 2949 D
1967 2945 D
1965 2943 D
1959 2941 D
1942 2941 D
S
N
1959 2964 M
1963 2962 D
1965 2960 D
1967 2956 D
1967 2949 D
1965 2945 D
1963 2943 D
1959 2941 D
S
N
1933 2920 M
1948 2920 D
S
N
1986 2964 M
1986 2920 D
S
N
1988 2964 M
1988 2920 D
S
N
1988 2943 M
1992 2947 D
1996 2949 D
2000 2949 D
2007 2947 D
2011 2943 D
2013 2937 D
2013 2933 D
2011 2926 D
2007 2922 D
2000 2920 D
1996 2920 D
1992 2922 D
1988 2926 D
S
N
2000 2949 M
2004 2947 D
2009 2943 D
2011 2937 D
2011 2933 D
2009 2926 D
2004 2922 D
2000 2920 D
S
N
1979 2964 M
1988 2964 D
S
N
2049 3036 M
2043 3030 D
2037 3020 D
2031 3008 D
2027 2992 D
2027 2980 D
2031 2964 D
2037 2951 D
2043 2942 D
2049 2936 D
S
N
2043 3030 M
2037 3017 D
2034 3008 D
2031 2992 D
2031 2980 D
2034 2964 D
2037 2955 D
2043 2942 D
S
N
2099 3014 M
2099 2958 D
S
N
2071 2986 M
2128 2986 D
S
N
2153 3002 M
2171 2958 D
S
N
2156 3002 M
2171 2964 D
S
N
2190 3002 M
2171 2958 D
2165 2945 D
2159 2939 D
2153 2936 D
2150 2936 D
2146 2939 D
2150 2942 D
2153 2939 D
S
N
2146 3002 M
2165 3002 D
S
N
2178 3002 M
2197 3002 D
S
N
2209 3036 M
2215 3030 D
2222 3020 D
2228 3008 D
2231 2992 D
2231 2980 D
2228 2964 D
2222 2951 D
2215 2942 D
2209 2936 D
S
N
2215 3030 M
2222 3017 D
2225 3008 D
2228 2992 D
2228 2980 D
2225 2964 D
2222 2955 D
2215 2942 D
S
N
2316 3008 M
2334 2964 D
S
N
2334 3008 M
2316 2964 D
S
N
2303 2995 M
2347 2976 D
S
N
2347 2995 M
2303 2976 D
S
N
2422 3023 M
2422 2958 D
S
N
2425 3023 M
2425 2958 D
S
N
2413 3023 M
2450 3023 D
2460 3020 D
2463 3017 D
2466 3011 D
2466 3005 D
2463 2998 D
2460 2995 D
2450 2992 D
2425 2992 D
S
N
2450 3023 M
2456 3020 D
2460 3017 D
2463 3011 D
2463 3005 D
2460 2998 D
2456 2995 D
2450 2992 D
S
N
2413 2958 M
2435 2958 D
S
N
2441 2992 M
2447 2989 D
2450 2986 D
2460 2964 D
2463 2961 D
2466 2961 D
2469 2964 D
S
N
2447 2989 M
2450 2983 D
2456 2961 D
2460 2958 D
2466 2958 D
2469 2964 D
2469 2967 D
S
N
2490 2949 M
2490 2906 D
S
N
2492 2949 M
2492 2906 D
S
N
2492 2943 M
2496 2947 D
2500 2949 D
2504 2949 D
2511 2947 D
2515 2943 D
2517 2937 D
2517 2933 D
2515 2926 D
2511 2922 D
2504 2920 D
2500 2920 D
2496 2922 D
2492 2926 D
S
N
2504 2949 M
2509 2947 D
2513 2943 D
2515 2937 D
2515 2933 D
2513 2926 D
2509 2922 D
2504 2920 D
S
N
2484 2949 M
2492 2949 D
S
N
2484 2906 M
2498 2906 D
S
N
2534 2964 M
2534 2920 D
S
N
2536 2964 M
2536 2920 D
S
N
2527 2964 M
2552 2964 D
2559 2962 D
2561 2960 D
2563 2956 D
2563 2949 D
2561 2945 D
2559 2943 D
2552 2941 D
2536 2941 D
S
N
2552 2964 M
2557 2962 D
2559 2960 D
2561 2956 D
2561 2949 D
2559 2945 D
2557 2943 D
2552 2941 D
S
N
2527 2920 M
2542 2920 D
S
N
2580 2964 M
2580 2920 D
S
N
2582 2964 M
2582 2920 D
S
N
2582 2943 M
2586 2947 D
2590 2949 D
2594 2949 D
2600 2947 D
2605 2943 D
2607 2937 D
2607 2933 D
2605 2926 D
2600 2922 D
2594 2920 D
2590 2920 D
2586 2922 D
2582 2926 D
S
N
2594 2949 M
2598 2947 D
2603 2943 D
2605 2937 D
2605 2933 D
2603 2926 D
2598 2922 D
2594 2920 D
S
N
2573 2964 M
2582 2964 D
S
N
2643 3036 M
2637 3030 D
2631 3020 D
2624 3008 D
2621 2992 D
2621 2980 D
2624 2964 D
2631 2951 D
2637 2942 D
2643 2936 D
S
N
2637 3030 M
2631 3017 D
2628 3008 D
2624 2992 D
2624 2980 D
2628 2964 D
2631 2955 D
2637 2942 D
S
N
2665 2986 M
2722 2986 D
S
N
2747 3002 M
2765 2958 D
S
N
2750 3002 M
2765 2964 D
S
N
2784 3002 M
2765 2958 D
2759 2945 D
2753 2939 D
2747 2936 D
2743 2936 D
2740 2939 D
2743 2942 D
2747 2939 D
S
N
2740 3002 M
2759 3002 D
S
N
2772 3002 M
2790 3002 D
S
N
2803 3036 M
2809 3030 D
2815 3020 D
2822 3008 D
2825 2992 D
2825 2980 D
2822 2964 D
2815 2951 D
2809 2942 D
2803 2936 D
S
N
2809 3030 M
2815 3017 D
2819 3008 D
2822 2992 D
2822 2980 D
2819 2964 D
2815 2955 D
2809 2942 D
S
1.00 0.00 1.00 setrgbcolor
[39] 0 Sd
N
1250 2824 M
1650 2824 D
S
0.00 0.00 0.00 setrgbcolor
[] 0 Sd
N
1828 2852 M
1828 2786 D
S
N
1831 2852 M
1831 2786 D
S
N
1819 2852 M
1856 2852 D
1866 2849 D
1869 2846 D
1872 2840 D
1872 2833 D
1869 2827 D
1866 2824 D
1856 2821 D
1831 2821 D
S
N
1856 2852 M
1863 2849 D
1866 2846 D
1869 2840 D
1869 2833 D
1866 2827 D
1863 2824 D
1856 2821 D
S
N
1819 2786 M
1841 2786 D
S
N
1847 2821 M
1853 2818 D
1856 2814 D
1866 2793 D
1869 2789 D
1872 2789 D
1875 2793 D
S
N
1853 2818 M
1856 2811 D
1863 2789 D
1866 2786 D
1872 2786 D
1875 2793 D
1875 2796 D
S
N
1896 2778 M
1896 2734 D
S
N
1898 2778 M
1898 2734 D
S
N
1898 2772 M
1902 2776 D
1906 2778 D
1911 2778 D
1917 2776 D
1921 2772 D
1923 2765 D
1923 2761 D
1921 2755 D
1917 2751 D
1911 2749 D
1906 2749 D
1902 2751 D
1898 2755 D
S
N
1911 2778 M
1915 2776 D
1919 2772 D
1921 2765 D
1921 2761 D
1919 2755 D
1915 2751 D
1911 2749 D
S
N
1890 2778 M
1898 2778 D
S
N
1890 2734 M
1904 2734 D
S
N
1940 2793 M
1940 2749 D
S
N
1942 2793 M
1942 2749 D
S
N
1933 2793 M
1959 2793 D
1965 2790 D
1967 2788 D
1969 2784 D
1969 2778 D
1967 2774 D
1965 2772 D
1959 2770 D
1942 2770 D
S
N
1959 2793 M
1963 2790 D
1965 2788 D
1967 2784 D
1967 2778 D
1965 2774 D
1963 2772 D
1959 2770 D
S
N
1933 2749 M
1948 2749 D
S
N
1986 2793 M
1986 2749 D
S
N
1988 2793 M
1988 2749 D
S
N
1988 2772 M
1992 2776 D
1996 2778 D
2000 2778 D
2007 2776 D
2011 2772 D
2013 2765 D
2013 2761 D
2011 2755 D
2007 2751 D
2000 2749 D
1996 2749 D
1992 2751 D
1988 2755 D
S
N
2000 2778 M
2004 2776 D
2009 2772 D
2011 2765 D
2011 2761 D
2009 2755 D
2004 2751 D
2000 2749 D
S
N
1979 2793 M
1988 2793 D
S
N
2049 2865 M
2043 2858 D
2037 2849 D
2031 2836 D
2027 2821 D
2027 2808 D
2031 2793 D
2037 2780 D
2043 2771 D
2049 2764 D
S
N
2043 2858 M
2037 2846 D
2034 2836 D
2031 2821 D
2031 2808 D
2034 2793 D
2037 2783 D
2043 2771 D
S
N
2099 2843 M
2099 2786 D
S
N
2071 2814 M
2128 2814 D
S
N
2153 2830 M
2171 2786 D
S
N
2156 2830 M
2171 2793 D
S
N
2190 2830 M
2171 2786 D
2165 2774 D
2159 2767 D
2153 2764 D
2150 2764 D
2146 2767 D
2150 2771 D
2153 2767 D
S
N
2146 2830 M
2165 2830 D
S
N
2178 2830 M
2197 2830 D
S
N
2209 2865 M
2215 2858 D
2222 2849 D
2228 2836 D
2231 2821 D
2231 2808 D
2228 2793 D
2222 2780 D
2215 2771 D
2209 2764 D
S
N
2215 2858 M
2222 2846 D
2225 2836 D
2228 2821 D
2228 2808 D
2225 2793 D
2222 2783 D
2215 2771 D
S
1.00 0.00 1.00 setrgbcolor
[30 30 8 30] 0 Sd
N
1650 2652 M
1250 2652 D
S
0.00 0.00 0.00 setrgbcolor
[] 0 Sd
N
1828 2681 M
1828 2615 D
S
N
1831 2681 M
1831 2615 D
S
N
1819 2681 M
1856 2681 D
1866 2677 D
1869 2674 D
1872 2668 D
1872 2662 D
1869 2656 D
1866 2652 D
1856 2649 D
1831 2649 D
S
N
1856 2681 M
1863 2677 D
1866 2674 D
1869 2668 D
1869 2662 D
1866 2656 D
1863 2652 D
1856 2649 D
S
N
1819 2615 M
1841 2615 D
S
N
1847 2649 M
1853 2646 D
1856 2643 D
1866 2621 D
1869 2618 D
1872 2618 D
1875 2621 D
S
N
1853 2646 M
1856 2640 D
1863 2618 D
1866 2615 D
1872 2615 D
1875 2621 D
1875 2624 D
S
N
1896 2607 M
1896 2563 D
S
N
1898 2607 M
1898 2563 D
S
N
1898 2600 M
1902 2604 D
1906 2607 D
1911 2607 D
1917 2604 D
1921 2600 D
1923 2594 D
1923 2590 D
1921 2584 D
1917 2579 D
1911 2577 D
1906 2577 D
1902 2579 D
1898 2584 D
S
N
1911 2607 M
1915 2604 D
1919 2600 D
1921 2594 D
1921 2590 D
1919 2584 D
1915 2579 D
1911 2577 D
S
N
1890 2607 M
1898 2607 D
S
N
1890 2563 M
1904 2563 D
S
N
1940 2621 M
1940 2577 D
S
N
1942 2621 M
1942 2577 D
S
N
1933 2621 M
1959 2621 D
1965 2619 D
1967 2617 D
1969 2613 D
1969 2607 D
1967 2602 D
1965 2600 D
1959 2598 D
1942 2598 D
S
N
1959 2621 M
1963 2619 D
1965 2617 D
1967 2613 D
1967 2607 D
1965 2602 D
1963 2600 D
1959 2598 D
S
N
1933 2577 M
1948 2577 D
S
N
1986 2621 M
1986 2577 D
S
N
1988 2621 M
1988 2577 D
S
N
1988 2600 M
1992 2604 D
1996 2607 D
2000 2607 D
2007 2604 D
2011 2600 D
2013 2594 D
2013 2590 D
2011 2584 D
2007 2579 D
2000 2577 D
1996 2577 D
1992 2579 D
1988 2584 D
S
N
2000 2607 M
2004 2604 D
2009 2600 D
2011 2594 D
2011 2590 D
2009 2584 D
2004 2579 D
2000 2577 D
S
N
1979 2621 M
1988 2621 D
S
N
2049 2693 M
2043 2687 D
2037 2677 D
2031 2665 D
2027 2649 D
2027 2637 D
2031 2621 D
2037 2609 D
2043 2599 D
2049 2593 D
S
N
2043 2687 M
2037 2674 D
2034 2665 D
2031 2649 D
2031 2637 D
2034 2621 D
2037 2612 D
2043 2599 D
S
N
2071 2643 M
2128 2643 D
S
N
2153 2659 M
2171 2615 D
S
N
2156 2659 M
2171 2621 D
S
N
2190 2659 M
2171 2615 D
2165 2602 D
2159 2596 D
2153 2593 D
2150 2593 D
2146 2596 D
2150 2599 D
2153 2596 D
S
N
2146 2659 M
2165 2659 D
S
N
2178 2659 M
2197 2659 D
S
N
2209 2693 M
2215 2687 D
2222 2677 D
2228 2665 D
2231 2649 D
2231 2637 D
2228 2621 D
2222 2609 D
2215 2599 D
2209 2593 D
S
N
2215 2687 M
2222 2674 D
2225 2665 D
2228 2649 D
2228 2637 D
2225 2621 D
2222 2612 D
2215 2599 D
S
1.00 0.00 0.00 setrgbcolor
N
1050 3564 M
1058 3574 D
1087 3620 D
1118 3673 D
1147 3720 D
1170 3749 D
1195 3773 D
1220 3797 D
1247 3819 D
1274 3838 D
1305 3852 D
1333 3860 D
1362 3864 D
1390 3862 D
1417 3853 D
1440 3838 D
1468 3811 D
1494 3785 D
1521 3758 D
1548 3731 D
1575 3704 D
1602 3679 D
1628 3654 D
1655 3629 D
1682 3605 D
1710 3581 D
1735 3563 D
1761 3546 D
1788 3532 D
1816 3519 D
1845 3508 D
1872 3499 D
1898 3490 D
1925 3482 D
1952 3475 D
1980 3470 D
2007 3465 D
2034 3461 D
2061 3457 D
2088 3453 D
2115 3451 D
2142 3450 D
2169 3449 D
2196 3448 D
2223 3448 D
2250 3447 D
2277 3448 D
2304 3448 D
2331 3449 D
2358 3450 D
2385 3451 D
2412 3453 D
2439 3457 D
2466 3461 D
2493 3465 D
2520 3470 D
2548 3475 D
2575 3482 D
2602 3490 D
2628 3499 D
2655 3508 D
2684 3519 D
2712 3532 D
2739 3546 D
2765 3563 D
2790 3581 D
2818 3605 D
2845 3629 D
2872 3654 D
2898 3679 D
2925 3704 D
2952 3731 D
2979 3758 D
3006 3785 D
3032 3811 D
3060 3838 D
3083 3853 D
3110 3862 D
3138 3864 D
3167 3860 D
3195 3852 D
3226 3838 D
3253 3819 D
3280 3797 D
3305 3773 D
3330 3749 D
3353 3720 D
3382 3673 D
3413 3620 D
3442 3574 D
3450 3564 D
S
1.00 0.00 1.00 setrgbcolor
[39] 0 Sd
N
1050 4098 M
1070 4154 D
1091 4210 D
1115 4265 D
1141 4318 D
1170 4370 D
1189 4400 D
1211 4429 D
1234 4455 D
1261 4478 D
1290 4498 D
1315 4510 D
1341 4518 D
1367 4519 D
1390 4513 D
1410 4498 D
1436 4466 D
1461 4433 D
1485 4399 D
1508 4364 D
1530 4329 D
1554 4290 D
1578 4250 D
1601 4210 D
1625 4171 D
1650 4132 D
1671 4101 D
1694 4072 D
1718 4043 D
1743 4016 D
1770 3990 D
1793 3970 D
1816 3950 D
1840 3932 D
1864 3914 D
1890 3899 D
1913 3886 D
1937 3873 D
1961 3861 D
1985 3849 D
2010 3839 D
2034 3830 D
2058 3821 D
2081 3812 D
2106 3804 D
2130 3797 D
2154 3791 D
2178 3785 D
2202 3779 D
2226 3773 D
2250 3768 D
2274 3763 D
2298 3758 D
2322 3753 D
2346 3748 D
2370 3743 D
2394 3738 D
2418 3734 D
2442 3730 D
2466 3726 D
2490 3722 D
2514 3718 D
2538 3714 D
2562 3711 D
2586 3707 D
2610 3704 D
2634 3700 D
2658 3697 D
2682 3693 D
2706 3690 D
2730 3687 D
2754 3685 D
2778 3682 D
2802 3679 D
2826 3677 D
2850 3674 D
2874 3671 D
2898 3669 D
2922 3666 D
2946 3663 D
2970 3660 D
2994 3658 D
3018 3655 D
3042 3653 D
3066 3651 D
3090 3649 D
3114 3647 D
3138 3645 D
3162 3644 D
3186 3642 D
3210 3640 D
3234 3638 D
3258 3637 D
3282 3635 D
3306 3634 D
3330 3632 D
3354 3631 D
3378 3631 D
3402 3632 D
3426 3633 D
3450 3634 D
S
[30 30 8 30] 0 Sd
N
3450 4098 M
3430 4154 D
3409 4210 D
3385 4265 D
3359 4318 D
3330 4370 D
3311 4400 D
3289 4429 D
3266 4455 D
3239 4478 D
3210 4498 D
3185 4510 D
3159 4518 D
3133 4519 D
3110 4513 D
3090 4498 D
3064 4466 D
3039 4433 D
3015 4399 D
2992 4364 D
2970 4329 D
2946 4290 D
2922 4250 D
2899 4210 D
2875 4171 D
2850 4132 D
2829 4101 D
2806 4072 D
2782 4043 D
2757 4016 D
2730 3990 D
2707 3970 D
2684 3950 D
2660 3932 D
2636 3914 D
2610 3899 D
2587 3886 D
2563 3873 D
2539 3861 D
2515 3849 D
2490 3839 D
2466 3830 D
2442 3821 D
2419 3812 D
2394 3804 D
2370 3797 D
2346 3791 D
2322 3785 D
2298 3779 D
2274 3773 D
2250 3768 D
2226 3763 D
2202 3758 D
2178 3753 D
2154 3748 D
2130 3743 D
2106 3738 D
2082 3734 D
2058 3730 D
2034 3726 D
2010 3722 D
1986 3718 D
1962 3714 D
1938 3711 D
1914 3707 D
1890 3704 D
1866 3700 D
1842 3697 D
1818 3693 D
1794 3690 D
1770 3687 D
1746 3685 D
1722 3682 D
1698 3679 D
1674 3677 D
1650 3674 D
1626 3671 D
1602 3669 D
1578 3666 D
1554 3663 D
1530 3660 D
1506 3658 D
1482 3655 D
1458 3653 D
1434 3651 D
1410 3649 D
1386 3647 D
1362 3645 D
1338 3644 D
1314 3642 D
1290 3640 D
1266 3638 D
1242 3637 D
1218 3635 D
1194 3634 D
1170 3632 D
1146 3631 D
1122 3631 D
1098 3632 D
1074 3633 D
1050 3634 D
S
0.00 0.00 1.00 setrgbcolor
[] 0 Sd
1050 3569 P
1170 3750 P
N
1140 3735 M
1140 3765 D
1155 3780 D
1185 3780 D
1200 3765 D
1200 3735 D
1185 3720 D
1155 3720 D
1140 3735 D
S
1290 3845 P
N
1260 3830 M
1260 3860 D
1275 3875 D
1305 3875 D
1320 3860 D
1320 3830 D
1305 3815 D
1275 3815 D
1260 3830 D
S
1410 3855 P
N
1380 3840 M
1380 3870 D
1395 3885 D
1425 3885 D
1440 3870 D
1440 3840 D
1425 3825 D
1395 3825 D
1380 3840 D
S
1530 3753 P
N
1500 3738 M
1500 3768 D
1515 3783 D
1545 3783 D
1560 3768 D
1560 3738 D
1545 3723 D
1515 3723 D
1500 3738 D
S
1650 3630 P
N
1620 3615 M
1620 3645 D
1635 3660 D
1665 3660 D
1680 3645 D
1680 3615 D
1665 3600 D
1635 3600 D
1620 3615 D
S
1770 3543 P
N
1740 3528 M
1740 3558 D
1755 3573 D
1785 3573 D
1800 3558 D
1800 3528 D
1785 3513 D
1755 3513 D
1740 3528 D
S
1890 3492 P
N
1860 3477 M
1860 3507 D
1875 3522 D
1905 3522 D
1920 3507 D
1920 3477 D
1905 3462 D
1875 3462 D
1860 3477 D
S
2010 3464 P
N
1980 3449 M
1980 3479 D
1995 3494 D
2025 3494 D
2040 3479 D
2040 3449 D
2025 3434 D
1995 3434 D
1980 3449 D
S
2130 3450 P
N
2100 3435 M
2100 3465 D
2115 3480 D
2145 3480 D
2160 3465 D
2160 3435 D
2145 3420 D
2115 3420 D
2100 3435 D
S
2250 3447 P
N
2220 3432 M
2220 3462 D
2235 3477 D
2265 3477 D
2280 3462 D
2280 3432 D
2265 3417 D
2235 3417 D
2220 3432 D
S
2370 3450 P
N
2340 3435 M
2340 3465 D
2355 3480 D
2385 3480 D
2400 3465 D
2400 3435 D
2385 3420 D
2355 3420 D
2340 3435 D
S
2490 3464 P
N
2460 3449 M
2460 3479 D
2475 3494 D
2505 3494 D
2520 3479 D
2520 3449 D
2505 3434 D
2475 3434 D
2460 3449 D
S
2610 3492 P
N
2580 3477 M
2580 3507 D
2595 3522 D
2625 3522 D
2640 3507 D
2640 3477 D
2625 3462 D
2595 3462 D
2580 3477 D
S
2730 3543 P
N
2700 3528 M
2700 3558 D
2715 3573 D
2745 3573 D
2760 3558 D
2760 3528 D
2745 3513 D
2715 3513 D
2700 3528 D
S
2850 3630 P
N
2820 3615 M
2820 3645 D
2835 3660 D
2865 3660 D
2880 3645 D
2880 3615 D
2865 3600 D
2835 3600 D
2820 3615 D
S
2970 3753 P
N
2940 3738 M
2940 3768 D
2955 3783 D
2985 3783 D
3000 3768 D
3000 3738 D
2985 3723 D
2955 3723 D
2940 3738 D
S
3090 3855 P
N
3060 3840 M
3060 3870 D
3075 3885 D
3105 3885 D
3120 3870 D
3120 3840 D
3105 3825 D
3075 3825 D
3060 3840 D
S
3210 3845 P
N
3180 3830 M
3180 3860 D
3195 3875 D
3225 3875 D
3240 3860 D
3240 3830 D
3225 3815 D
3195 3815 D
3180 3830 D
S
3330 3750 P
N
3300 3735 M
3300 3765 D
3315 3780 D
3345 3780 D
3360 3765 D
3360 3735 D
3345 3720 D
3315 3720 D
3300 3735 D
S
3450 3569 P
N
3420 3554 M
3420 3584 D
3435 3599 D
3465 3599 D
3480 3584 D
3480 3554 D
3465 3539 D
3435 3539 D
3420 3554 D
S
showpage
%%Trailer
%%Pages: 1
%%BoundingBox: 73 260 421 589
