%!PS-Adobe-1.0
%%Creator: Unified Graphics System
%%Pages: (atend)
%%DocumentFonts: Helvetica
%%BoundingBox:   73  260  417  589
%%EndComments
/Sw{setlinewidth}def
/Sg{setgray}def
/Sd{setdash}def
/P {newpath
    moveto
0 0 rlineto
    stroke}def
/M {moveto}def
/D {lineto}def
/N {newpath}def
/S {stroke}def
/T {/Helvetica findfont
    exch
    scalefont
    setfont}def
/R {rotate}def
/W {show}def
/F {fill}def
/X {gsave}def
/Y {grestore}def
%%EndProlog
%%Page: 1 1
0.12000 0.12000 scale
1 setlinecap
1 setlinejoin
8 Sw
0.00 0.00 0.00 setrgbcolor
[] 0 Sd
N
2229 2278 M
2252 2226 D
S
N
2233 2278 M
2252 2233 D
S
N
2274 2278 M
2252 2226 D
2244 2211 D
2237 2203 D
2229 2200 D
2226 2200 D
2222 2203 D
2226 2207 D
2229 2203 D
S
N
2222 2278 M
2244 2278 D
S
N
2259 2278 M
2282 2278 D
S
N
656 2888 M
735 2888 D
S
N
656 2892 M
735 2892 D
S
N
656 2877 M
656 2922 D
660 2933 D
664 2937 D
671 2941 D
679 2941 D
686 2937 D
690 2933 D
694 2922 D
694 2892 D
S
N
656 2922 M
660 2930 D
664 2933 D
671 2937 D
679 2937 D
686 2933 D
690 2930 D
694 2922 D
S
N
735 2877 M
735 2903 D
S
N
694 2911 M
698 2918 D
701 2922 D
728 2933 D
731 2937 D
731 2941 D
728 2945 D
S
N
698 2918 M
705 2922 D
731 2930 D
735 2933 D
735 2941 D
728 2945 D
724 2945 D
S
N
728 2970 M
780 2970 D
S
N
728 2972 M
780 2972 D
S
N
728 2962 M
728 2992 D
730 3000 D
733 3002 D
738 3005 D
745 3005 D
750 3002 D
753 3000 D
755 2992 D
755 2972 D
S
N
728 2992 M
730 2997 D
733 3000 D
738 3002 D
745 3002 D
750 3000 D
753 2997 D
755 2992 D
S
N
780 2962 M
780 2980 D
S
N
728 3025 M
780 3025 D
S
N
728 3027 M
780 3027 D
S
N
753 3027 M
748 3032 D
745 3037 D
745 3042 D
748 3050 D
753 3055 D
760 3057 D
765 3057 D
773 3055 D
778 3050 D
780 3042 D
780 3037 D
778 3032 D
773 3027 D
S
N
745 3042 M
747 3047 D
752 3052 D
760 3055 D
765 3055 D
772 3052 D
777 3047 D
780 3042 D
S
N
727 3017 M
727 3027 D
S
N
727 3077 M
780 3077 D
S
N
727 3080 M
780 3080 D
S
N
727 3070 M
727 3100 D
730 3107 D
732 3110 D
737 3112 D
745 3112 D
750 3110 D
752 3107 D
755 3100 D
755 3080 D
S
N
727 3100 M
730 3105 D
732 3107 D
737 3110 D
745 3110 D
750 3107 D
752 3105 D
755 3100 D
S
N
780 3070 M
780 3087 D
S
N
727 3132 M
780 3132 D
S
N
727 3135 M
780 3135 D
S
N
752 3135 M
747 3140 D
745 3145 D
745 3150 D
747 3157 D
752 3162 D
760 3165 D
765 3165 D
772 3162 D
777 3157 D
780 3150 D
780 3145 D
777 3140 D
772 3135 D
S
N
745 3150 M
747 3155 D
752 3160 D
760 3162 D
765 3162 D
772 3160 D
777 3155 D
780 3150 D
S
N
727 3125 M
727 3135 D
S
N
735 3186 M
731 3182 D
727 3186 D
731 3190 D
739 3190 D
746 3186 D
750 3182 D
S
N
656 3283 M
735 3283 D
S
N
656 3287 M
735 3287 D
S
N
656 3272 M
656 3317 D
660 3328 D
664 3332 D
671 3336 D
679 3336 D
686 3332 D
690 3328 D
694 3317 D
694 3287 D
S
N
656 3317 M
660 3325 D
664 3328 D
671 3332 D
679 3332 D
686 3328 D
690 3325 D
694 3317 D
S
N
735 3272 M
735 3298 D
S
N
694 3306 M
698 3313 D
701 3317 D
728 3328 D
731 3332 D
731 3336 D
728 3340 D
S
N
698 3313 M
705 3317 D
731 3325 D
735 3328 D
735 3336 D
728 3340 D
724 3340 D
S
N
745 3365 M
797 3365 D
S
N
745 3367 M
797 3367 D
S
N
752 3367 M
747 3372 D
745 3377 D
745 3382 D
747 3390 D
752 3395 D
760 3397 D
765 3397 D
772 3395 D
777 3390 D
780 3382 D
780 3377 D
777 3372 D
772 3367 D
S
N
745 3382 M
747 3387 D
752 3392 D
760 3395 D
765 3395 D
772 3392 D
777 3387 D
780 3382 D
S
N
745 3357 M
745 3367 D
S
N
797 3357 M
797 3375 D
S
N
727 3417 M
780 3417 D
S
N
727 3420 M
780 3420 D
S
N
727 3410 M
727 3440 D
730 3447 D
732 3450 D
737 3452 D
745 3452 D
750 3450 D
752 3447 D
755 3440 D
755 3420 D
S
N
727 3440 M
730 3445 D
732 3447 D
737 3450 D
745 3450 D
750 3447 D
752 3445 D
755 3440 D
S
N
780 3410 M
780 3427 D
S
N
727 3472 M
780 3472 D
S
N
727 3475 M
780 3475 D
S
N
752 3475 M
747 3480 D
745 3485 D
745 3490 D
747 3497 D
752 3502 D
760 3505 D
765 3505 D
772 3502 D
777 3497 D
780 3490 D
780 3485 D
777 3480 D
772 3475 D
S
N
745 3490 M
747 3495 D
752 3500 D
760 3502 D
765 3502 D
772 3500 D
777 3495 D
780 3490 D
S
N
727 3465 M
727 3475 D
S
N
641 3548 M
649 3541 D
660 3533 D
675 3526 D
694 3522 D
709 3522 D
727 3526 D
742 3533 D
754 3541 D
761 3548 D
S
N
649 3541 M
664 3533 D
675 3530 D
694 3526 D
709 3526 D
727 3530 D
739 3533 D
754 3541 D
S
N
667 3608 M
735 3608 D
S
N
701 3575 M
701 3642 D
S
N
682 3672 M
735 3695 D
S
N
682 3676 M
727 3695 D
S
N
682 3717 M
735 3695 D
750 3687 D
757 3680 D
761 3672 D
761 3668 D
757 3665 D
754 3668 D
757 3672 D
S
N
682 3665 M
682 3687 D
S
N
682 3702 M
682 3725 D
S
N
641 3740 M
649 3747 D
660 3755 D
675 3762 D
694 3766 D
709 3766 D
727 3762 D
742 3755 D
754 3747 D
761 3740 D
S
N
649 3747 M
664 3755 D
675 3758 D
694 3762 D
709 3762 D
727 3758 D
739 3755 D
754 3747 D
S
N
675 3867 M
727 3890 D
S
N
675 3890 M
727 3867 D
S
N
690 3852 M
712 3905 D
S
N
690 3905 M
712 3852 D
S
N
656 3995 M
735 3995 D
S
N
656 3998 M
735 3998 D
S
N
656 3983 M
656 4028 D
660 4040 D
664 4043 D
671 4047 D
679 4047 D
686 4043 D
690 4040 D
694 4028 D
694 3998 D
S
N
656 4028 M
660 4036 D
664 4040 D
671 4043 D
679 4043 D
686 4040 D
690 4036 D
694 4028 D
S
N
735 3983 M
735 4010 D
S
N
694 4017 M
697 4025 D
701 4028 D
727 4040 D
731 4043 D
731 4047 D
727 4051 D
S
N
697 4025 M
705 4028 D
731 4036 D
735 4040 D
735 4047 D
727 4051 D
724 4051 D
S
N
745 4076 M
797 4076 D
S
N
745 4078 M
797 4078 D
S
N
752 4078 M
747 4083 D
745 4088 D
745 4093 D
747 4101 D
752 4106 D
760 4108 D
765 4108 D
772 4106 D
777 4101 D
780 4093 D
780 4088 D
777 4083 D
772 4078 D
S
N
745 4093 M
747 4098 D
752 4103 D
760 4106 D
765 4106 D
772 4103 D
777 4098 D
780 4093 D
S
N
745 4068 M
745 4078 D
S
N
797 4068 M
797 4086 D
S
N
727 4128 M
780 4128 D
S
N
727 4131 M
780 4131 D
S
N
727 4121 M
727 4151 D
730 4158 D
732 4161 D
737 4163 D
745 4163 D
750 4161 D
752 4158 D
755 4151 D
755 4131 D
S
N
727 4151 M
730 4156 D
732 4158 D
737 4161 D
745 4161 D
750 4158 D
752 4156 D
755 4151 D
S
N
780 4121 M
780 4138 D
S
N
727 4183 M
780 4183 D
S
N
727 4186 M
780 4186 D
S
N
752 4186 M
747 4191 D
745 4196 D
745 4201 D
747 4208 D
752 4213 D
760 4216 D
765 4216 D
772 4213 D
777 4208 D
780 4201 D
780 4196 D
777 4191 D
772 4186 D
S
N
745 4201 M
747 4206 D
752 4211 D
760 4213 D
765 4213 D
772 4211 D
777 4206 D
780 4201 D
S
N
727 4176 M
727 4186 D
S
N
641 4260 M
649 4252 D
660 4245 D
675 4237 D
694 4233 D
709 4233 D
727 4237 D
742 4245 D
754 4252 D
761 4260 D
S
N
649 4252 M
664 4245 D
675 4241 D
694 4237 D
709 4237 D
727 4241 D
739 4245 D
754 4252 D
S
N
701 4286 M
701 4353 D
S
N
682 4383 M
735 4406 D
S
N
682 4387 M
727 4406 D
S
N
682 4428 M
735 4406 D
750 4398 D
757 4391 D
761 4383 D
761 4380 D
757 4376 D
754 4380 D
757 4383 D
S
N
682 4376 M
682 4398 D
S
N
682 4413 M
682 4436 D
S
N
641 4451 M
649 4458 D
660 4466 D
675 4473 D
694 4477 D
709 4477 D
727 4473 D
742 4466 D
754 4458 D
761 4451 D
S
N
649 4458 M
664 4466 D
675 4470 D
694 4473 D
709 4473 D
727 4470 D
739 4466 D
754 4458 D
S
N
1050 4881 M
1050 2481 D
S
N
1050 2481 M
3450 2481 D
S
N
3450 2481 M
3450 4881 D
S
N
3450 4881 M
1050 4881 D
S
N
1050 4195 M
3450 4195 D
S
N
1050 2481 M
1050 2511 D
S
N
1150 2511 M
1150 2481 D
S
N
1250 2481 M
1250 2571 D
S
N
1350 2511 M
1350 2481 D
S
N
1450 2481 M
1450 2511 D
S
N
1550 2511 M
1550 2481 D
S
N
1650 2481 M
1650 2511 D
S
N
1750 2571 M
1750 2481 D
S
N
1850 2481 M
1850 2511 D
S
N
1950 2511 M
1950 2481 D
S
N
2050 2481 M
2050 2511 D
S
N
2150 2511 M
2150 2481 D
S
N
2250 2481 M
2250 2571 D
S
N
2350 2511 M
2350 2481 D
S
N
2450 2481 M
2450 2511 D
S
N
2550 2511 M
2550 2481 D
S
N
2650 2481 M
2650 2511 D
S
N
2750 2571 M
2750 2481 D
S
N
2850 2481 M
2850 2511 D
S
N
2950 2511 M
2950 2481 D
S
N
3050 2481 M
3050 2511 D
S
N
3150 2511 M
3150 2481 D
S
N
3250 2481 M
3250 2571 D
S
N
3350 2511 M
3350 2481 D
S
N
3450 2481 M
3450 2511 D
S
N
1165 2402 M
1210 2402 D
S
N
1232 2431 M
1227 2407 D
S
N
1227 2407 M
1232 2411 D
1240 2414 D
1247 2414 D
1255 2411 D
1260 2407 D
1262 2399 D
1262 2394 D
1260 2387 D
1255 2382 D
1247 2379 D
1240 2379 D
1232 2382 D
1230 2384 D
1227 2389 D
1227 2392 D
1230 2394 D
1232 2392 D
1230 2389 D
S
N
1247 2414 M
1252 2411 D
1257 2407 D
1260 2399 D
1260 2394 D
1257 2387 D
1252 2382 D
1247 2379 D
S
N
1232 2431 M
1257 2431 D
S
N
1232 2429 M
1245 2429 D
1257 2431 D
S
N
1282 2384 M
1280 2382 D
1282 2379 D
1285 2382 D
1282 2384 D
S
N
1317 2431 M
1310 2429 D
1305 2421 D
1302 2409 D
1302 2402 D
1305 2389 D
1310 2382 D
1317 2379 D
1322 2379 D
1330 2382 D
1335 2389 D
1337 2402 D
1337 2409 D
1335 2421 D
1330 2429 D
1322 2431 D
1317 2431 D
S
N
1317 2431 M
1312 2429 D
1310 2426 D
1307 2421 D
1305 2409 D
1305 2402 D
1307 2389 D
1310 2384 D
1312 2382 D
1317 2379 D
S
N
1322 2379 M
1327 2382 D
1330 2384 D
1332 2389 D
1335 2402 D
1335 2409 D
1332 2421 D
1330 2426 D
1327 2429 D
1322 2431 D
S
N
1665 2402 M
1710 2402 D
S
N
1730 2421 M
1732 2419 D
1730 2416 D
1727 2419 D
1727 2421 D
1730 2426 D
1732 2429 D
1740 2431 D
1750 2431 D
1757 2429 D
1760 2426 D
1762 2421 D
1762 2416 D
1760 2411 D
1752 2407 D
1740 2402 D
1735 2399 D
1730 2394 D
1727 2387 D
1727 2379 D
S
N
1750 2431 M
1755 2429 D
1757 2426 D
1760 2421 D
1760 2416 D
1757 2411 D
1750 2407 D
1740 2402 D
S
N
1727 2384 M
1730 2387 D
1735 2387 D
1747 2382 D
1755 2382 D
1760 2384 D
1762 2387 D
S
N
1735 2387 M
1747 2379 D
1757 2379 D
1760 2382 D
1762 2387 D
1762 2392 D
S
N
1782 2384 M
1780 2382 D
1782 2379 D
1785 2382 D
1782 2384 D
S
N
1807 2431 M
1802 2407 D
S
N
1802 2407 M
1807 2411 D
1815 2414 D
1822 2414 D
1830 2411 D
1835 2407 D
1837 2399 D
1837 2394 D
1835 2387 D
1830 2382 D
1822 2379 D
1815 2379 D
1807 2382 D
1805 2384 D
1802 2389 D
1802 2392 D
1805 2394 D
1807 2392 D
1805 2389 D
S
N
1822 2414 M
1827 2411 D
1832 2407 D
1835 2399 D
1835 2394 D
1832 2387 D
1827 2382 D
1822 2379 D
S
N
1807 2431 M
1832 2431 D
S
N
1807 2429 M
1820 2429 D
1832 2431 D
S
N
2210 2431 M
2203 2429 D
2198 2421 D
2195 2409 D
2195 2402 D
2198 2389 D
2203 2382 D
2210 2379 D
2215 2379 D
2222 2382 D
2227 2389 D
2230 2402 D
2230 2409 D
2227 2421 D
2222 2429 D
2215 2431 D
2210 2431 D
S
N
2210 2431 M
2205 2429 D
2203 2426 D
2200 2421 D
2198 2409 D
2198 2402 D
2200 2389 D
2203 2384 D
2205 2382 D
2210 2379 D
S
N
2215 2379 M
2220 2382 D
2222 2384 D
2225 2389 D
2227 2402 D
2227 2409 D
2225 2421 D
2222 2426 D
2220 2429 D
2215 2431 D
S
N
2250 2384 M
2247 2382 D
2250 2379 D
2252 2382 D
2250 2384 D
S
N
2285 2431 M
2277 2429 D
2272 2421 D
2270 2409 D
2270 2402 D
2272 2389 D
2277 2382 D
2285 2379 D
2290 2379 D
2297 2382 D
2302 2389 D
2305 2402 D
2305 2409 D
2302 2421 D
2297 2429 D
2290 2431 D
2285 2431 D
S
N
2285 2431 M
2280 2429 D
2277 2426 D
2275 2421 D
2272 2409 D
2272 2402 D
2275 2389 D
2277 2384 D
2280 2382 D
2285 2379 D
S
N
2290 2379 M
2295 2382 D
2297 2384 D
2300 2389 D
2302 2402 D
2302 2409 D
2300 2421 D
2297 2426 D
2295 2429 D
2290 2431 D
S
N
2698 2421 M
2700 2419 D
2698 2416 D
2695 2419 D
2695 2421 D
2698 2426 D
2700 2429 D
2708 2431 D
2718 2431 D
2725 2429 D
2727 2426 D
2730 2421 D
2730 2416 D
2727 2411 D
2720 2407 D
2708 2402 D
2703 2399 D
2698 2394 D
2695 2387 D
2695 2379 D
S
N
2718 2431 M
2722 2429 D
2725 2426 D
2727 2421 D
2727 2416 D
2725 2411 D
2718 2407 D
2708 2402 D
S
N
2695 2384 M
2698 2387 D
2703 2387 D
2715 2382 D
2722 2382 D
2727 2384 D
2730 2387 D
S
N
2703 2387 M
2715 2379 D
2725 2379 D
2727 2382 D
2730 2387 D
2730 2392 D
S
N
2750 2384 M
2747 2382 D
2750 2379 D
2752 2382 D
2750 2384 D
S
N
2775 2431 M
2770 2407 D
S
N
2770 2407 M
2775 2411 D
2782 2414 D
2790 2414 D
2797 2411 D
2802 2407 D
2805 2399 D
2805 2394 D
2802 2387 D
2797 2382 D
2790 2379 D
2782 2379 D
2775 2382 D
2772 2384 D
2770 2389 D
2770 2392 D
2772 2394 D
2775 2392 D
2772 2389 D
S
N
2790 2414 M
2795 2411 D
2800 2407 D
2802 2399 D
2802 2394 D
2800 2387 D
2795 2382 D
2790 2379 D
S
N
2775 2431 M
2800 2431 D
S
N
2775 2429 M
2787 2429 D
2800 2431 D
S
N
3200 2431 M
3195 2407 D
S
N
3195 2407 M
3200 2411 D
3208 2414 D
3215 2414 D
3222 2411 D
3227 2407 D
3230 2399 D
3230 2394 D
3227 2387 D
3222 2382 D
3215 2379 D
3208 2379 D
3200 2382 D
3198 2384 D
3195 2389 D
3195 2392 D
3198 2394 D
3200 2392 D
3198 2389 D
S
N
3215 2414 M
3220 2411 D
3225 2407 D
3227 2399 D
3227 2394 D
3225 2387 D
3220 2382 D
3215 2379 D
S
N
3200 2431 M
3225 2431 D
S
N
3200 2429 M
3213 2429 D
3225 2431 D
S
N
3250 2384 M
3247 2382 D
3250 2379 D
3252 2382 D
3250 2384 D
S
N
3285 2431 M
3277 2429 D
3272 2421 D
3270 2409 D
3270 2402 D
3272 2389 D
3277 2382 D
3285 2379 D
3290 2379 D
3297 2382 D
3302 2389 D
3305 2402 D
3305 2409 D
3302 2421 D
3297 2429 D
3290 2431 D
3285 2431 D
S
N
3285 2431 M
3280 2429 D
3277 2426 D
3275 2421 D
3272 2409 D
3272 2402 D
3275 2389 D
3277 2384 D
3280 2382 D
3285 2379 D
S
N
3290 2379 M
3295 2382 D
3297 2384 D
3300 2389 D
3302 2402 D
3302 2409 D
3300 2421 D
3297 2426 D
3295 2429 D
3290 2431 D
S
N
1050 4851 M
1050 4881 D
S
N
1150 4881 M
1150 4851 D
S
N
1250 4791 M
1250 4881 D
S
N
1350 4881 M
1350 4851 D
S
N
1450 4851 M
1450 4881 D
S
N
1550 4881 M
1550 4851 D
S
N
1650 4851 M
1650 4881 D
S
N
1750 4881 M
1750 4791 D
S
N
1850 4851 M
1850 4881 D
S
N
1950 4881 M
1950 4851 D
S
N
2050 4851 M
2050 4881 D
S
N
2150 4881 M
2150 4851 D
S
N
2250 4791 M
2250 4881 D
S
N
2350 4881 M
2350 4851 D
S
N
2450 4851 M
2450 4881 D
S
N
2550 4881 M
2550 4851 D
S
N
2650 4851 M
2650 4881 D
S
N
2750 4881 M
2750 4791 D
S
N
2850 4851 M
2850 4881 D
S
N
2950 4881 M
2950 4851 D
S
N
3050 4851 M
3050 4881 D
S
N
3150 4881 M
3150 4851 D
S
N
3250 4791 M
3250 4881 D
S
N
3350 4881 M
3350 4851 D
S
N
3450 4851 M
3450 4881 D
S
N
1050 2481 M
1140 2481 D
S
N
1080 2652 M
1050 2652 D
S
N
1050 2824 M
1080 2824 D
S
N
1080 2995 M
1050 2995 D
S
N
1050 3167 M
1080 3167 D
S
N
1140 3338 M
1050 3338 D
S
N
1050 3510 M
1080 3510 D
S
N
1080 3681 M
1050 3681 D
S
N
1050 3852 M
1080 3852 D
S
N
1080 4024 M
1050 4024 D
S
N
1050 4195 M
1140 4195 D
S
N
1080 4367 M
1050 4367 D
S
N
1050 4538 M
1080 4538 D
S
N
1080 4710 M
1050 4710 D
S
N
1050 4881 M
1080 4881 D
S
N
918 2503 M
910 2501 D
905 2493 D
903 2481 D
903 2474 D
905 2461 D
910 2454 D
918 2451 D
923 2451 D
930 2454 D
935 2461 D
937 2474 D
937 2481 D
935 2493 D
930 2501 D
923 2503 D
918 2503 D
S
N
918 2503 M
913 2501 D
910 2498 D
908 2493 D
905 2481 D
905 2474 D
908 2461 D
910 2456 D
913 2454 D
918 2451 D
S
N
923 2451 M
927 2454 D
930 2456 D
932 2461 D
935 2474 D
935 2481 D
932 2493 D
930 2498 D
927 2501 D
923 2503 D
S
N
957 2456 M
955 2454 D
957 2451 D
960 2454 D
957 2456 D
S
N
992 2503 M
985 2501 D
980 2493 D
977 2481 D
977 2474 D
980 2461 D
985 2454 D
992 2451 D
997 2451 D
1005 2454 D
1010 2461 D
1012 2474 D
1012 2481 D
1010 2493 D
1005 2501 D
997 2503 D
992 2503 D
S
N
992 2503 M
987 2501 D
985 2498 D
982 2493 D
980 2481 D
980 2474 D
982 2461 D
985 2456 D
987 2454 D
992 2451 D
S
N
997 2451 M
1002 2454 D
1005 2456 D
1007 2461 D
1010 2474 D
1010 2481 D
1007 2493 D
1005 2498 D
1002 2501 D
997 2503 D
S
N
918 3361 M
910 3358 D
905 3351 D
903 3338 D
903 3331 D
905 3318 D
910 3311 D
918 3308 D
923 3308 D
930 3311 D
935 3318 D
937 3331 D
937 3338 D
935 3351 D
930 3358 D
923 3361 D
918 3361 D
S
N
918 3361 M
913 3358 D
910 3356 D
908 3351 D
905 3338 D
905 3331 D
908 3318 D
910 3313 D
913 3311 D
918 3308 D
S
N
923 3308 M
927 3311 D
930 3313 D
932 3318 D
935 3331 D
935 3338 D
932 3351 D
930 3356 D
927 3358 D
923 3361 D
S
N
957 3313 M
955 3311 D
957 3308 D
960 3311 D
957 3313 D
S
N
982 3361 M
977 3336 D
S
N
977 3336 M
982 3341 D
990 3343 D
997 3343 D
1005 3341 D
1010 3336 D
1012 3328 D
1012 3323 D
1010 3316 D
1005 3311 D
997 3308 D
990 3308 D
982 3311 D
980 3313 D
977 3318 D
977 3321 D
980 3323 D
982 3321 D
980 3318 D
S
N
997 3343 M
1002 3341 D
1007 3336 D
1010 3328 D
1010 3323 D
1007 3316 D
1002 3311 D
997 3308 D
S
N
982 3361 M
1007 3361 D
S
N
982 3358 M
995 3358 D
1007 3361 D
S
N
910 4208 M
915 4210 D
923 4218 D
923 4165 D
S
N
920 4215 M
920 4165 D
S
N
910 4165 M
932 4165 D
S
N
957 4170 M
955 4168 D
957 4165 D
960 4168 D
957 4170 D
S
N
992 4218 M
985 4215 D
980 4208 D
977 4195 D
977 4188 D
980 4175 D
985 4168 D
992 4165 D
997 4165 D
1005 4168 D
1010 4175 D
1012 4188 D
1012 4195 D
1010 4208 D
1005 4215 D
997 4218 D
992 4218 D
S
N
992 4218 M
987 4215 D
985 4213 D
982 4208 D
980 4195 D
980 4188 D
982 4175 D
985 4170 D
987 4168 D
992 4165 D
S
N
997 4165 M
1002 4168 D
1005 4170 D
1007 4175 D
1010 4188 D
1010 4195 D
1007 4208 D
1005 4213 D
1002 4215 D
997 4218 D
S
N
3360 2481 M
3450 2481 D
S
N
3450 2652 M
3420 2652 D
S
N
3420 2824 M
3450 2824 D
S
N
3450 2995 M
3420 2995 D
S
N
3420 3167 M
3450 3167 D
S
N
3450 3338 M
3360 3338 D
S
N
3420 3510 M
3450 3510 D
S
N
3450 3681 M
3420 3681 D
S
N
3420 3852 M
3450 3852 D
S
N
3450 4024 M
3420 4024 D
S
N
3360 4195 M
3450 4195 D
S
N
3450 4367 M
3420 4367 D
S
N
3420 4538 M
3450 4538 D
S
N
3450 4710 M
3420 4710 D
S
N
3420 4881 M
3450 4881 D
S
N
1524 4658 M
1524 4579 D
S
N
1527 4658 M
1527 4579 D
S
N
1550 4635 M
1550 4605 D
S
N
1512 4658 M
1572 4658 D
1572 4635 D
1569 4658 D
S
N
1527 4620 M
1550 4620 D
S
N
1512 4579 M
1572 4579 D
1572 4601 D
1569 4579 D
S
N
1602 4658 M
1602 4579 D
S
N
1606 4658 M
1606 4579 D
S
N
1591 4658 M
1636 4658 D
1647 4654 D
1651 4650 D
1655 4643 D
1655 4631 D
1651 4624 D
1647 4620 D
1636 4616 D
1606 4616 D
S
N
1636 4658 M
1644 4654 D
1647 4650 D
1651 4643 D
1651 4631 D
1647 4624 D
1644 4620 D
1636 4616 D
S
N
1591 4579 M
1617 4579 D
S
N
1726 4646 M
1730 4658 D
1730 4635 D
1726 4646 D
1719 4654 D
1707 4658 D
1696 4658 D
1685 4654 D
1677 4646 D
1677 4639 D
1681 4631 D
1685 4628 D
1692 4624 D
1715 4616 D
1722 4613 D
1730 4605 D
S
N
1677 4639 M
1685 4631 D
1692 4628 D
1715 4620 D
1722 4616 D
1726 4613 D
1730 4605 D
1730 4590 D
1722 4583 D
1711 4579 D
1700 4579 D
1689 4583 D
1681 4590 D
1677 4601 D
1677 4579 D
1681 4590 D
S
N
1775 4658 M
1764 4654 D
1756 4643 D
1752 4624 D
1752 4613 D
1756 4594 D
1764 4583 D
1775 4579 D
1782 4579 D
1794 4583 D
1801 4594 D
1805 4613 D
1805 4624 D
1801 4643 D
1794 4654 D
1782 4658 D
1775 4658 D
S
N
1775 4658 M
1767 4654 D
1764 4650 D
1760 4643 D
1756 4624 D
1756 4613 D
1760 4594 D
1764 4586 D
1767 4583 D
1775 4579 D
S
N
1782 4579 M
1790 4583 D
1794 4586 D
1797 4594 D
1801 4613 D
1801 4624 D
1797 4643 D
1794 4650 D
1790 4654 D
1782 4658 D
S
N
1876 4631 M
1873 4620 D
1865 4613 D
1854 4609 D
1850 4609 D
1839 4613 D
1831 4620 D
1828 4631 D
1828 4635 D
1831 4646 D
1839 4654 D
1850 4658 D
1858 4658 D
1869 4654 D
1876 4646 D
1880 4635 D
1880 4613 D
1876 4598 D
1873 4590 D
1865 4583 D
1854 4579 D
1843 4579 D
1835 4583 D
1831 4590 D
1831 4594 D
1835 4598 D
1839 4594 D
1835 4590 D
S
N
1850 4609 M
1843 4613 D
1835 4620 D
1831 4631 D
1831 4635 D
1835 4646 D
1843 4654 D
1850 4658 D
S
N
1858 4658 M
1865 4654 D
1873 4646 D
1876 4635 D
1876 4613 D
1873 4598 D
1869 4590 D
1861 4583 D
1854 4579 D
S
N
1970 4658 M
1970 4579 D
S
N
1974 4658 M
2019 4586 D
S
N
1974 4650 M
2019 4579 D
S
N
2019 4658 M
2019 4579 D
S
N
1959 4658 M
1974 4658 D
S
N
2008 4658 M
2030 4658 D
S
N
1959 4579 M
1981 4579 D
S
N
2056 4658 M
2056 4579 D
S
N
2060 4658 M
2060 4579 D
S
N
2045 4658 M
2071 4658 D
S
N
2045 4579 M
2101 4579 D
2101 4601 D
2098 4579 D
S
N
2143 4658 M
2131 4654 D
2124 4646 D
2120 4639 D
2116 4624 D
2116 4613 D
2120 4598 D
2124 4590 D
2131 4583 D
2143 4579 D
2150 4579 D
2161 4583 D
2169 4590 D
2173 4598 D
2176 4613 D
2176 4624 D
2173 4639 D
2169 4646 D
2161 4654 D
2150 4658 D
2143 4658 D
S
N
2143 4658 M
2135 4654 D
2128 4646 D
2124 4639 D
2120 4624 D
2120 4613 D
2124 4598 D
2128 4590 D
2135 4583 D
2143 4579 D
S
N
2150 4579 M
2158 4583 D
2165 4590 D
2169 4598 D
2173 4613 D
2173 4624 D
2169 4639 D
2165 4646 D
2158 4654 D
2150 4658 D
S
N
2259 4631 M
2274 4631 D
2296 4586 D
S
N
2270 4631 M
2296 4579 D
2330 4680 D
S
N
2379 4624 M
2383 4631 D
2383 4616 D
2379 4624 D
2375 4628 D
2368 4631 D
2353 4631 D
2345 4628 D
2341 4624 D
2341 4616 D
2345 4613 D
2353 4609 D
2371 4601 D
2379 4598 D
2383 4594 D
S
N
2341 4620 M
2345 4616 D
2353 4613 D
2371 4605 D
2379 4601 D
2383 4598 D
2383 4586 D
2379 4583 D
2371 4579 D
2356 4579 D
2349 4583 D
2345 4586 D
2341 4594 D
2341 4579 D
2345 4586 D
S
N
2334 4680 M
2416 4680 D
S
N
2491 4624 M
2559 4624 D
S
N
2491 4601 M
2559 4601 D
S
N
2649 4643 M
2653 4639 D
2649 4635 D
2645 4639 D
2645 4643 D
2649 4650 D
2653 4654 D
2664 4658 D
2679 4658 D
2690 4654 D
2694 4650 D
2698 4643 D
2698 4635 D
2694 4628 D
2683 4620 D
2664 4613 D
2656 4609 D
2649 4601 D
2645 4590 D
2645 4579 D
S
N
2679 4658 M
2686 4654 D
2690 4650 D
2694 4643 D
2694 4635 D
2690 4628 D
2679 4620 D
2664 4613 D
S
N
2645 4586 M
2649 4590 D
2656 4590 D
2675 4583 D
2686 4583 D
2694 4586 D
2698 4590 D
S
N
2656 4590 M
2675 4579 D
2690 4579 D
2694 4583 D
2698 4590 D
2698 4598 D
S
N
2728 4586 M
2724 4583 D
2728 4579 D
2731 4583 D
2728 4586 D
S
N
2758 4658 M
2758 4635 D
S
N
2758 4643 M
2761 4650 D
2769 4658 D
2776 4658 D
2795 4646 D
2803 4646 D
2806 4650 D
2810 4658 D
S
N
2761 4650 M
2769 4654 D
2776 4654 D
2795 4646 D
S
N
2810 4658 M
2810 4646 D
2806 4635 D
2791 4616 D
2788 4609 D
2784 4598 D
2784 4579 D
S
N
2806 4635 M
2788 4616 D
2784 4609 D
2780 4598 D
2780 4579 D
S
N
2878 4646 M
2874 4643 D
2878 4639 D
2881 4643 D
2881 4646 D
2878 4654 D
2870 4658 D
2859 4658 D
2848 4654 D
2840 4646 D
2836 4639 D
2833 4624 D
2833 4601 D
2836 4590 D
2844 4583 D
2855 4579 D
2863 4579 D
2874 4583 D
2881 4590 D
2885 4601 D
2885 4605 D
2881 4616 D
2874 4624 D
2863 4628 D
2859 4628 D
2848 4624 D
2840 4616 D
2836 4605 D
S
N
2859 4658 M
2851 4654 D
2844 4646 D
2840 4639 D
2836 4624 D
2836 4601 D
2840 4590 D
2848 4583 D
2855 4579 D
S
N
2863 4579 M
2870 4583 D
2878 4590 D
2881 4601 D
2881 4605 D
2878 4616 D
2870 4624 D
2863 4628 D
S
N
2990 4658 M
2990 4579 D
S
N
2994 4658 M
2994 4579 D
S
N
2968 4658 M
2964 4635 D
2964 4658 D
3020 4658 D
3020 4635 D
3016 4658 D
S
N
2979 4579 M
3005 4579 D
S
N
3043 4609 M
3088 4609 D
3088 4616 D
3084 4624 D
3080 4628 D
3073 4631 D
3061 4631 D
3050 4628 D
3043 4620 D
3039 4609 D
3039 4601 D
3043 4590 D
3050 4583 D
3061 4579 D
3069 4579 D
3080 4583 D
3088 4590 D
S
N
3084 4609 M
3084 4620 D
3080 4628 D
S
N
3061 4631 M
3054 4628 D
3046 4620 D
3043 4609 D
3043 4601 D
3046 4590 D
3054 4583 D
3061 4579 D
S
N
3110 4658 M
3136 4579 D
S
N
3114 4658 M
3136 4590 D
S
N
3163 4658 M
3136 4579 D
S
N
3103 4658 M
3125 4658 D
S
N
3148 4658 M
3170 4658 D
S
1.00 0.00 0.00 setrgbcolor
N
1250 3167 M
1650 3167 D
S
0.00 0.00 0.00 setrgbcolor
N
1828 3195 M
1828 3129 D
S
N
1831 3195 M
1831 3129 D
S
N
1819 3195 M
1856 3195 D
1866 3192 D
1869 3189 D
1872 3182 D
1872 3176 D
1869 3170 D
1866 3167 D
1856 3164 D
1831 3164 D
S
N
1856 3195 M
1863 3192 D
1866 3189 D
1869 3182 D
1869 3176 D
1866 3170 D
1863 3167 D
1856 3164 D
S
N
1819 3129 M
1841 3129 D
S
N
1847 3164 M
1853 3160 D
1856 3157 D
1866 3135 D
1869 3132 D
1872 3132 D
1875 3135 D
S
N
1853 3160 M
1856 3154 D
1863 3132 D
1866 3129 D
1872 3129 D
1875 3135 D
1875 3139 D
S
N
1896 3135 M
1896 3092 D
S
N
1898 3135 M
1898 3092 D
S
N
1890 3135 M
1915 3135 D
1921 3133 D
1923 3131 D
1925 3127 D
1925 3121 D
1923 3117 D
1921 3115 D
1915 3112 D
1898 3112 D
S
N
1915 3135 M
1919 3133 D
1921 3131 D
1923 3127 D
1923 3121 D
1921 3117 D
1919 3115 D
1915 3112 D
S
N
1890 3092 M
1904 3092 D
S
N
1942 3135 M
1942 3092 D
S
N
1944 3135 M
1944 3092 D
S
N
1944 3115 M
1948 3119 D
1952 3121 D
1956 3121 D
1963 3119 D
1967 3115 D
1969 3108 D
1969 3104 D
1967 3098 D
1963 3094 D
1956 3092 D
1952 3092 D
1948 3094 D
1944 3098 D
S
N
1956 3121 M
1961 3119 D
1965 3115 D
1967 3108 D
1967 3104 D
1965 3098 D
1961 3094 D
1956 3092 D
S
N
1936 3135 M
1944 3135 D
S
N
1986 3135 M
1986 3092 D
S
N
1988 3135 M
1988 3092 D
S
N
1979 3135 M
2004 3135 D
2011 3133 D
2013 3131 D
2015 3127 D
2015 3121 D
2013 3117 D
2011 3115 D
2004 3112 D
1988 3112 D
S
N
2004 3135 M
2009 3133 D
2011 3131 D
2013 3127 D
2013 3121 D
2011 3117 D
2009 3115 D
2004 3112 D
S
N
1979 3092 M
1994 3092 D
S
N
2032 3135 M
2032 3092 D
S
N
2034 3135 M
2034 3092 D
S
N
2034 3115 M
2038 3119 D
2042 3121 D
2046 3121 D
2052 3119 D
2057 3115 D
2059 3108 D
2059 3104 D
2057 3098 D
2052 3094 D
2046 3092 D
2042 3092 D
2038 3094 D
2034 3098 D
S
N
2046 3121 M
2050 3119 D
2055 3115 D
2057 3108 D
2057 3104 D
2055 3098 D
2050 3094 D
2046 3092 D
S
N
2025 3135 M
2034 3135 D
S
0.00 0.00 1.00 setrgbcolor
1250 2995 P
N
1220 2980 M
1220 3010 D
1235 3025 D
1265 3025 D
1280 3010 D
1280 2980 D
1265 2965 D
1235 2965 D
1220 2980 D
S
1450 2995 P
N
1420 2980 M
1420 3010 D
1435 3025 D
1465 3025 D
1480 3010 D
1480 2980 D
1465 2965 D
1435 2965 D
1420 2980 D
S
1650 2995 P
N
1620 2980 M
1620 3010 D
1635 3025 D
1665 3025 D
1680 3010 D
1680 2980 D
1665 2965 D
1635 2965 D
1620 2980 D
S
0.00 0.00 0.00 setrgbcolor
N
1828 3023 M
1828 2958 D
S
N
1831 3023 M
1831 2958 D
S
N
1819 3023 M
1856 3023 D
1866 3020 D
1869 3017 D
1872 3011 D
1872 3005 D
1869 2998 D
1866 2995 D
1856 2992 D
1831 2992 D
S
N
1856 3023 M
1863 3020 D
1866 3017 D
1869 3011 D
1869 3005 D
1866 2998 D
1863 2995 D
1856 2992 D
S
N
1819 2958 M
1841 2958 D
S
N
1847 2992 M
1853 2989 D
1856 2986 D
1866 2964 D
1869 2961 D
1872 2961 D
1875 2964 D
S
N
1853 2989 M
1856 2983 D
1863 2961 D
1866 2958 D
1872 2958 D
1875 2964 D
1875 2967 D
S
N
1896 2949 M
1896 2906 D
S
N
1898 2949 M
1898 2906 D
S
N
1898 2943 M
1902 2947 D
1906 2949 D
1911 2949 D
1917 2947 D
1921 2943 D
1923 2937 D
1923 2933 D
1921 2926 D
1917 2922 D
1911 2920 D
1906 2920 D
1902 2922 D
1898 2926 D
S
N
1911 2949 M
1915 2947 D
1919 2943 D
1921 2937 D
1921 2933 D
1919 2926 D
1915 2922 D
1911 2920 D
S
N
1890 2949 M
1898 2949 D
S
N
1890 2906 M
1904 2906 D
S
N
1940 2964 M
1940 2920 D
S
N
1942 2964 M
1942 2920 D
S
N
1933 2964 M
1959 2964 D
1965 2962 D
1967 2960 D
1969 2956 D
1969 2949 D
1967 2945 D
1965 2943 D
1959 2941 D
1942 2941 D
S
N
1959 2964 M
1963 2962 D
1965 2960 D
1967 2956 D
1967 2949 D
1965 2945 D
1963 2943 D
1959 2941 D
S
N
1933 2920 M
1948 2920 D
S
N
1986 2964 M
1986 2920 D
S
N
1988 2964 M
1988 2920 D
S
N
1988 2943 M
1992 2947 D
1996 2949 D
2000 2949 D
2007 2947 D
2011 2943 D
2013 2937 D
2013 2933 D
2011 2926 D
2007 2922 D
2000 2920 D
1996 2920 D
1992 2922 D
1988 2926 D
S
N
2000 2949 M
2004 2947 D
2009 2943 D
2011 2937 D
2011 2933 D
2009 2926 D
2004 2922 D
2000 2920 D
S
N
1979 2964 M
1988 2964 D
S
N
2049 3036 M
2043 3030 D
2037 3020 D
2031 3008 D
2027 2992 D
2027 2980 D
2031 2964 D
2037 2951 D
2043 2942 D
2049 2936 D
S
N
2043 3030 M
2037 3017 D
2034 3008 D
2031 2992 D
2031 2980 D
2034 2964 D
2037 2955 D
2043 2942 D
S
N
2099 3014 M
2099 2958 D
S
N
2071 2986 M
2128 2986 D
S
N
2153 3002 M
2171 2958 D
S
N
2156 3002 M
2171 2964 D
S
N
2190 3002 M
2171 2958 D
2165 2945 D
2159 2939 D
2153 2936 D
2150 2936 D
2146 2939 D
2150 2942 D
2153 2939 D
S
N
2146 3002 M
2165 3002 D
S
N
2178 3002 M
2197 3002 D
S
N
2209 3036 M
2215 3030 D
2222 3020 D
2228 3008 D
2231 2992 D
2231 2980 D
2228 2964 D
2222 2951 D
2215 2942 D
2209 2936 D
S
N
2215 3030 M
2222 3017 D
2225 3008 D
2228 2992 D
2228 2980 D
2225 2964 D
2222 2955 D
2215 2942 D
S
N
2316 3008 M
2334 2964 D
S
N
2334 3008 M
2316 2964 D
S
N
2303 2995 M
2347 2976 D
S
N
2347 2995 M
2303 2976 D
S
N
2422 3023 M
2422 2958 D
S
N
2425 3023 M
2425 2958 D
S
N
2413 3023 M
2450 3023 D
2460 3020 D
2463 3017 D
2466 3011 D
2466 3005 D
2463 2998 D
2460 2995 D
2450 2992 D
2425 2992 D
S
N
2450 3023 M
2456 3020 D
2460 3017 D
2463 3011 D
2463 3005 D
2460 2998 D
2456 2995 D
2450 2992 D
S
N
2413 2958 M
2435 2958 D
S
N
2441 2992 M
2447 2989 D
2450 2986 D
2460 2964 D
2463 2961 D
2466 2961 D
2469 2964 D
S
N
2447 2989 M
2450 2983 D
2456 2961 D
2460 2958 D
2466 2958 D
2469 2964 D
2469 2967 D
S
N
2490 2949 M
2490 2906 D
S
N
2492 2949 M
2492 2906 D
S
N
2492 2943 M
2496 2947 D
2500 2949 D
2504 2949 D
2511 2947 D
2515 2943 D
2517 2937 D
2517 2933 D
2515 2926 D
2511 2922 D
2504 2920 D
2500 2920 D
2496 2922 D
2492 2926 D
S
N
2504 2949 M
2509 2947 D
2513 2943 D
2515 2937 D
2515 2933 D
2513 2926 D
2509 2922 D
2504 2920 D
S
N
2484 2949 M
2492 2949 D
S
N
2484 2906 M
2498 2906 D
S
N
2534 2964 M
2534 2920 D
S
N
2536 2964 M
2536 2920 D
S
N
2527 2964 M
2552 2964 D
2559 2962 D
2561 2960 D
2563 2956 D
2563 2949 D
2561 2945 D
2559 2943 D
2552 2941 D
2536 2941 D
S
N
2552 2964 M
2557 2962 D
2559 2960 D
2561 2956 D
2561 2949 D
2559 2945 D
2557 2943 D
2552 2941 D
S
N
2527 2920 M
2542 2920 D
S
N
2580 2964 M
2580 2920 D
S
N
2582 2964 M
2582 2920 D
S
N
2582 2943 M
2586 2947 D
2590 2949 D
2594 2949 D
2600 2947 D
2605 2943 D
2607 2937 D
2607 2933 D
2605 2926 D
2600 2922 D
2594 2920 D
2590 2920 D
2586 2922 D
2582 2926 D
S
N
2594 2949 M
2598 2947 D
2603 2943 D
2605 2937 D
2605 2933 D
2603 2926 D
2598 2922 D
2594 2920 D
S
N
2573 2964 M
2582 2964 D
S
N
2643 3036 M
2637 3030 D
2631 3020 D
2624 3008 D
2621 2992 D
2621 2980 D
2624 2964 D
2631 2951 D
2637 2942 D
2643 2936 D
S
N
2637 3030 M
2631 3017 D
2628 3008 D
2624 2992 D
2624 2980 D
2628 2964 D
2631 2955 D
2637 2942 D
S
N
2665 2986 M
2722 2986 D
S
N
2747 3002 M
2765 2958 D
S
N
2750 3002 M
2765 2964 D
S
N
2784 3002 M
2765 2958 D
2759 2945 D
2753 2939 D
2747 2936 D
2743 2936 D
2740 2939 D
2743 2942 D
2747 2939 D
S
N
2740 3002 M
2759 3002 D
S
N
2772 3002 M
2790 3002 D
S
N
2803 3036 M
2809 3030 D
2815 3020 D
2822 3008 D
2825 2992 D
2825 2980 D
2822 2964 D
2815 2951 D
2809 2942 D
2803 2936 D
S
N
2809 3030 M
2815 3017 D
2819 3008 D
2822 2992 D
2822 2980 D
2819 2964 D
2815 2955 D
2809 2942 D
S
1.00 0.00 1.00 setrgbcolor
[39] 0 Sd
N
1250 2824 M
1650 2824 D
S
0.00 0.00 0.00 setrgbcolor
[] 0 Sd
N
1828 2852 M
1828 2786 D
S
N
1831 2852 M
1831 2786 D
S
N
1819 2852 M
1856 2852 D
1866 2849 D
1869 2846 D
1872 2840 D
1872 2833 D
1869 2827 D
1866 2824 D
1856 2821 D
1831 2821 D
S
N
1856 2852 M
1863 2849 D
1866 2846 D
1869 2840 D
1869 2833 D
1866 2827 D
1863 2824 D
1856 2821 D
S
N
1819 2786 M
1841 2786 D
S
N
1847 2821 M
1853 2818 D
1856 2814 D
1866 2793 D
1869 2789 D
1872 2789 D
1875 2793 D
S
N
1853 2818 M
1856 2811 D
1863 2789 D
1866 2786 D
1872 2786 D
1875 2793 D
1875 2796 D
S
N
1896 2778 M
1896 2734 D
S
N
1898 2778 M
1898 2734 D
S
N
1898 2772 M
1902 2776 D
1906 2778 D
1911 2778 D
1917 2776 D
1921 2772 D
1923 2765 D
1923 2761 D
1921 2755 D
1917 2751 D
1911 2749 D
1906 2749 D
1902 2751 D
1898 2755 D
S
N
1911 2778 M
1915 2776 D
1919 2772 D
1921 2765 D
1921 2761 D
1919 2755 D
1915 2751 D
1911 2749 D
S
N
1890 2778 M
1898 2778 D
S
N
1890 2734 M
1904 2734 D
S
N
1940 2793 M
1940 2749 D
S
N
1942 2793 M
1942 2749 D
S
N
1933 2793 M
1959 2793 D
1965 2790 D
1967 2788 D
1969 2784 D
1969 2778 D
1967 2774 D
1965 2772 D
1959 2770 D
1942 2770 D
S
N
1959 2793 M
1963 2790 D
1965 2788 D
1967 2784 D
1967 2778 D
1965 2774 D
1963 2772 D
1959 2770 D
S
N
1933 2749 M
1948 2749 D
S
N
1986 2793 M
1986 2749 D
S
N
1988 2793 M
1988 2749 D
S
N
1988 2772 M
1992 2776 D
1996 2778 D
2000 2778 D
2007 2776 D
2011 2772 D
2013 2765 D
2013 2761 D
2011 2755 D
2007 2751 D
2000 2749 D
1996 2749 D
1992 2751 D
1988 2755 D
S
N
2000 2778 M
2004 2776 D
2009 2772 D
2011 2765 D
2011 2761 D
2009 2755 D
2004 2751 D
2000 2749 D
S
N
1979 2793 M
1988 2793 D
S
N
2049 2865 M
2043 2858 D
2037 2849 D
2031 2836 D
2027 2821 D
2027 2808 D
2031 2793 D
2037 2780 D
2043 2771 D
2049 2764 D
S
N
2043 2858 M
2037 2846 D
2034 2836 D
2031 2821 D
2031 2808 D
2034 2793 D
2037 2783 D
2043 2771 D
S
N
2099 2843 M
2099 2786 D
S
N
2071 2814 M
2128 2814 D
S
N
2153 2830 M
2171 2786 D
S
N
2156 2830 M
2171 2793 D
S
N
2190 2830 M
2171 2786 D
2165 2774 D
2159 2767 D
2153 2764 D
2150 2764 D
2146 2767 D
2150 2771 D
2153 2767 D
S
N
2146 2830 M
2165 2830 D
S
N
2178 2830 M
2197 2830 D
S
N
2209 2865 M
2215 2858 D
2222 2849 D
2228 2836 D
2231 2821 D
2231 2808 D
2228 2793 D
2222 2780 D
2215 2771 D
2209 2764 D
S
N
2215 2858 M
2222 2846 D
2225 2836 D
2228 2821 D
2228 2808 D
2225 2793 D
2222 2783 D
2215 2771 D
S
1.00 0.00 1.00 setrgbcolor
[30 30 8 30] 0 Sd
N
1250 2652 M
1650 2652 D
S
0.00 0.00 0.00 setrgbcolor
[] 0 Sd
N
1828 2681 M
1828 2615 D
S
N
1831 2681 M
1831 2615 D
S
N
1819 2681 M
1856 2681 D
1866 2677 D
1869 2674 D
1872 2668 D
1872 2662 D
1869 2656 D
1866 2652 D
1856 2649 D
1831 2649 D
S
N
1856 2681 M
1863 2677 D
1866 2674 D
1869 2668 D
1869 2662 D
1866 2656 D
1863 2652 D
1856 2649 D
S
N
1819 2615 M
1841 2615 D
S
N
1847 2649 M
1853 2646 D
1856 2643 D
1866 2621 D
1869 2618 D
1872 2618 D
1875 2621 D
S
N
1853 2646 M
1856 2640 D
1863 2618 D
1866 2615 D
1872 2615 D
1875 2621 D
1875 2624 D
S
N
1896 2607 M
1896 2563 D
S
N
1898 2607 M
1898 2563 D
S
N
1898 2600 M
1902 2604 D
1906 2607 D
1911 2607 D
1917 2604 D
1921 2600 D
1923 2594 D
1923 2590 D
1921 2584 D
1917 2579 D
1911 2577 D
1906 2577 D
1902 2579 D
1898 2584 D
S
N
1911 2607 M
1915 2604 D
1919 2600 D
1921 2594 D
1921 2590 D
1919 2584 D
1915 2579 D
1911 2577 D
S
N
1890 2607 M
1898 2607 D
S
N
1890 2563 M
1904 2563 D
S
N
1940 2621 M
1940 2577 D
S
N
1942 2621 M
1942 2577 D
S
N
1933 2621 M
1959 2621 D
1965 2619 D
1967 2617 D
1969 2613 D
1969 2607 D
1967 2602 D
1965 2600 D
1959 2598 D
1942 2598 D
S
N
1959 2621 M
1963 2619 D
1965 2617 D
1967 2613 D
1967 2607 D
1965 2602 D
1963 2600 D
1959 2598 D
S
N
1933 2577 M
1948 2577 D
S
N
1986 2621 M
1986 2577 D
S
N
1988 2621 M
1988 2577 D
S
N
1988 2600 M
1992 2604 D
1996 2607 D
2000 2607 D
2007 2604 D
2011 2600 D
2013 2594 D
2013 2590 D
2011 2584 D
2007 2579 D
2000 2577 D
1996 2577 D
1992 2579 D
1988 2584 D
S
N
2000 2607 M
2004 2604 D
2009 2600 D
2011 2594 D
2011 2590 D
2009 2584 D
2004 2579 D
2000 2577 D
S
N
1979 2621 M
1988 2621 D
S
N
2049 2693 M
2043 2687 D
2037 2677 D
2031 2665 D
2027 2649 D
2027 2637 D
2031 2621 D
2037 2609 D
2043 2599 D
2049 2593 D
S
N
2043 2687 M
2037 2674 D
2034 2665 D
2031 2649 D
2031 2637 D
2034 2621 D
2037 2612 D
2043 2599 D
S
N
2071 2643 M
2128 2643 D
S
N
2153 2659 M
2171 2615 D
S
N
2156 2659 M
2171 2621 D
S
N
2190 2659 M
2171 2615 D
2165 2602 D
2159 2596 D
2153 2593 D
2150 2593 D
2146 2596 D
2150 2599 D
2153 2596 D
S
N
2146 2659 M
2165 2659 D
S
N
2178 2659 M
2197 2659 D
S
N
2209 2693 M
2215 2687 D
2222 2677 D
2228 2665 D
2231 2649 D
2231 2637 D
2228 2621 D
2222 2609 D
2215 2599 D
2209 2593 D
S
N
2215 2687 M
2222 2674 D
2225 2665 D
2228 2649 D
2228 2637 D
2225 2621 D
2222 2612 D
2215 2599 D
S
1.00 0.00 0.00 setrgbcolor
N
1050 3716 M
1075 3791 D
1100 3839 D
1125 3859 D
1150 3878 D
1176 3898 D
1200 3919 D
1225 3943 D
1250 3967 D
1275 3991 D
1300 4015 D
1323 4035 D
1347 4054 D
1372 4070 D
1400 4082 D
1427 4085 D
1454 4076 D
1478 4059 D
1500 4037 D
1525 4008 D
1550 3979 D
1575 3949 D
1600 3921 D
1623 3893 D
1646 3864 D
1671 3838 D
1700 3818 D
1725 3806 D
1750 3795 D
1775 3783 D
1800 3772 D
1825 3761 D
1850 3749 D
1875 3738 D
1900 3727 D
1924 3721 D
1949 3718 D
1975 3717 D
2000 3716 D
2025 3715 D
2050 3713 D
2075 3712 D
2100 3711 D
2125 3713 D
2150 3715 D
2175 3717 D
2200 3719 D
2225 3719 D
2250 3720 D
2275 3719 D
2300 3719 D
2325 3717 D
2350 3715 D
2375 3713 D
2400 3711 D
2425 3712 D
2450 3713 D
2475 3715 D
2500 3716 D
2525 3717 D
2551 3718 D
2576 3721 D
2600 3728 D
2625 3738 D
2650 3749 D
2675 3761 D
2700 3772 D
2725 3783 D
2750 3795 D
2775 3806 D
2800 3818 D
2829 3839 D
2854 3864 D
2877 3893 D
2900 3921 D
2925 3949 D
2950 3979 D
2975 4008 D
3000 4037 D
3022 4059 D
3046 4076 D
3073 4085 D
3100 4082 D
3128 4070 D
3153 4054 D
3177 4035 D
3200 4015 D
3225 3991 D
3250 3967 D
3275 3943 D
3300 3919 D
3324 3898 D
3350 3878 D
3375 3859 D
3400 3839 D
3425 3791 D
3450 3716 D
S
1.00 0.00 1.00 setrgbcolor
[39] 0 Sd
N
1050 3949 M
1076 4042 D
1100 4111 D
1122 4163 D
1144 4215 D
1169 4266 D
1200 4313 D
1224 4342 D
1248 4370 D
1274 4398 D
1300 4425 D
1323 4449 D
1346 4472 D
1371 4492 D
1400 4507 D
1431 4508 D
1456 4488 D
1479 4458 D
1500 4423 D
1525 4382 D
1550 4341 D
1575 4300 D
1600 4259 D
1624 4221 D
1647 4183 D
1672 4146 D
1700 4112 D
1722 4090 D
1747 4072 D
1773 4055 D
1800 4040 D
1825 4026 D
1849 4012 D
1874 3999 D
1900 3987 D
1924 3976 D
1949 3966 D
1974 3958 D
2000 3951 D
2025 3946 D
2050 3942 D
2075 3939 D
2100 3938 D
2125 3939 D
2150 3940 D
2175 3942 D
2200 3943 D
2225 3942 D
2250 3941 D
2275 3939 D
2300 3937 D
2325 3932 D
2350 3927 D
2375 3922 D
2400 3917 D
2425 3914 D
2450 3912 D
2475 3910 D
2500 3909 D
2525 3909 D
2550 3910 D
2575 3911 D
2600 3911 D
2625 3910 D
2650 3909 D
2675 3906 D
2700 3902 D
2725 3896 D
2750 3888 D
2775 3879 D
2800 3874 D
2825 3872 D
2850 3870 D
2875 3869 D
2900 3867 D
2925 3865 D
2950 3862 D
2975 3859 D
3000 3855 D
3025 3850 D
3050 3845 D
3075 3840 D
3100 3835 D
3125 3830 D
3150 3824 D
3175 3819 D
3200 3813 D
3226 3814 D
3251 3823 D
3276 3837 D
3300 3852 D
3326 3872 D
3349 3896 D
3373 3918 D
3400 3936 D
3425 3938 D
3449 3929 D
3450 3928 D
S
[30 30 8 30] 0 Sd
N
3450 3949 M
3424 4042 D
3400 4111 D
3378 4163 D
3356 4215 D
3331 4266 D
3300 4313 D
3276 4342 D
3252 4370 D
3226 4398 D
3200 4425 D
3177 4449 D
3154 4472 D
3129 4492 D
3100 4507 D
3069 4508 D
3044 4488 D
3021 4458 D
3000 4423 D
2975 4382 D
2950 4341 D
2925 4300 D
2900 4259 D
2876 4221 D
2853 4183 D
2828 4146 D
2800 4112 D
2778 4090 D
2753 4072 D
2727 4055 D
2700 4040 D
2675 4026 D
2651 4012 D
2626 3999 D
2600 3987 D
2576 3976 D
2551 3966 D
2526 3958 D
2500 3951 D
2475 3946 D
2450 3942 D
2425 3939 D
2400 3938 D
2375 3939 D
2350 3940 D
2325 3942 D
2300 3943 D
2275 3942 D
2250 3941 D
2225 3939 D
2200 3937 D
2175 3932 D
2150 3927 D
2125 3922 D
2100 3917 D
2075 3914 D
2050 3912 D
2025 3910 D
2000 3909 D
1975 3909 D
1950 3910 D
1925 3911 D
1900 3911 D
1875 3910 D
1850 3909 D
1825 3906 D
1800 3902 D
1775 3896 D
1750 3888 D
1725 3879 D
1700 3874 D
1675 3872 D
1650 3870 D
1625 3869 D
1600 3867 D
1575 3865 D
1550 3862 D
1525 3859 D
1500 3855 D
1475 3850 D
1450 3845 D
1425 3840 D
1400 3835 D
1375 3830 D
1350 3824 D
1325 3819 D
1300 3813 D
1274 3814 D
1249 3823 D
1224 3837 D
1200 3852 D
1174 3872 D
1151 3896 D
1127 3918 D
1100 3936 D
1075 3938 D
1051 3929 D
1050 3928 D
S
0.00 0.00 1.00 setrgbcolor
[] 0 Sd
1100 3864 P
N
1070 3849 M
1070 3879 D
1085 3894 D
1115 3894 D
1130 3879 D
1130 3849 D
1115 3834 D
1085 3834 D
1070 3849 D
S
1200 3946 P
N
1170 3931 M
1170 3961 D
1185 3976 D
1215 3976 D
1230 3961 D
1230 3931 D
1215 3916 D
1185 3916 D
1170 3931 D
S
1300 3992 P
N
1270 3977 M
1270 4007 D
1285 4022 D
1315 4022 D
1330 4007 D
1330 3977 D
1315 3962 D
1285 3962 D
1270 3977 D
S
1400 4081 P
N
1370 4066 M
1370 4096 D
1385 4111 D
1415 4111 D
1430 4096 D
1430 4066 D
1415 4051 D
1385 4051 D
1370 4066 D
S
1500 4038 P
N
1470 4023 M
1470 4053 D
1485 4068 D
1515 4068 D
1530 4053 D
1530 4023 D
1515 4008 D
1485 4008 D
1470 4023 D
S
1600 3919 P
N
1570 3904 M
1570 3934 D
1585 3949 D
1615 3949 D
1630 3934 D
1630 3904 D
1615 3889 D
1585 3889 D
1570 3904 D
S
1700 3806 P
N
1670 3791 M
1670 3821 D
1685 3836 D
1715 3836 D
1730 3821 D
1730 3791 D
1715 3776 D
1685 3776 D
1670 3791 D
S
1800 3773 P
N
1770 3758 M
1770 3788 D
1785 3803 D
1815 3803 D
1830 3788 D
1830 3758 D
1815 3743 D
1785 3743 D
1770 3758 D
S
1900 3737 P
N
1870 3722 M
1870 3752 D
1885 3767 D
1915 3767 D
1930 3752 D
1930 3722 D
1915 3707 D
1885 3707 D
1870 3722 D
S
2000 3706 P
N
1970 3691 M
1970 3721 D
1985 3736 D
2015 3736 D
2030 3721 D
2030 3691 D
2015 3676 D
1985 3676 D
1970 3691 D
S
2100 3702 P
N
2070 3687 M
2070 3717 D
2085 3732 D
2115 3732 D
2130 3717 D
2130 3687 D
2115 3672 D
2085 3672 D
2070 3687 D
S
2200 3722 P
N
2170 3707 M
2170 3737 D
2185 3752 D
2215 3752 D
2230 3737 D
2230 3707 D
2215 3692 D
2185 3692 D
2170 3707 D
S
2300 3722 P
N
2270 3707 M
2270 3737 D
2285 3752 D
2315 3752 D
2330 3737 D
2330 3707 D
2315 3692 D
2285 3692 D
2270 3707 D
S
2400 3702 P
N
2370 3687 M
2370 3717 D
2385 3732 D
2415 3732 D
2430 3717 D
2430 3687 D
2415 3672 D
2385 3672 D
2370 3687 D
S
2500 3706 P
N
2470 3691 M
2470 3721 D
2485 3736 D
2515 3736 D
2530 3721 D
2530 3691 D
2515 3676 D
2485 3676 D
2470 3691 D
S
2600 3737 P
N
2570 3722 M
2570 3752 D
2585 3767 D
2615 3767 D
2630 3752 D
2630 3722 D
2615 3707 D
2585 3707 D
2570 3722 D
S
2700 3773 P
N
2670 3758 M
2670 3788 D
2685 3803 D
2715 3803 D
2730 3788 D
2730 3758 D
2715 3743 D
2685 3743 D
2670 3758 D
S
2800 3806 P
N
2770 3791 M
2770 3821 D
2785 3836 D
2815 3836 D
2830 3821 D
2830 3791 D
2815 3776 D
2785 3776 D
2770 3791 D
S
2900 3919 P
N
2870 3904 M
2870 3934 D
2885 3949 D
2915 3949 D
2930 3934 D
2930 3904 D
2915 3889 D
2885 3889 D
2870 3904 D
S
3000 4038 P
N
2970 4023 M
2970 4053 D
2985 4068 D
3015 4068 D
3030 4053 D
3030 4023 D
3015 4008 D
2985 4008 D
2970 4023 D
S
3100 4081 P
N
3070 4066 M
3070 4096 D
3085 4111 D
3115 4111 D
3130 4096 D
3130 4066 D
3115 4051 D
3085 4051 D
3070 4066 D
S
3200 3992 P
N
3170 3977 M
3170 4007 D
3185 4022 D
3215 4022 D
3230 4007 D
3230 3977 D
3215 3962 D
3185 3962 D
3170 3977 D
S
3300 3946 P
N
3270 3931 M
3270 3961 D
3285 3976 D
3315 3976 D
3330 3961 D
3330 3931 D
3315 3916 D
3285 3916 D
3270 3931 D
S
3400 3864 P
N
3370 3849 M
3370 3879 D
3385 3894 D
3415 3894 D
3430 3879 D
3430 3849 D
3415 3834 D
3385 3834 D
3370 3849 D
S
showpage
%%Trailer
%%Pages: 1
%%BoundingBox: 73 260 417 589
