%!PS-Adobe-3.0 EPSF-3.0
%%BoundingBox: (atend)
%%LanguageLevel: 2
%%Creator: Grace-5.1.22
%%CreationDate: Thu Jun 12 10:08:45 2014
%%DocumentData: Clean8Bit
%%Orientation: Portrait
%%Title: fig22_lhc2760ppb.agr
%%For: ivitev
%%DocumentNeededResources: (atend)
%%EndComments
%%BeginProlog
/m {moveto} def
/l {lineto} def
/s {stroke} def
/n {newpath} def
/c {closepath} def
/RL {rlineto} def
/SLW {setlinewidth} def
/GS {gsave} def
/GR {grestore} def
/SC {setcolor} def
/SGRY {setgray} def
/SRGB {setrgbcolor} def
/SD {setdash} def
/SLC {setlinecap} def
/SLJ {setlinejoin} def
/SCS {setcolorspace} def
/FFSF {findfont setfont} def
/CC {concat} def
/PXL {n m 0 0 RL s} def
/Color0 {1.0000 1.0000 1.0000} def
/Color1 {0.0000 0.0000 0.0000} def
/Color2 {1.0000 0.0000 0.0000} def
/Color3 {0.0000 1.0000 0.0000} def
/Color4 {0.0000 0.0000 1.0000} def
/Color5 {1.0000 1.0000 0.0000} def
/Color6 {0.7373 0.5608 0.5608} def
/Color7 {0.8627 0.8627 0.8627} def
/Color8 {0.5804 0.0000 0.8275} def
/Color9 {0.0000 1.0000 1.0000} def
/Color10 {1.0000 0.0000 1.0000} def
/Color11 {1.0000 0.6471 0.0000} def
/Color12 {0.4471 0.1294 0.7373} def
/Color13 {0.4039 0.0275 0.2824} def
/Color14 {0.2510 0.8784 0.8157} def
/Color15 {0.0000 0.5451 0.0000} def
/Color16 {0.7529 0.7529 0.7529} def
/Color17 {0.5059 0.5059 0.5059} def
/Color18 {0.2588 0.2588 0.2588} def
/PTRN {
 /pat_bits exch def 
 <<
  /PaintType 2
  /PatternType 1 /TilingType 1
  /BBox[0 0 16 16]
  /XStep 16 /YStep 16
  /PaintProc {
   pop
   16 16 true [-1 0 0 -1 16 16] pat_bits imagemask
  }
 >>
 [0.0016 0 0 0.0016 0 0]
 makepattern
} def
/Pattern0 {<0000000000000000000000000000000000000000000000000000000000000000> PTRN} bind def
/Pattern1 {<ffffffffffffffffffffffffffffffffffffffffffffffffffffffffffffffff> PTRN} bind def
/Pattern2 {<eeeeffffbbbbffffeeeeffffbbbbffffeeeeffffbbbbffffeeeeffffbbbbffff> PTRN} bind def
/Pattern3 {<eeeebbbbeeeebbbbeeeebbbbeeeebbbbeeeebbbbeeeebbbbeeeebbbbeeeebbbb> PTRN} bind def
/Pattern4 {<5555aaaa5555aaaa5555aaaa5555aaaa5555aaaa5555aaaa5555aaaa5555aaaa> PTRN} bind def
/Pattern5 {<1111444411114444111144441111444411114444111144441111444411114444> PTRN} bind def
/Pattern6 {<1111000044440000111100004444000011110000444400001111000044440000> PTRN} bind def
/Pattern7 {<1010000000000000010100000000000010100000000000000101000000000000> PTRN} bind def
/Pattern8 {<0000000000000000000000000000000000000000000000000000000000000000> PTRN} bind def
/Pattern9 {<1e1e0f0f8787c3c3e1e1f0f078783c3c1e1e0f0f8787c3c3e1e1f0f078783c3c> PTRN} bind def
/Pattern10 {<7878f0f0e1e1c3c387870f0f1e1e3c3c7878f0f0e1e1c3c387870f0f1e1e3c3c> PTRN} bind def
/Pattern11 {<3333333333333333333333333333333333333333333333333333333333333333> PTRN} bind def
/Pattern12 {<ffffffff00000000ffffffff00000000ffffffff00000000ffffffff00000000> PTRN} bind def
/Pattern13 {<8181424224241818181824244242818181814242242418181818242442428181> PTRN} bind def
/Pattern14 {<8080404020201010080804040202010180804040202010100808040402020101> PTRN} bind def
/Pattern15 {<0101020204040808101020204040808001010202040408081010202040408080> PTRN} bind def
/Pattern16 {<2222222222222222222222222222222222222222222222222222222222222222> PTRN} bind def
/Pattern17 {<0000ffff000000000000ffff000000000000ffff000000000000ffff00000000> PTRN} bind def
/Pattern18 {<2222ffff222222222222ffff222222222222ffff222222222222ffff22222222> PTRN} bind def
/Pattern19 {<ffffffff33333333ffffffff33333333ffffffff33333333ffffffff33333333> PTRN} bind def
/Pattern20 {<0f0f0f0f0f0f0f0ff0f0f0f0f0f0f0f00f0f0f0f0f0f0f0ff0f0f0f0f0f0f0f0> PTRN} bind def
/Pattern21 {<ff00ff00ff00ff00ff00ff00ff00ff0000ff00ff00ff00ff00ff00ff00ff00ff> PTRN} bind def
/Pattern22 {<8001800180018001800180018001ffffffff8001800180018001800180018001> PTRN} bind def
/Pattern23 {<c003c003c003c003c003c003ffffffffffffffffc003c003c003c003c003c003> PTRN} bind def
/Pattern24 {<040404040404ffff404040404040ffff040404040404ffff404040404040ffff> PTRN} bind def
/Pattern25 {<180018001800180018001800ffffffff001800180018001800180018ffffffff> PTRN} bind def
/Pattern26 {<1111b8b87c7c3a3a1111a3a3c7c78b8b1111b8b87c7c3a3a1111a3a3c7c78b8b> PTRN} bind def
/Pattern27 {<101010102828c7c70101010182827c7c101010102828c7c70101010182827c7c> PTRN} bind def
/Pattern28 {<1c1c121211112121c1c12121111112121c1c121211112121c1c1212111111212> PTRN} bind def
/Pattern29 {<3e3e414180808080e3e31414080808083e3e414180808080e3e3141408080808> PTRN} bind def
/Pattern30 {<4848888884848383848488884848383848488888848483838484888848483838> PTRN} bind def
/Pattern31 {<03030404080808080c0c12122121c0c003030404080808080c0c12122121c0c0> PTRN} bind def
/ellipsedict 8 dict def
ellipsedict /mtrx matrix put
/EARC {
 ellipsedict begin
  /endangle exch def
  /startangle exch def
  /yrad exch def
  /xrad exch def
  /y exch def
  /x exch def
  /savematrix mtrx currentmatrix def
  x y translate
  xrad yrad scale
  0 0 1 startangle endangle arc
  savematrix setmatrix
 end
} def
/TL {
  /kcomp exch def
  /linewidth exch def
  /offset exch def
  GS
  0 offset rmoveto
  linewidth SLW
  dup stringwidth exch kcomp add exch RL s
  GR
} def
/KINIT
{
 /kvector exch def
 /kid 0 def
} def
/KPROC
{
 pop pop
 kvector kid get
 0 rmoveto
 /kid 1 kid add def
} def
/DefEncoding [
 /.notdef
 /.notdef
 /.notdef
 /.notdef
 /.notdef
 /.notdef
 /.notdef
 /.notdef
 /.notdef
 /.notdef
 /.notdef
 /.notdef
 /.notdef
 /.notdef
 /.notdef
 /.notdef
 /.notdef
 /.notdef
 /.notdef
 /.notdef
 /.notdef
 /.notdef
 /.notdef
 /.notdef
 /.notdef
 /.notdef
 /.notdef
 /.notdef
 /.notdef
 /.notdef
 /.notdef
 /.notdef
 /space
 /exclam
 /quotedbl
 /numbersign
 /dollar
 /percent
 /ampersand
 /quoteright
 /parenleft
 /parenright
 /asterisk
 /plus
 /comma
 /hyphen
 /period
 /slash
 /zero
 /one
 /two
 /three
 /four
 /five
 /six
 /seven
 /eight
 /nine
 /colon
 /semicolon
 /less
 /equal
 /greater
 /question
 /at
 /A
 /B
 /C
 /D
 /E
 /F
 /G
 /H
 /I
 /J
 /K
 /L
 /M
 /N
 /O
 /P
 /Q
 /R
 /S
 /T
 /U
 /V
 /W
 /X
 /Y
 /Z
 /bracketleft
 /backslash
 /bracketright
 /asciicircum
 /underscore
 /grave
 /a
 /b
 /c
 /d
 /e
 /f
 /g
 /h
 /i
 /j
 /k
 /l
 /m
 /n
 /o
 /p
 /q
 /r
 /s
 /t
 /u
 /v
 /w
 /x
 /y
 /z
 /braceleft
 /bar
 /braceright
 /asciitilde
 /.notdef
 /.notdef
 /.notdef
 /.notdef
 /.notdef
 /.notdef
 /.notdef
 /.notdef
 /.notdef
 /.notdef
 /.notdef
 /.notdef
 /.notdef
 /.notdef
 /.notdef
 /.notdef
 /.notdef
 /.notdef
 /.notdef
 /.notdef
 /.notdef
 /.notdef
 /.notdef
 /.notdef
 /.notdef
 /.notdef
 /.notdef
 /.notdef
 /.notdef
 /.notdef
 /.notdef
 /.notdef
 /.notdef
 /space
 /exclamdown
 /cent
 /sterling
 /currency
 /yen
 /brokenbar
 /section
 /dieresis
 /copyright
 /ordfeminine
 /guillemotleft
 /logicalnot
 /hyphen
 /registered
 /macron
 /degree
 /plusminus
 /twosuperior
 /threesuperior
 /acute
 /mu
 /paragraph
 /periodcentered
 /cedilla
 /onesuperior
 /ordmasculine
 /guillemotright
 /onequarter
 /onehalf
 /threequarters
 /questiondown
 /Agrave
 /Aacute
 /Acircumflex
 /Atilde
 /Adieresis
 /Aring
 /AE
 /Ccedilla
 /Egrave
 /Eacute
 /Ecircumflex
 /Edieresis
 /Igrave
 /Iacute
 /Icircumflex
 /Idieresis
 /Eth
 /Ntilde
 /Ograve
 /Oacute
 /Ocircumflex
 /Otilde
 /Odieresis
 /multiply
 /Oslash
 /Ugrave
 /Uacute
 /Ucircumflex
 /Udieresis
 /Yacute
 /Thorn
 /germandbls
 /agrave
 /aacute
 /acircumflex
 /atilde
 /adieresis
 /aring
 /ae
 /ccedilla
 /egrave
 /eacute
 /ecircumflex
 /edieresis
 /igrave
 /iacute
 /icircumflex
 /idieresis
 /eth
 /ntilde
 /ograve
 /oacute
 /ocircumflex
 /otilde
 /odieresis
 /divide
 /oslash
 /ugrave
 /uacute
 /ucircumflex
 /udieresis
 /yacute
 /thorn
 /ydieresis
] def
%%EndProlog
%%BeginSetup
%%EndSetup
612.00 612.00 scale
n
0.3200 0.5675 m
0.3420 0.5881 l
0.3641 0.6219 l
0.3861 0.6512 l
0.4082 0.6687 l
0.4302 0.6742 l
0.4522 0.6687 l
0.4743 0.6565 l
0.4963 0.6425 l
0.5184 0.6289 l
0.5404 0.6155 l
0.5624 0.6020 l
0.5845 0.5889 l
0.6065 0.5771 l
0.6286 0.5669 l
0.6506 0.5581 l
0.6727 0.5499 l
0.6947 0.5421 l
0.7167 0.5350 l
0.7388 0.5290 l
0.7608 0.5244 l
0.7829 0.5209 l
0.8049 0.5179 l
0.8269 0.5146 l
0.8490 0.5114 l
0.8710 0.5084 l
0.8931 0.5059 l
0.9151 0.5035 l
0.9371 0.5015 l
0.9592 0.4997 l
0.9812 0.4984 l
1.0033 0.4972 l
1.0253 0.4960 l
1.0473 0.4949 l
1.0694 0.4939 l
1.0914 0.4931 l
1.1135 0.4923 l
1.1355 0.4915 l
1.1500 0.4909 l
1.1500 0.1500 l
1.1500 0.1500 l
0.3200 0.1500 l
c
GS
[/DeviceRGB] SCS
Color0 SRGB
fill
GR
[/Pattern /DeviceRGB] SCS
Color9 Pattern5 SC
fill
[/DeviceRGB] SCS
Color2 SC
[] 0 SD
0.0030 SLW
0 SLC
0 SLJ
n
0.3200 0.5675 m
0.3420 0.5881 l
0.3641 0.6219 l
0.3861 0.6512 l
0.4082 0.6687 l
0.4302 0.6742 l
0.4522 0.6687 l
0.4743 0.6565 l
0.4963 0.6425 l
0.5184 0.6289 l
0.5404 0.6155 l
0.5624 0.6020 l
0.5845 0.5889 l
0.6065 0.5771 l
0.6286 0.5669 l
0.6506 0.5581 l
0.6727 0.5499 l
0.6947 0.5421 l
0.7167 0.5350 l
0.7388 0.5290 l
0.7608 0.5244 l
0.7829 0.5209 l
0.8049 0.5179 l
0.8269 0.5146 l
0.8490 0.5114 l
0.8710 0.5084 l
0.8931 0.5059 l
0.9151 0.5035 l
0.9371 0.5015 l
0.9592 0.4997 l
0.9812 0.4984 l
1.0033 0.4972 l
1.0253 0.4960 l
1.0473 0.4949 l
1.0694 0.4939 l
1.0914 0.4931 l
1.1135 0.4923 l
1.1355 0.4915 l
1.1501 0.4909 l
s
[/DeviceRGB] SCS
Color7 SC
[0.0210 0.0090 ] 0 SD
0.0030 SLW
n
0.1500 0.5389 m
1.1501 0.5389 l
s
n
0.3200 0.4690 m
0.3300 0.4698 l
0.3400 0.4702 l
0.3500 0.4709 l
0.3600 0.4711 l
0.3700 0.4715 l
0.3800 0.4718 l
0.3900 0.4719 l
0.4000 0.4722 l
0.4100 0.4723 l
0.4200 0.4725 l
0.4300 0.4726 l
0.4400 0.4727 l
0.4500 0.4728 l
0.4600 0.4728 l
0.4700 0.4729 l
0.4800 0.4730 l
0.4900 0.4730 l
0.5000 0.4730 l
0.5100 0.4730 l
0.5200 0.4730 l
0.5300 0.4731 l
0.5400 0.4731 l
0.5500 0.4731 l
0.5600 0.4731 l
0.5700 0.4730 l
0.5800 0.4730 l
0.5900 0.4730 l
0.6000 0.4730 l
0.6100 0.4730 l
0.6200 0.4730 l
0.6300 0.4729 l
0.6400 0.4729 l
0.6500 0.4729 l
0.6600 0.4729 l
0.6700 0.4728 l
0.6800 0.4728 l
0.6900 0.4728 l
0.7000 0.4727 l
0.7100 0.4727 l
0.7200 0.4727 l
0.7300 0.4726 l
0.7400 0.4726 l
0.7500 0.4726 l
0.7600 0.4726 l
0.7700 0.4725 l
0.7800 0.4725 l
0.7900 0.4724 l
0.8000 0.4724 l
0.8100 0.4724 l
0.8200 0.4723 l
0.8300 0.4723 l
0.8400 0.4723 l
0.8500 0.4722 l
0.8600 0.4722 l
0.8700 0.4722 l
0.8800 0.4721 l
0.8900 0.4721 l
0.9000 0.4721 l
0.9100 0.4720 l
0.9200 0.4720 l
0.9300 0.4719 l
0.9400 0.4719 l
0.9500 0.4719 l
0.9600 0.4718 l
0.9700 0.4718 l
0.9800 0.4718 l
0.9900 0.4717 l
1.0000 0.4717 l
1.0100 0.4717 l
1.0200 0.4716 l
1.0300 0.4716 l
1.0400 0.4716 l
1.0500 0.4715 l
1.0600 0.4715 l
1.0700 0.4715 l
1.0800 0.4715 l
1.0900 0.4714 l
1.1000 0.4714 l
1.1100 0.4714 l
1.1200 0.4713 l
1.1300 0.4713 l
1.1400 0.4713 l
1.1500 0.4712 l
1.1500 0.4712 l
1.1500 0.1500 l
1.1500 0.1500 l
0.3200 0.1500 l
c
[/DeviceRGB] SCS
Color0 SC
fill
[/DeviceRGB] SCS
Color4 SC
[] 0 SD
0.0030 SLW
n
0.3200 0.4690 m
0.3300 0.4698 l
0.3400 0.4702 l
0.3500 0.4709 l
0.3600 0.4711 l
0.3700 0.4715 l
0.3800 0.4718 l
0.3900 0.4719 l
0.4000 0.4722 l
0.4100 0.4723 l
0.4200 0.4725 l
0.4300 0.4726 l
0.4400 0.4727 l
0.4500 0.4728 l
0.4600 0.4728 l
0.4700 0.4729 l
0.4800 0.4730 l
0.4900 0.4730 l
0.5000 0.4730 l
0.5100 0.4730 l
0.5200 0.4730 l
0.5300 0.4731 l
0.5400 0.4731 l
0.5500 0.4731 l
0.5600 0.4731 l
0.5700 0.4730 l
0.5800 0.4730 l
0.5900 0.4730 l
0.6000 0.4730 l
0.6100 0.4730 l
0.6200 0.4730 l
0.6300 0.4729 l
0.6400 0.4729 l
0.6500 0.4729 l
0.6600 0.4729 l
0.6700 0.4728 l
0.6800 0.4728 l
0.6900 0.4728 l
0.7000 0.4727 l
0.7100 0.4727 l
0.7200 0.4727 l
0.7300 0.4726 l
0.7400 0.4726 l
0.7500 0.4726 l
0.7600 0.4726 l
0.7700 0.4725 l
0.7800 0.4725 l
0.7900 0.4724 l
0.8000 0.4724 l
0.8100 0.4724 l
0.8200 0.4723 l
0.8300 0.4723 l
0.8400 0.4723 l
0.8500 0.4722 l
0.8600 0.4722 l
0.8700 0.4722 l
0.8800 0.4721 l
0.8900 0.4721 l
0.9000 0.4721 l
0.9100 0.4720 l
0.9200 0.4720 l
0.9300 0.4719 l
0.9400 0.4719 l
0.9500 0.4719 l
0.9600 0.4718 l
0.9700 0.4718 l
0.9800 0.4718 l
0.9900 0.4717 l
1.0000 0.4717 l
1.0100 0.4717 l
1.0200 0.4716 l
1.0300 0.4716 l
1.0400 0.4716 l
1.0500 0.4715 l
1.0600 0.4715 l
1.0700 0.4715 l
1.0800 0.4715 l
1.0900 0.4714 l
1.1000 0.4714 l
1.1100 0.4714 l
1.1200 0.4713 l
1.1300 0.4713 l
1.1400 0.4713 l
1.1500 0.4712 l
1.1501 0.4712 l
s
[/DeviceRGB] SCS
Color1 SC
[] 0 SD
0.0015 SLW
n
0.1500 0.1500 m
1.1500 0.1500 l
s
n
0.1500 0.8500 m
1.1500 0.8500 l
s
[] 0 SD
0.0030 SLW
n
0.2750 0.1500 m
0.2750 0.1600 l
s
n
0.2750 0.8500 m
0.2750 0.8400 l
s
n
0.5250 0.1500 m
0.5250 0.1600 l
s
n
0.5250 0.8500 m
0.5250 0.8400 l
s
n
0.7750 0.1500 m
0.7750 0.1600 l
s
n
0.7750 0.8500 m
0.7750 0.8400 l
s
n
1.0250 0.1500 m
1.0250 0.1600 l
s
n
1.0250 0.8500 m
1.0250 0.8400 l
s
n
0.1500 0.1500 m
0.1500 0.1700 l
s
n
0.1500 0.8500 m
0.1500 0.8300 l
s
n
0.4000 0.1500 m
0.4000 0.1700 l
s
n
0.4000 0.8500 m
0.4000 0.8300 l
s
n
0.6500 0.1500 m
0.6500 0.1700 l
s
n
0.6500 0.8500 m
0.6500 0.8300 l
s
n
0.9000 0.1500 m
0.9000 0.1700 l
s
n
0.9000 0.8500 m
0.9000 0.8300 l
s
n
1.1500 0.1500 m
1.1500 0.1700 l
s
n
1.1500 0.8500 m
1.1500 0.8300 l
s
/Times-Roman findfont
dup length dict begin
 {1 index /FID ne {def} {pop pop} ifelse} forall
 /Encoding DefEncoding def
 currentdict
end
/Font0 exch definefont pop
/Font0 FFSF
0.1367 0.1020 m
GS
[0.0560 0.0000 0.0000 0.0560 0 0] CC
(0) show
GR
/Font0 FFSF
0.3876 0.1016 m
GS
[0.0560 0.0000 0.0000 0.0560 0 0] CC
(5) show
GR
/Font0 FFSF
0.6225 0.1020 m
GS
[0.0560 0.0000 0.0000 0.0560 0 0] CC
(10) show
GR
/Font0 FFSF
0.8737 0.1016 m
GS
[0.0560 0.0000 0.0000 0.0560 0 0] CC
(15) show
GR
/Font0 FFSF
1.1225 0.1020 m
GS
[0.0560 0.0000 0.0000 0.0560 0 0] CC
(20) show
GR
/Font0 FFSF
0.5535 0.0527 m
GS
[0.0560 0.0000 0.0000 0.0560 0 0] CC
(p) show
GR
/Font0 FFSF
0.5818 0.0303 m
GS
[0.0396 0.0000 0.0000 0.0396 0 0] CC
(T) show
GR
/Font0 FFSF
0.6061 0.0527 m
GS
[0.0560 0.0000 0.0000 0.0560 0 0] CC
(\(GeV\)) show
GR
[] 0 SD
0.0015 SLW
n
0.1500 0.1500 m
0.1500 0.8500 l
s
n
1.1500 0.1500 m
1.1500 0.8500 l
s
[] 0 SD
0.0030 SLW
n
0.1500 0.2278 m
0.1600 0.2278 l
s
n
1.1500 0.2278 m
1.1400 0.2278 l
s
n
0.1500 0.3833 m
0.1600 0.3833 l
s
n
1.1500 0.3833 m
1.1400 0.3833 l
s
n
0.1500 0.5389 m
0.1600 0.5389 l
s
n
1.1500 0.5389 m
1.1400 0.5389 l
s
n
0.1500 0.6944 m
0.1600 0.6944 l
s
n
1.1500 0.6944 m
1.1400 0.6944 l
s
n
0.1500 0.8500 m
0.1600 0.8500 l
s
n
1.1500 0.8500 m
1.1400 0.8500 l
s
n
0.1500 0.1500 m
0.1700 0.1500 l
s
n
1.1500 0.1500 m
1.1300 0.1500 l
s
n
0.1500 0.3056 m
0.1700 0.3056 l
s
n
1.1500 0.3056 m
1.1300 0.3056 l
s
n
0.1500 0.4611 m
0.1700 0.4611 l
s
n
1.1500 0.4611 m
1.1300 0.4611 l
s
n
0.1500 0.6167 m
0.1700 0.6167 l
s
n
1.1500 0.6167 m
1.1300 0.6167 l
s
n
0.1500 0.7722 m
0.1700 0.7722 l
s
n
1.1500 0.7722 m
1.1300 0.7722 l
s
/Font0 FFSF
0.1133 0.1314 m
GS
[0.0560 0.0000 0.0000 0.0560 0 0] CC
(0) show
GR
/Font0 FFSF
0.0714 0.2869 m
GS
[0.0560 0.0000 0.0000 0.0560 0 0] CC
(0.4) show
GR
/Font0 FFSF
0.0729 0.4425 m
GS
[0.0560 0.0000 0.0000 0.0560 0 0] CC
(0.8) show
GR
/Font0 FFSF
0.0714 0.5980 m
GS
[0.0560 0.0000 0.0000 0.0560 0 0] CC
(1.2) show
GR
/Font0 FFSF
0.0718 0.7534 m
GS
[0.0560 0.0000 0.0000 0.0560 0 0] CC
(1.6) show
GR
/Font0 FFSF
0.0385 0.4135 m
GS
[0.0000 0.0560 -0.0560 0.0000 0 0] CC
(R) show
GR
/Font0 FFSF
0.0609 0.4508 m
GS
[0.0000 0.0396 -0.0396 0.0000 0 0] CC
(pA) show
GR
/Font0 FFSF
0.0385 0.4994 m
GS
[0.0000 0.0560 -0.0560 0.0000 0 0] CC
(\(p) show
GR
/Font0 FFSF
0.0609 0.5461 m
GS
[0.0000 0.0396 -0.0396 0.0000 0 0] CC
(T) show
GR
/Font0 FFSF
0.0385 0.5704 m
GS
[0.0000 0.0560 -0.0560 0.0000 0 0] CC
(\)) show
GR
n
0.1500 0.1500 m
0.1500 0.8500 l
1.1500 0.8500 l
1.1500 0.1500 l
0.1500 0.1500 l
c
s
n
0.3000 0.8700 m
0.3000 0.7647 l
1.1764 0.7647 l
1.1764 0.8700 l
c
[/DeviceRGB] SCS
Color0 SC
fill
[/DeviceRGB] SCS
Color1 SC
[] 0 SD
0.0015 SLW
n
0.3000 0.8700 m
0.3000 0.7647 l
1.1764 0.7647 l
1.1764 0.8700 l
0.3000 0.8700 l
c
s
/Helvetica findfont
dup length dict begin
 {1 index /FID ne {def} {pop pop} ifelse} forall
 /Encoding DefEncoding def
 currentdict
end
/Font4 exch definefont pop
/Font4 FFSF
0.3715 0.8286 m
GS
[0.0420 0.0000 0.0000 0.0420 0 0] CC
(NRQCD, CNM E-loss with Cronin effect) show
GR
[/DeviceRGB] SCS
Color2 SC
[] 0 SD
0.0030 SLW
n
0.3115 0.8412 m
0.3515 0.8412 l
s
/Font4 FFSF
[/DeviceRGB] SCS
Color1 SC
0.3715 0.7810 m
GS
[0.0420 0.0000 0.0000 0.0420 0 0] CC
(NRQCD, CNM E-loss without Cronin effect) show
GR
[/DeviceRGB] SCS
Color4 SC
n
0.3115 0.7935 m
0.3515 0.7935 l
s
/Font4 FFSF
[/DeviceRGB] SCS
Color1 SC
0.2561 0.3150 m
GS
[0.0420 0.0000 0.0000 0.0420 0 0] CC
(J/) show
GR
/Symbol findfont
/Font12 exch definefont pop
/Font12 FFSF
0.2891 0.3150 m
GS
[0.0420 0.0000 0.0000 0.0420 0 0] CC
(y) show
GR
/Font4 FFSF
0.3287 0.3150 m
GS
[0.0420 0.0000 0.0000 0.0420 0 0] CC
(LHC p+Pb collisions, s) show
GR
/Font4 FFSF
0.7502 0.3402 m
GS
[0.0297 0.0000 0.0000 0.0297 0 0] CC
(1/2) show
GR
/Font4 FFSF
0.7918 0.3150 m
GS
[0.0420 0.0000 0.0000 0.0420 0 0] CC
( = 2.76 TeV) show
GR
%%Trailer
%%BoundingBox: -1 17 722 534
%%DocumentNeededResources: font Times-Roman
%%+ font Helvetica
%%+ font Symbol
%%EOF
