%% LaTeX2e file `leer.eps'
%% generated by the `filecontents' environment
%% from source `Pol4Exps_EPJC_final' on 2010/08/13.
%%
%!PS-Adobe-2.0 EPSF-2.0
%%CreationDate: Mon Jul 13 16:51:17 1992
%%DocumentFonts: (atend)
%%Pages: 0 1
%%BoundingBox: 72 31 601 342
%%EndComments

gsave
72 31 moveto
72 342 lineto
601 342 lineto
601 31 lineto
72 31 lineto
showpage
grestore
%%Trailer
%%DocumentFonts: Helvetica
