\relax 
\ifx\hyper@anchor\@undefined
\global \let \oldcontentsline\contentsline
\gdef \contentsline#1#2#3#4{\oldcontentsline{#1}{#2}{#3}}
\global \let \oldnewlabel\newlabel
\gdef \newlabel#1#2{\newlabelxx{#1}#2}
\gdef \newlabelxx#1#2#3#4#5#6{\oldnewlabel{#1}{{#2}{#3}}}
\AtEndDocument{\let \contentsline\oldcontentsline
\let \newlabel\oldnewlabel}
\else
\global \let \hyper@last\relax 
\fi

\citation{Iaa}
\citation{geo}
\citation{Nahrgang,Cao,Uphoff,Renk}
\select@language{english}
\@writefile{toc}{\select@language{english}}
\@writefile{lof}{\select@language{english}}
\@writefile{lot}{\select@language{english}}
\@writefile{lof}{\contentsline {figure}{\numberline {1}{\ignorespaces Perpendicular momentum of charm quarks acquired in a QGP medium at $T=400$~MeV as a function of the initial momentum $p_{||}^{\rm  ini}$.}}{2}{figure.1}}
\newlabel{fig:pperp}{{1}{2}{Perpendicular momentum of charm quarks acquired in a QGP medium at $T=400$~MeV as a function of the initial momentum $p_{||}^{\rm ini}$}{figure.1}{}}
\@writefile{lof}{\contentsline {figure}{\numberline {2}{\ignorespaces Angular correlations of $D\mathaccentV {bar}016{D}$ pairs in Pb+Pb collisions at LHC without (left) and with (right) a lower momentum cut. }}{2}{figure.2}}
\newlabel{fig:correlation}{{2}{2}{Angular correlations of $D\bar {D}$ pairs in Pb+Pb collisions at LHC without (left) and with (right) a lower momentum cut. \relax }{figure.2}{}}
\citation{cdf}
\citation{phenix}
\citation{LHCbcorrpp,ATLAScorrpp,CMSbbar,ALICEDhpp}
\citation{CMSbbar}
\citation{ALICEDhpp}
\citation{CMSbbar}
\citation{ALICEDhpp}
\citation{lfpPb}
\@writefile{lof}{\contentsline {figure}{\numberline {3}{\ignorespaces Left: angular correlations of B-$\mathaccentV {bar}016{\rm  B}$ mesons measured by CMS in different ranges of the leading jet $p_{\rm  T}$ and compared to PYTHIA~\cite  {CMSbbar}. Right: D-h angular correlations measured by ALICE, compared to different PYTHIA tunes~\cite  {ALICEDhpp}.}}{3}{figure.3}}
\newlabel{HFcorrpp2}{{3}{3}{Left: angular correlations of B-$\bar {\rm B}$ mesons measured by CMS in different ranges of the leading jet $\pT $ and compared to PYTHIA~\cite {CMSbbar}. Right: D-h angular correlations measured by ALICE, compared to different PYTHIA tunes~\cite {ALICEDhpp}}{figure.3}{}}
\citation{ALICEDhpp}
\citation{lfpPb}
\citation{phenixdAu}
\citation{ehALICEpPb}
\citation{phenixdAu}
\citation{ehALICEpPb}
\citation{phenixehAu,aliceehPb}
\@writefile{lof}{\contentsline {figure}{\numberline {4}{\ignorespaces Heavy-flavour e-$\mu $ pair yield in pp and d+Au collisions from PHENIX~\cite  {phenixdAu}. $\Delta \eta $-$\Delta \varphi $ correlations of electrons from heavy-flavour decays and charged hadrons from ALICE in high-multiplicity p-Pb collisions~\cite  {ehALICEpPb}.}}{4}{figure.4}}
\newlabel{HFcorrpPb}{{4}{4}{Heavy-flavour e-$\mu $ pair yield in pp and d+Au collisions from PHENIX~\cite {phenixdAu}. $\Delta \eta $-$\Delta \varphi $ correlations of electrons from heavy-flavour decays and charged hadrons from ALICE in high-multiplicity p-Pb collisions~\cite {ehALICEpPb}}{figure.4}{}}
\citation{phenixehAu}
\citation{aliceDhPb}
\citation{phenixehAu}
\citation{aliceDhPb}
\bibcite{Iaa}{1}
\bibcite{Nahrgang}{2}
\bibcite{Cao}{3}
\bibcite{Uphoff}{4}
\bibcite{Renk}{5}
\bibcite{geo}{6}
\@writefile{lof}{\contentsline {figure}{\numberline {5}{\ignorespaces Left: ratio of yields in the away-side region ($2.51<\varphi <\pi $) to those in the shoulder region ($1.25<\varphi <2.51$) in pp and Au+Au collisions from PHENIX~\cite  {phenixehAu}. Right: relative uncertainty on the away-side yield in D-h correlations as a function of the charged hadron $p_{\rm  T}$ for three ranges of D-meson transverse momenta, with the ALICE and LHC upgrades~\cite  {aliceDhPb}.}}{5}{figure.5}}
\newlabel{HFcorrPb}{{5}{5}{Left: ratio of yields in the away-side region ($2.51<\varphi <\pi $) to those in the shoulder region ($1.25<\varphi <2.51$) in pp and Au+Au collisions from PHENIX~\cite {phenixehAu}. Right: relative uncertainty on the away-side yield in D-h correlations as a function of the charged hadron $\pT $ for three ranges of D-meson transverse momenta, with the ALICE and LHC upgrades~\cite {aliceDhPb}}{figure.5}{}}
\bibcite{cdf}{7}
\bibcite{phenix}{8}
\bibcite{LHCbcorrpp}{9}
\bibcite{ATLAScorrpp}{10}
\bibcite{CMSbbar}{11}
\bibcite{ALICEDhpp}{12}
\bibcite{lfpPb}{13}
\bibcite{phenixdAu}{14}
\bibcite{ehALICEpPb}{15}
\bibcite{phenixehAu}{16}
\bibcite{aliceehPb}{17}
\bibcite{aliceDhPb}{18}
