\relax 
\citation{RefB}
\citation{RefJ}
\bibcite{RefJ}{1}
\bibcite{RefB}{2}
\thanksnewlabel{addr1thanks}{{1}{1}}
\thanksnewlabel{addr2thanks}{{2}{1}}
\thanksnewlabel{addr3thanks}{{3}{1}}
\thanksnewlabel{e1thanks}{{a}{1}}
\@writefile{toc}{\contentsline {section}{\numberline {1}Introduction}{1}}
\newlabel{intro}{{1}{1}}
\@writefile{toc}{\contentsline {section}{\numberline {2}Section title}{1}}
\newlabel{sec:1}{{2}{1}}
\@writefile{toc}{\contentsline {subsection}{\numberline {2.1}Subsection title}{1}}
\newlabel{sec:2}{{2.1}{1}}
\@writefile{toc}{\contentsline {paragraph}{Paragraph headings}{1}}
\@writefile{lot}{\contentsline {table}{\numberline {1}{\ignorespaces Please write your table caption here}}{1}}
\newlabel{tab:1}{{1}{1}}
\@writefile{lof}{\contentsline {figure}{\numberline {1}{\ignorespaces Please write your figure caption here}}{1}}
\newlabel{fig:1}{{1}{1}}
\@writefile{lof}{\contentsline {figure}{\numberline {2}{\ignorespaces Please write your figure caption here}}{2}}
\newlabel{fig:2}{{2}{2}}
